<?xml version="1.0" encoding="UTF-8" standalone="no"?>
<!DOCTYPE svg PUBLIC "-//W3C//DTD SVG 1.1//EN"
 "http://www.w3.org/Graphics/SVG/1.1/DTD/svg11.dtd">
<!-- Generated by graphviz version 2.44.1 (0)
 -->
<!-- Title: aio.h Pages: 1 -->
<!--zoomable 364 -->
<svg id="main" version="1.1" xmlns="http://www.w3.org/2000/svg" xmlns:xlink="http://www.w3.org/1999/xlink" xml:space="preserve" onload="init(evt)">
<style type="text/css"><![CDATA[
.edge:hover path { stroke: red; }
.edge:hover polygon { stroke: red; fill: red; }
]]></style>
<script type="text/javascript"><![CDATA[
var edges = document.getElementsByTagName('g');
if (edges && edges.length) {
  for (var i=0;i<edges.length;i++) {
    if (edges[i].id.substr(0,4)=='edge') {
      edges[i].setAttribute('class','edge');
    }
  }
}
]]></script>
        <defs>
                <circle id="rim" cx="0" cy="0" r="7"/>
                <circle id="rim2" cx="0" cy="0" r="3.5"/>
                <g id="zoomPlus">
                        <use xlink:href="#rim" fill="#404040">
                                <set attributeName="fill" to="#808080" begin="zoomplus.mouseover" end="zoomplus.mouseout"/>
                        </use>
                        <path d="M-4,0h8M0,-4v8" fill="none" stroke="white" stroke-width="1.5" pointer-events="none"/>
                </g>
                <g id="zoomMin">
                        <use xlink:href="#rim" fill="#404040">
                                <set attributeName="fill" to="#808080" begin="zoomminus.mouseover" end="zoomminus.mouseout"/>
                        </use>
                        <path d="M-4,0h8" fill="none" stroke="white" stroke-width="1.5" pointer-events="none"/>
                </g>
                <g id="dirArrow">
                        <path fill="none" stroke="white" stroke-width="1.5" d="M0,-3.0v7 M-2.5,-0.5L0,-3.0L2.5,-0.5"/>
                </g>
               <g id="resetDef">
                       <use xlink:href="#rim2" fill="#404040">
                               <set attributeName="fill" to="#808080" begin="reset.mouseover" end="reset.mouseout"/>
                       </use>
               </g>
        </defs>

<script type="text/javascript">
var viewWidth = 984;
var viewHeight = 364;
var sectionId = 'dynsection-0';
</script>
<script xlink:href="svgpan.js"/>
<svg id="graph" class="graph">
<g id="viewport">
<title>aio.h</title>
<polygon fill="white" stroke="transparent" points="-4,4 -4,-360 979.5,-360 979.5,4 -4,4"/>
<!-- Node1 -->
<g id="node1" class="node">
<title>Node1</title>
<g id="a_node1"><a xlink:title=" ">
<polygon fill="#bfbfbf" stroke="black" points="678.5,-336.5 678.5,-355.5 719.5,-355.5 719.5,-336.5 678.5,-336.5"/>
<text text-anchor="middle" x="699" y="-343.5" font-family="Helvetica,sans-Serif" font-size="10.00">aio.h</text>
</a>
</g>
</g>
<!-- Node2 -->
<g id="node2" class="node">
<title>Node2</title>
<g id="a_node2"><a xlink:href="features_8h.html" target="_top" xlink:title=" ">
<polygon fill="white" stroke="black" points="102,-112.5 102,-131.5 168,-131.5 168,-112.5 102,-112.5"/>
<text text-anchor="middle" x="135" y="-119.5" font-family="Helvetica,sans-Serif" font-size="10.00">features.h</text>
</a>
</g>
</g>
<!-- Node1&#45;&gt;Node2 -->
<g id="edge1" class="edge">
<title>Node1&#45;&gt;Node2</title>
<path fill="none" stroke="midnightblue" d="M678.25,-345.3C576.05,-346.31 127.89,-344.85 46,-244 33.52,-228.63 42.46,-190.58 59,-168 69.48,-153.69 86,-143.13 100.97,-135.84"/>
<polygon fill="midnightblue" stroke="midnightblue" points="102.84,-138.84 110.5,-131.52 99.95,-132.46 102.84,-138.84"/>
</g>
<!-- Node9 -->
<g id="node9" class="node">
<title>Node9</title>
<g id="a_node9"><a xlink:href="sys_2types_8h.html" target="_top" xlink:title=" ">
<polygon fill="white" stroke="black" points="322,-280.5 322,-299.5 394,-299.5 394,-280.5 322,-280.5"/>
<text text-anchor="middle" x="358" y="-287.5" font-family="Helvetica,sans-Serif" font-size="10.00">sys/types.h</text>
</a>
</g>
</g>
<!-- Node1&#45;&gt;Node9 -->
<g id="edge9" class="edge">
<title>Node1&#45;&gt;Node9</title>
<path fill="none" stroke="midnightblue" d="M678.44,-341.74C624.73,-333.24 479.24,-310.2 404.18,-298.31"/>
<polygon fill="midnightblue" stroke="midnightblue" points="404.5,-294.82 394.07,-296.71 403.4,-301.73 404.5,-294.82"/>
</g>
<!-- Node19 -->
<g id="node19" class="node">
<title>Node19</title>
<g id="a_node19"><a xlink:href="sigevent__t_8h.html" target="_top" xlink:title=" ">
<polygon fill="white" stroke="black" points="825,-224.5 825,-243.5 953,-243.5 953,-224.5 825,-224.5"/>
<text text-anchor="middle" x="889" y="-231.5" font-family="Helvetica,sans-Serif" font-size="10.00">bits/types/sigevent_t.h</text>
</a>
</g>
</g>
<!-- Node1&#45;&gt;Node19 -->
<g id="edge26" class="edge">
<title>Node1&#45;&gt;Node19</title>
<path fill="none" stroke="midnightblue" d="M716.57,-336.47C734.31,-327.72 762.39,-313.52 786,-300 814.8,-283.5 847,-262.8 867.61,-249.25"/>
<polygon fill="midnightblue" stroke="midnightblue" points="869.8,-252 876.21,-243.57 865.94,-246.16 869.8,-252"/>
</g>
<!-- Node21 -->
<g id="node21" class="node">
<title>Node21</title>
<g id="a_node21"><a xlink:href="sigevent-consts_8h.html" target="_top" xlink:title=" ">
<polygon fill="white" stroke="black" points="833,-280.5 833,-299.5 957,-299.5 957,-280.5 833,-280.5"/>
<text text-anchor="middle" x="895" y="-287.5" font-family="Helvetica,sans-Serif" font-size="10.00">bits/sigevent&#45;consts.h</text>
</a>
</g>
</g>
<!-- Node1&#45;&gt;Node21 -->
<g id="edge30" class="edge">
<title>Node1&#45;&gt;Node21</title>
<path fill="none" stroke="midnightblue" d="M719.6,-339.32C751.48,-330.54 813.33,-313.5 854.4,-302.18"/>
<polygon fill="midnightblue" stroke="midnightblue" points="855.4,-305.54 864.11,-299.51 853.54,-298.79 855.4,-305.54"/>
</g>
<!-- Node22 -->
<g id="node22" class="node">
<title>Node22</title>
<g id="a_node22"><a xlink:href="struct__timespec_8h.html" target="_top" xlink:title=" ">
<polygon fill="white" stroke="black" points="621.5,-280.5 621.5,-299.5 776.5,-299.5 776.5,-280.5 621.5,-280.5"/>
<text text-anchor="middle" x="699" y="-287.5" font-family="Helvetica,sans-Serif" font-size="10.00">bits/types/struct_timespec.h</text>
</a>
</g>
</g>
<!-- Node1&#45;&gt;Node22 -->
<g id="edge31" class="edge">
<title>Node1&#45;&gt;Node22</title>
<path fill="none" stroke="midnightblue" d="M699,-336.08C699,-329.01 699,-318.86 699,-309.99"/>
<polygon fill="midnightblue" stroke="midnightblue" points="702.5,-309.75 699,-299.75 695.5,-309.75 702.5,-309.75"/>
</g>
<!-- Node3 -->
<g id="node3" class="node">
<title>Node3</title>
<g id="a_node3"><a xlink:href="stdc-predef_8h.html" target="_top" xlink:title=" ">
<polygon fill="white" stroke="black" points="0,-56.5 0,-75.5 80,-75.5 80,-56.5 0,-56.5"/>
<text text-anchor="middle" x="40" y="-63.5" font-family="Helvetica,sans-Serif" font-size="10.00">stdc&#45;predef.h</text>
</a>
</g>
</g>
<!-- Node2&#45;&gt;Node3 -->
<g id="edge2" class="edge">
<title>Node2&#45;&gt;Node3</title>
<path fill="none" stroke="midnightblue" d="M119.74,-112.32C104.78,-103.82 81.75,-90.73 64.27,-80.8"/>
<polygon fill="midnightblue" stroke="midnightblue" points="65.65,-77.55 55.23,-75.65 62.19,-83.64 65.65,-77.55"/>
</g>
<!-- Node4 -->
<g id="node4" class="node">
<title>Node4</title>
<g id="a_node4"><a xlink:href="cdefs_8h.html" target="_top" xlink:title=" ">
<polygon fill="white" stroke="black" points="196.5,-56.5 196.5,-75.5 267.5,-75.5 267.5,-56.5 196.5,-56.5"/>
<text text-anchor="middle" x="232" y="-63.5" font-family="Helvetica,sans-Serif" font-size="10.00">sys/cdefs.h</text>
</a>
</g>
</g>
<!-- Node2&#45;&gt;Node4 -->
<g id="edge3" class="edge">
<title>Node2&#45;&gt;Node4</title>
<path fill="none" stroke="midnightblue" d="M145.47,-112.32C159.15,-103.66 183,-90.24 202.3,-80.25"/>
<polygon fill="midnightblue" stroke="midnightblue" points="204.01,-83.3 211.34,-75.65 200.84,-77.06 204.01,-83.3"/>
</g>
<!-- Node7 -->
<g id="node7" class="node">
<title>Node7</title>
<g id="a_node7"><a xlink:href="stubs_8h.html" target="_top" xlink:title=" ">
<polygon fill="white" stroke="black" points="98.5,-56.5 98.5,-75.5 171.5,-75.5 171.5,-56.5 98.5,-56.5"/>
<text text-anchor="middle" x="135" y="-63.5" font-family="Helvetica,sans-Serif" font-size="10.00">gnu/stubs.h</text>
</a>
</g>
</g>
<!-- Node2&#45;&gt;Node7 -->
<g id="edge7" class="edge">
<title>Node2&#45;&gt;Node7</title>
<path fill="none" stroke="midnightblue" d="M135,-112.08C135,-105.01 135,-94.86 135,-85.99"/>
<polygon fill="midnightblue" stroke="midnightblue" points="138.5,-85.75 135,-75.75 131.5,-85.75 138.5,-85.75"/>
</g>
<!-- Node4&#45;&gt;Node2 -->
<g id="edge4" class="edge">
<title>Node4&#45;&gt;Node2</title>
<path fill="none" stroke="midnightblue" d="M221.56,-75.65C207.9,-84.31 184.06,-97.73 164.75,-107.73"/>
<polygon fill="midnightblue" stroke="midnightblue" points="163.03,-104.67 155.7,-112.32 166.2,-110.91 163.03,-104.67"/>
</g>
<!-- Node5 -->
<g id="node5" class="node">
<title>Node5</title>
<g id="a_node5"><a xlink:href="wordsize_8h.html" target="_top" xlink:title=" ">
<polygon fill="white" stroke="black" points="521,-0.5 521,-19.5 611,-19.5 611,-0.5 521,-0.5"/>
<text text-anchor="middle" x="566" y="-7.5" font-family="Helvetica,sans-Serif" font-size="10.00">bits/wordsize.h</text>
</a>
</g>
</g>
<!-- Node4&#45;&gt;Node5 -->
<g id="edge5" class="edge">
<title>Node4&#45;&gt;Node5</title>
<path fill="none" stroke="midnightblue" d="M267.74,-59.22C326.01,-49.8 441.86,-31.07 510.77,-19.93"/>
<polygon fill="midnightblue" stroke="midnightblue" points="511.69,-23.33 521,-18.28 510.57,-16.42 511.69,-23.33"/>
</g>
<!-- Node6 -->
<g id="node6" class="node">
<title>Node6</title>
<g id="a_node6"><a xlink:href="long-double_8h.html" target="_top" xlink:title=" ">
<polygon fill="white" stroke="black" points="192,-0.5 192,-19.5 296,-19.5 296,-0.5 192,-0.5"/>
<text text-anchor="middle" x="244" y="-7.5" font-family="Helvetica,sans-Serif" font-size="10.00">bits/long&#45;double.h</text>
</a>
</g>
</g>
<!-- Node4&#45;&gt;Node6 -->
<g id="edge6" class="edge">
<title>Node4&#45;&gt;Node6</title>
<path fill="none" stroke="midnightblue" d="M233.98,-56.08C235.57,-48.93 237.86,-38.64 239.85,-29.69"/>
<polygon fill="midnightblue" stroke="midnightblue" points="243.3,-30.27 242.06,-19.75 236.47,-28.75 243.3,-30.27"/>
</g>
<!-- Node8 -->
<g id="node8" class="node">
<title>Node8</title>
<g id="a_node8"><a xlink:title=" ">
<polygon fill="white" stroke="#bfbfbf" points="84.5,-0.5 84.5,-19.5 173.5,-19.5 173.5,-0.5 84.5,-0.5"/>
<text text-anchor="middle" x="129" y="-7.5" font-family="Helvetica,sans-Serif" font-size="10.00">gnu/stubs&#45;32.h</text>
</a>
</g>
</g>
<!-- Node7&#45;&gt;Node8 -->
<g id="edge8" class="edge">
<title>Node7&#45;&gt;Node8</title>
<path fill="none" stroke="midnightblue" d="M134.01,-56.08C133.21,-48.93 132.07,-38.64 131.08,-29.69"/>
<polygon fill="midnightblue" stroke="midnightblue" points="134.56,-29.3 129.97,-19.75 127.6,-30.08 134.56,-29.3"/>
</g>
<!-- Node9&#45;&gt;Node2 -->
<g id="edge10" class="edge">
<title>Node9&#45;&gt;Node2</title>
<path fill="none" stroke="midnightblue" d="M321.84,-289.19C249.64,-288.71 91.68,-283.11 58,-244 28,-209.16 81.33,-161.63 113.39,-137.84"/>
<polygon fill="midnightblue" stroke="midnightblue" points="115.72,-140.48 121.79,-131.79 111.63,-134.8 115.72,-140.48"/>
</g>
<!-- Node10 -->
<g id="node10" class="node">
<title>Node10</title>
<g id="a_node10"><a xlink:href="bits_2types_8h.html" target="_top" xlink:title=" ">
<polygon fill="white" stroke="black" points="404,-168.5 404,-187.5 478,-187.5 478,-168.5 404,-168.5"/>
<text text-anchor="middle" x="441" y="-175.5" font-family="Helvetica,sans-Serif" font-size="10.00">bits/types.h</text>
</a>
</g>
</g>
<!-- Node9&#45;&gt;Node10 -->
<g id="edge11" class="edge">
<title>Node9&#45;&gt;Node10</title>
<path fill="none" stroke="midnightblue" d="M364.51,-280.37C378.27,-262.14 410.5,-219.43 428.42,-195.68"/>
<polygon fill="midnightblue" stroke="midnightblue" points="431.29,-197.68 434.52,-187.59 425.7,-193.47 431.29,-197.68"/>
</g>
<!-- Node14 -->
<g id="node14" class="node">
<title>Node14</title>
<g id="a_node14"><a xlink:href="clockid__t_8h.html" target="_top" xlink:title=" ">
<polygon fill="white" stroke="black" points="425,-224.5 425,-243.5 545,-243.5 545,-224.5 425,-224.5"/>
<text text-anchor="middle" x="485" y="-231.5" font-family="Helvetica,sans-Serif" font-size="10.00">bits/types/clockid_t.h</text>
</a>
</g>
</g>
<!-- Node9&#45;&gt;Node14 -->
<g id="edge17" class="edge">
<title>Node9&#45;&gt;Node14</title>
<path fill="none" stroke="midnightblue" d="M378.12,-280.44C399.02,-271.56 431.93,-257.56 455.72,-247.45"/>
<polygon fill="midnightblue" stroke="midnightblue" points="457.14,-250.65 464.97,-243.52 454.4,-244.21 457.14,-250.65"/>
</g>
<!-- Node15 -->
<g id="node15" class="node">
<title>Node15</title>
<g id="a_node15"><a xlink:href="time__t_8h.html" target="_top" xlink:title=" ">
<polygon fill="white" stroke="black" points="563,-224.5 563,-243.5 671,-243.5 671,-224.5 563,-224.5"/>
<text text-anchor="middle" x="617" y="-231.5" font-family="Helvetica,sans-Serif" font-size="10.00">bits/types/time_t.h</text>
</a>
</g>
</g>
<!-- Node9&#45;&gt;Node15 -->
<g id="edge19" class="edge">
<title>Node9&#45;&gt;Node15</title>
<path fill="none" stroke="midnightblue" d="M394.01,-281.49C438.75,-272.16 515.35,-256.19 566.08,-245.62"/>
<polygon fill="midnightblue" stroke="midnightblue" points="567.1,-248.98 576.17,-243.51 565.67,-242.13 567.1,-248.98"/>
</g>
<!-- Node16 -->
<g id="node16" class="node">
<title>Node16</title>
<g id="a_node16"><a xlink:href="timer__t_8h.html" target="_top" xlink:title=" ">
<polygon fill="white" stroke="black" points="141,-224.5 141,-243.5 253,-243.5 253,-224.5 141,-224.5"/>
<text text-anchor="middle" x="197" y="-231.5" font-family="Helvetica,sans-Serif" font-size="10.00">bits/types/timer_t.h</text>
</a>
</g>
</g>
<!-- Node9&#45;&gt;Node16 -->
<g id="edge21" class="edge">
<title>Node9&#45;&gt;Node16</title>
<path fill="none" stroke="midnightblue" d="M332.49,-280.44C305.4,-271.36 262.41,-256.94 232.13,-246.78"/>
<polygon fill="midnightblue" stroke="midnightblue" points="232.99,-243.38 222.39,-243.52 230.76,-250.01 232.99,-243.38"/>
</g>
<!-- Node17 -->
<g id="node17" class="node">
<title>Node17</title>
<g id="a_node17"><a xlink:title=" ">
<polygon fill="white" stroke="#bfbfbf" points="67,-224.5 67,-243.5 123,-243.5 123,-224.5 67,-224.5"/>
<text text-anchor="middle" x="95" y="-231.5" font-family="Helvetica,sans-Serif" font-size="10.00">stddef.h</text>
</a>
</g>
</g>
<!-- Node9&#45;&gt;Node17 -->
<g id="edge23" class="edge">
<title>Node9&#45;&gt;Node17</title>
<path fill="none" stroke="midnightblue" d="M321.89,-282.3C279.2,-274.26 205.77,-260.11 133.45,-244.25"/>
<polygon fill="midnightblue" stroke="midnightblue" points="133.77,-240.74 123.25,-242 132.26,-247.57 133.77,-240.74"/>
</g>
<!-- Node18 -->
<g id="node18" class="node">
<title>Node18</title>
<g id="a_node18"><a xlink:href="stdint-intn_8h.html" target="_top" xlink:title=" ">
<polygon fill="white" stroke="black" points="271.5,-224.5 271.5,-243.5 368.5,-243.5 368.5,-224.5 271.5,-224.5"/>
<text text-anchor="middle" x="320" y="-231.5" font-family="Helvetica,sans-Serif" font-size="10.00">bits/stdint&#45;intn.h</text>
</a>
</g>
</g>
<!-- Node9&#45;&gt;Node18 -->
<g id="edge24" class="edge">
<title>Node9&#45;&gt;Node18</title>
<path fill="none" stroke="midnightblue" d="M351.73,-280.08C346.36,-272.46 338.48,-261.26 331.92,-251.94"/>
<polygon fill="midnightblue" stroke="midnightblue" points="334.78,-249.91 326.16,-243.75 329.05,-253.94 334.78,-249.91"/>
</g>
<!-- Node10&#45;&gt;Node2 -->
<g id="edge12" class="edge">
<title>Node10&#45;&gt;Node2</title>
<path fill="none" stroke="midnightblue" d="M403.78,-170.43C346.87,-160.39 238.48,-141.26 178.19,-130.62"/>
<polygon fill="midnightblue" stroke="midnightblue" points="178.68,-127.15 168.22,-128.86 177.46,-134.05 178.68,-127.15"/>
</g>
<!-- Node10&#45;&gt;Node5 -->
<g id="edge13" class="edge">
<title>Node10&#45;&gt;Node5</title>
<path fill="none" stroke="midnightblue" d="M478.01,-170.74C501.4,-164.8 530.28,-153.44 547,-132 570.24,-102.21 570.37,-55.47 568.28,-29.67"/>
<polygon fill="midnightblue" stroke="midnightblue" points="571.76,-29.31 567.27,-19.72 564.8,-30.02 571.76,-29.31"/>
</g>
<!-- Node11 -->
<g id="node11" class="node">
<title>Node11</title>
<g id="a_node11"><a xlink:href="timesize_8h.html" target="_top" xlink:title=" ">
<polygon fill="white" stroke="black" points="448.5,-112.5 448.5,-131.5 537.5,-131.5 537.5,-112.5 448.5,-112.5"/>
<text text-anchor="middle" x="493" y="-119.5" font-family="Helvetica,sans-Serif" font-size="10.00">bits/timesize.h</text>
</a>
</g>
</g>
<!-- Node10&#45;&gt;Node11 -->
<g id="edge14" class="edge">
<title>Node10&#45;&gt;Node11</title>
<path fill="none" stroke="midnightblue" d="M449.59,-168.08C457.16,-160.22 468.38,-148.57 477.51,-139.08"/>
<polygon fill="midnightblue" stroke="midnightblue" points="480.16,-141.38 484.57,-131.75 475.12,-136.53 480.16,-141.38"/>
</g>
<!-- Node12 -->
<g id="node12" class="node">
<title>Node12</title>
<g id="a_node12"><a xlink:href="typesizes_8h.html" target="_top" xlink:title=" ">
<polygon fill="white" stroke="black" points="238.5,-112.5 238.5,-131.5 331.5,-131.5 331.5,-112.5 238.5,-112.5"/>
<text text-anchor="middle" x="285" y="-119.5" font-family="Helvetica,sans-Serif" font-size="10.00">bits/typesizes.h</text>
</a>
</g>
</g>
<!-- Node10&#45;&gt;Node12 -->
<g id="edge15" class="edge">
<title>Node10&#45;&gt;Node12</title>
<path fill="none" stroke="midnightblue" d="M416.28,-168.44C390.15,-159.4 348.74,-145.06 319.42,-134.92"/>
<polygon fill="midnightblue" stroke="midnightblue" points="320.2,-131.48 309.6,-131.52 317.91,-138.1 320.2,-131.48"/>
</g>
<!-- Node13 -->
<g id="node13" class="node">
<title>Node13</title>
<g id="a_node13"><a xlink:href="time64_8h.html" target="_top" xlink:title=" ">
<polygon fill="white" stroke="black" points="349.5,-112.5 349.5,-131.5 430.5,-131.5 430.5,-112.5 349.5,-112.5"/>
<text text-anchor="middle" x="390" y="-119.5" font-family="Helvetica,sans-Serif" font-size="10.00">bits/time64.h</text>
</a>
</g>
</g>
<!-- Node10&#45;&gt;Node13 -->
<g id="edge16" class="edge">
<title>Node10&#45;&gt;Node13</title>
<path fill="none" stroke="midnightblue" d="M432.58,-168.08C425.15,-160.22 414.15,-148.57 405.19,-139.08"/>
<polygon fill="midnightblue" stroke="midnightblue" points="407.68,-136.62 398.26,-131.75 402.59,-141.42 407.68,-136.62"/>
</g>
<!-- Node14&#45;&gt;Node10 -->
<g id="edge18" class="edge">
<title>Node14&#45;&gt;Node10</title>
<path fill="none" stroke="midnightblue" d="M477.73,-224.08C471.46,-216.38 462.21,-205.03 454.57,-195.65"/>
<polygon fill="midnightblue" stroke="midnightblue" points="457.16,-193.29 448.13,-187.75 451.73,-197.71 457.16,-193.29"/>
</g>
<!-- Node15&#45;&gt;Node10 -->
<g id="edge20" class="edge">
<title>Node15&#45;&gt;Node10</title>
<path fill="none" stroke="midnightblue" d="M589.11,-224.44C559.25,-215.28 511.69,-200.69 478.54,-190.52"/>
<polygon fill="midnightblue" stroke="midnightblue" points="479.34,-187.1 468.76,-187.52 477.29,-193.8 479.34,-187.1"/>
</g>
<!-- Node16&#45;&gt;Node10 -->
<g id="edge22" class="edge">
<title>Node16&#45;&gt;Node10</title>
<path fill="none" stroke="midnightblue" d="M235.66,-224.44C278.51,-214.96 347.64,-199.66 393.69,-189.47"/>
<polygon fill="midnightblue" stroke="midnightblue" points="394.71,-192.83 403.72,-187.25 393.2,-185.99 394.71,-192.83"/>
</g>
<!-- Node18&#45;&gt;Node10 -->
<g id="edge25" class="edge">
<title>Node18&#45;&gt;Node10</title>
<path fill="none" stroke="midnightblue" d="M339.17,-224.44C358.91,-215.64 389.89,-201.81 412.49,-191.72"/>
<polygon fill="midnightblue" stroke="midnightblue" points="414.21,-194.79 421.92,-187.52 411.36,-188.4 414.21,-194.79"/>
</g>
<!-- Node19&#45;&gt;Node5 -->
<g id="edge27" class="edge">
<title>Node19&#45;&gt;Node5</title>
<path fill="none" stroke="midnightblue" d="M878.03,-224.36C861.84,-211.69 830.49,-187.47 803,-168 725.48,-113.11 630.58,-52.02 588.24,-25.08"/>
<polygon fill="midnightblue" stroke="midnightblue" points="589.88,-21.97 579.56,-19.56 586.12,-27.88 589.88,-21.97"/>
</g>
<!-- Node19&#45;&gt;Node10 -->
<g id="edge28" class="edge">
<title>Node19&#45;&gt;Node10</title>
<path fill="none" stroke="midnightblue" d="M824.91,-225.09C821.9,-224.72 818.92,-224.35 816,-224 698.12,-209.66 559.36,-193.09 488.25,-184.62"/>
<polygon fill="midnightblue" stroke="midnightblue" points="488.61,-181.14 478.26,-183.43 487.78,-188.09 488.61,-181.14"/>
</g>
<!-- Node20 -->
<g id="node20" class="node">
<title>Node20</title>
<g id="a_node20"><a xlink:href="____sigval__t_8h.html" target="_top" xlink:title=" ">
<polygon fill="white" stroke="black" points="850.5,-168.5 850.5,-187.5 975.5,-187.5 975.5,-168.5 850.5,-168.5"/>
<text text-anchor="middle" x="913" y="-175.5" font-family="Helvetica,sans-Serif" font-size="10.00">bits/types/__sigval_t.h</text>
</a>
</g>
</g>
<!-- Node19&#45;&gt;Node20 -->
<g id="edge29" class="edge">
<title>Node19&#45;&gt;Node20</title>
<path fill="none" stroke="midnightblue" d="M892.96,-224.08C896.21,-216.77 900.92,-206.18 904.95,-197.1"/>
<polygon fill="midnightblue" stroke="midnightblue" points="908.25,-198.31 909.11,-187.75 901.85,-195.47 908.25,-198.31"/>
</g>
<!-- Node22&#45;&gt;Node10 -->
<g id="edge32" class="edge">
<title>Node22&#45;&gt;Node10</title>
<path fill="none" stroke="midnightblue" d="M699.15,-280.37C698.89,-266.34 696.2,-238.68 680,-224 652.5,-199.07 550.03,-187.16 488.55,-182.14"/>
<polygon fill="midnightblue" stroke="midnightblue" points="488.55,-178.63 478.31,-181.34 488.01,-185.61 488.55,-178.63"/>
</g>
<!-- Node23 -->
<g id="node23" class="node">
<title>Node23</title>
<g id="a_node23"><a xlink:href="bits_2endian_8h.html" target="_top" xlink:title=" ">
<polygon fill="white" stroke="black" points="727,-224.5 727,-243.5 807,-243.5 807,-224.5 727,-224.5"/>
<text text-anchor="middle" x="767" y="-231.5" font-family="Helvetica,sans-Serif" font-size="10.00">bits/endian.h</text>
</a>
</g>
</g>
<!-- Node22&#45;&gt;Node23 -->
<g id="edge33" class="edge">
<title>Node22&#45;&gt;Node23</title>
<path fill="none" stroke="midnightblue" d="M709.93,-280.32C720.17,-272.18 735.72,-259.84 748,-250.09"/>
<polygon fill="midnightblue" stroke="midnightblue" points="750.22,-252.79 755.88,-243.83 745.87,-247.31 750.22,-252.79"/>
</g>
<!-- Node24 -->
<g id="node24" class="node">
<title>Node24</title>
<g id="a_node24"><a xlink:href="endianness_8h.html" target="_top" xlink:title=" ">
<polygon fill="white" stroke="black" points="692,-168.5 692,-187.5 794,-187.5 794,-168.5 692,-168.5"/>
<text text-anchor="middle" x="743" y="-175.5" font-family="Helvetica,sans-Serif" font-size="10.00">bits/endianness.h</text>
</a>
</g>
</g>
<!-- Node23&#45;&gt;Node24 -->
<g id="edge34" class="edge">
<title>Node23&#45;&gt;Node24</title>
<path fill="none" stroke="midnightblue" d="M763.04,-224.08C759.79,-216.77 755.08,-206.18 751.05,-197.1"/>
<polygon fill="midnightblue" stroke="midnightblue" points="754.15,-195.47 746.89,-187.75 747.75,-198.31 754.15,-195.47"/>
</g>
</g>
</svg>
        <g id="navigator" transform="translate(0 0)" fill="#404254">
                <rect fill="#f2f5e9" fill-opacity="0.5" stroke="#606060" stroke-width=".5" x="0" y="0" width="60" height="60"/>
                <use id="zoomplus" xlink:href="#zoomPlus" x="17" y="9" onmousedown="handleZoom(evt,'in')"/>
                <use id="zoomminus" xlink:href="#zoomMin" x="42" y="9" onmousedown="handleZoom(evt,'out')"/>
                <use id="reset" xlink:href="#resetDef" x="30" y="36" onmousedown="handleReset()"/>
                <g id="arrowUp" xlink:href="#dirArrow" transform="translate(30 24)" onmousedown="handlePan(0,-1)">
                  <use xlink:href="#rim" fill="#404040">
                        <set attributeName="fill" to="#808080" begin="arrowUp.mouseover" end="arrowUp.mouseout"/>
                  </use>
                  <path fill="none" stroke="white" stroke-width="1.5" d="M0,-3.0v7 M-2.5,-0.5L0,-3.0L2.5,-0.5"/>
                </g>
                <g id="arrowRight" xlink:href="#dirArrow" transform="rotate(90) translate(36 -43)" onmousedown="handlePan(1,0)">
                  <use xlink:href="#rim" fill="#404040">
                        <set attributeName="fill" to="#808080" begin="arrowRight.mouseover" end="arrowRight.mouseout"/>
                  </use>
                  <path fill="none" stroke="white" stroke-width="1.5" d="M0,-3.0v7 M-2.5,-0.5L0,-3.0L2.5,-0.5"/>
                </g>
                <g id="arrowDown" xlink:href="#dirArrow" transform="rotate(180) translate(-30 -48)" onmousedown="handlePan(0,1)">
                  <use xlink:href="#rim" fill="#404040">
                        <set attributeName="fill" to="#808080" begin="arrowDown.mouseover" end="arrowDown.mouseout"/>
                  </use>
                  <path fill="none" stroke="white" stroke-width="1.5" d="M0,-3.0v7 M-2.5,-0.5L0,-3.0L2.5,-0.5"/>
                </g>
                <g id="arrowLeft" xlink:href="#dirArrow" transform="rotate(270) translate(-36 17)" onmousedown="handlePan(-1,0)">
                  <use xlink:href="#rim" fill="#404040">
                        <set attributeName="fill" to="#808080" begin="arrowLeft.mouseover" end="arrowLeft.mouseout"/>
                  </use>
                  <path fill="none" stroke="white" stroke-width="1.5" d="M0,-3.0v7 M-2.5,-0.5L0,-3.0L2.5,-0.5"/>
                </g>
        </g>
        <svg viewBox="0 0 15 15" width="100%" height="30px" preserveAspectRatio="xMaxYMin meet">
         <g id="arrow_out" transform="scale(0.3 0.3)">
          <a xlink:href="aio_8h__incl_org.svg" target="_base">
           <rect id="button" ry="5" rx="5" y="6" x="6" height="38" width="38"
                fill="#f2f5e9" fill-opacity="0.5" stroke="#606060" stroke-width="1.0"/>
           <path id="arrow"
             d="M 11.500037,31.436501 C 11.940474,20.09759 22.043105,11.32322 32.158766,21.979434 L 37.068811,17.246167 C 37.068811,17.246167 37.088388,32 37.088388,32 L 22.160133,31.978069 C 22.160133,31.978069 26.997745,27.140456 26.997745,27.140456 C 18.528582,18.264221 13.291696,25.230495 11.500037,31.436501 z"
             style="fill:#404040;"/>
          </a>
         </g>
        </svg>
</svg>
