<?xml version="1.0" encoding="UTF-8" standalone="no"?>
<!DOCTYPE svg PUBLIC "-//W3C//DTD SVG 1.1//EN"
 "http://www.w3.org/Graphics/SVG/1.1/DTD/svg11.dtd">
<!-- Generated by graphviz version 2.44.1 (0)
 -->
<!-- Title: netatalk/at.h Pages: 1 -->
<svg width="845pt" height="476pt"
 viewBox="0.00 0.00 844.50 476.00" xmlns="http://www.w3.org/2000/svg" xmlns:xlink="http://www.w3.org/1999/xlink">
<g id="graph0" class="graph" transform="scale(1 1) rotate(0) translate(4 472)">
<title>netatalk/at.h</title>
<polygon fill="white" stroke="transparent" points="-4,4 -4,-472 840.5,-472 840.5,4 -4,4"/>
<!-- Node1 -->
<g id="node1" class="node">
<title>Node1</title>
<g id="a_node1"><a xlink:title=" ">
<polygon fill="#bfbfbf" stroke="black" points="235,-448.5 235,-467.5 314,-467.5 314,-448.5 235,-448.5"/>
<text text-anchor="middle" x="274.5" y="-455.5" font-family="Helvetica,sans-Serif" font-size="10.00">netatalk/at.h</text>
</a>
</g>
</g>
<!-- Node2 -->
<g id="node2" class="node">
<title>Node2</title>
<g id="a_node2"><a xlink:title=" ">
<polygon fill="white" stroke="#bfbfbf" points="136,-392.5 136,-411.5 213,-411.5 213,-392.5 136,-392.5"/>
<text text-anchor="middle" x="174.5" y="-399.5" font-family="Helvetica,sans-Serif" font-size="10.00">asm/types.h</text>
</a>
</g>
</g>
<!-- Node1&#45;&gt;Node2 -->
<g id="edge1" class="edge">
<title>Node1&#45;&gt;Node2</title>
<path fill="none" stroke="midnightblue" d="M258.43,-448.32C242.54,-439.74 217.99,-426.49 199.54,-416.52"/>
<polygon fill="midnightblue" stroke="midnightblue" points="200.99,-413.33 190.53,-411.65 197.66,-419.49 200.99,-413.33"/>
</g>
<!-- Node3 -->
<g id="node3" class="node">
<title>Node3</title>
<g id="a_node3"><a xlink:href="sockaddr_8h.html" target="_top" xlink:title=" ">
<polygon fill="white" stroke="black" points="0,-280.5 0,-299.5 89,-299.5 89,-280.5 0,-280.5"/>
<text text-anchor="middle" x="44.5" y="-287.5" font-family="Helvetica,sans-Serif" font-size="10.00">bits/sockaddr.h</text>
</a>
</g>
</g>
<!-- Node1&#45;&gt;Node3 -->
<g id="edge2" class="edge">
<title>Node1&#45;&gt;Node3</title>
<path fill="none" stroke="midnightblue" d="M268.84,-448.14C259.98,-434.75 241.72,-409.13 221.5,-392 175.03,-352.65 111.03,-320.55 74.09,-303.75"/>
<polygon fill="midnightblue" stroke="midnightblue" points="75.42,-300.51 64.86,-299.62 72.56,-306.9 75.42,-300.51"/>
</g>
<!-- Node4 -->
<g id="node4" class="node">
<title>Node4</title>
<g id="a_node4"><a xlink:title=" ">
<polygon fill="white" stroke="#bfbfbf" points="270,-392.5 270,-411.5 347,-411.5 347,-392.5 270,-392.5"/>
<text text-anchor="middle" x="308.5" y="-399.5" font-family="Helvetica,sans-Serif" font-size="10.00">linux/atalk.h</text>
</a>
</g>
</g>
<!-- Node1&#45;&gt;Node4 -->
<g id="edge3" class="edge">
<title>Node1&#45;&gt;Node4</title>
<path fill="none" stroke="midnightblue" d="M280.11,-448.08C284.87,-440.53 291.82,-429.49 297.65,-420.23"/>
<polygon fill="midnightblue" stroke="midnightblue" points="300.62,-422.08 302.99,-411.75 294.7,-418.35 300.62,-422.08"/>
</g>
<!-- Node5 -->
<g id="node5" class="node">
<title>Node5</title>
<g id="a_node5"><a xlink:href="sys_2socket_8h.html" target="_top" xlink:title=" ">
<polygon fill="white" stroke="black" points="629,-392.5 629,-411.5 706,-411.5 706,-392.5 629,-392.5"/>
<text text-anchor="middle" x="667.5" y="-399.5" font-family="Helvetica,sans-Serif" font-size="10.00">sys/socket.h</text>
</a>
</g>
</g>
<!-- Node1&#45;&gt;Node5 -->
<g id="edge4" class="edge">
<title>Node1&#45;&gt;Node5</title>
<path fill="none" stroke="midnightblue" d="M314.35,-451.53C386.81,-441.57 539.92,-420.53 618.58,-409.72"/>
<polygon fill="midnightblue" stroke="midnightblue" points="619.28,-413.16 628.71,-408.33 618.33,-406.22 619.28,-413.16"/>
</g>
<!-- Node6 -->
<g id="node6" class="node">
<title>Node6</title>
<g id="a_node6"><a xlink:href="features_8h.html" target="_top" xlink:title=" ">
<polygon fill="white" stroke="black" points="668.5,-112.5 668.5,-131.5 734.5,-131.5 734.5,-112.5 668.5,-112.5"/>
<text text-anchor="middle" x="701.5" y="-119.5" font-family="Helvetica,sans-Serif" font-size="10.00">features.h</text>
</a>
</g>
</g>
<!-- Node5&#45;&gt;Node6 -->
<g id="edge5" class="edge">
<title>Node5&#45;&gt;Node6</title>
<path fill="none" stroke="midnightblue" d="M700.35,-392.46C743.95,-378.91 815.5,-347.99 815.5,-291 815.5,-291 815.5,-291 815.5,-233 815.5,-186.11 764.95,-152.89 731.17,-135.93"/>
<polygon fill="midnightblue" stroke="midnightblue" points="732.67,-132.77 722.14,-131.58 729.63,-139.07 732.67,-132.77"/>
</g>
<!-- Node13 -->
<g id="node13" class="node">
<title>Node13</title>
<g id="a_node13"><a xlink:href="struct__iovec_8h.html" target="_top" xlink:title=" ">
<polygon fill="white" stroke="black" points="599.5,-336.5 599.5,-355.5 735.5,-355.5 735.5,-336.5 599.5,-336.5"/>
<text text-anchor="middle" x="667.5" y="-343.5" font-family="Helvetica,sans-Serif" font-size="10.00">bits/types/struct_iovec.h</text>
</a>
</g>
</g>
<!-- Node5&#45;&gt;Node13 -->
<g id="edge13" class="edge">
<title>Node5&#45;&gt;Node13</title>
<path fill="none" stroke="midnightblue" d="M667.5,-392.08C667.5,-385.01 667.5,-374.86 667.5,-365.99"/>
<polygon fill="midnightblue" stroke="midnightblue" points="671,-365.75 667.5,-355.75 664,-365.75 671,-365.75"/>
</g>
<!-- Node14 -->
<g id="node14" class="node">
<title>Node14</title>
<g id="a_node14"><a xlink:title=" ">
<polygon fill="white" stroke="#bfbfbf" points="731.5,-224.5 731.5,-243.5 787.5,-243.5 787.5,-224.5 731.5,-224.5"/>
<text text-anchor="middle" x="759.5" y="-231.5" font-family="Helvetica,sans-Serif" font-size="10.00">stddef.h</text>
</a>
</g>
</g>
<!-- Node5&#45;&gt;Node14 -->
<g id="edge15" class="edge">
<title>Node5&#45;&gt;Node14</title>
<path fill="none" stroke="midnightblue" d="M694.38,-392.35C711.6,-385.36 732.83,-373.71 744.5,-356 765,-324.88 764.4,-279.35 762.02,-253.93"/>
<polygon fill="midnightblue" stroke="midnightblue" points="765.48,-253.34 760.88,-243.8 758.52,-254.13 765.48,-253.34"/>
</g>
<!-- Node15 -->
<g id="node15" class="node">
<title>Node15</title>
<g id="a_node15"><a xlink:href="bits_2socket_8h.html" target="_top" xlink:title=" ">
<polygon fill="white" stroke="black" points="482.5,-336.5 482.5,-355.5 560.5,-355.5 560.5,-336.5 482.5,-336.5"/>
<text text-anchor="middle" x="521.5" y="-343.5" font-family="Helvetica,sans-Serif" font-size="10.00">bits/socket.h</text>
</a>
</g>
</g>
<!-- Node5&#45;&gt;Node15 -->
<g id="edge16" class="edge">
<title>Node5&#45;&gt;Node15</title>
<path fill="none" stroke="midnightblue" d="M644.37,-392.44C620.02,-383.44 581.49,-369.19 554.08,-359.05"/>
<polygon fill="midnightblue" stroke="midnightblue" points="555.12,-355.7 544.53,-355.52 552.69,-362.27 555.12,-355.7"/>
</g>
<!-- Node7 -->
<g id="node7" class="node">
<title>Node7</title>
<g id="a_node7"><a xlink:href="stdc-predef_8h.html" target="_top" xlink:title=" ">
<polygon fill="white" stroke="black" points="756.5,-56.5 756.5,-75.5 836.5,-75.5 836.5,-56.5 756.5,-56.5"/>
<text text-anchor="middle" x="796.5" y="-63.5" font-family="Helvetica,sans-Serif" font-size="10.00">stdc&#45;predef.h</text>
</a>
</g>
</g>
<!-- Node6&#45;&gt;Node7 -->
<g id="edge6" class="edge">
<title>Node6&#45;&gt;Node7</title>
<path fill="none" stroke="midnightblue" d="M716.76,-112.32C731.72,-103.82 754.75,-90.73 772.23,-80.8"/>
<polygon fill="midnightblue" stroke="midnightblue" points="774.31,-83.64 781.27,-75.65 770.85,-77.55 774.31,-83.64"/>
</g>
<!-- Node8 -->
<g id="node8" class="node">
<title>Node8</title>
<g id="a_node8"><a xlink:href="cdefs_8h.html" target="_top" xlink:title=" ">
<polygon fill="white" stroke="black" points="569,-56.5 569,-75.5 640,-75.5 640,-56.5 569,-56.5"/>
<text text-anchor="middle" x="604.5" y="-63.5" font-family="Helvetica,sans-Serif" font-size="10.00">sys/cdefs.h</text>
</a>
</g>
</g>
<!-- Node6&#45;&gt;Node8 -->
<g id="edge7" class="edge">
<title>Node6&#45;&gt;Node8</title>
<path fill="none" stroke="midnightblue" d="M680.8,-112.32C663.85,-103.9 640.32,-90.97 623.77,-81.07"/>
<polygon fill="midnightblue" stroke="midnightblue" points="625.29,-77.9 614.94,-75.65 621.63,-83.87 625.29,-77.9"/>
</g>
<!-- Node11 -->
<g id="node11" class="node">
<title>Node11</title>
<g id="a_node11"><a xlink:href="stubs_8h.html" target="_top" xlink:title=" ">
<polygon fill="white" stroke="black" points="665,-56.5 665,-75.5 738,-75.5 738,-56.5 665,-56.5"/>
<text text-anchor="middle" x="701.5" y="-63.5" font-family="Helvetica,sans-Serif" font-size="10.00">gnu/stubs.h</text>
</a>
</g>
</g>
<!-- Node6&#45;&gt;Node11 -->
<g id="edge11" class="edge">
<title>Node6&#45;&gt;Node11</title>
<path fill="none" stroke="midnightblue" d="M701.5,-112.08C701.5,-105.01 701.5,-94.86 701.5,-85.99"/>
<polygon fill="midnightblue" stroke="midnightblue" points="705,-85.75 701.5,-75.75 698,-85.75 705,-85.75"/>
</g>
<!-- Node8&#45;&gt;Node6 -->
<g id="edge8" class="edge">
<title>Node8&#45;&gt;Node6</title>
<path fill="none" stroke="midnightblue" d="M625.16,-75.65C642.1,-84.07 665.62,-97 682.19,-106.9"/>
<polygon fill="midnightblue" stroke="midnightblue" points="680.68,-110.08 691.03,-112.32 684.33,-104.11 680.68,-110.08"/>
</g>
<!-- Node9 -->
<g id="node9" class="node">
<title>Node9</title>
<g id="a_node9"><a xlink:href="wordsize_8h.html" target="_top" xlink:title=" ">
<polygon fill="white" stroke="black" points="428.5,-0.5 428.5,-19.5 518.5,-19.5 518.5,-0.5 428.5,-0.5"/>
<text text-anchor="middle" x="473.5" y="-7.5" font-family="Helvetica,sans-Serif" font-size="10.00">bits/wordsize.h</text>
</a>
</g>
</g>
<!-- Node8&#45;&gt;Node9 -->
<g id="edge9" class="edge">
<title>Node8&#45;&gt;Node9</title>
<path fill="none" stroke="midnightblue" d="M583.74,-56.44C562.18,-47.56 528.24,-33.56 503.71,-23.45"/>
<polygon fill="midnightblue" stroke="midnightblue" points="504.74,-20.09 494.16,-19.52 502.07,-26.56 504.74,-20.09"/>
</g>
<!-- Node10 -->
<g id="node10" class="node">
<title>Node10</title>
<g id="a_node10"><a xlink:href="long-double_8h.html" target="_top" xlink:title=" ">
<polygon fill="white" stroke="black" points="549.5,-0.5 549.5,-19.5 653.5,-19.5 653.5,-0.5 549.5,-0.5"/>
<text text-anchor="middle" x="601.5" y="-7.5" font-family="Helvetica,sans-Serif" font-size="10.00">bits/long&#45;double.h</text>
</a>
</g>
</g>
<!-- Node8&#45;&gt;Node10 -->
<g id="edge10" class="edge">
<title>Node8&#45;&gt;Node10</title>
<path fill="none" stroke="midnightblue" d="M604,-56.08C603.61,-49.01 603.05,-38.86 602.55,-29.99"/>
<polygon fill="midnightblue" stroke="midnightblue" points="606.04,-29.54 601.99,-19.75 599.05,-29.93 606.04,-29.54"/>
</g>
<!-- Node12 -->
<g id="node12" class="node">
<title>Node12</title>
<g id="a_node12"><a xlink:title=" ">
<polygon fill="white" stroke="#bfbfbf" points="672,-0.5 672,-19.5 761,-19.5 761,-0.5 672,-0.5"/>
<text text-anchor="middle" x="716.5" y="-7.5" font-family="Helvetica,sans-Serif" font-size="10.00">gnu/stubs&#45;32.h</text>
</a>
</g>
</g>
<!-- Node11&#45;&gt;Node12 -->
<g id="edge12" class="edge">
<title>Node11&#45;&gt;Node12</title>
<path fill="none" stroke="midnightblue" d="M703.98,-56.08C705.99,-48.85 708.89,-38.41 711.39,-29.4"/>
<polygon fill="midnightblue" stroke="midnightblue" points="714.76,-30.32 714.07,-19.75 708.02,-28.45 714.76,-30.32"/>
</g>
<!-- Node13&#45;&gt;Node14 -->
<g id="edge14" class="edge">
<title>Node13&#45;&gt;Node14</title>
<path fill="none" stroke="midnightblue" d="M675.05,-336.44C682.97,-327.43 695.72,-312.82 706.5,-300 720.05,-283.88 735.21,-265.23 745.83,-252.05"/>
<polygon fill="midnightblue" stroke="midnightblue" points="748.84,-253.89 752.38,-243.9 743.39,-249.5 748.84,-253.89"/>
</g>
<!-- Node15&#45;&gt;Node3 -->
<g id="edge36" class="edge">
<title>Node15&#45;&gt;Node3</title>
<path fill="none" stroke="midnightblue" d="M482.24,-341.36C408.11,-334.35 242.47,-318.07 103.5,-300 102.2,-299.83 100.88,-299.66 99.56,-299.48"/>
<polygon fill="midnightblue" stroke="midnightblue" points="99.64,-295.96 89.25,-298.04 98.67,-302.89 99.64,-295.96"/>
</g>
<!-- Node15&#45;&gt;Node14 -->
<g id="edge17" class="edge">
<title>Node15&#45;&gt;Node14</title>
<path fill="none" stroke="midnightblue" d="M527.26,-336.37C537.08,-322.33 558.47,-294.66 583.5,-280 595.41,-273.03 673.32,-254.55 721.41,-243.56"/>
<polygon fill="midnightblue" stroke="midnightblue" points="722.21,-246.97 731.18,-241.34 720.65,-240.14 722.21,-246.97"/>
</g>
<!-- Node16 -->
<g id="node16" class="node">
<title>Node16</title>
<g id="a_node16"><a xlink:href="sys_2types_8h.html" target="_top" xlink:title=" ">
<polygon fill="white" stroke="black" points="463.5,-280.5 463.5,-299.5 535.5,-299.5 535.5,-280.5 463.5,-280.5"/>
<text text-anchor="middle" x="499.5" y="-287.5" font-family="Helvetica,sans-Serif" font-size="10.00">sys/types.h</text>
</a>
</g>
</g>
<!-- Node15&#45;&gt;Node16 -->
<g id="edge18" class="edge">
<title>Node15&#45;&gt;Node16</title>
<path fill="none" stroke="midnightblue" d="M517.87,-336.08C514.89,-328.77 510.57,-318.18 506.88,-309.1"/>
<polygon fill="midnightblue" stroke="midnightblue" points="510.08,-307.69 503.07,-299.75 503.6,-310.33 510.08,-307.69"/>
</g>
<!-- Node25 -->
<g id="node25" class="node">
<title>Node25</title>
<g id="a_node25"><a xlink:href="socket__type_8h.html" target="_top" xlink:title=" ">
<polygon fill="white" stroke="black" points="592,-280.5 592,-299.5 697,-299.5 697,-280.5 592,-280.5"/>
<text text-anchor="middle" x="644.5" y="-287.5" font-family="Helvetica,sans-Serif" font-size="10.00">bits/socket_type.h</text>
</a>
</g>
</g>
<!-- Node15&#45;&gt;Node25 -->
<g id="edge35" class="edge">
<title>Node15&#45;&gt;Node25</title>
<path fill="none" stroke="midnightblue" d="M540.99,-336.44C561.14,-327.6 592.82,-313.69 615.83,-303.59"/>
<polygon fill="midnightblue" stroke="midnightblue" points="617.35,-306.74 625.1,-299.52 614.54,-300.33 617.35,-306.74"/>
</g>
<!-- Node26 -->
<g id="node26" class="node">
<title>Node26</title>
<g id="a_node26"><a xlink:href="socket-constants_8h.html" target="_top" xlink:title=" ">
<polygon fill="white" stroke="black" points="65,-168.5 65,-187.5 194,-187.5 194,-168.5 65,-168.5"/>
<text text-anchor="middle" x="129.5" y="-175.5" font-family="Helvetica,sans-Serif" font-size="10.00">bits/socket&#45;constants.h</text>
</a>
</g>
</g>
<!-- Node15&#45;&gt;Node26 -->
<g id="edge37" class="edge">
<title>Node15&#45;&gt;Node26</title>
<path fill="none" stroke="midnightblue" d="M482.38,-344.11C410.72,-340.51 256.98,-323.35 161.5,-244 147.16,-232.08 138.7,-212.18 134.12,-197.53"/>
<polygon fill="midnightblue" stroke="midnightblue" points="137.4,-196.26 131.33,-187.57 130.65,-198.14 137.4,-196.26"/>
</g>
<!-- Node16&#45;&gt;Node6 -->
<g id="edge19" class="edge">
<title>Node16&#45;&gt;Node6</title>
<path fill="none" stroke="midnightblue" d="M535.67,-282.45C586.62,-272.89 674.49,-255.06 684.5,-244 709.93,-215.92 708.15,-168.14 704.75,-141.8"/>
<polygon fill="midnightblue" stroke="midnightblue" points="708.17,-141.02 703.22,-131.66 701.25,-142.07 708.17,-141.02"/>
</g>
<!-- Node16&#45;&gt;Node14 -->
<g id="edge32" class="edge">
<title>Node16&#45;&gt;Node14</title>
<path fill="none" stroke="midnightblue" d="M535.78,-281.6C579.05,-272.75 653.59,-257.44 717.5,-244 718.77,-243.73 720.07,-243.46 721.37,-243.18"/>
<polygon fill="midnightblue" stroke="midnightblue" points="722.44,-246.53 731.49,-241.03 720.98,-239.69 722.44,-246.53"/>
</g>
<!-- Node17 -->
<g id="node17" class="node">
<title>Node17</title>
<g id="a_node17"><a xlink:href="bits_2types_8h.html" target="_top" xlink:title=" ">
<polygon fill="white" stroke="black" points="338.5,-168.5 338.5,-187.5 412.5,-187.5 412.5,-168.5 338.5,-168.5"/>
<text text-anchor="middle" x="375.5" y="-175.5" font-family="Helvetica,sans-Serif" font-size="10.00">bits/types.h</text>
</a>
</g>
</g>
<!-- Node16&#45;&gt;Node17 -->
<g id="edge20" class="edge">
<title>Node16&#45;&gt;Node17</title>
<path fill="none" stroke="midnightblue" d="M463.3,-289.66C386.58,-290.21 211.63,-286.63 174.5,-244 129.79,-192.67 255.59,-181.6 328.14,-179.4"/>
<polygon fill="midnightblue" stroke="midnightblue" points="328.52,-182.89 338.43,-179.13 328.34,-175.89 328.52,-182.89"/>
</g>
<!-- Node21 -->
<g id="node21" class="node">
<title>Node21</title>
<g id="a_node21"><a xlink:href="clockid__t_8h.html" target="_top" xlink:title=" ">
<polygon fill="white" stroke="black" points="183.5,-224.5 183.5,-243.5 303.5,-243.5 303.5,-224.5 183.5,-224.5"/>
<text text-anchor="middle" x="243.5" y="-231.5" font-family="Helvetica,sans-Serif" font-size="10.00">bits/types/clockid_t.h</text>
</a>
</g>
</g>
<!-- Node16&#45;&gt;Node21 -->
<g id="edge26" class="edge">
<title>Node16&#45;&gt;Node21</title>
<path fill="none" stroke="midnightblue" d="M463.36,-281.38C419.14,-272.05 343.98,-256.2 294.04,-245.66"/>
<polygon fill="midnightblue" stroke="midnightblue" points="294.61,-242.2 284.1,-243.56 293.16,-249.05 294.61,-242.2"/>
</g>
<!-- Node22 -->
<g id="node22" class="node">
<title>Node22</title>
<g id="a_node22"><a xlink:href="time__t_8h.html" target="_top" xlink:title=" ">
<polygon fill="white" stroke="black" points="321.5,-224.5 321.5,-243.5 429.5,-243.5 429.5,-224.5 321.5,-224.5"/>
<text text-anchor="middle" x="375.5" y="-231.5" font-family="Helvetica,sans-Serif" font-size="10.00">bits/types/time_t.h</text>
</a>
</g>
</g>
<!-- Node16&#45;&gt;Node22 -->
<g id="edge28" class="edge">
<title>Node16&#45;&gt;Node22</title>
<path fill="none" stroke="midnightblue" d="M479.85,-280.44C459.54,-271.6 427.6,-257.69 404.4,-247.59"/>
<polygon fill="midnightblue" stroke="midnightblue" points="405.62,-244.3 395.06,-243.52 402.83,-250.72 405.62,-244.3"/>
</g>
<!-- Node23 -->
<g id="node23" class="node">
<title>Node23</title>
<g id="a_node23"><a xlink:href="timer__t_8h.html" target="_top" xlink:title=" ">
<polygon fill="white" stroke="black" points="447.5,-224.5 447.5,-243.5 559.5,-243.5 559.5,-224.5 447.5,-224.5"/>
<text text-anchor="middle" x="503.5" y="-231.5" font-family="Helvetica,sans-Serif" font-size="10.00">bits/types/timer_t.h</text>
</a>
</g>
</g>
<!-- Node16&#45;&gt;Node23 -->
<g id="edge30" class="edge">
<title>Node16&#45;&gt;Node23</title>
<path fill="none" stroke="midnightblue" d="M500.16,-280.08C500.68,-273.01 501.44,-262.86 502.09,-253.99"/>
<polygon fill="midnightblue" stroke="midnightblue" points="505.6,-253.98 502.85,-243.75 498.62,-253.47 505.6,-253.98"/>
</g>
<!-- Node24 -->
<g id="node24" class="node">
<title>Node24</title>
<g id="a_node24"><a xlink:href="stdint-intn_8h.html" target="_top" xlink:title=" ">
<polygon fill="white" stroke="black" points="578,-224.5 578,-243.5 675,-243.5 675,-224.5 578,-224.5"/>
<text text-anchor="middle" x="626.5" y="-231.5" font-family="Helvetica,sans-Serif" font-size="10.00">bits/stdint&#45;intn.h</text>
</a>
</g>
</g>
<!-- Node16&#45;&gt;Node24 -->
<g id="edge33" class="edge">
<title>Node16&#45;&gt;Node24</title>
<path fill="none" stroke="midnightblue" d="M519.62,-280.44C540.52,-271.56 573.43,-257.56 597.22,-247.45"/>
<polygon fill="midnightblue" stroke="midnightblue" points="598.64,-250.65 606.47,-243.52 595.9,-244.21 598.64,-250.65"/>
</g>
<!-- Node17&#45;&gt;Node6 -->
<g id="edge21" class="edge">
<title>Node17&#45;&gt;Node6</title>
<path fill="none" stroke="midnightblue" d="M412.58,-170.86C473.28,-160.8 593.56,-140.88 658.13,-130.18"/>
<polygon fill="midnightblue" stroke="midnightblue" points="659.08,-133.57 668.37,-128.49 657.93,-126.67 659.08,-133.57"/>
</g>
<!-- Node17&#45;&gt;Node9 -->
<g id="edge22" class="edge">
<title>Node17&#45;&gt;Node9</title>
<path fill="none" stroke="midnightblue" d="M388.1,-168.29C399.22,-160.05 415.23,-146.76 425.5,-132 448.22,-99.34 462.39,-54.38 469.03,-29.48"/>
<polygon fill="midnightblue" stroke="midnightblue" points="472.47,-30.12 471.55,-19.57 465.69,-28.4 472.47,-30.12"/>
</g>
<!-- Node18 -->
<g id="node18" class="node">
<title>Node18</title>
<g id="a_node18"><a xlink:href="timesize_8h.html" target="_top" xlink:title=" ">
<polygon fill="white" stroke="black" points="107,-112.5 107,-131.5 196,-131.5 196,-112.5 107,-112.5"/>
<text text-anchor="middle" x="151.5" y="-119.5" font-family="Helvetica,sans-Serif" font-size="10.00">bits/timesize.h</text>
</a>
</g>
</g>
<!-- Node17&#45;&gt;Node18 -->
<g id="edge23" class="edge">
<title>Node17&#45;&gt;Node18</title>
<path fill="none" stroke="midnightblue" d="M340.01,-168.44C301.18,-159.08 238.84,-144.06 196.58,-133.87"/>
<polygon fill="midnightblue" stroke="midnightblue" points="197.37,-130.46 186.83,-131.52 195.73,-137.26 197.37,-130.46"/>
</g>
<!-- Node19 -->
<g id="node19" class="node">
<title>Node19</title>
<g id="a_node19"><a xlink:href="typesizes_8h.html" target="_top" xlink:title=" ">
<polygon fill="white" stroke="black" points="225,-112.5 225,-131.5 318,-131.5 318,-112.5 225,-112.5"/>
<text text-anchor="middle" x="271.5" y="-119.5" font-family="Helvetica,sans-Serif" font-size="10.00">bits/typesizes.h</text>
</a>
</g>
</g>
<!-- Node17&#45;&gt;Node19 -->
<g id="edge24" class="edge">
<title>Node17&#45;&gt;Node19</title>
<path fill="none" stroke="midnightblue" d="M358.79,-168.32C342.19,-159.7 316.5,-146.36 297.28,-136.39"/>
<polygon fill="midnightblue" stroke="midnightblue" points="298.66,-133.16 288.17,-131.65 295.43,-139.37 298.66,-133.16"/>
</g>
<!-- Node20 -->
<g id="node20" class="node">
<title>Node20</title>
<g id="a_node20"><a xlink:href="time64_8h.html" target="_top" xlink:title=" ">
<polygon fill="white" stroke="black" points="336,-112.5 336,-131.5 417,-131.5 417,-112.5 336,-112.5"/>
<text text-anchor="middle" x="376.5" y="-119.5" font-family="Helvetica,sans-Serif" font-size="10.00">bits/time64.h</text>
</a>
</g>
</g>
<!-- Node17&#45;&gt;Node20 -->
<g id="edge25" class="edge">
<title>Node17&#45;&gt;Node20</title>
<path fill="none" stroke="midnightblue" d="M375.67,-168.08C375.8,-161.01 375.98,-150.86 376.15,-141.99"/>
<polygon fill="midnightblue" stroke="midnightblue" points="379.65,-141.81 376.34,-131.75 372.65,-141.68 379.65,-141.81"/>
</g>
<!-- Node21&#45;&gt;Node17 -->
<g id="edge27" class="edge">
<title>Node21&#45;&gt;Node17</title>
<path fill="none" stroke="midnightblue" d="M264.42,-224.44C286.24,-215.52 320.65,-201.44 345.39,-191.32"/>
<polygon fill="midnightblue" stroke="midnightblue" points="346.75,-194.54 354.68,-187.52 344.1,-188.06 346.75,-194.54"/>
</g>
<!-- Node22&#45;&gt;Node17 -->
<g id="edge29" class="edge">
<title>Node22&#45;&gt;Node17</title>
<path fill="none" stroke="midnightblue" d="M375.5,-224.08C375.5,-217.01 375.5,-206.86 375.5,-197.99"/>
<polygon fill="midnightblue" stroke="midnightblue" points="379,-197.75 375.5,-187.75 372,-197.75 379,-197.75"/>
</g>
<!-- Node23&#45;&gt;Node17 -->
<g id="edge31" class="edge">
<title>Node23&#45;&gt;Node17</title>
<path fill="none" stroke="midnightblue" d="M483.22,-224.44C462.15,-215.56 428.98,-201.56 405.01,-191.45"/>
<polygon fill="midnightblue" stroke="midnightblue" points="406.26,-188.18 395.69,-187.52 403.54,-194.63 406.26,-188.18"/>
</g>
<!-- Node24&#45;&gt;Node17 -->
<g id="edge34" class="edge">
<title>Node24&#45;&gt;Node17</title>
<path fill="none" stroke="midnightblue" d="M586.73,-224.44C542.17,-214.86 469.99,-199.33 422.63,-189.14"/>
<polygon fill="midnightblue" stroke="midnightblue" points="423.14,-185.67 412.63,-186.99 421.67,-192.51 423.14,-185.67"/>
</g>
<!-- Node26&#45;&gt;Node18 -->
<g id="edge38" class="edge">
<title>Node26&#45;&gt;Node18</title>
<path fill="none" stroke="midnightblue" d="M133.13,-168.08C136.11,-160.77 140.43,-150.18 144.12,-141.1"/>
<polygon fill="midnightblue" stroke="midnightblue" points="147.4,-142.33 147.93,-131.75 140.92,-139.69 147.4,-142.33"/>
</g>
</g>
</svg>
