<?xml version="1.0" encoding="UTF-8" standalone="no"?>
<!DOCTYPE svg PUBLIC "-//W3C//DTD SVG 1.1//EN"
 "http://www.w3.org/Graphics/SVG/1.1/DTD/svg11.dtd">
<!-- Generated by graphviz version 2.44.1 (0)
 -->
<!-- Title: bits/utmp.h Pages: 1 -->
<svg width="1280pt" height="420pt"
 viewBox="0.00 0.00 1280.02 420.00" xmlns="http://www.w3.org/2000/svg" xmlns:xlink="http://www.w3.org/1999/xlink">
<g id="graph0" class="graph" transform="scale(1 1) rotate(0) translate(4 416)">
<title>bits/utmp.h</title>
<polygon fill="white" stroke="transparent" points="-4,4 -4,-416 1276.02,-416 1276.02,4 -4,4"/>
<!-- Node1 -->
<g id="node1" class="node">
<title>Node1</title>
<g id="a_node1"><a xlink:title=" ">
<polygon fill="#bfbfbf" stroke="black" points="150.5,-392.5 150.5,-411.5 222.5,-411.5 222.5,-392.5 150.5,-392.5"/>
<text text-anchor="middle" x="186.5" y="-399.5" font-family="Helvetica,sans-Serif" font-size="10.00">bits/utmp.h</text>
</a>
</g>
</g>
<!-- Node2 -->
<g id="node2" class="node">
<title>Node2</title>
<g id="a_node2"><a xlink:href="paths_8h.html" target="_top" xlink:title=" ">
<polygon fill="white" stroke="black" points="0,-336.5 0,-355.5 53,-355.5 53,-336.5 0,-336.5"/>
<text text-anchor="middle" x="26.5" y="-343.5" font-family="Helvetica,sans-Serif" font-size="10.00">paths.h</text>
</a>
</g>
</g>
<!-- Node1&#45;&gt;Node2 -->
<g id="edge1" class="edge">
<title>Node1&#45;&gt;Node2</title>
<path fill="none" stroke="midnightblue" d="M161.15,-392.44C134.23,-383.36 91.5,-368.94 61.41,-358.78"/>
<polygon fill="midnightblue" stroke="midnightblue" points="62.33,-355.4 51.73,-355.52 60.09,-362.03 62.33,-355.4"/>
</g>
<!-- Node3 -->
<g id="node3" class="node">
<title>Node3</title>
<g id="a_node3"><a xlink:href="sys_2time_8h.html" target="_top" xlink:title=" ">
<polygon fill="white" stroke="black" points="810.5,-336.5 810.5,-355.5 878.5,-355.5 878.5,-336.5 810.5,-336.5"/>
<text text-anchor="middle" x="844.5" y="-343.5" font-family="Helvetica,sans-Serif" font-size="10.00">sys/time.h</text>
</a>
</g>
</g>
<!-- Node1&#45;&gt;Node3 -->
<g id="edge2" class="edge">
<title>Node1&#45;&gt;Node3</title>
<path fill="none" stroke="midnightblue" d="M222.81,-398.02C335.25,-388.79 677.44,-360.71 800.13,-350.64"/>
<polygon fill="midnightblue" stroke="midnightblue" points="800.61,-354.11 810.29,-349.81 800.04,-347.14 800.61,-354.11"/>
</g>
<!-- Node7 -->
<g id="node7" class="node">
<title>Node7</title>
<g id="a_node7"><a xlink:href="wordsize_8h.html" target="_top" xlink:title=" ">
<polygon fill="white" stroke="black" points="245.5,-0.5 245.5,-19.5 335.5,-19.5 335.5,-0.5 245.5,-0.5"/>
<text text-anchor="middle" x="290.5" y="-7.5" font-family="Helvetica,sans-Serif" font-size="10.00">bits/wordsize.h</text>
</a>
</g>
</g>
<!-- Node1&#45;&gt;Node7 -->
<g id="edge40" class="edge">
<title>Node1&#45;&gt;Node7</title>
<path fill="none" stroke="midnightblue" d="M168.21,-392.35C138.13,-376.69 81.5,-340.63 81.5,-291 81.5,-291 81.5,-291 81.5,-121 81.5,-51.38 173.45,-25.72 235.37,-16.33"/>
<polygon fill="midnightblue" stroke="midnightblue" points="236,-19.78 245.41,-14.91 235.02,-12.85 236,-19.78"/>
</g>
<!-- Node21 -->
<g id="node21" class="node">
<title>Node21</title>
<g id="a_node21"><a xlink:href="sys_2types_8h.html" target="_top" xlink:title=" ">
<polygon fill="white" stroke="black" points="375.5,-280.5 375.5,-299.5 447.5,-299.5 447.5,-280.5 375.5,-280.5"/>
<text text-anchor="middle" x="411.5" y="-287.5" font-family="Helvetica,sans-Serif" font-size="10.00">sys/types.h</text>
</a>
</g>
</g>
<!-- Node1&#45;&gt;Node21 -->
<g id="edge29" class="edge">
<title>Node1&#45;&gt;Node21</title>
<path fill="none" stroke="midnightblue" d="M204.16,-392.37C243.42,-373.17 338.19,-326.84 384.76,-304.07"/>
<polygon fill="midnightblue" stroke="midnightblue" points="386.48,-307.13 393.93,-299.59 383.41,-300.84 386.48,-307.13"/>
</g>
<!-- Node4 -->
<g id="node4" class="node">
<title>Node4</title>
<g id="a_node4"><a xlink:href="features_8h.html" target="_top" xlink:title=" ">
<polygon fill="white" stroke="black" points="636.5,-112.5 636.5,-131.5 702.5,-131.5 702.5,-112.5 636.5,-112.5"/>
<text text-anchor="middle" x="669.5" y="-119.5" font-family="Helvetica,sans-Serif" font-size="10.00">features.h</text>
</a>
</g>
</g>
<!-- Node3&#45;&gt;Node4 -->
<g id="edge3" class="edge">
<title>Node3&#45;&gt;Node4</title>
<path fill="none" stroke="midnightblue" d="M878.59,-342.38C995.02,-332.3 1363.58,-290.18 1250.5,-168 1214.2,-128.78 841.97,-123.65 713.12,-123.05"/>
<polygon fill="midnightblue" stroke="midnightblue" points="712.85,-119.55 702.84,-123.01 712.83,-126.55 712.85,-119.55"/>
</g>
<!-- Node11 -->
<g id="node11" class="node">
<title>Node11</title>
<g id="a_node11"><a xlink:href="bits_2types_8h.html" target="_top" xlink:title=" ">
<polygon fill="white" stroke="black" points="433.5,-168.5 433.5,-187.5 507.5,-187.5 507.5,-168.5 433.5,-168.5"/>
<text text-anchor="middle" x="470.5" y="-175.5" font-family="Helvetica,sans-Serif" font-size="10.00">bits/types.h</text>
</a>
</g>
</g>
<!-- Node3&#45;&gt;Node11 -->
<g id="edge11" class="edge">
<title>Node3&#45;&gt;Node11</title>
<path fill="none" stroke="midnightblue" d="M830.16,-336.45C786.21,-310.3 655.13,-232.61 634.5,-224 596.35,-208.08 550.87,-196.12 517.49,-188.54"/>
<polygon fill="midnightblue" stroke="midnightblue" points="518.07,-185.08 507.55,-186.33 516.55,-191.91 518.07,-185.08"/>
</g>
<!-- Node15 -->
<g id="node15" class="node">
<title>Node15</title>
<g id="a_node15"><a xlink:href="time__t_8h.html" target="_top" xlink:title=" ">
<polygon fill="white" stroke="black" points="681.5,-224.5 681.5,-243.5 789.5,-243.5 789.5,-224.5 681.5,-224.5"/>
<text text-anchor="middle" x="735.5" y="-231.5" font-family="Helvetica,sans-Serif" font-size="10.00">bits/types/time_t.h</text>
</a>
</g>
</g>
<!-- Node3&#45;&gt;Node15 -->
<g id="edge17" class="edge">
<title>Node3&#45;&gt;Node15</title>
<path fill="none" stroke="midnightblue" d="M835.95,-336.37C817.64,-317.89 774.44,-274.29 751.1,-250.74"/>
<polygon fill="midnightblue" stroke="midnightblue" points="753.54,-248.23 744.01,-243.59 748.57,-253.16 753.54,-248.23"/>
</g>
<!-- Node16 -->
<g id="node16" class="node">
<title>Node16</title>
<g id="a_node16"><a xlink:href="struct__timeval_8h.html" target="_top" xlink:title=" ">
<polygon fill="white" stroke="black" points="808,-224.5 808,-243.5 955,-243.5 955,-224.5 808,-224.5"/>
<text text-anchor="middle" x="881.5" y="-231.5" font-family="Helvetica,sans-Serif" font-size="10.00">bits/types/struct_timeval.h</text>
</a>
</g>
</g>
<!-- Node3&#45;&gt;Node16 -->
<g id="edge19" class="edge">
<title>Node3&#45;&gt;Node16</title>
<path fill="none" stroke="midnightblue" d="M847.4,-336.37C853.4,-318.54 867.27,-277.3 875.35,-253.27"/>
<polygon fill="midnightblue" stroke="midnightblue" points="878.74,-254.19 878.61,-243.59 872.1,-251.95 878.74,-254.19"/>
</g>
<!-- Node17 -->
<g id="node17" class="node">
<title>Node17</title>
<g id="a_node17"><a xlink:href="sys_2select_8h.html" target="_top" xlink:title=" ">
<polygon fill="white" stroke="black" points="974.5,-280.5 974.5,-299.5 1048.5,-299.5 1048.5,-280.5 974.5,-280.5"/>
<text text-anchor="middle" x="1011.5" y="-287.5" font-family="Helvetica,sans-Serif" font-size="10.00">sys/select.h</text>
</a>
</g>
</g>
<!-- Node3&#45;&gt;Node17 -->
<g id="edge21" class="edge">
<title>Node3&#45;&gt;Node17</title>
<path fill="none" stroke="midnightblue" d="M870.96,-336.44C899.18,-327.32 944.04,-312.81 975.47,-302.65"/>
<polygon fill="midnightblue" stroke="midnightblue" points="976.72,-305.92 985.16,-299.52 974.57,-299.26 976.72,-305.92"/>
</g>
<!-- Node5 -->
<g id="node5" class="node">
<title>Node5</title>
<g id="a_node5"><a xlink:href="stdc-predef_8h.html" target="_top" xlink:title=" ">
<polygon fill="white" stroke="black" points="629.5,-56.5 629.5,-75.5 709.5,-75.5 709.5,-56.5 629.5,-56.5"/>
<text text-anchor="middle" x="669.5" y="-63.5" font-family="Helvetica,sans-Serif" font-size="10.00">stdc&#45;predef.h</text>
</a>
</g>
</g>
<!-- Node4&#45;&gt;Node5 -->
<g id="edge4" class="edge">
<title>Node4&#45;&gt;Node5</title>
<path fill="none" stroke="midnightblue" d="M669.5,-112.08C669.5,-105.01 669.5,-94.86 669.5,-85.99"/>
<polygon fill="midnightblue" stroke="midnightblue" points="673,-85.75 669.5,-75.75 666,-85.75 673,-85.75"/>
</g>
<!-- Node6 -->
<g id="node6" class="node">
<title>Node6</title>
<g id="a_node6"><a xlink:href="cdefs_8h.html" target="_top" xlink:title=" ">
<polygon fill="white" stroke="black" points="540,-56.5 540,-75.5 611,-75.5 611,-56.5 540,-56.5"/>
<text text-anchor="middle" x="575.5" y="-63.5" font-family="Helvetica,sans-Serif" font-size="10.00">sys/cdefs.h</text>
</a>
</g>
</g>
<!-- Node4&#45;&gt;Node6 -->
<g id="edge5" class="edge">
<title>Node4&#45;&gt;Node6</title>
<path fill="none" stroke="midnightblue" d="M649.28,-112.32C632.8,-103.9 609.99,-90.97 593.99,-81.07"/>
<polygon fill="midnightblue" stroke="midnightblue" points="595.77,-78.06 585.46,-75.65 592.02,-83.97 595.77,-78.06"/>
</g>
<!-- Node9 -->
<g id="node9" class="node">
<title>Node9</title>
<g id="a_node9"><a xlink:href="stubs_8h.html" target="_top" xlink:title=" ">
<polygon fill="white" stroke="black" points="728,-56.5 728,-75.5 801,-75.5 801,-56.5 728,-56.5"/>
<text text-anchor="middle" x="764.5" y="-63.5" font-family="Helvetica,sans-Serif" font-size="10.00">gnu/stubs.h</text>
</a>
</g>
</g>
<!-- Node4&#45;&gt;Node9 -->
<g id="edge9" class="edge">
<title>Node4&#45;&gt;Node9</title>
<path fill="none" stroke="midnightblue" d="M684.76,-112.32C699.72,-103.82 722.75,-90.73 740.23,-80.8"/>
<polygon fill="midnightblue" stroke="midnightblue" points="742.31,-83.64 749.27,-75.65 738.85,-77.55 742.31,-83.64"/>
</g>
<!-- Node6&#45;&gt;Node4 -->
<g id="edge6" class="edge">
<title>Node6&#45;&gt;Node4</title>
<path fill="none" stroke="midnightblue" d="M595.68,-75.65C612.15,-84.07 634.96,-97 650.97,-106.9"/>
<polygon fill="midnightblue" stroke="midnightblue" points="649.19,-109.92 659.51,-112.32 652.95,-104.01 649.19,-109.92"/>
</g>
<!-- Node6&#45;&gt;Node7 -->
<g id="edge7" class="edge">
<title>Node6&#45;&gt;Node7</title>
<path fill="none" stroke="midnightblue" d="M539.98,-58.27C491.14,-49.02 402.77,-32.27 345.38,-21.4"/>
<polygon fill="midnightblue" stroke="midnightblue" points="345.87,-17.93 335.4,-19.51 344.57,-24.81 345.87,-17.93"/>
</g>
<!-- Node8 -->
<g id="node8" class="node">
<title>Node8</title>
<g id="a_node8"><a xlink:href="long-double_8h.html" target="_top" xlink:title=" ">
<polygon fill="white" stroke="black" points="523.5,-0.5 523.5,-19.5 627.5,-19.5 627.5,-0.5 523.5,-0.5"/>
<text text-anchor="middle" x="575.5" y="-7.5" font-family="Helvetica,sans-Serif" font-size="10.00">bits/long&#45;double.h</text>
</a>
</g>
</g>
<!-- Node6&#45;&gt;Node8 -->
<g id="edge8" class="edge">
<title>Node6&#45;&gt;Node8</title>
<path fill="none" stroke="midnightblue" d="M575.5,-56.08C575.5,-49.01 575.5,-38.86 575.5,-29.99"/>
<polygon fill="midnightblue" stroke="midnightblue" points="579,-29.75 575.5,-19.75 572,-29.75 579,-29.75"/>
</g>
<!-- Node10 -->
<g id="node10" class="node">
<title>Node10</title>
<g id="a_node10"><a xlink:title=" ">
<polygon fill="white" stroke="#bfbfbf" points="720,-0.5 720,-19.5 809,-19.5 809,-0.5 720,-0.5"/>
<text text-anchor="middle" x="764.5" y="-7.5" font-family="Helvetica,sans-Serif" font-size="10.00">gnu/stubs&#45;32.h</text>
</a>
</g>
</g>
<!-- Node9&#45;&gt;Node10 -->
<g id="edge10" class="edge">
<title>Node9&#45;&gt;Node10</title>
<path fill="none" stroke="midnightblue" d="M764.5,-56.08C764.5,-49.01 764.5,-38.86 764.5,-29.99"/>
<polygon fill="midnightblue" stroke="midnightblue" points="768,-29.75 764.5,-19.75 761,-29.75 768,-29.75"/>
</g>
<!-- Node11&#45;&gt;Node4 -->
<g id="edge12" class="edge">
<title>Node11&#45;&gt;Node4</title>
<path fill="none" stroke="midnightblue" d="M502.03,-168.44C536.09,-159.2 590.51,-144.44 628.02,-134.26"/>
<polygon fill="midnightblue" stroke="midnightblue" points="629.38,-137.51 638.12,-131.52 627.55,-130.76 629.38,-137.51"/>
</g>
<!-- Node11&#45;&gt;Node7 -->
<g id="edge13" class="edge">
<title>Node11&#45;&gt;Node7</title>
<path fill="none" stroke="midnightblue" d="M433.27,-177.43C396.23,-175.71 340.56,-166.91 309.5,-132 284.26,-103.63 284.99,-55.96 287.74,-29.72"/>
<polygon fill="midnightblue" stroke="midnightblue" points="291.23,-29.97 289.01,-19.62 284.29,-29.1 291.23,-29.97"/>
</g>
<!-- Node12 -->
<g id="node12" class="node">
<title>Node12</title>
<g id="a_node12"><a xlink:href="timesize_8h.html" target="_top" xlink:title=" ">
<polygon fill="white" stroke="black" points="529,-112.5 529,-131.5 618,-131.5 618,-112.5 529,-112.5"/>
<text text-anchor="middle" x="573.5" y="-119.5" font-family="Helvetica,sans-Serif" font-size="10.00">bits/timesize.h</text>
</a>
</g>
</g>
<!-- Node11&#45;&gt;Node12 -->
<g id="edge14" class="edge">
<title>Node11&#45;&gt;Node12</title>
<path fill="none" stroke="midnightblue" d="M487.05,-168.32C503.49,-159.7 528.93,-146.36 547.97,-136.39"/>
<polygon fill="midnightblue" stroke="midnightblue" points="549.76,-139.4 556.99,-131.65 546.51,-133.2 549.76,-139.4"/>
</g>
<!-- Node13 -->
<g id="node13" class="node">
<title>Node13</title>
<g id="a_node13"><a xlink:href="typesizes_8h.html" target="_top" xlink:title=" ">
<polygon fill="white" stroke="black" points="319,-112.5 319,-131.5 412,-131.5 412,-112.5 319,-112.5"/>
<text text-anchor="middle" x="365.5" y="-119.5" font-family="Helvetica,sans-Serif" font-size="10.00">bits/typesizes.h</text>
</a>
</g>
</g>
<!-- Node11&#45;&gt;Node13 -->
<g id="edge15" class="edge">
<title>Node11&#45;&gt;Node13</title>
<path fill="none" stroke="midnightblue" d="M453.63,-168.32C436.79,-159.66 410.69,-146.24 391.26,-136.25"/>
<polygon fill="midnightblue" stroke="midnightblue" points="392.82,-133.12 382.33,-131.65 389.62,-139.34 392.82,-133.12"/>
</g>
<!-- Node14 -->
<g id="node14" class="node">
<title>Node14</title>
<g id="a_node14"><a xlink:href="time64_8h.html" target="_top" xlink:title=" ">
<polygon fill="white" stroke="black" points="430,-112.5 430,-131.5 511,-131.5 511,-112.5 430,-112.5"/>
<text text-anchor="middle" x="470.5" y="-119.5" font-family="Helvetica,sans-Serif" font-size="10.00">bits/time64.h</text>
</a>
</g>
</g>
<!-- Node11&#45;&gt;Node14 -->
<g id="edge16" class="edge">
<title>Node11&#45;&gt;Node14</title>
<path fill="none" stroke="midnightblue" d="M470.5,-168.08C470.5,-161.01 470.5,-150.86 470.5,-141.99"/>
<polygon fill="midnightblue" stroke="midnightblue" points="474,-141.75 470.5,-131.75 467,-141.75 474,-141.75"/>
</g>
<!-- Node15&#45;&gt;Node11 -->
<g id="edge18" class="edge">
<title>Node15&#45;&gt;Node11</title>
<path fill="none" stroke="midnightblue" d="M693.51,-224.44C645.59,-214.68 567.4,-198.75 517.49,-188.57"/>
<polygon fill="midnightblue" stroke="midnightblue" points="518.09,-185.13 507.59,-186.56 516.69,-191.98 518.09,-185.13"/>
</g>
<!-- Node16&#45;&gt;Node11 -->
<g id="edge20" class="edge">
<title>Node16&#45;&gt;Node11</title>
<path fill="none" stroke="midnightblue" d="M816.38,-224.44C733.32,-213.53 591.65,-194.92 518.05,-185.25"/>
<polygon fill="midnightblue" stroke="midnightblue" points="518.07,-181.72 507.7,-183.89 517.16,-188.66 518.07,-181.72"/>
</g>
<!-- Node17&#45;&gt;Node4 -->
<g id="edge22" class="edge">
<title>Node17&#45;&gt;Node4</title>
<path fill="none" stroke="midnightblue" d="M1048.83,-286.86C1105.23,-282.75 1207.99,-271.6 1230.5,-244 1251.85,-217.82 1253.41,-192.82 1230.5,-168 1195.61,-130.2 838.53,-124.14 712.92,-123.18"/>
<polygon fill="midnightblue" stroke="midnightblue" points="712.91,-119.68 702.88,-123.11 712.86,-126.68 712.91,-119.68"/>
</g>
<!-- Node17&#45;&gt;Node11 -->
<g id="edge23" class="edge">
<title>Node17&#45;&gt;Node11</title>
<path fill="none" stroke="midnightblue" d="M1025.65,-280.29C1045.04,-267.33 1075.63,-242.49 1058.5,-224 1022.05,-184.65 651.21,-179.57 517.9,-179.02"/>
<polygon fill="midnightblue" stroke="midnightblue" points="517.62,-175.52 507.61,-178.99 517.6,-182.52 517.62,-175.52"/>
</g>
<!-- Node17&#45;&gt;Node15 -->
<g id="edge27" class="edge">
<title>Node17&#45;&gt;Node15</title>
<path fill="none" stroke="midnightblue" d="M974.28,-281.72C926.63,-272.39 843.73,-256.18 789.23,-245.51"/>
<polygon fill="midnightblue" stroke="midnightblue" points="789.89,-242.08 779.4,-243.59 788.55,-248.95 789.89,-242.08"/>
</g>
<!-- Node17&#45;&gt;Node16 -->
<g id="edge28" class="edge">
<title>Node17&#45;&gt;Node16</title>
<path fill="none" stroke="midnightblue" d="M990.9,-280.44C969.51,-271.56 935.82,-257.56 911.48,-247.45"/>
<polygon fill="midnightblue" stroke="midnightblue" points="912.58,-244.12 902,-243.52 909.89,-250.58 912.58,-244.12"/>
</g>
<!-- Node18 -->
<g id="node18" class="node">
<title>Node18</title>
<g id="a_node18"><a xlink:href="bits_2select_8h.html" target="_top" xlink:title=" ">
<polygon fill="white" stroke="black" points="973.5,-224.5 973.5,-243.5 1049.5,-243.5 1049.5,-224.5 973.5,-224.5"/>
<text text-anchor="middle" x="1011.5" y="-231.5" font-family="Helvetica,sans-Serif" font-size="10.00">bits/select.h</text>
</a>
</g>
</g>
<!-- Node17&#45;&gt;Node18 -->
<g id="edge24" class="edge">
<title>Node17&#45;&gt;Node18</title>
<path fill="none" stroke="midnightblue" d="M1011.5,-280.08C1011.5,-273.01 1011.5,-262.86 1011.5,-253.99"/>
<polygon fill="midnightblue" stroke="midnightblue" points="1015,-253.75 1011.5,-243.75 1008,-253.75 1015,-253.75"/>
</g>
<!-- Node19 -->
<g id="node19" class="node">
<title>Node19</title>
<g id="a_node19"><a xlink:href="sigset__t_8h.html" target="_top" xlink:title=" ">
<polygon fill="white" stroke="black" points="1106,-224.5 1106,-243.5 1221,-243.5 1221,-224.5 1106,-224.5"/>
<text text-anchor="middle" x="1163.5" y="-231.5" font-family="Helvetica,sans-Serif" font-size="10.00">bits/types/sigset_t.h</text>
</a>
</g>
</g>
<!-- Node17&#45;&gt;Node19 -->
<g id="edge25" class="edge">
<title>Node17&#45;&gt;Node19</title>
<path fill="none" stroke="midnightblue" d="M1035.58,-280.44C1061.04,-271.4 1101.39,-257.06 1129.96,-246.92"/>
<polygon fill="midnightblue" stroke="midnightblue" points="1131.28,-250.16 1139.53,-243.52 1128.93,-243.57 1131.28,-250.16"/>
</g>
<!-- Node20 -->
<g id="node20" class="node">
<title>Node20</title>
<g id="a_node20"><a xlink:href="____sigset__t_8h.html" target="_top" xlink:title=" ">
<polygon fill="white" stroke="black" points="1096,-168.5 1096,-187.5 1221,-187.5 1221,-168.5 1096,-168.5"/>
<text text-anchor="middle" x="1158.5" y="-175.5" font-family="Helvetica,sans-Serif" font-size="10.00">bits/types/__sigset_t.h</text>
</a>
</g>
</g>
<!-- Node19&#45;&gt;Node20 -->
<g id="edge26" class="edge">
<title>Node19&#45;&gt;Node20</title>
<path fill="none" stroke="midnightblue" d="M1162.67,-224.08C1162.02,-217.01 1161.08,-206.86 1160.26,-197.99"/>
<polygon fill="midnightblue" stroke="midnightblue" points="1163.72,-197.39 1159.31,-187.75 1156.75,-198.03 1163.72,-197.39"/>
</g>
<!-- Node21&#45;&gt;Node4 -->
<g id="edge30" class="edge">
<title>Node21&#45;&gt;Node4</title>
<path fill="none" stroke="midnightblue" d="M438.78,-280.39C461.71,-272.56 494.9,-259.83 521.5,-244 574,-212.76 627.52,-163.88 653.45,-138.89"/>
<polygon fill="midnightblue" stroke="midnightblue" points="656.14,-141.15 660.86,-131.66 651.26,-136.14 656.14,-141.15"/>
</g>
<!-- Node21&#45;&gt;Node11 -->
<g id="edge31" class="edge">
<title>Node21&#45;&gt;Node11</title>
<path fill="none" stroke="midnightblue" d="M375.49,-288.59C308.43,-286.97 168.49,-279.34 138.5,-244 132.75,-237.22 132.65,-230.69 138.5,-224 174.88,-182.36 340.33,-177.75 423.08,-178.13"/>
<polygon fill="midnightblue" stroke="midnightblue" points="423.2,-181.63 433.23,-178.21 423.25,-174.63 423.2,-181.63"/>
</g>
<!-- Node21&#45;&gt;Node15 -->
<g id="edge34" class="edge">
<title>Node21&#45;&gt;Node15</title>
<path fill="none" stroke="midnightblue" d="M447.72,-282.96C502.62,-273.81 607.55,-256.33 674.39,-245.18"/>
<polygon fill="midnightblue" stroke="midnightblue" points="675.09,-248.62 684.38,-243.52 673.94,-241.71 675.09,-248.62"/>
</g>
<!-- Node22 -->
<g id="node22" class="node">
<title>Node22</title>
<g id="a_node22"><a xlink:href="clockid__t_8h.html" target="_top" xlink:title=" ">
<polygon fill="white" stroke="black" points="147.5,-224.5 147.5,-243.5 267.5,-243.5 267.5,-224.5 147.5,-224.5"/>
<text text-anchor="middle" x="207.5" y="-231.5" font-family="Helvetica,sans-Serif" font-size="10.00">bits/types/clockid_t.h</text>
</a>
</g>
</g>
<!-- Node21&#45;&gt;Node22 -->
<g id="edge32" class="edge">
<title>Node21&#45;&gt;Node22</title>
<path fill="none" stroke="midnightblue" d="M379.18,-280.44C344.11,-271.16 288,-256.31 249.54,-246.13"/>
<polygon fill="midnightblue" stroke="midnightblue" points="250.24,-242.69 239.67,-243.52 248.44,-249.46 250.24,-242.69"/>
</g>
<!-- Node23 -->
<g id="node23" class="node">
<title>Node23</title>
<g id="a_node23"><a xlink:href="timer__t_8h.html" target="_top" xlink:title=" ">
<polygon fill="white" stroke="black" points="285.5,-224.5 285.5,-243.5 397.5,-243.5 397.5,-224.5 285.5,-224.5"/>
<text text-anchor="middle" x="341.5" y="-231.5" font-family="Helvetica,sans-Serif" font-size="10.00">bits/types/timer_t.h</text>
</a>
</g>
</g>
<!-- Node21&#45;&gt;Node23 -->
<g id="edge35" class="edge">
<title>Node21&#45;&gt;Node23</title>
<path fill="none" stroke="midnightblue" d="M400.25,-280.32C389.7,-272.18 373.7,-259.84 361.06,-250.09"/>
<polygon fill="midnightblue" stroke="midnightblue" points="363.01,-247.17 352.95,-243.83 358.73,-252.71 363.01,-247.17"/>
</g>
<!-- Node24 -->
<g id="node24" class="node">
<title>Node24</title>
<g id="a_node24"><a xlink:title=" ">
<polygon fill="white" stroke="#bfbfbf" points="569.5,-224.5 569.5,-243.5 625.5,-243.5 625.5,-224.5 569.5,-224.5"/>
<text text-anchor="middle" x="597.5" y="-231.5" font-family="Helvetica,sans-Serif" font-size="10.00">stddef.h</text>
</a>
</g>
</g>
<!-- Node21&#45;&gt;Node24 -->
<g id="edge37" class="edge">
<title>Node21&#45;&gt;Node24</title>
<path fill="none" stroke="midnightblue" d="M440.97,-280.44C473.04,-271.13 524.42,-256.22 559.51,-246.03"/>
<polygon fill="midnightblue" stroke="midnightblue" points="560.76,-249.31 569.38,-243.16 558.8,-242.59 560.76,-249.31"/>
</g>
<!-- Node25 -->
<g id="node25" class="node">
<title>Node25</title>
<g id="a_node25"><a xlink:href="stdint-intn_8h.html" target="_top" xlink:title=" ">
<polygon fill="white" stroke="black" points="416,-224.5 416,-243.5 513,-243.5 513,-224.5 416,-224.5"/>
<text text-anchor="middle" x="464.5" y="-231.5" font-family="Helvetica,sans-Serif" font-size="10.00">bits/stdint&#45;intn.h</text>
</a>
</g>
</g>
<!-- Node21&#45;&gt;Node25 -->
<g id="edge38" class="edge">
<title>Node21&#45;&gt;Node25</title>
<path fill="none" stroke="midnightblue" d="M420.25,-280.08C427.97,-272.22 439.4,-260.57 448.72,-251.08"/>
<polygon fill="midnightblue" stroke="midnightblue" points="451.4,-253.34 455.91,-243.75 446.41,-248.44 451.4,-253.34"/>
</g>
<!-- Node22&#45;&gt;Node11 -->
<g id="edge33" class="edge">
<title>Node22&#45;&gt;Node11</title>
<path fill="none" stroke="midnightblue" d="M249.17,-224.44C296.6,-214.71 373.89,-198.84 423.45,-188.66"/>
<polygon fill="midnightblue" stroke="midnightblue" points="424.18,-192.08 433.27,-186.64 422.77,-185.23 424.18,-192.08"/>
</g>
<!-- Node23&#45;&gt;Node11 -->
<g id="edge36" class="edge">
<title>Node23&#45;&gt;Node11</title>
<path fill="none" stroke="midnightblue" d="M361.94,-224.44C383.17,-215.56 416.6,-201.56 440.75,-191.45"/>
<polygon fill="midnightblue" stroke="midnightblue" points="442.28,-194.61 450.16,-187.52 439.58,-188.15 442.28,-194.61"/>
</g>
<!-- Node25&#45;&gt;Node11 -->
<g id="edge39" class="edge">
<title>Node25&#45;&gt;Node11</title>
<path fill="none" stroke="midnightblue" d="M465.49,-224.08C466.29,-216.93 467.43,-206.64 468.42,-197.69"/>
<polygon fill="midnightblue" stroke="midnightblue" points="471.9,-198.08 469.53,-187.75 464.94,-197.3 471.9,-198.08"/>
</g>
</g>
</svg>
