<?xml version="1.0" encoding="UTF-8" standalone="no"?>
<!DOCTYPE svg PUBLIC "-//W3C//DTD SVG 1.1//EN"
 "http://www.w3.org/Graphics/SVG/1.1/DTD/svg11.dtd">
<!-- Generated by graphviz version 2.44.1 (0)
 -->
<!-- Title: bits/utmpx.h Pages: 1 -->
<svg width="701pt" height="420pt"
 viewBox="0.00 0.00 701.29 420.00" xmlns="http://www.w3.org/2000/svg" xmlns:xlink="http://www.w3.org/1999/xlink">
<g id="graph0" class="graph" transform="scale(1 1) rotate(0) translate(4 416)">
<title>bits/utmpx.h</title>
<polygon fill="white" stroke="transparent" points="-4,4 -4,-416 697.29,-416 697.29,4 -4,4"/>
<!-- Node1 -->
<g id="node1" class="node">
<title>Node1</title>
<g id="a_node1"><a xlink:title=" ">
<polygon fill="#bfbfbf" stroke="black" points="615.29,-392.5 615.29,-411.5 693.29,-411.5 693.29,-392.5 615.29,-392.5"/>
<text text-anchor="middle" x="654.29" y="-399.5" font-family="Helvetica,sans-Serif" font-size="10.00">bits/utmpx.h</text>
</a>
</g>
</g>
<!-- Node2 -->
<g id="node2" class="node">
<title>Node2</title>
<g id="a_node2"><a xlink:href="bits_2types_8h.html" target="_top" xlink:title=" ">
<polygon fill="white" stroke="black" points="374.29,-168.5 374.29,-187.5 448.29,-187.5 448.29,-168.5 374.29,-168.5"/>
<text text-anchor="middle" x="411.29" y="-175.5" font-family="Helvetica,sans-Serif" font-size="10.00">bits/types.h</text>
</a>
</g>
</g>
<!-- Node1&#45;&gt;Node2 -->
<g id="edge1" class="edge">
<title>Node1&#45;&gt;Node2</title>
<path fill="none" stroke="midnightblue" d="M656.52,-392.22C663.19,-363.72 679.87,-272.85 635.29,-224 612.08,-198.57 517.36,-186.94 458.78,-182.08"/>
<polygon fill="midnightblue" stroke="midnightblue" points="458.89,-178.58 448.64,-181.28 458.33,-185.56 458.89,-178.58"/>
</g>
<!-- Node6 -->
<g id="node6" class="node">
<title>Node6</title>
<g id="a_node6"><a xlink:href="wordsize_8h.html" target="_top" xlink:title=" ">
<polygon fill="white" stroke="black" points="534.29,-0.5 534.29,-19.5 624.29,-19.5 624.29,-0.5 534.29,-0.5"/>
<text text-anchor="middle" x="579.29" y="-7.5" font-family="Helvetica,sans-Serif" font-size="10.00">bits/wordsize.h</text>
</a>
</g>
</g>
<!-- Node1&#45;&gt;Node6 -->
<g id="edge29" class="edge">
<title>Node1&#45;&gt;Node6</title>
<path fill="none" stroke="midnightblue" d="M659.57,-392.23C670.01,-374.04 692.29,-330.6 692.29,-291 692.29,-291 692.29,-291 692.29,-121 692.29,-74.4 642.34,-41.14 608.86,-24.08"/>
<polygon fill="midnightblue" stroke="midnightblue" points="610.01,-20.75 599.49,-19.51 606.94,-27.04 610.01,-20.75"/>
</g>
<!-- Node13 -->
<g id="node13" class="node">
<title>Node13</title>
<g id="a_node13"><a xlink:href="sys_2time_8h.html" target="_top" xlink:title=" ">
<polygon fill="white" stroke="black" points="323.29,-336.5 323.29,-355.5 391.29,-355.5 391.29,-336.5 323.29,-336.5"/>
<text text-anchor="middle" x="357.29" y="-343.5" font-family="Helvetica,sans-Serif" font-size="10.00">sys/time.h</text>
</a>
</g>
</g>
<!-- Node1&#45;&gt;Node13 -->
<g id="edge14" class="edge">
<title>Node1&#45;&gt;Node13</title>
<path fill="none" stroke="midnightblue" d="M615.16,-393.88C559.88,-383.83 459.23,-365.54 401.38,-355.02"/>
<polygon fill="midnightblue" stroke="midnightblue" points="401.91,-351.56 391.44,-353.21 400.65,-358.44 401.91,-351.56"/>
</g>
<!-- Node3 -->
<g id="node3" class="node">
<title>Node3</title>
<g id="a_node3"><a xlink:href="features_8h.html" target="_top" xlink:title=" ">
<polygon fill="white" stroke="black" points="163.29,-112.5 163.29,-131.5 229.29,-131.5 229.29,-112.5 163.29,-112.5"/>
<text text-anchor="middle" x="196.29" y="-119.5" font-family="Helvetica,sans-Serif" font-size="10.00">features.h</text>
</a>
</g>
</g>
<!-- Node2&#45;&gt;Node3 -->
<g id="edge2" class="edge">
<title>Node2&#45;&gt;Node3</title>
<path fill="none" stroke="midnightblue" d="M377.22,-168.44C339.89,-159.07 279.93,-144.01 239.36,-133.82"/>
<polygon fill="midnightblue" stroke="midnightblue" points="240.04,-130.38 229.49,-131.34 238.34,-137.17 240.04,-130.38"/>
</g>
<!-- Node2&#45;&gt;Node6 -->
<g id="edge10" class="edge">
<title>Node2&#45;&gt;Node6</title>
<path fill="none" stroke="midnightblue" d="M448.4,-176.37C482.69,-173.67 532.42,-163.99 560.29,-132 585.23,-103.37 584.62,-55.8 581.97,-29.65"/>
<polygon fill="midnightblue" stroke="midnightblue" points="585.43,-29.08 580.74,-19.58 578.48,-29.93 585.43,-29.08"/>
</g>
<!-- Node10 -->
<g id="node10" class="node">
<title>Node10</title>
<g id="a_node10"><a xlink:href="timesize_8h.html" target="_top" xlink:title=" ">
<polygon fill="white" stroke="black" points="461.79,-112.5 461.79,-131.5 550.79,-131.5 550.79,-112.5 461.79,-112.5"/>
<text text-anchor="middle" x="506.29" y="-119.5" font-family="Helvetica,sans-Serif" font-size="10.00">bits/timesize.h</text>
</a>
</g>
</g>
<!-- Node2&#45;&gt;Node10 -->
<g id="edge11" class="edge">
<title>Node2&#45;&gt;Node10</title>
<path fill="none" stroke="midnightblue" d="M426.55,-168.32C441.51,-159.82 464.54,-146.73 482.01,-136.8"/>
<polygon fill="midnightblue" stroke="midnightblue" points="484.1,-139.64 491.06,-131.65 480.64,-133.55 484.1,-139.64"/>
</g>
<!-- Node11 -->
<g id="node11" class="node">
<title>Node11</title>
<g id="a_node11"><a xlink:href="typesizes_8h.html" target="_top" xlink:title=" ">
<polygon fill="white" stroke="black" points="251.79,-112.5 251.79,-131.5 344.79,-131.5 344.79,-112.5 251.79,-112.5"/>
<text text-anchor="middle" x="298.29" y="-119.5" font-family="Helvetica,sans-Serif" font-size="10.00">bits/typesizes.h</text>
</a>
</g>
</g>
<!-- Node2&#45;&gt;Node11 -->
<g id="edge12" class="edge">
<title>Node2&#45;&gt;Node11</title>
<path fill="none" stroke="midnightblue" d="M393.38,-168.44C375.03,-159.68 346.28,-145.94 325.19,-135.86"/>
<polygon fill="midnightblue" stroke="midnightblue" points="326.64,-132.67 316.11,-131.52 323.62,-138.99 326.64,-132.67"/>
</g>
<!-- Node12 -->
<g id="node12" class="node">
<title>Node12</title>
<g id="a_node12"><a xlink:href="time64_8h.html" target="_top" xlink:title=" ">
<polygon fill="white" stroke="black" points="362.79,-112.5 362.79,-131.5 443.79,-131.5 443.79,-112.5 362.79,-112.5"/>
<text text-anchor="middle" x="403.29" y="-119.5" font-family="Helvetica,sans-Serif" font-size="10.00">bits/time64.h</text>
</a>
</g>
</g>
<!-- Node2&#45;&gt;Node12 -->
<g id="edge13" class="edge">
<title>Node2&#45;&gt;Node12</title>
<path fill="none" stroke="midnightblue" d="M409.97,-168.08C408.91,-160.93 407.38,-150.64 406.06,-141.69"/>
<polygon fill="midnightblue" stroke="midnightblue" points="409.51,-141.13 404.58,-131.75 402.59,-142.16 409.51,-141.13"/>
</g>
<!-- Node4 -->
<g id="node4" class="node">
<title>Node4</title>
<g id="a_node4"><a xlink:href="stdc-predef_8h.html" target="_top" xlink:title=" ">
<polygon fill="white" stroke="black" points="250.29,-56.5 250.29,-75.5 330.29,-75.5 330.29,-56.5 250.29,-56.5"/>
<text text-anchor="middle" x="290.29" y="-63.5" font-family="Helvetica,sans-Serif" font-size="10.00">stdc&#45;predef.h</text>
</a>
</g>
</g>
<!-- Node3&#45;&gt;Node4 -->
<g id="edge3" class="edge">
<title>Node3&#45;&gt;Node4</title>
<path fill="none" stroke="midnightblue" d="M211.39,-112.32C226.19,-103.82 248.98,-90.73 266.27,-80.8"/>
<polygon fill="midnightblue" stroke="midnightblue" points="268.3,-83.67 275.22,-75.65 264.81,-77.6 268.3,-83.67"/>
</g>
<!-- Node5 -->
<g id="node5" class="node">
<title>Node5</title>
<g id="a_node5"><a xlink:href="cdefs_8h.html" target="_top" xlink:title=" ">
<polygon fill="white" stroke="black" points="160.79,-56.5 160.79,-75.5 231.79,-75.5 231.79,-56.5 160.79,-56.5"/>
<text text-anchor="middle" x="196.29" y="-63.5" font-family="Helvetica,sans-Serif" font-size="10.00">sys/cdefs.h</text>
</a>
</g>
</g>
<!-- Node3&#45;&gt;Node5 -->
<g id="edge4" class="edge">
<title>Node3&#45;&gt;Node5</title>
<path fill="none" stroke="midnightblue" d="M191.12,-112.08C189.61,-104.93 189.18,-94.64 189.83,-85.69"/>
<polygon fill="midnightblue" stroke="midnightblue" points="193.3,-86.13 191.16,-75.75 186.36,-85.2 193.3,-86.13"/>
</g>
<!-- Node8 -->
<g id="node8" class="node">
<title>Node8</title>
<g id="a_node8"><a xlink:href="stubs_8h.html" target="_top" xlink:title=" ">
<polygon fill="white" stroke="black" points="63.79,-56.5 63.79,-75.5 136.79,-75.5 136.79,-56.5 63.79,-56.5"/>
<text text-anchor="middle" x="100.29" y="-63.5" font-family="Helvetica,sans-Serif" font-size="10.00">gnu/stubs.h</text>
</a>
</g>
</g>
<!-- Node3&#45;&gt;Node8 -->
<g id="edge8" class="edge">
<title>Node3&#45;&gt;Node8</title>
<path fill="none" stroke="midnightblue" d="M180.86,-112.32C165.75,-103.82 142.47,-90.73 124.82,-80.8"/>
<polygon fill="midnightblue" stroke="midnightblue" points="126.11,-77.51 115.67,-75.65 122.67,-83.61 126.11,-77.51"/>
</g>
<!-- Node5&#45;&gt;Node3 -->
<g id="edge5" class="edge">
<title>Node5&#45;&gt;Node3</title>
<path fill="none" stroke="midnightblue" d="M201.42,-75.75C202.95,-82.86 203.39,-93.14 202.76,-102.1"/>
<polygon fill="midnightblue" stroke="midnightblue" points="199.28,-101.71 201.45,-112.08 206.22,-102.62 199.28,-101.71"/>
</g>
<!-- Node5&#45;&gt;Node6 -->
<g id="edge6" class="edge">
<title>Node5&#45;&gt;Node6</title>
<path fill="none" stroke="midnightblue" d="M232.11,-57.62C235.21,-57.04 238.3,-56.5 241.29,-56 340.37,-39.51 456.59,-25.11 523.7,-17.28"/>
<polygon fill="midnightblue" stroke="midnightblue" points="524.52,-20.71 534.04,-16.08 523.71,-13.75 524.52,-20.71"/>
</g>
<!-- Node7 -->
<g id="node7" class="node">
<title>Node7</title>
<g id="a_node7"><a xlink:href="long-double_8h.html" target="_top" xlink:title=" ">
<polygon fill="white" stroke="black" points="151.29,-0.5 151.29,-19.5 255.29,-19.5 255.29,-0.5 151.29,-0.5"/>
<text text-anchor="middle" x="203.29" y="-7.5" font-family="Helvetica,sans-Serif" font-size="10.00">bits/long&#45;double.h</text>
</a>
</g>
</g>
<!-- Node5&#45;&gt;Node7 -->
<g id="edge7" class="edge">
<title>Node5&#45;&gt;Node7</title>
<path fill="none" stroke="midnightblue" d="M197.44,-56.08C198.37,-48.93 199.71,-38.64 200.87,-29.69"/>
<polygon fill="midnightblue" stroke="midnightblue" points="204.34,-30.12 202.15,-19.75 197.4,-29.22 204.34,-30.12"/>
</g>
<!-- Node9 -->
<g id="node9" class="node">
<title>Node9</title>
<g id="a_node9"><a xlink:title=" ">
<polygon fill="white" stroke="#bfbfbf" points="43.79,-0.5 43.79,-19.5 132.79,-19.5 132.79,-0.5 43.79,-0.5"/>
<text text-anchor="middle" x="88.29" y="-7.5" font-family="Helvetica,sans-Serif" font-size="10.00">gnu/stubs&#45;32.h</text>
</a>
</g>
</g>
<!-- Node8&#45;&gt;Node9 -->
<g id="edge9" class="edge">
<title>Node8&#45;&gt;Node9</title>
<path fill="none" stroke="midnightblue" d="M98.31,-56.08C96.72,-48.93 94.43,-38.64 92.44,-29.69"/>
<polygon fill="midnightblue" stroke="midnightblue" points="95.82,-28.75 90.23,-19.75 88.99,-30.27 95.82,-28.75"/>
</g>
<!-- Node13&#45;&gt;Node2 -->
<g id="edge16" class="edge">
<title>Node13&#45;&gt;Node2</title>
<path fill="none" stroke="midnightblue" d="M323.25,-343.73C225.61,-338.94 -43.28,-317.16 39.29,-224 60.5,-200.07 268.59,-186.35 363.97,-181.28"/>
<polygon fill="midnightblue" stroke="midnightblue" points="364.4,-184.76 374.2,-180.74 364.03,-177.77 364.4,-184.76"/>
</g>
<!-- Node13&#45;&gt;Node3 -->
<g id="edge15" class="edge">
<title>Node13&#45;&gt;Node3</title>
<path fill="none" stroke="midnightblue" d="M323.25,-345.34C247.93,-345.31 70.61,-340.82 30.29,-300 -10.94,-258.26 -8.83,-212.6 29.29,-168 45.23,-149.35 108.85,-136.17 152.8,-129.08"/>
<polygon fill="midnightblue" stroke="midnightblue" points="153.62,-132.5 162.96,-127.5 152.54,-125.58 153.62,-132.5"/>
</g>
<!-- Node14 -->
<g id="node14" class="node">
<title>Node14</title>
<g id="a_node14"><a xlink:href="time__t_8h.html" target="_top" xlink:title=" ">
<polygon fill="white" stroke="black" points="518.29,-224.5 518.29,-243.5 626.29,-243.5 626.29,-224.5 518.29,-224.5"/>
<text text-anchor="middle" x="572.29" y="-231.5" font-family="Helvetica,sans-Serif" font-size="10.00">bits/types/time_t.h</text>
</a>
</g>
</g>
<!-- Node13&#45;&gt;Node14 -->
<g id="edge17" class="edge">
<title>Node13&#45;&gt;Node14</title>
<path fill="none" stroke="midnightblue" d="M374.16,-336.37C411.6,-317.21 501.86,-271.04 546.45,-248.22"/>
<polygon fill="midnightblue" stroke="midnightblue" points="548.19,-251.26 555.5,-243.59 545,-245.03 548.19,-251.26"/>
</g>
<!-- Node15 -->
<g id="node15" class="node">
<title>Node15</title>
<g id="a_node15"><a xlink:href="struct__timeval_8h.html" target="_top" xlink:title=" ">
<polygon fill="white" stroke="black" points="352.79,-224.5 352.79,-243.5 499.79,-243.5 499.79,-224.5 352.79,-224.5"/>
<text text-anchor="middle" x="426.29" y="-231.5" font-family="Helvetica,sans-Serif" font-size="10.00">bits/types/struct_timeval.h</text>
</a>
</g>
</g>
<!-- Node13&#45;&gt;Node15 -->
<g id="edge19" class="edge">
<title>Node13&#45;&gt;Node15</title>
<path fill="none" stroke="midnightblue" d="M362.7,-336.37C374.04,-318.3 400.46,-276.18 415.43,-252.31"/>
<polygon fill="midnightblue" stroke="midnightblue" points="418.55,-253.92 420.9,-243.59 412.62,-250.2 418.55,-253.92"/>
</g>
<!-- Node16 -->
<g id="node16" class="node">
<title>Node16</title>
<g id="a_node16"><a xlink:href="sys_2select_8h.html" target="_top" xlink:title=" ">
<polygon fill="white" stroke="black" points="287.29,-280.5 287.29,-299.5 361.29,-299.5 361.29,-280.5 287.29,-280.5"/>
<text text-anchor="middle" x="324.29" y="-287.5" font-family="Helvetica,sans-Serif" font-size="10.00">sys/select.h</text>
</a>
</g>
</g>
<!-- Node13&#45;&gt;Node16 -->
<g id="edge21" class="edge">
<title>Node13&#45;&gt;Node16</title>
<path fill="none" stroke="midnightblue" d="M351.84,-336.08C347.27,-328.61 340.62,-317.72 334.99,-308.52"/>
<polygon fill="midnightblue" stroke="midnightblue" points="337.84,-306.46 329.64,-299.75 331.86,-310.11 337.84,-306.46"/>
</g>
<!-- Node14&#45;&gt;Node2 -->
<g id="edge18" class="edge">
<title>Node14&#45;&gt;Node2</title>
<path fill="none" stroke="midnightblue" d="M546.78,-224.44C519.69,-215.36 476.7,-200.94 446.42,-190.78"/>
<polygon fill="midnightblue" stroke="midnightblue" points="447.27,-187.38 436.68,-187.52 445.05,-194.01 447.27,-187.38"/>
</g>
<!-- Node15&#45;&gt;Node2 -->
<g id="edge20" class="edge">
<title>Node15&#45;&gt;Node2</title>
<path fill="none" stroke="midnightblue" d="M423.81,-224.08C421.8,-216.85 418.9,-206.41 416.4,-197.4"/>
<polygon fill="midnightblue" stroke="midnightblue" points="419.77,-196.45 413.72,-187.75 413.02,-198.32 419.77,-196.45"/>
</g>
<!-- Node16&#45;&gt;Node2 -->
<g id="edge23" class="edge">
<title>Node16&#45;&gt;Node2</title>
<path fill="none" stroke="midnightblue" d="M325.12,-280.17C326.77,-266.83 331.47,-241.25 344.29,-224 354.27,-210.57 369.52,-199.87 382.95,-192.29"/>
<polygon fill="midnightblue" stroke="midnightblue" points="384.69,-195.32 391.87,-187.53 381.4,-189.15 384.69,-195.32"/>
</g>
<!-- Node16&#45;&gt;Node3 -->
<g id="edge22" class="edge">
<title>Node16&#45;&gt;Node3</title>
<path fill="none" stroke="midnightblue" d="M287.11,-284.13C261.69,-278.74 229.42,-267.48 211.29,-244 188.3,-214.23 190,-167.49 193.19,-141.68"/>
<polygon fill="midnightblue" stroke="midnightblue" points="196.66,-142.12 194.63,-131.72 189.73,-141.12 196.66,-142.12"/>
</g>
<!-- Node16&#45;&gt;Node14 -->
<g id="edge27" class="edge">
<title>Node16&#45;&gt;Node14</title>
<path fill="none" stroke="midnightblue" d="M361.42,-280.92C404.43,-271.55 475.48,-256.08 523.07,-245.72"/>
<polygon fill="midnightblue" stroke="midnightblue" points="523.83,-249.13 532.85,-243.59 522.34,-242.29 523.83,-249.13"/>
</g>
<!-- Node16&#45;&gt;Node15 -->
<g id="edge28" class="edge">
<title>Node16&#45;&gt;Node15</title>
<path fill="none" stroke="midnightblue" d="M340.68,-280.32C356.96,-271.7 382.16,-258.36 401,-248.39"/>
<polygon fill="midnightblue" stroke="midnightblue" points="402.74,-251.43 409.94,-243.65 399.47,-245.24 402.74,-251.43"/>
</g>
<!-- Node17 -->
<g id="node17" class="node">
<title>Node17</title>
<g id="a_node17"><a xlink:href="bits_2select_8h.html" target="_top" xlink:title=" ">
<polygon fill="white" stroke="black" points="220.29,-224.5 220.29,-243.5 296.29,-243.5 296.29,-224.5 220.29,-224.5"/>
<text text-anchor="middle" x="258.29" y="-231.5" font-family="Helvetica,sans-Serif" font-size="10.00">bits/select.h</text>
</a>
</g>
</g>
<!-- Node16&#45;&gt;Node17 -->
<g id="edge24" class="edge">
<title>Node16&#45;&gt;Node17</title>
<path fill="none" stroke="midnightblue" d="M313.68,-280.32C303.83,-272.26 288.94,-260.08 277.07,-250.37"/>
<polygon fill="midnightblue" stroke="midnightblue" points="279.04,-247.46 269.09,-243.83 274.61,-252.88 279.04,-247.46"/>
</g>
<!-- Node18 -->
<g id="node18" class="node">
<title>Node18</title>
<g id="a_node18"><a xlink:href="sigset__t_8h.html" target="_top" xlink:title=" ">
<polygon fill="white" stroke="black" points="48.79,-224.5 48.79,-243.5 163.79,-243.5 163.79,-224.5 48.79,-224.5"/>
<text text-anchor="middle" x="106.29" y="-231.5" font-family="Helvetica,sans-Serif" font-size="10.00">bits/types/sigset_t.h</text>
</a>
</g>
</g>
<!-- Node16&#45;&gt;Node18 -->
<g id="edge25" class="edge">
<title>Node16&#45;&gt;Node18</title>
<path fill="none" stroke="midnightblue" d="M289.75,-280.44C252.03,-271.1 191.55,-256.12 150.42,-245.93"/>
<polygon fill="midnightblue" stroke="midnightblue" points="151.22,-242.52 140.67,-243.52 149.53,-249.32 151.22,-242.52"/>
</g>
<!-- Node19 -->
<g id="node19" class="node">
<title>Node19</title>
<g id="a_node19"><a xlink:href="____sigset__t_8h.html" target="_top" xlink:title=" ">
<polygon fill="white" stroke="black" points="38.79,-168.5 38.79,-187.5 163.79,-187.5 163.79,-168.5 38.79,-168.5"/>
<text text-anchor="middle" x="101.29" y="-175.5" font-family="Helvetica,sans-Serif" font-size="10.00">bits/types/__sigset_t.h</text>
</a>
</g>
</g>
<!-- Node18&#45;&gt;Node19 -->
<g id="edge26" class="edge">
<title>Node18&#45;&gt;Node19</title>
<path fill="none" stroke="midnightblue" d="M105.46,-224.08C104.81,-217.01 103.87,-206.86 103.05,-197.99"/>
<polygon fill="midnightblue" stroke="midnightblue" points="106.51,-197.39 102.1,-187.75 99.54,-198.03 106.51,-197.39"/>
</g>
</g>
</svg>
