<?xml version="1.0" encoding="UTF-8" standalone="no"?>
<!DOCTYPE svg PUBLIC "-//W3C//DTD SVG 1.1//EN"
 "http://www.w3.org/Graphics/SVG/1.1/DTD/svg11.dtd">
<!-- Generated by graphviz version 2.44.1 (0)
 -->
<!-- Title: bits/mqueue.h Pages: 1 -->
<svg width="650pt" height="252pt"
 viewBox="0.00 0.00 650.00 252.00" xmlns="http://www.w3.org/2000/svg" xmlns:xlink="http://www.w3.org/1999/xlink">
<g id="graph0" class="graph" transform="scale(1 1) rotate(0) translate(4 248)">
<title>bits/mqueue.h</title>
<polygon fill="white" stroke="transparent" points="-4,4 -4,-248 646,-248 646,4 -4,4"/>
<!-- Node1 -->
<g id="node1" class="node">
<title>Node1</title>
<g id="a_node1"><a xlink:title=" ">
<polygon fill="#bfbfbf" stroke="black" points="344.5,-224.5 344.5,-243.5 430.5,-243.5 430.5,-224.5 344.5,-224.5"/>
<text text-anchor="middle" x="387.5" y="-231.5" font-family="Helvetica,sans-Serif" font-size="10.00">bits/mqueue.h</text>
</a>
</g>
</g>
<!-- Node2 -->
<g id="node2" class="node">
<title>Node2</title>
<g id="a_node2"><a xlink:href="bits_2types_8h.html" target="_top" xlink:title=" ">
<polygon fill="white" stroke="black" points="350.5,-168.5 350.5,-187.5 424.5,-187.5 424.5,-168.5 350.5,-168.5"/>
<text text-anchor="middle" x="387.5" y="-175.5" font-family="Helvetica,sans-Serif" font-size="10.00">bits/types.h</text>
</a>
</g>
</g>
<!-- Node1&#45;&gt;Node2 -->
<g id="edge1" class="edge">
<title>Node1&#45;&gt;Node2</title>
<path fill="none" stroke="midnightblue" d="M387.5,-224.08C387.5,-217.01 387.5,-206.86 387.5,-197.99"/>
<polygon fill="midnightblue" stroke="midnightblue" points="391,-197.75 387.5,-187.75 384,-197.75 391,-197.75"/>
</g>
<!-- Node3 -->
<g id="node3" class="node">
<title>Node3</title>
<g id="a_node3"><a xlink:href="features_8h.html" target="_top" xlink:title=" ">
<polygon fill="white" stroke="black" points="119.5,-112.5 119.5,-131.5 185.5,-131.5 185.5,-112.5 119.5,-112.5"/>
<text text-anchor="middle" x="152.5" y="-119.5" font-family="Helvetica,sans-Serif" font-size="10.00">features.h</text>
</a>
</g>
</g>
<!-- Node2&#45;&gt;Node3 -->
<g id="edge2" class="edge">
<title>Node2&#45;&gt;Node3</title>
<path fill="none" stroke="midnightblue" d="M350.26,-168.44C308.24,-158.79 239.98,-143.1 195.66,-132.92"/>
<polygon fill="midnightblue" stroke="midnightblue" points="196.29,-129.47 185.76,-130.64 194.72,-136.29 196.29,-129.47"/>
</g>
<!-- Node6 -->
<g id="node6" class="node">
<title>Node6</title>
<g id="a_node6"><a xlink:href="wordsize_8h.html" target="_top" xlink:title=" ">
<polygon fill="white" stroke="black" points="249.5,-0.5 249.5,-19.5 339.5,-19.5 339.5,-0.5 249.5,-0.5"/>
<text text-anchor="middle" x="294.5" y="-7.5" font-family="Helvetica,sans-Serif" font-size="10.00">bits/wordsize.h</text>
</a>
</g>
</g>
<!-- Node2&#45;&gt;Node6 -->
<g id="edge10" class="edge">
<title>Node2&#45;&gt;Node6</title>
<path fill="none" stroke="midnightblue" d="M373.44,-168.29C361.52,-160.23 344.75,-147.21 334.5,-132 312.73,-99.7 301.99,-54.61 297.4,-29.59"/>
<polygon fill="midnightblue" stroke="midnightblue" points="300.83,-28.9 295.71,-19.62 293.93,-30.07 300.83,-28.9"/>
</g>
<!-- Node10 -->
<g id="node10" class="node">
<title>Node10</title>
<g id="a_node10"><a xlink:href="timesize_8h.html" target="_top" xlink:title=" ">
<polygon fill="white" stroke="black" points="343,-112.5 343,-131.5 432,-131.5 432,-112.5 343,-112.5"/>
<text text-anchor="middle" x="387.5" y="-119.5" font-family="Helvetica,sans-Serif" font-size="10.00">bits/timesize.h</text>
</a>
</g>
</g>
<!-- Node2&#45;&gt;Node10 -->
<g id="edge11" class="edge">
<title>Node2&#45;&gt;Node10</title>
<path fill="none" stroke="midnightblue" d="M387.5,-168.08C387.5,-161.01 387.5,-150.86 387.5,-141.99"/>
<polygon fill="midnightblue" stroke="midnightblue" points="391,-141.75 387.5,-131.75 384,-141.75 391,-141.75"/>
</g>
<!-- Node11 -->
<g id="node11" class="node">
<title>Node11</title>
<g id="a_node11"><a xlink:href="typesizes_8h.html" target="_top" xlink:title=" ">
<polygon fill="white" stroke="black" points="450,-112.5 450,-131.5 543,-131.5 543,-112.5 450,-112.5"/>
<text text-anchor="middle" x="496.5" y="-119.5" font-family="Helvetica,sans-Serif" font-size="10.00">bits/typesizes.h</text>
</a>
</g>
</g>
<!-- Node2&#45;&gt;Node11 -->
<g id="edge12" class="edge">
<title>Node2&#45;&gt;Node11</title>
<path fill="none" stroke="midnightblue" d="M405.01,-168.32C422.57,-159.62 449.83,-146.12 470.03,-136.11"/>
<polygon fill="midnightblue" stroke="midnightblue" points="471.62,-139.23 479.03,-131.65 468.52,-132.96 471.62,-139.23"/>
</g>
<!-- Node12 -->
<g id="node12" class="node">
<title>Node12</title>
<g id="a_node12"><a xlink:href="time64_8h.html" target="_top" xlink:title=" ">
<polygon fill="white" stroke="black" points="561,-112.5 561,-131.5 642,-131.5 642,-112.5 561,-112.5"/>
<text text-anchor="middle" x="601.5" y="-119.5" font-family="Helvetica,sans-Serif" font-size="10.00">bits/time64.h</text>
</a>
</g>
</g>
<!-- Node2&#45;&gt;Node12 -->
<g id="edge13" class="edge">
<title>Node2&#45;&gt;Node12</title>
<path fill="none" stroke="midnightblue" d="M421.41,-168.44C458.35,-159.12 517.55,-144.18 557.92,-134"/>
<polygon fill="midnightblue" stroke="midnightblue" points="558.91,-137.36 567.75,-131.52 557.2,-130.57 558.91,-137.36"/>
</g>
<!-- Node4 -->
<g id="node4" class="node">
<title>Node4</title>
<g id="a_node4"><a xlink:href="stdc-predef_8h.html" target="_top" xlink:title=" ">
<polygon fill="white" stroke="black" points="206.5,-56.5 206.5,-75.5 286.5,-75.5 286.5,-56.5 206.5,-56.5"/>
<text text-anchor="middle" x="246.5" y="-63.5" font-family="Helvetica,sans-Serif" font-size="10.00">stdc&#45;predef.h</text>
</a>
</g>
</g>
<!-- Node3&#45;&gt;Node4 -->
<g id="edge3" class="edge">
<title>Node3&#45;&gt;Node4</title>
<path fill="none" stroke="midnightblue" d="M167.6,-112.32C182.4,-103.82 205.19,-90.73 222.48,-80.8"/>
<polygon fill="midnightblue" stroke="midnightblue" points="224.51,-83.67 231.43,-75.65 221.02,-77.6 224.51,-83.67"/>
</g>
<!-- Node5 -->
<g id="node5" class="node">
<title>Node5</title>
<g id="a_node5"><a xlink:href="cdefs_8h.html" target="_top" xlink:title=" ">
<polygon fill="white" stroke="black" points="117,-56.5 117,-75.5 188,-75.5 188,-56.5 117,-56.5"/>
<text text-anchor="middle" x="152.5" y="-63.5" font-family="Helvetica,sans-Serif" font-size="10.00">sys/cdefs.h</text>
</a>
</g>
</g>
<!-- Node3&#45;&gt;Node5 -->
<g id="edge4" class="edge">
<title>Node3&#45;&gt;Node5</title>
<path fill="none" stroke="midnightblue" d="M147.33,-112.08C145.82,-104.93 145.39,-94.64 146.04,-85.69"/>
<polygon fill="midnightblue" stroke="midnightblue" points="149.52,-86.13 147.37,-75.75 142.58,-85.2 149.52,-86.13"/>
</g>
<!-- Node8 -->
<g id="node8" class="node">
<title>Node8</title>
<g id="a_node8"><a xlink:href="stubs_8h.html" target="_top" xlink:title=" ">
<polygon fill="white" stroke="black" points="20,-56.5 20,-75.5 93,-75.5 93,-56.5 20,-56.5"/>
<text text-anchor="middle" x="56.5" y="-63.5" font-family="Helvetica,sans-Serif" font-size="10.00">gnu/stubs.h</text>
</a>
</g>
</g>
<!-- Node3&#45;&gt;Node8 -->
<g id="edge8" class="edge">
<title>Node3&#45;&gt;Node8</title>
<path fill="none" stroke="midnightblue" d="M137.08,-112.32C121.96,-103.82 98.68,-90.73 81.03,-80.8"/>
<polygon fill="midnightblue" stroke="midnightblue" points="82.32,-77.51 71.89,-75.65 78.89,-83.61 82.32,-77.51"/>
</g>
<!-- Node5&#45;&gt;Node3 -->
<g id="edge5" class="edge">
<title>Node5&#45;&gt;Node3</title>
<path fill="none" stroke="midnightblue" d="M157.63,-75.75C159.16,-82.86 159.6,-93.14 158.97,-102.1"/>
<polygon fill="midnightblue" stroke="midnightblue" points="155.49,-101.71 157.67,-112.08 162.43,-102.62 155.49,-101.71"/>
</g>
<!-- Node5&#45;&gt;Node6 -->
<g id="edge6" class="edge">
<title>Node5&#45;&gt;Node6</title>
<path fill="none" stroke="midnightblue" d="M175,-56.44C198.58,-47.48 235.82,-33.31 262.46,-23.18"/>
<polygon fill="midnightblue" stroke="midnightblue" points="264,-26.34 272.1,-19.52 261.51,-19.8 264,-26.34"/>
</g>
<!-- Node7 -->
<g id="node7" class="node">
<title>Node7</title>
<g id="a_node7"><a xlink:href="long-double_8h.html" target="_top" xlink:title=" ">
<polygon fill="white" stroke="black" points="107.5,-0.5 107.5,-19.5 211.5,-19.5 211.5,-0.5 107.5,-0.5"/>
<text text-anchor="middle" x="159.5" y="-7.5" font-family="Helvetica,sans-Serif" font-size="10.00">bits/long&#45;double.h</text>
</a>
</g>
</g>
<!-- Node5&#45;&gt;Node7 -->
<g id="edge7" class="edge">
<title>Node5&#45;&gt;Node7</title>
<path fill="none" stroke="midnightblue" d="M153.66,-56.08C154.58,-48.93 155.92,-38.64 157.08,-29.69"/>
<polygon fill="midnightblue" stroke="midnightblue" points="160.55,-30.12 158.37,-19.75 153.61,-29.22 160.55,-30.12"/>
</g>
<!-- Node9 -->
<g id="node9" class="node">
<title>Node9</title>
<g id="a_node9"><a xlink:title=" ">
<polygon fill="white" stroke="#bfbfbf" points="0,-0.5 0,-19.5 89,-19.5 89,-0.5 0,-0.5"/>
<text text-anchor="middle" x="44.5" y="-7.5" font-family="Helvetica,sans-Serif" font-size="10.00">gnu/stubs&#45;32.h</text>
</a>
</g>
</g>
<!-- Node8&#45;&gt;Node9 -->
<g id="edge9" class="edge">
<title>Node8&#45;&gt;Node9</title>
<path fill="none" stroke="midnightblue" d="M54.52,-56.08C52.93,-48.93 50.64,-38.64 48.65,-29.69"/>
<polygon fill="midnightblue" stroke="midnightblue" points="52.03,-28.75 46.44,-19.75 45.2,-30.27 52.03,-28.75"/>
</g>
</g>
</svg>
