<?xml version="1.0" encoding="UTF-8" standalone="no"?>
<!DOCTYPE svg PUBLIC "-//W3C//DTD SVG 1.1//EN"
 "http://www.w3.org/Graphics/SVG/1.1/DTD/svg11.dtd">
<!-- Generated by graphviz version 2.44.1 (0)
 -->
<!-- Title: sys/cdefs.h Pages: 1 -->
<svg width="2885pt" height="252pt"
 viewBox="0.00 0.00 2884.50 252.00" xmlns="http://www.w3.org/2000/svg" xmlns:xlink="http://www.w3.org/1999/xlink">
<g id="graph0" class="graph" transform="scale(1 1) rotate(0) translate(4 248)">
<title>sys/cdefs.h</title>
<polygon fill="white" stroke="transparent" points="-4,4 -4,-248 2880.5,-248 2880.5,4 -4,4"/>
<!-- Node1 -->
<g id="node1" class="node">
<title>Node1</title>
<g id="a_node1"><a xlink:title=" ">
<polygon fill="#bfbfbf" stroke="black" points="1352,-224.5 1352,-243.5 1423,-243.5 1423,-224.5 1352,-224.5"/>
<text text-anchor="middle" x="1387.5" y="-231.5" font-family="Helvetica,sans-Serif" font-size="10.00">sys/cdefs.h</text>
</a>
</g>
</g>
<!-- Node2 -->
<g id="node2" class="node">
<title>Node2</title>
<g id="a_node2"><a xlink:href="ar_8h.html" target="_top" xlink:title=" ">
<polygon fill="white" stroke="black" points="1183,-168.5 1183,-187.5 1218,-187.5 1218,-168.5 1183,-168.5"/>
<text text-anchor="middle" x="1200.5" y="-175.5" font-family="Helvetica,sans-Serif" font-size="10.00">ar.h</text>
</a>
</g>
</g>
<!-- Node1&#45;&gt;Node2 -->
<g id="edge1" class="edge">
<title>Node1&#45;&gt;Node2</title>
<path fill="none" stroke="midnightblue" d="M1345.48,-221.77C1313.12,-212.98 1267.32,-200.23 1227.5,-188 1224.48,-187.07 1221.28,-186.04 1218.18,-185.03"/>
<polygon fill="midnightblue" stroke="midnightblue" points="1344.93,-225.25 1355.49,-224.48 1346.76,-218.49 1344.93,-225.25"/>
</g>
<!-- Node3 -->
<g id="node3" class="node">
<title>Node3</title>
<g id="a_node3"><a xlink:href="features_8h.html" target="_top" xlink:title=" ">
<polygon fill="white" stroke="red" points="1236.5,-168.5 1236.5,-187.5 1302.5,-187.5 1302.5,-168.5 1236.5,-168.5"/>
<text text-anchor="middle" x="1269.5" y="-175.5" font-family="Helvetica,sans-Serif" font-size="10.00">features.h</text>
</a>
</g>
</g>
<!-- Node1&#45;&gt;Node3 -->
<g id="edge2" class="edge">
<title>Node1&#45;&gt;Node3</title>
<path fill="none" stroke="midnightblue" d="M1354.39,-220.5C1330.8,-210.38 1300.46,-196.39 1283.03,-187.52"/>
<polygon fill="midnightblue" stroke="midnightblue" points="1353.14,-223.77 1363.71,-224.44 1355.87,-217.33 1353.14,-223.77"/>
</g>
<!-- Node242 -->
<g id="node46" class="node">
<title>Node242</title>
<g id="a_node46"><a xlink:href="glob_8h.html" target="_top" xlink:title=" ">
<polygon fill="white" stroke="black" points="1321,-168.5 1321,-187.5 1368,-187.5 1368,-168.5 1321,-168.5"/>
<text text-anchor="middle" x="1344.5" y="-175.5" font-family="Helvetica,sans-Serif" font-size="10.00">glob.h</text>
</a>
</g>
</g>
<!-- Node1&#45;&gt;Node242 -->
<g id="edge59" class="edge">
<title>Node1&#45;&gt;Node242</title>
<path fill="none" stroke="midnightblue" d="M1374.08,-216.14C1366.59,-206.74 1357.56,-195.4 1351.47,-187.75"/>
<polygon fill="midnightblue" stroke="midnightblue" points="1371.43,-218.44 1380.4,-224.08 1376.91,-214.08 1371.43,-218.44"/>
</g>
<!-- Node102 -->
<g id="node47" class="node">
<title>Node102</title>
<g id="a_node47"><a xlink:href="igmp_8h.html" target="_top" xlink:title=" ">
<polygon fill="white" stroke="black" points="1386.5,-168.5 1386.5,-187.5 1474.5,-187.5 1474.5,-168.5 1386.5,-168.5"/>
<text text-anchor="middle" x="1430.5" y="-175.5" font-family="Helvetica,sans-Serif" font-size="10.00">netinet/igmp.h</text>
</a>
</g>
</g>
<!-- Node1&#45;&gt;Node102 -->
<g id="edge60" class="edge">
<title>Node1&#45;&gt;Node102</title>
<path fill="none" stroke="midnightblue" d="M1400.92,-216.14C1408.41,-206.74 1417.44,-195.4 1423.53,-187.75"/>
<polygon fill="midnightblue" stroke="midnightblue" points="1398.09,-214.08 1394.6,-224.08 1403.57,-218.44 1398.09,-214.08"/>
</g>
<!-- Node14 -->
<g id="node48" class="node">
<title>Node14</title>
<g id="a_node48"><a xlink:href="resolv_8h.html" target="_top" xlink:title=" ">
<polygon fill="white" stroke="black" points="1493,-168.5 1493,-187.5 1548,-187.5 1548,-168.5 1493,-168.5"/>
<text text-anchor="middle" x="1520.5" y="-175.5" font-family="Helvetica,sans-Serif" font-size="10.00">resolv.h</text>
</a>
</g>
</g>
<!-- Node1&#45;&gt;Node14 -->
<g id="edge61" class="edge">
<title>Node1&#45;&gt;Node14</title>
<path fill="none" stroke="midnightblue" d="M1417.95,-220.64C1442.91,-210.5 1477.58,-196.43 1499.52,-187.52"/>
<polygon fill="midnightblue" stroke="midnightblue" points="1416.52,-217.44 1408.57,-224.44 1419.16,-223.92 1416.52,-217.44"/>
</g>
<!-- Node116 -->
<g id="node49" class="node">
<title>Node116</title>
<g id="a_node49"><a xlink:href="auxv_8h.html" target="_top" xlink:title=" ">
<polygon fill="white" stroke="black" points="1566.5,-168.5 1566.5,-187.5 1634.5,-187.5 1634.5,-168.5 1566.5,-168.5"/>
<text text-anchor="middle" x="1600.5" y="-175.5" font-family="Helvetica,sans-Serif" font-size="10.00">sys/auxv.h</text>
</a>
</g>
</g>
<!-- Node1&#45;&gt;Node116 -->
<g id="edge62" class="edge">
<title>Node1&#45;&gt;Node116</title>
<path fill="none" stroke="midnightblue" d="M1431.05,-221.96C1471.28,-211.76 1530.2,-196.82 1566.91,-187.52"/>
<polygon fill="midnightblue" stroke="midnightblue" points="1430.08,-218.59 1421.25,-224.44 1431.8,-225.38 1430.08,-218.59"/>
</g>
<!-- Node243 -->
<g id="node50" class="node">
<title>Node243</title>
<g id="a_node50"><a xlink:href="un_8h.html" target="_top" xlink:title=" ">
<polygon fill="white" stroke="black" points="1653,-168.5 1653,-187.5 1710,-187.5 1710,-168.5 1653,-168.5"/>
<text text-anchor="middle" x="1681.5" y="-175.5" font-family="Helvetica,sans-Serif" font-size="10.00">sys/un.h</text>
</a>
</g>
</g>
<!-- Node1&#45;&gt;Node243 -->
<g id="edge63" class="edge">
<title>Node1&#45;&gt;Node243</title>
<path fill="none" stroke="midnightblue" d="M1433.35,-225.77C1484.7,-217.48 1570.31,-203.09 1643.5,-188 1646.55,-187.37 1649.74,-186.68 1652.91,-185.96"/>
<polygon fill="midnightblue" stroke="midnightblue" points="1432.56,-222.35 1423.24,-227.4 1433.67,-229.26 1432.56,-222.35"/>
</g>
<!-- Node3&#45;&gt;Node1 -->
<g id="edge58" class="edge">
<title>Node3&#45;&gt;Node1</title>
<path fill="none" stroke="midnightblue" d="M1302.78,-191.57C1326.21,-201.63 1356.22,-215.47 1373.66,-224.32"/>
<polygon fill="midnightblue" stroke="midnightblue" points="1304.1,-188.33 1293.52,-187.65 1301.37,-194.77 1304.1,-188.33"/>
</g>
<!-- Node4 -->
<g id="node4" class="node">
<title>Node4</title>
<g id="a_node4"><a xlink:href="alloca_8h.html" target="_top" xlink:title=" ">
<polygon fill="white" stroke="black" points="0,-112.5 0,-131.5 55,-131.5 55,-112.5 0,-112.5"/>
<text text-anchor="middle" x="27.5" y="-119.5" font-family="Helvetica,sans-Serif" font-size="10.00">alloca.h</text>
</a>
</g>
</g>
<!-- Node3&#45;&gt;Node4 -->
<g id="edge3" class="edge">
<title>Node3&#45;&gt;Node4</title>
<path fill="none" stroke="midnightblue" d="M1225.84,-168.04C711.87,-106.8 572.78,-202.7 63.5,-132 60.82,-131.63 58.05,-131.14 55.29,-130.57"/>
<polygon fill="midnightblue" stroke="midnightblue" points="1225.77,-171.56 1236.12,-169.28 1226.61,-164.61 1225.77,-171.56"/>
</g>
<!-- Node5 -->
<g id="node5" class="node">
<title>Node5</title>
<g id="a_node5"><a xlink:href="argz_8h.html" target="_top" xlink:title=" ">
<polygon fill="white" stroke="black" points="115,-56.5 115,-75.5 162,-75.5 162,-56.5 115,-56.5"/>
<text text-anchor="middle" x="138.5" y="-63.5" font-family="Helvetica,sans-Serif" font-size="10.00">argz.h</text>
</a>
</g>
</g>
<!-- Node3&#45;&gt;Node5 -->
<g id="edge4" class="edge">
<title>Node3&#45;&gt;Node5</title>
<path fill="none" stroke="midnightblue" d="M1225.75,-168.24C1071.21,-155.51 274.39,-190.41 176.5,-132 155.4,-119.41 144.8,-90.26 140.65,-75.66"/>
<polygon fill="midnightblue" stroke="midnightblue" points="1225.82,-171.77 1236.12,-169.29 1226.52,-164.8 1225.82,-171.77"/>
</g>
<!-- Node6 -->
<g id="node6" class="node">
<title>Node6</title>
<g id="a_node6"><a xlink:href="envz_8h.html" target="_top" xlink:title=" ">
<polygon fill="white" stroke="black" points="114,-0.5 114,-19.5 163,-19.5 163,-0.5 114,-0.5"/>
<text text-anchor="middle" x="138.5" y="-7.5" font-family="Helvetica,sans-Serif" font-size="10.00">envz.h</text>
</a>
</g>
</g>
<!-- Node3&#45;&gt;Node6 -->
<g id="edge31" class="edge">
<title>Node3&#45;&gt;Node6</title>
<path fill="none" stroke="midnightblue" d="M1226.05,-168.27C1076.04,-155.91 302.7,-191.21 209.5,-132 177.46,-111.64 190.22,-88.44 170.5,-56 162.53,-42.89 152.03,-28.59 145.26,-19.71"/>
<polygon fill="midnightblue" stroke="midnightblue" points="1225.82,-171.77 1236.12,-169.29 1226.52,-164.8 1225.82,-171.77"/>
</g>
<!-- Node7 -->
<g id="node7" class="node">
<title>Node7</title>
<g id="a_node7"><a xlink:href="assert_8h.html" target="_top" xlink:title=" ">
<polygon fill="white" stroke="black" points="218.5,-112.5 218.5,-131.5 274.5,-131.5 274.5,-112.5 218.5,-112.5"/>
<text text-anchor="middle" x="246.5" y="-119.5" font-family="Helvetica,sans-Serif" font-size="10.00">assert.h</text>
</a>
</g>
</g>
<!-- Node3&#45;&gt;Node7 -->
<g id="edge6" class="edge">
<title>Node3&#45;&gt;Node7</title>
<path fill="none" stroke="midnightblue" d="M1225.95,-168.04C811.31,-117.14 699.56,-183.53 288.5,-132 284.06,-131.44 279.39,-130.65 274.85,-129.77"/>
<polygon fill="midnightblue" stroke="midnightblue" points="1225.76,-171.54 1236.12,-169.3 1226.63,-164.6 1225.76,-171.54"/>
</g>
<!-- Node8 -->
<g id="node8" class="node">
<title>Node8</title>
<g id="a_node8"><a xlink:href="bits_2byteswap_8h.html" target="_top" xlink:title=" ">
<polygon fill="white" stroke="red" points="261.5,-56.5 261.5,-75.5 355.5,-75.5 355.5,-56.5 261.5,-56.5"/>
<text text-anchor="middle" x="308.5" y="-63.5" font-family="Helvetica,sans-Serif" font-size="10.00">bits/byteswap.h</text>
</a>
</g>
</g>
<!-- Node3&#45;&gt;Node8 -->
<g id="edge7" class="edge">
<title>Node3&#45;&gt;Node8</title>
<path fill="none" stroke="midnightblue" d="M1225.93,-168.25C1094.18,-156.87 448.44,-172.62 364.5,-132 339.29,-119.8 320.91,-90.47 312.92,-75.74"/>
<polygon fill="midnightblue" stroke="midnightblue" points="1225.81,-171.75 1236.12,-169.31 1226.54,-164.79 1225.81,-171.75"/>
</g>
<!-- Node9 -->
<g id="node9" class="node">
<title>Node9</title>
<g id="a_node9"><a xlink:href="endian_8h.html" target="_top" xlink:title=" ">
<polygon fill="white" stroke="black" points="220,-0.5 220,-19.5 279,-19.5 279,-0.5 220,-0.5"/>
<text text-anchor="middle" x="249.5" y="-7.5" font-family="Helvetica,sans-Serif" font-size="10.00">endian.h</text>
</a>
</g>
</g>
<!-- Node3&#45;&gt;Node9 -->
<g id="edge26" class="edge">
<title>Node3&#45;&gt;Node9</title>
<path fill="none" stroke="midnightblue" d="M1225.95,-168.1C1014.44,-144.73 520.97,-192.83 335.5,-132 293.22,-118.13 274.29,-114.8 252.5,-76 242.43,-58.07 245.16,-32.78 247.58,-19.66"/>
<polygon fill="midnightblue" stroke="midnightblue" points="1225.77,-171.61 1236.12,-169.31 1226.6,-164.65 1225.77,-171.61"/>
</g>
<!-- Node10 -->
<g id="node10" class="node">
<title>Node10</title>
<g id="a_node10"><a xlink:href="byteswap_8h.html" target="_top" xlink:title=" ">
<polygon fill="white" stroke="black" points="314,-0.5 314,-19.5 387,-19.5 387,-0.5 314,-0.5"/>
<text text-anchor="middle" x="350.5" y="-7.5" font-family="Helvetica,sans-Serif" font-size="10.00">byteswap.h</text>
</a>
</g>
</g>
<!-- Node3&#45;&gt;Node10 -->
<g id="edge27" class="edge">
<title>Node3&#45;&gt;Node10</title>
<path fill="none" stroke="midnightblue" d="M1226.09,-168.27C1104.29,-157.71 520.49,-170.62 445.5,-132 396.35,-106.69 364.57,-43.2 354.21,-19.82"/>
<polygon fill="midnightblue" stroke="midnightblue" points="1225.8,-171.76 1236.12,-169.33 1226.54,-164.79 1225.8,-171.76"/>
</g>
<!-- Node12 -->
<g id="node11" class="node">
<title>Node12</title>
<g id="a_node11"><a xlink:href="inet_8h.html" target="_top" xlink:title=" ">
<polygon fill="white" stroke="black" points="651,-112.5 651,-131.5 720,-131.5 720,-112.5 651,-112.5"/>
<text text-anchor="middle" x="685.5" y="-119.5" font-family="Helvetica,sans-Serif" font-size="10.00">arpa/inet.h</text>
</a>
</g>
</g>
<!-- Node3&#45;&gt;Node12 -->
<g id="edge10" class="edge">
<title>Node3&#45;&gt;Node12</title>
<path fill="none" stroke="midnightblue" d="M1225.95,-167.97C1008.24,-137.59 949.12,-159.46 734.5,-132 729.87,-131.41 725.01,-130.66 720.23,-129.86"/>
<polygon fill="midnightblue" stroke="midnightblue" points="1225.71,-171.47 1236.1,-169.41 1226.69,-164.54 1225.71,-171.47"/>
</g>
<!-- Node20 -->
<g id="node12" class="node">
<title>Node20</title>
<g id="a_node12"><a xlink:href="floatn-common_8h.html" target="_top" xlink:title=" ">
<polygon fill="white" stroke="black" points="815,-112.5 815,-131.5 936,-131.5 936,-112.5 815,-112.5"/>
<text text-anchor="middle" x="875.5" y="-119.5" font-family="Helvetica,sans-Serif" font-size="10.00">bits/floatn&#45;common.h</text>
</a>
</g>
</g>
<!-- Node3&#45;&gt;Node20 -->
<g id="edge11" class="edge">
<title>Node3&#45;&gt;Node20</title>
<path fill="none" stroke="midnightblue" d="M1226.14,-167.97C1175.35,-160.21 1022.75,-141.18 936.36,-130.5"/>
<polygon fill="midnightblue" stroke="midnightblue" points="1225.65,-171.44 1236.08,-169.57 1226.76,-164.53 1225.65,-171.44"/>
</g>
<!-- Node21 -->
<g id="node13" class="node">
<title>Node21</title>
<g id="a_node13"><a xlink:href="floatn_8h.html" target="_top" xlink:title=" ">
<polygon fill="white" stroke="red" points="807.5,-56.5 807.5,-75.5 881.5,-75.5 881.5,-56.5 807.5,-56.5"/>
<text text-anchor="middle" x="844.5" y="-63.5" font-family="Helvetica,sans-Serif" font-size="10.00">bits/floatn.h</text>
</a>
</g>
</g>
<!-- Node3&#45;&gt;Node21 -->
<g id="edge15" class="edge">
<title>Node3&#45;&gt;Node21</title>
<path fill="none" stroke="midnightblue" d="M1226.05,-168.31C1148.33,-161.51 836.7,-164.89 806.5,-132 790.32,-114.38 816.69,-88.74 833.05,-75.54"/>
<polygon fill="midnightblue" stroke="midnightblue" points="1225.77,-171.8 1236.1,-169.45 1226.55,-164.85 1225.77,-171.8"/>
</g>
<!-- Node25 -->
<g id="node14" class="node">
<title>Node25</title>
<g id="a_node14"><a xlink:href="error_8h.html" target="_top" xlink:title=" ">
<polygon fill="white" stroke="black" points="741.5,-0.5 741.5,-19.5 789.5,-19.5 789.5,-0.5 741.5,-0.5"/>
<text text-anchor="middle" x="765.5" y="-7.5" font-family="Helvetica,sans-Serif" font-size="10.00">error.h</text>
</a>
</g>
</g>
<!-- Node3&#45;&gt;Node25 -->
<g id="edge32" class="edge">
<title>Node3&#45;&gt;Node25</title>
<path fill="none" stroke="midnightblue" d="M1225.95,-168.14C1116.48,-156.31 868.67,-191.69 797.5,-132 763.2,-103.24 763.38,-42.41 764.76,-19.75"/>
<polygon fill="midnightblue" stroke="midnightblue" points="1225.74,-171.64 1236.1,-169.44 1226.62,-164.7 1225.74,-171.64"/>
</g>
<!-- Node26 -->
<g id="node15" class="node">
<title>Node26</title>
<g id="a_node15"><a xlink:href="err_8h.html" target="_top" xlink:title=" ">
<polygon fill="white" stroke="black" points="885.5,-0.5 885.5,-19.5 923.5,-19.5 923.5,-0.5 885.5,-0.5"/>
<text text-anchor="middle" x="904.5" y="-7.5" font-family="Helvetica,sans-Serif" font-size="10.00">err.h</text>
</a>
</g>
</g>
<!-- Node3&#45;&gt;Node26 -->
<g id="edge38" class="edge">
<title>Node3&#45;&gt;Node26</title>
<path fill="none" stroke="midnightblue" d="M1226.02,-167.94C1117.02,-150.91 1073.12,-189.37 983.5,-132 939.76,-104 915.1,-42.17 907.27,-19.52"/>
<polygon fill="midnightblue" stroke="midnightblue" points="1225.62,-171.42 1236.07,-169.63 1226.79,-164.52 1225.62,-171.42"/>
</g>
<!-- Node37 -->
<g id="node16" class="node">
<title>Node37</title>
<g id="a_node16"><a xlink:href="libc-header-start_8h.html" target="_top" xlink:title=" ">
<polygon fill="white" stroke="red" points="992.5,-112.5 992.5,-131.5 1120.5,-131.5 1120.5,-112.5 992.5,-112.5"/>
<text text-anchor="middle" x="1056.5" y="-119.5" font-family="Helvetica,sans-Serif" font-size="10.00">bits/libc&#45;header&#45;start.h</text>
</a>
</g>
</g>
<!-- Node3&#45;&gt;Node37 -->
<g id="edge16" class="edge">
<title>Node3&#45;&gt;Node37</title>
<path fill="none" stroke="midnightblue" d="M1226.44,-166.08C1186.25,-155.9 1127.11,-140.9 1090.25,-131.56"/>
<polygon fill="midnightblue" stroke="midnightblue" points="1225.67,-169.5 1236.22,-168.56 1227.39,-162.71 1225.67,-169.5"/>
</g>
<!-- Node70 -->
<g id="node17" class="node">
<title>Node70</title>
<g id="a_node17"><a xlink:href="aliases_8h.html" target="_top" xlink:title=" ">
<polygon fill="white" stroke="black" points="1138.5,-112.5 1138.5,-131.5 1198.5,-131.5 1198.5,-112.5 1138.5,-112.5"/>
<text text-anchor="middle" x="1168.5" y="-119.5" font-family="Helvetica,sans-Serif" font-size="10.00">aliases.h</text>
</a>
</g>
</g>
<!-- Node3&#45;&gt;Node70 -->
<g id="edge17" class="edge">
<title>Node3&#45;&gt;Node70</title>
<path fill="none" stroke="midnightblue" d="M1244.42,-163.59C1225.74,-153.61 1200.8,-140.27 1184.69,-131.65"/>
<polygon fill="midnightblue" stroke="midnightblue" points="1242.8,-166.7 1253.27,-168.32 1246.1,-160.52 1242.8,-166.7"/>
</g>
<!-- Node71 -->
<g id="node18" class="node">
<title>Node71</title>
<g id="a_node18"><a xlink:href="aio_8h.html" target="_top" xlink:title=" ">
<polygon fill="white" stroke="black" points="1217,-112.5 1217,-131.5 1258,-131.5 1258,-112.5 1217,-112.5"/>
<text text-anchor="middle" x="1237.5" y="-119.5" font-family="Helvetica,sans-Serif" font-size="10.00">aio.h</text>
</a>
</g>
</g>
<!-- Node3&#45;&gt;Node71 -->
<g id="edge18" class="edge">
<title>Node3&#45;&gt;Node71</title>
<path fill="none" stroke="midnightblue" d="M1259,-159.27C1253.53,-150.05 1247.08,-139.17 1242.69,-131.75"/>
<polygon fill="midnightblue" stroke="midnightblue" points="1256.11,-161.26 1264.22,-168.08 1262.13,-157.7 1256.11,-161.26"/>
</g>
<!-- Node72 -->
<g id="node19" class="node">
<title>Node72</title>
<g id="a_node19"><a xlink:href="bits_2types_8h.html" target="_top" xlink:title=" ">
<polygon fill="white" stroke="red" points="482.5,-112.5 482.5,-131.5 556.5,-131.5 556.5,-112.5 482.5,-112.5"/>
<text text-anchor="middle" x="519.5" y="-119.5" font-family="Helvetica,sans-Serif" font-size="10.00">bits/types.h</text>
</a>
</g>
</g>
<!-- Node3&#45;&gt;Node72 -->
<g id="edge19" class="edge">
<title>Node3&#45;&gt;Node72</title>
<path fill="none" stroke="midnightblue" d="M1226.14,-168.03C935.89,-130.05 857.75,-165.09 570.5,-132 566.03,-131.49 561.37,-130.83 556.75,-130.1"/>
<polygon fill="midnightblue" stroke="midnightblue" points="1225.74,-171.51 1236.11,-169.35 1226.66,-164.57 1225.74,-171.51"/>
</g>
<!-- Node164 -->
<g id="node20" class="node">
<title>Node164</title>
<g id="a_node20"><a xlink:href="ctype_8h.html" target="_top" xlink:title=" ">
<polygon fill="white" stroke="red" points="412,-56.5 412,-75.5 465,-75.5 465,-56.5 412,-56.5"/>
<text text-anchor="middle" x="438.5" y="-63.5" font-family="Helvetica,sans-Serif" font-size="10.00">ctype.h</text>
</a>
</g>
</g>
<!-- Node3&#45;&gt;Node164 -->
<g id="edge25" class="edge">
<title>Node3&#45;&gt;Node164</title>
<path fill="none" stroke="midnightblue" d="M1225.93,-168.28C1105.76,-158.51 531.48,-179.69 464.5,-132 445.89,-118.75 440.59,-89.9 439.09,-75.52"/>
<polygon fill="midnightblue" stroke="midnightblue" points="1225.81,-171.79 1236.11,-169.33 1226.52,-164.83 1225.81,-171.79"/>
</g>
<!-- Node167 -->
<g id="node21" class="node">
<title>Node167</title>
<g id="a_node21"><a xlink:href="dirent_8h.html" target="_top" xlink:title=" ">
<polygon fill="white" stroke="black" points="483.5,-56.5 483.5,-75.5 537.5,-75.5 537.5,-56.5 483.5,-56.5"/>
<text text-anchor="middle" x="510.5" y="-63.5" font-family="Helvetica,sans-Serif" font-size="10.00">dirent.h</text>
</a>
</g>
</g>
<!-- Node3&#45;&gt;Node167 -->
<g id="edge33" class="edge">
<title>Node3&#45;&gt;Node167</title>
<path fill="none" stroke="midnightblue" d="M1225.94,-168.48C1127.11,-162.51 501.17,-161.02 473.5,-132 457.1,-114.8 483.06,-88.98 499.19,-75.65"/>
<polygon fill="midnightblue" stroke="midnightblue" points="1225.86,-171.98 1236.11,-169.33 1226.44,-165.01 1225.86,-171.98"/>
</g>
<!-- Node155 -->
<g id="node22" class="node">
<title>Node155</title>
<g id="a_node22"><a xlink:href="fcntl_8h.html" target="_top" xlink:title=" ">
<polygon fill="white" stroke="red" points="556,-56.5 556,-75.5 603,-75.5 603,-56.5 556,-56.5"/>
<text text-anchor="middle" x="579.5" y="-63.5" font-family="Helvetica,sans-Serif" font-size="10.00">fcntl.h</text>
</a>
</g>
</g>
<!-- Node3&#45;&gt;Node155 -->
<g id="edge37" class="edge">
<title>Node3&#45;&gt;Node155</title>
<path fill="none" stroke="midnightblue" d="M1225.89,-168.11C1079.38,-152.02 744.36,-192.91 629.5,-132 605.85,-119.46 589.97,-90.28 583.2,-75.67"/>
<polygon fill="midnightblue" stroke="midnightblue" points="1225.76,-171.62 1236.11,-169.37 1226.61,-164.67 1225.76,-171.62"/>
</g>
<!-- Node168 -->
<g id="node23" class="node">
<title>Node168</title>
<g id="a_node23"><a xlink:href="grp_8h.html" target="_top" xlink:title=" ">
<polygon fill="white" stroke="black" points="621,-56.5 621,-75.5 662,-75.5 662,-56.5 621,-56.5"/>
<text text-anchor="middle" x="641.5" y="-63.5" font-family="Helvetica,sans-Serif" font-size="10.00">grp.h</text>
</a>
</g>
</g>
<!-- Node3&#45;&gt;Node168 -->
<g id="edge48" class="edge">
<title>Node3&#45;&gt;Node168</title>
<path fill="none" stroke="midnightblue" d="M1226.03,-168.33C1127.19,-160.59 684.49,-177.71 641.5,-132 627.27,-116.87 633.5,-89.91 638.12,-75.94"/>
<polygon fill="midnightblue" stroke="midnightblue" points="1225.8,-171.83 1236.11,-169.37 1226.52,-164.86 1225.8,-171.83"/>
</g>
<!-- Node183 -->
<g id="node24" class="node">
<title>Node183</title>
<g id="a_node24"><a xlink:href="errno_8h.html" target="_top" xlink:title=" ">
<polygon fill="white" stroke="red" points="73,-112.5 73,-131.5 124,-131.5 124,-112.5 73,-112.5"/>
<text text-anchor="middle" x="98.5" y="-119.5" font-family="Helvetica,sans-Serif" font-size="10.00">errno.h</text>
</a>
</g>
</g>
<!-- Node3&#45;&gt;Node183 -->
<g id="edge28" class="edge">
<title>Node3&#45;&gt;Node183</title>
<path fill="none" stroke="midnightblue" d="M1226.14,-168.07C745.07,-110.18 615.57,-193 138.5,-132 133.84,-131.4 128.92,-130.52 124.19,-129.53"/>
<polygon fill="midnightblue" stroke="midnightblue" points="1225.77,-171.55 1236.12,-169.29 1226.62,-164.6 1225.77,-171.55"/>
</g>
<!-- Node184 -->
<g id="node25" class="node">
<title>Node184</title>
<g id="a_node25"><a xlink:href="dlfcn_8h.html" target="_top" xlink:title=" ">
<polygon fill="white" stroke="red" points="1276.5,-112.5 1276.5,-131.5 1326.5,-131.5 1326.5,-112.5 1276.5,-112.5"/>
<text text-anchor="middle" x="1301.5" y="-119.5" font-family="Helvetica,sans-Serif" font-size="10.00">dlfcn.h</text>
</a>
</g>
</g>
<!-- Node3&#45;&gt;Node184 -->
<g id="edge34" class="edge">
<title>Node3&#45;&gt;Node184</title>
<path fill="none" stroke="midnightblue" d="M1280,-159.27C1285.47,-150.05 1291.92,-139.17 1296.31,-131.75"/>
<polygon fill="midnightblue" stroke="midnightblue" points="1276.87,-157.7 1274.78,-168.08 1282.89,-161.26 1276.87,-157.7"/>
</g>
<!-- Node185 -->
<g id="node26" class="node">
<title>Node185</title>
<g id="a_node26"><a xlink:href="execinfo_8h.html" target="_top" xlink:title=" ">
<polygon fill="white" stroke="black" points="1345,-112.5 1345,-131.5 1412,-131.5 1412,-112.5 1345,-112.5"/>
<text text-anchor="middle" x="1378.5" y="-119.5" font-family="Helvetica,sans-Serif" font-size="10.00">execinfo.h</text>
</a>
</g>
</g>
<!-- Node3&#45;&gt;Node185 -->
<g id="edge35" class="edge">
<title>Node3&#45;&gt;Node185</title>
<path fill="none" stroke="midnightblue" d="M1296.02,-163.86C1316.23,-153.85 1343.49,-140.35 1361.03,-131.65"/>
<polygon fill="midnightblue" stroke="midnightblue" points="1294.42,-160.75 1287.01,-168.32 1297.53,-167.02 1294.42,-160.75"/>
</g>
<!-- Node186 -->
<g id="node27" class="node">
<title>Node186</title>
<g id="a_node27"><a xlink:href="fmtmsg_8h.html" target="_top" xlink:title=" ">
<polygon fill="white" stroke="black" points="1430.5,-112.5 1430.5,-131.5 1494.5,-131.5 1494.5,-112.5 1430.5,-112.5"/>
<text text-anchor="middle" x="1462.5" y="-119.5" font-family="Helvetica,sans-Serif" font-size="10.00">fmtmsg.h</text>
</a>
</g>
</g>
<!-- Node3&#45;&gt;Node186 -->
<g id="edge36" class="edge">
<title>Node3&#45;&gt;Node186</title>
<path fill="none" stroke="midnightblue" d="M1309.89,-165.7C1346.32,-155.51 1399.09,-140.74 1432.06,-131.52"/>
<polygon fill="midnightblue" stroke="midnightblue" points="1308.77,-162.38 1300.08,-168.44 1310.65,-169.12 1308.77,-162.38"/>
</g>
<!-- Node187 -->
<g id="node28" class="node">
<title>Node187</title>
<g id="a_node28"><a xlink:href="fpu__control_8h.html" target="_top" xlink:title=" ">
<polygon fill="white" stroke="black" points="1512.5,-112.5 1512.5,-131.5 1592.5,-131.5 1592.5,-112.5 1512.5,-112.5"/>
<text text-anchor="middle" x="1552.5" y="-119.5" font-family="Helvetica,sans-Serif" font-size="10.00">fpu_control.h</text>
</a>
</g>
</g>
<!-- Node3&#45;&gt;Node187 -->
<g id="edge39" class="edge">
<title>Node3&#45;&gt;Node187</title>
<path fill="none" stroke="midnightblue" d="M1312.65,-168.01C1363.4,-158.07 1458.26,-140.44 1512.46,-130.4"/>
<polygon fill="midnightblue" stroke="midnightblue" points="1311.95,-164.58 1302.82,-169.95 1313.31,-171.45 1311.95,-164.58"/>
</g>
<!-- Node188 -->
<g id="node29" class="node">
<title>Node188</title>
<g id="a_node29"><a xlink:href="getopt_8h.html" target="_top" xlink:title=" ">
<polygon fill="white" stroke="red" points="1611,-112.5 1611,-131.5 1668,-131.5 1668,-112.5 1611,-112.5"/>
<text text-anchor="middle" x="1639.5" y="-119.5" font-family="Helvetica,sans-Serif" font-size="10.00">getopt.h</text>
</a>
</g>
</g>
<!-- Node3&#45;&gt;Node188 -->
<g id="edge40" class="edge">
<title>Node3&#45;&gt;Node188</title>
<path fill="none" stroke="midnightblue" d="M1312.66,-168.12C1441.89,-147.11 1477.22,-154.39 1601.5,-132 1604.57,-131.45 1607.76,-130.8 1610.94,-130.12"/>
<polygon fill="midnightblue" stroke="midnightblue" points="1312.08,-164.67 1302.78,-169.75 1313.22,-171.58 1312.08,-164.67"/>
</g>
<!-- Node98 -->
<g id="node30" class="node">
<title>Node98</title>
<g id="a_node30"><a xlink:href="fts_8h.html" target="_top" xlink:title=" ">
<polygon fill="white" stroke="black" points="1686.5,-112.5 1686.5,-131.5 1724.5,-131.5 1724.5,-112.5 1686.5,-112.5"/>
<text text-anchor="middle" x="1705.5" y="-119.5" font-family="Helvetica,sans-Serif" font-size="10.00">fts.h</text>
</a>
</g>
</g>
<!-- Node3&#45;&gt;Node98 -->
<g id="edge41" class="edge">
<title>Node3&#45;&gt;Node98</title>
<path fill="none" stroke="midnightblue" d="M1313.12,-168.1C1475.49,-144.14 1521.17,-164.45 1677.5,-132 1680.4,-131.4 1683.42,-130.61 1686.36,-129.74"/>
<polygon fill="midnightblue" stroke="midnightblue" points="1312.13,-164.71 1302.77,-169.67 1313.18,-171.63 1312.13,-164.71"/>
</g>
<!-- Node189 -->
<g id="node31" class="node">
<title>Node189</title>
<g id="a_node31"><a xlink:href="fstab_8h.html" target="_top" xlink:title=" ">
<polygon fill="white" stroke="black" points="1742.5,-112.5 1742.5,-131.5 1792.5,-131.5 1792.5,-112.5 1742.5,-112.5"/>
<text text-anchor="middle" x="1767.5" y="-119.5" font-family="Helvetica,sans-Serif" font-size="10.00">fstab.h</text>
</a>
</g>
</g>
<!-- Node3&#45;&gt;Node189 -->
<g id="edge42" class="edge">
<title>Node3&#45;&gt;Node189</title>
<path fill="none" stroke="midnightblue" d="M1312.66,-168.19C1500.06,-141.5 1551.64,-163.6 1733.5,-132 1736.39,-131.5 1739.39,-130.87 1742.36,-130.18"/>
<polygon fill="midnightblue" stroke="midnightblue" points="1312.16,-164.72 1302.76,-169.62 1313.16,-171.65 1312.16,-164.72"/>
</g>
<!-- Node190 -->
<g id="node32" class="node">
<title>Node190</title>
<g id="a_node32"><a xlink:href="libc-version_8h.html" target="_top" xlink:title=" ">
<polygon fill="white" stroke="black" points="1811,-112.5 1811,-131.5 1914,-131.5 1914,-112.5 1811,-112.5"/>
<text text-anchor="middle" x="1862.5" y="-119.5" font-family="Helvetica,sans-Serif" font-size="10.00">gnu/libc&#45;version.h</text>
</a>
</g>
</g>
<!-- Node3&#45;&gt;Node190 -->
<g id="edge43" class="edge">
<title>Node3&#45;&gt;Node190</title>
<path fill="none" stroke="midnightblue" d="M1312.88,-168.17C1530.04,-138.16 1588.17,-155.56 1801.5,-132 1804.59,-131.66 1807.76,-131.28 1810.95,-130.88"/>
<polygon fill="midnightblue" stroke="midnightblue" points="1312.18,-164.73 1302.76,-169.58 1313.15,-171.66 1312.18,-164.73"/>
</g>
<!-- Node44 -->
<g id="node33" class="node">
<title>Node44</title>
<g id="a_node33"><a xlink:href="elf_8h.html" target="_top" xlink:title=" ">
<polygon fill="white" stroke="red" points="1932.5,-112.5 1932.5,-131.5 1970.5,-131.5 1970.5,-112.5 1932.5,-112.5"/>
<text text-anchor="middle" x="1951.5" y="-119.5" font-family="Helvetica,sans-Serif" font-size="10.00">elf.h</text>
</a>
</g>
</g>
<!-- Node3&#45;&gt;Node44 -->
<g id="edge44" class="edge">
<title>Node3&#45;&gt;Node44</title>
<path fill="none" stroke="midnightblue" d="M1312.89,-168.2C1583.97,-133.24 1659.38,-181.41 1923.5,-132 1926.41,-131.46 1929.44,-130.7 1932.38,-129.85"/>
<polygon fill="midnightblue" stroke="midnightblue" points="1312.21,-164.76 1302.75,-169.54 1313.12,-171.7 1312.21,-164.76"/>
</g>
<!-- Node191 -->
<g id="node34" class="node">
<title>Node191</title>
<g id="a_node34"><a xlink:href="gconv_8h.html" target="_top" xlink:title=" ">
<polygon fill="white" stroke="black" points="1988.5,-112.5 1988.5,-131.5 2042.5,-131.5 2042.5,-112.5 1988.5,-112.5"/>
<text text-anchor="middle" x="2015.5" y="-119.5" font-family="Helvetica,sans-Serif" font-size="10.00">gconv.h</text>
</a>
</g>
</g>
<!-- Node3&#45;&gt;Node191 -->
<g id="edge45" class="edge">
<title>Node3&#45;&gt;Node191</title>
<path fill="none" stroke="midnightblue" d="M1312.91,-168.2C1608.67,-130.52 1689.23,-175.71 1979.5,-132 1982.43,-131.56 1985.47,-130.99 1988.49,-130.34"/>
<polygon fill="midnightblue" stroke="midnightblue" points="1312.22,-164.76 1302.75,-169.52 1313.12,-171.7 1312.22,-164.76"/>
</g>
<!-- Node99 -->
<g id="node35" class="node">
<title>Node99</title>
<g id="a_node35"><a xlink:href="ftw_8h.html" target="_top" xlink:title=" ">
<polygon fill="white" stroke="black" points="2060.5,-112.5 2060.5,-131.5 2100.5,-131.5 2100.5,-112.5 2060.5,-112.5"/>
<text text-anchor="middle" x="2080.5" y="-119.5" font-family="Helvetica,sans-Serif" font-size="10.00">ftw.h</text>
</a>
</g>
</g>
<!-- Node3&#45;&gt;Node99 -->
<g id="edge46" class="edge">
<title>Node3&#45;&gt;Node99</title>
<path fill="none" stroke="midnightblue" d="M1313,-168.2C1640.51,-127.47 1731,-188.6 2051.5,-132 2054.41,-131.49 2057.43,-130.77 2060.38,-129.96"/>
<polygon fill="midnightblue" stroke="midnightblue" points="1312.23,-164.77 1302.75,-169.5 1313.11,-171.72 1312.23,-164.77"/>
</g>
<!-- Node192 -->
<g id="node36" class="node">
<title>Node192</title>
<g id="a_node36"><a xlink:href="gshadow_8h.html" target="_top" xlink:title=" ">
<polygon fill="white" stroke="black" points="2118.5,-112.5 2118.5,-131.5 2186.5,-131.5 2186.5,-112.5 2118.5,-112.5"/>
<text text-anchor="middle" x="2152.5" y="-119.5" font-family="Helvetica,sans-Serif" font-size="10.00">gshadow.h</text>
</a>
</g>
</g>
<!-- Node3&#45;&gt;Node192 -->
<g id="edge47" class="edge">
<title>Node3&#45;&gt;Node192</title>
<path fill="none" stroke="midnightblue" d="M1312.74,-168.24C1666.04,-124.51 1760.98,-176.05 2109.5,-132 2112.38,-131.64 2115.34,-131.18 2118.32,-130.67"/>
<polygon fill="midnightblue" stroke="midnightblue" points="1312.23,-164.77 1302.75,-169.49 1313.1,-171.72 1312.23,-164.77"/>
</g>
<!-- Node193 -->
<g id="node37" class="node">
<title>Node193</title>
<g id="a_node37"><a xlink:href="libgen_8h.html" target="_top" xlink:title=" ">
<polygon fill="white" stroke="black" points="2204.5,-112.5 2204.5,-131.5 2260.5,-131.5 2260.5,-112.5 2204.5,-112.5"/>
<text text-anchor="middle" x="2232.5" y="-119.5" font-family="Helvetica,sans-Serif" font-size="10.00">libgen.h</text>
</a>
</g>
</g>
<!-- Node3&#45;&gt;Node193 -->
<g id="edge49" class="edge">
<title>Node3&#45;&gt;Node193</title>
<path fill="none" stroke="midnightblue" d="M1312.92,-168.22C1704.08,-120.74 1809.88,-186.22 2195.5,-132 2198.38,-131.6 2201.36,-131.06 2204.33,-130.46"/>
<polygon fill="midnightblue" stroke="midnightblue" points="1312.24,-164.78 1302.74,-169.47 1313.1,-171.73 1312.24,-164.78"/>
</g>
<!-- Node46 -->
<g id="node38" class="node">
<title>Node46</title>
<g id="a_node38"><a xlink:href="inttypes_8h.html" target="_top" xlink:title=" ">
<polygon fill="white" stroke="red" points="2279,-112.5 2279,-131.5 2344,-131.5 2344,-112.5 2279,-112.5"/>
<text text-anchor="middle" x="2311.5" y="-119.5" font-family="Helvetica,sans-Serif" font-size="10.00">inttypes.h</text>
</a>
</g>
</g>
<!-- Node3&#45;&gt;Node46 -->
<g id="edge50" class="edge">
<title>Node3&#45;&gt;Node46</title>
<path fill="none" stroke="midnightblue" d="M1312.81,-168.24C1736.74,-117.28 1850.45,-184.38 2269.5,-132 2272.46,-131.63 2275.52,-131.16 2278.58,-130.62"/>
<polygon fill="midnightblue" stroke="midnightblue" points="1312.25,-164.78 1302.74,-169.46 1313.09,-171.73 1312.25,-164.78"/>
</g>
<!-- Node194 -->
<g id="node39" class="node">
<title>Node194</title>
<g id="a_node39"><a xlink:href="iconv_8h.html" target="_top" xlink:title=" ">
<polygon fill="white" stroke="black" points="2362,-112.5 2362,-131.5 2413,-131.5 2413,-112.5 2362,-112.5"/>
<text text-anchor="middle" x="2387.5" y="-119.5" font-family="Helvetica,sans-Serif" font-size="10.00">iconv.h</text>
</a>
</g>
</g>
<!-- Node3&#45;&gt;Node194 -->
<g id="edge51" class="edge">
<title>Node3&#45;&gt;Node194</title>
<path fill="none" stroke="midnightblue" d="M1313,-168.22C1773.92,-113.65 1898.88,-199.16 2353.5,-132 2356.16,-131.61 2358.91,-131.08 2361.64,-130.49"/>
<polygon fill="midnightblue" stroke="midnightblue" points="1312.25,-164.79 1302.74,-169.45 1313.09,-171.74 1312.25,-164.79"/>
</g>
<!-- Node195 -->
<g id="node40" class="node">
<title>Node195</title>
<g id="a_node40"><a xlink:href="ieee754_8h.html" target="_top" xlink:title=" ">
<polygon fill="white" stroke="black" points="2431,-112.5 2431,-131.5 2496,-131.5 2496,-112.5 2431,-112.5"/>
<text text-anchor="middle" x="2463.5" y="-119.5" font-family="Helvetica,sans-Serif" font-size="10.00">ieee754.h</text>
</a>
</g>
</g>
<!-- Node3&#45;&gt;Node195 -->
<g id="edge52" class="edge">
<title>Node3&#45;&gt;Node195</title>
<path fill="none" stroke="midnightblue" d="M1312.94,-168.23C1804.38,-110.36 1936.06,-192.75 2422.5,-132 2425.25,-131.66 2428.08,-131.22 2430.92,-130.72"/>
<polygon fill="midnightblue" stroke="midnightblue" points="1312.26,-164.79 1302.74,-169.45 1313.08,-171.74 1312.26,-164.79"/>
</g>
<!-- Node89 -->
<g id="node41" class="node">
<title>Node89</title>
<g id="a_node41"><a xlink:href="ifaddrs_8h.html" target="_top" xlink:title=" ">
<polygon fill="white" stroke="black" points="2514,-112.5 2514,-131.5 2573,-131.5 2573,-112.5 2514,-112.5"/>
<text text-anchor="middle" x="2543.5" y="-119.5" font-family="Helvetica,sans-Serif" font-size="10.00">ifaddrs.h</text>
</a>
</g>
</g>
<!-- Node3&#45;&gt;Node89 -->
<g id="edge53" class="edge">
<title>Node3&#45;&gt;Node89</title>
<path fill="none" stroke="midnightblue" d="M1312.91,-168.24C1841.06,-106.63 1982.94,-201.04 2505.5,-132 2508.19,-131.64 2510.96,-131.18 2513.74,-130.65"/>
<polygon fill="midnightblue" stroke="midnightblue" points="1312.26,-164.79 1302.74,-169.44 1313.08,-171.74 1312.26,-164.79"/>
</g>
<!-- Node196 -->
<g id="node42" class="node">
<title>Node196</title>
<g id="a_node42"><a xlink:href="libintl_8h.html" target="_top" xlink:title=" ">
<polygon fill="white" stroke="black" points="2591,-112.5 2591,-131.5 2644,-131.5 2644,-112.5 2591,-112.5"/>
<text text-anchor="middle" x="2617.5" y="-119.5" font-family="Helvetica,sans-Serif" font-size="10.00">libintl.h</text>
</a>
</g>
</g>
<!-- Node3&#45;&gt;Node196 -->
<g id="edge54" class="edge">
<title>Node3&#45;&gt;Node196</title>
<path fill="none" stroke="midnightblue" d="M1312.72,-168.26C1875.06,-103.17 2026.63,-210.34 2582.5,-132 2585.23,-131.61 2588.06,-131.1 2590.87,-130.5"/>
<polygon fill="midnightblue" stroke="midnightblue" points="1312.26,-164.79 1302.74,-169.43 1313.08,-171.75 1312.26,-164.79"/>
</g>
<!-- Node197 -->
<g id="node43" class="node">
<title>Node197</title>
<g id="a_node43"><a xlink:href="locale_8h.html" target="_top" xlink:title=" ">
<polygon fill="white" stroke="black" points="2662,-112.5 2662,-131.5 2717,-131.5 2717,-112.5 2662,-112.5"/>
<text text-anchor="middle" x="2689.5" y="-119.5" font-family="Helvetica,sans-Serif" font-size="10.00">locale.h</text>
</a>
</g>
</g>
<!-- Node3&#45;&gt;Node197 -->
<g id="edge55" class="edge">
<title>Node3&#45;&gt;Node197</title>
<path fill="none" stroke="midnightblue" d="M1312.84,-168.25C1906.46,-99.93 2066.1,-212.33 2653.5,-132 2656.18,-131.63 2658.95,-131.14 2661.71,-130.58"/>
<polygon fill="midnightblue" stroke="midnightblue" points="1312.27,-164.8 1302.74,-169.43 1313.08,-171.75 1312.27,-164.8"/>
</g>
<!-- Node31 -->
<g id="node44" class="node">
<title>Node31</title>
<g id="a_node44"><a xlink:href="malloc_8h.html" target="_top" xlink:title=" ">
<polygon fill="white" stroke="black" points="2735,-112.5 2735,-131.5 2794,-131.5 2794,-112.5 2735,-112.5"/>
<text text-anchor="middle" x="2764.5" y="-119.5" font-family="Helvetica,sans-Serif" font-size="10.00">malloc.h</text>
</a>
</g>
</g>
<!-- Node3&#45;&gt;Node31 -->
<g id="edge56" class="edge">
<title>Node3&#45;&gt;Node31</title>
<path fill="none" stroke="midnightblue" d="M1312.92,-168.25C1938.73,-96.57 2106.42,-212.44 2726.5,-132 2729.19,-131.65 2731.97,-131.19 2734.74,-130.66"/>
<polygon fill="midnightblue" stroke="midnightblue" points="1312.27,-164.8 1302.74,-169.42 1313.07,-171.75 1312.27,-164.8"/>
</g>
<!-- Node198 -->
<g id="node45" class="node">
<title>Node198</title>
<g id="a_node45"><a xlink:href="mcheck_8h.html" target="_top" xlink:title=" ">
<polygon fill="white" stroke="black" points="2812.5,-112.5 2812.5,-131.5 2876.5,-131.5 2876.5,-112.5 2812.5,-112.5"/>
<text text-anchor="middle" x="2844.5" y="-119.5" font-family="Helvetica,sans-Serif" font-size="10.00">mcheck.h</text>
</a>
</g>
</g>
<!-- Node3&#45;&gt;Node198 -->
<g id="edge57" class="edge">
<title>Node3&#45;&gt;Node198</title>
<path fill="none" stroke="midnightblue" d="M1312.98,-168.24C1972.77,-93.01 2148.79,-211.02 2803.5,-132 2806.39,-131.65 2809.38,-131.19 2812.37,-130.66"/>
<polygon fill="midnightblue" stroke="midnightblue" points="1312.27,-164.8 1302.74,-169.42 1313.07,-171.75 1312.27,-164.8"/>
</g>
<!-- Node5&#45;&gt;Node6 -->
<g id="edge5" class="edge">
<title>Node5&#45;&gt;Node6</title>
<path fill="none" stroke="midnightblue" d="M138.5,-45.8C138.5,-36.91 138.5,-26.78 138.5,-19.75"/>
<polygon fill="midnightblue" stroke="midnightblue" points="135,-46.08 138.5,-56.08 142,-46.08 135,-46.08"/>
</g>
<!-- Node8&#45;&gt;Node9 -->
<g id="edge8" class="edge">
<title>Node8&#45;&gt;Node9</title>
<path fill="none" stroke="midnightblue" d="M291.61,-49.54C281.09,-39.91 267.93,-27.87 259.15,-19.83"/>
<polygon fill="midnightblue" stroke="midnightblue" points="289.28,-52.15 299.02,-56.32 294.01,-46.99 289.28,-52.15"/>
</g>
<!-- Node8&#45;&gt;Node10 -->
<g id="edge9" class="edge">
<title>Node8&#45;&gt;Node10</title>
<path fill="none" stroke="midnightblue" d="M321.61,-48.14C328.93,-38.74 337.74,-27.4 343.69,-19.75"/>
<polygon fill="midnightblue" stroke="midnightblue" points="318.81,-46.04 315.44,-56.08 324.34,-50.34 318.81,-46.04"/>
</g>
<!-- Node20&#45;&gt;Node21 -->
<g id="edge12" class="edge">
<title>Node20&#45;&gt;Node21</title>
<path fill="none" stroke="midnightblue" d="M865.32,-103.27C860.03,-94.05 853.78,-83.17 849.52,-75.75"/>
<polygon fill="midnightblue" stroke="midnightblue" points="862.37,-105.15 870.38,-112.08 868.44,-101.67 862.37,-105.15"/>
</g>
<!-- Node21&#45;&gt;Node25 -->
<g id="edge13" class="edge">
<title>Node21&#45;&gt;Node25</title>
<path fill="none" stroke="midnightblue" d="M823.47,-50.62C809.03,-40.76 790.36,-27.99 778.16,-19.65"/>
<polygon fill="midnightblue" stroke="midnightblue" points="821.58,-53.57 831.81,-56.32 825.53,-47.79 821.58,-53.57"/>
</g>
<!-- Node21&#45;&gt;Node26 -->
<g id="edge14" class="edge">
<title>Node21&#45;&gt;Node26</title>
<path fill="none" stroke="midnightblue" d="M861.68,-49.54C872.38,-39.91 885.76,-27.87 894.68,-19.83"/>
<polygon fill="midnightblue" stroke="midnightblue" points="859.23,-47.03 854.14,-56.32 863.91,-52.24 859.23,-47.03"/>
</g>
<!-- Node72&#45;&gt;Node8 -->
<g id="edge20" class="edge">
<title>Node72&#45;&gt;Node8</title>
<path fill="none" stroke="midnightblue" d="M476.36,-109.96C436.51,-99.76 378.14,-84.82 341.78,-75.52"/>
<polygon fill="midnightblue" stroke="midnightblue" points="475.51,-113.35 486.07,-112.44 477.25,-106.57 475.51,-113.35"/>
</g>
<!-- Node72&#45;&gt;Node164 -->
<g id="edge21" class="edge">
<title>Node72&#45;&gt;Node164</title>
<path fill="none" stroke="midnightblue" d="M497.93,-106.62C483.14,-96.76 463.99,-83.99 451.48,-75.65"/>
<polygon fill="midnightblue" stroke="midnightblue" points="496.22,-109.69 506.49,-112.32 500.11,-103.86 496.22,-109.69"/>
</g>
<!-- Node72&#45;&gt;Node167 -->
<g id="edge22" class="edge">
<title>Node72&#45;&gt;Node167</title>
<path fill="none" stroke="midnightblue" d="M516.35,-102.1C514.86,-93.14 513.14,-82.86 511.96,-75.75"/>
<polygon fill="midnightblue" stroke="midnightblue" points="512.92,-102.79 518.01,-112.08 519.82,-101.64 512.92,-102.79"/>
</g>
<!-- Node72&#45;&gt;Node155 -->
<g id="edge23" class="edge">
<title>Node72&#45;&gt;Node155</title>
<path fill="none" stroke="midnightblue" d="M536.68,-105.54C547.38,-95.91 560.76,-83.87 569.68,-75.83"/>
<polygon fill="midnightblue" stroke="midnightblue" points="534.23,-103.03 529.14,-112.32 538.91,-108.24 534.23,-103.03"/>
</g>
<!-- Node72&#45;&gt;Node168 -->
<g id="edge24" class="edge">
<title>Node72&#45;&gt;Node168</title>
<path fill="none" stroke="midnightblue" d="M548.04,-108.37C570.89,-98.26 602.31,-84.35 622.26,-75.52"/>
<polygon fill="midnightblue" stroke="midnightblue" points="546.56,-105.2 538.83,-112.44 549.39,-111.6 546.56,-105.2"/>
</g>
<!-- Node183&#45;&gt;Node5 -->
<g id="edge29" class="edge">
<title>Node183&#45;&gt;Node5</title>
<path fill="none" stroke="midnightblue" d="M111.2,-103.86C118.13,-94.5 126.41,-83.33 132.02,-75.75"/>
<polygon fill="midnightblue" stroke="midnightblue" points="108.25,-101.96 105.11,-112.08 113.87,-106.13 108.25,-101.96"/>
</g>
<!-- Node183&#45;&gt;Node6 -->
<g id="edge30" class="edge">
<title>Node183&#45;&gt;Node6</title>
<path fill="none" stroke="midnightblue" d="M97.97,-101.96C98.22,-88.66 99.79,-70.73 105.5,-56 110.97,-41.91 122.02,-28.28 129.83,-19.78"/>
<polygon fill="midnightblue" stroke="midnightblue" points="94.48,-102.27 98.03,-112.25 101.48,-102.23 94.48,-102.27"/>
</g>
</g>
</svg>
