<?xml version="1.0" encoding="UTF-8" standalone="no"?>
<!DOCTYPE svg PUBLIC "-//W3C//DTD SVG 1.1//EN"
 "http://www.w3.org/Graphics/SVG/1.1/DTD/svg11.dtd">
<!-- Generated by graphviz version 2.44.1 (0)
 -->
<!-- Title: bits/types/clockid_t.h Pages: 1 -->
<svg width="4177pt" height="252pt"
 viewBox="0.00 0.00 4177.00 252.00" xmlns="http://www.w3.org/2000/svg" xmlns:xlink="http://www.w3.org/1999/xlink">
<g id="graph0" class="graph" transform="scale(1 1) rotate(0) translate(4 248)">
<title>bits/types/clockid_t.h</title>
<polygon fill="white" stroke="transparent" points="-4,4 -4,-248 4173,-248 4173,4 -4,4"/>
<!-- Node1 -->
<g id="node1" class="node">
<title>Node1</title>
<g id="a_node1"><a xlink:title=" ">
<polygon fill="#bfbfbf" stroke="black" points="1959,-224.5 1959,-243.5 2079,-243.5 2079,-224.5 1959,-224.5"/>
<text text-anchor="middle" x="2019" y="-231.5" font-family="Helvetica,sans-Serif" font-size="10.00">bits/types/clockid_t.h</text>
</a>
</g>
</g>
<!-- Node2 -->
<g id="node2" class="node">
<title>Node2</title>
<g id="a_node2"><a xlink:href="sys_2types_8h.html" target="_top" xlink:title=" ">
<polygon fill="white" stroke="red" points="1944,-168.5 1944,-187.5 2016,-187.5 2016,-168.5 1944,-168.5"/>
<text text-anchor="middle" x="1980" y="-175.5" font-family="Helvetica,sans-Serif" font-size="10.00">sys/types.h</text>
</a>
</g>
</g>
<!-- Node1&#45;&gt;Node2 -->
<g id="edge1" class="edge">
<title>Node1&#45;&gt;Node2</title>
<path fill="none" stroke="midnightblue" d="M2006.62,-215.86C1999.86,-206.5 1991.79,-195.33 1986.32,-187.75"/>
<polygon fill="midnightblue" stroke="midnightblue" points="2003.87,-218.03 2012.56,-224.08 2009.54,-213.93 2003.87,-218.03"/>
</g>
<!-- Node70 -->
<g id="node50" class="node">
<title>Node70</title>
<g id="a_node50"><a xlink:href="time_8h.html" target="_top" xlink:title=" ">
<polygon fill="white" stroke="red" points="2034,-168.5 2034,-187.5 2082,-187.5 2082,-168.5 2034,-168.5"/>
<text text-anchor="middle" x="2058" y="-175.5" font-family="Helvetica,sans-Serif" font-size="10.00">time.h</text>
</a>
</g>
</g>
<!-- Node1&#45;&gt;Node70 -->
<g id="edge53" class="edge">
<title>Node1&#45;&gt;Node70</title>
<path fill="none" stroke="midnightblue" d="M2031.38,-215.86C2038.14,-206.5 2046.21,-195.33 2051.68,-187.75"/>
<polygon fill="midnightblue" stroke="midnightblue" points="2028.46,-213.93 2025.44,-224.08 2034.13,-218.03 2028.46,-213.93"/>
</g>
<!-- Node3 -->
<g id="node3" class="node">
<title>Node3</title>
<g id="a_node3"><a xlink:href="aliases_8h.html" target="_top" xlink:title=" ">
<polygon fill="white" stroke="black" points="0,-112.5 0,-131.5 60,-131.5 60,-112.5 0,-112.5"/>
<text text-anchor="middle" x="30" y="-119.5" font-family="Helvetica,sans-Serif" font-size="10.00">aliases.h</text>
</a>
</g>
</g>
<!-- Node2&#45;&gt;Node3 -->
<g id="edge2" class="edge">
<title>Node2&#45;&gt;Node3</title>
<path fill="none" stroke="midnightblue" d="M1933.58,-177.19C1678.59,-178.01 446.15,-179.46 69,-132 66.1,-131.64 63.11,-131.15 60.12,-130.59"/>
<polygon fill="midnightblue" stroke="midnightblue" points="1933.96,-180.68 1943.95,-177.15 1933.94,-173.68 1933.96,-180.68"/>
</g>
<!-- Node4 -->
<g id="node4" class="node">
<title>Node4</title>
<g id="a_node4"><a xlink:href="aio_8h.html" target="_top" xlink:title=" ">
<polygon fill="white" stroke="black" points="78.5,-112.5 78.5,-131.5 119.5,-131.5 119.5,-112.5 78.5,-112.5"/>
<text text-anchor="middle" x="99" y="-119.5" font-family="Helvetica,sans-Serif" font-size="10.00">aio.h</text>
</a>
</g>
</g>
<!-- Node2&#45;&gt;Node4 -->
<g id="edge3" class="edge">
<title>Node2&#45;&gt;Node4</title>
<path fill="none" stroke="midnightblue" d="M1933.73,-176.61C1665.13,-174.27 311.87,-161.11 129,-132 125.99,-131.52 122.87,-130.82 119.82,-130.02"/>
<polygon fill="midnightblue" stroke="midnightblue" points="1933.88,-180.12 1943.91,-176.7 1933.94,-173.12 1933.88,-180.12"/>
</g>
<!-- Node5 -->
<g id="node5" class="node">
<title>Node5</title>
<g id="a_node5"><a xlink:href="bits_2socket_8h.html" target="_top" xlink:title=" ">
<polygon fill="white" stroke="red" points="138,-112.5 138,-131.5 216,-131.5 216,-112.5 138,-112.5"/>
<text text-anchor="middle" x="177" y="-119.5" font-family="Helvetica,sans-Serif" font-size="10.00">bits/socket.h</text>
</a>
</g>
</g>
<!-- Node2&#45;&gt;Node5 -->
<g id="edge4" class="edge">
<title>Node2&#45;&gt;Node5</title>
<path fill="none" stroke="midnightblue" d="M1933.57,-176.81C1691.32,-175.69 570.32,-168.56 225,-132 222.13,-131.7 219.18,-131.31 216.22,-130.88"/>
<polygon fill="midnightblue" stroke="midnightblue" points="1933.77,-180.31 1943.79,-176.86 1933.8,-173.31 1933.77,-180.31"/>
</g>
<!-- Node23 -->
<g id="node6" class="node">
<title>Node23</title>
<g id="a_node6"><a xlink:href="bits_2sem_8h.html" target="_top" xlink:title=" ">
<polygon fill="white" stroke="red" points="234,-112.5 234,-131.5 302,-131.5 302,-112.5 234,-112.5"/>
<text text-anchor="middle" x="268" y="-119.5" font-family="Helvetica,sans-Serif" font-size="10.00">bits/sem.h</text>
</a>
</g>
</g>
<!-- Node2&#45;&gt;Node23 -->
<g id="edge5" class="edge">
<title>Node2&#45;&gt;Node23</title>
<path fill="none" stroke="midnightblue" d="M1933.75,-176.74C1699.5,-175.27 642.35,-166.79 316,-132 311.53,-131.52 306.86,-130.86 302.25,-130.1"/>
<polygon fill="midnightblue" stroke="midnightblue" points="1933.94,-180.24 1943.96,-176.8 1933.98,-173.24 1933.94,-180.24"/>
</g>
<!-- Node25 -->
<g id="node7" class="node">
<title>Node25</title>
<g id="a_node7"><a xlink:href="nameser_8h.html" target="_top" xlink:title=" ">
<polygon fill="white" stroke="black" points="498,-56.5 498,-75.5 590,-75.5 590,-56.5 498,-56.5"/>
<text text-anchor="middle" x="544" y="-63.5" font-family="Helvetica,sans-Serif" font-size="10.00">arpa/nameser.h</text>
</a>
</g>
</g>
<!-- Node2&#45;&gt;Node25 -->
<g id="edge6" class="edge">
<title>Node2&#45;&gt;Node25</title>
<path fill="none" stroke="midnightblue" d="M1933.73,-176.54C1678.41,-173.9 451.97,-159.76 425,-132 398.18,-104.39 454.16,-85.54 498.11,-75.51"/>
<polygon fill="midnightblue" stroke="midnightblue" points="1933.75,-180.04 1943.79,-176.64 1933.82,-173.04 1933.75,-180.04"/>
</g>
<!-- Node14 -->
<g id="node8" class="node">
<title>Node14</title>
<g id="a_node8"><a xlink:href="resolv_8h.html" target="_top" xlink:title=" ">
<polygon fill="white" stroke="black" points="453.5,-0.5 453.5,-19.5 508.5,-19.5 508.5,-0.5 453.5,-0.5"/>
<text text-anchor="middle" x="481" y="-7.5" font-family="Helvetica,sans-Serif" font-size="10.00">resolv.h</text>
</a>
</g>
</g>
<!-- Node2&#45;&gt;Node14 -->
<g id="edge35" class="edge">
<title>Node2&#45;&gt;Node14</title>
<path fill="none" stroke="midnightblue" d="M1933.37,-176.65C1679.83,-174.61 475.8,-163.33 404,-132 365.79,-115.32 324.74,-89.91 349,-56 372.67,-22.92 422.12,-13.88 453.32,-11.57"/>
<polygon fill="midnightblue" stroke="midnightblue" points="1933.68,-180.15 1943.7,-176.73 1933.73,-173.15 1933.68,-180.15"/>
</g>
<!-- Node13 -->
<g id="node9" class="node">
<title>Node13</title>
<g id="a_node9"><a xlink:href="res__state_8h.html" target="_top" xlink:title=" ">
<polygon fill="white" stroke="black" points="358,-56.5 358,-75.5 480,-75.5 480,-56.5 358,-56.5"/>
<text text-anchor="middle" x="419" y="-63.5" font-family="Helvetica,sans-Serif" font-size="10.00">bits/types/res_state.h</text>
</a>
</g>
</g>
<!-- Node2&#45;&gt;Node13 -->
<g id="edge8" class="edge">
<title>Node2&#45;&gt;Node13</title>
<path fill="none" stroke="midnightblue" d="M1933.85,-176.55C1677.79,-173.95 442.16,-159.96 415,-132 400.35,-116.92 409.1,-89.44 414.98,-75.54"/>
<polygon fill="midnightblue" stroke="midnightblue" points="1933.89,-180.05 1943.93,-176.65 1933.96,-173.05 1933.89,-180.05"/>
</g>
<!-- Node26 -->
<g id="node10" class="node">
<title>Node26</title>
<g id="a_node10"><a xlink:href="bits_2utmp_8h.html" target="_top" xlink:title=" ">
<polygon fill="white" stroke="red" points="434,-112.5 434,-131.5 506,-131.5 506,-112.5 434,-112.5"/>
<text text-anchor="middle" x="470" y="-119.5" font-family="Helvetica,sans-Serif" font-size="10.00">bits/utmp.h</text>
</a>
</g>
</g>
<!-- Node2&#45;&gt;Node26 -->
<g id="edge10" class="edge">
<title>Node2&#45;&gt;Node26</title>
<path fill="none" stroke="midnightblue" d="M1933.81,-176.62C1717.08,-174.67 799.64,-164.61 515,-132 512.15,-131.67 509.21,-131.26 506.27,-130.79"/>
<polygon fill="midnightblue" stroke="midnightblue" points="1933.86,-180.12 1943.89,-176.71 1933.92,-173.12 1933.86,-180.12"/>
</g>
<!-- Node29 -->
<g id="node11" class="node">
<title>Node29</title>
<g id="a_node11"><a xlink:href="fts_8h.html" target="_top" xlink:title=" ">
<polygon fill="white" stroke="black" points="524,-112.5 524,-131.5 562,-131.5 562,-112.5 524,-112.5"/>
<text text-anchor="middle" x="543" y="-119.5" font-family="Helvetica,sans-Serif" font-size="10.00">fts.h</text>
</a>
</g>
</g>
<!-- Node2&#45;&gt;Node29 -->
<g id="edge11" class="edge">
<title>Node2&#45;&gt;Node29</title>
<path fill="none" stroke="midnightblue" d="M1933.78,-177.25C1721.86,-178.14 841.8,-178.89 571,-132 568.08,-131.49 565.05,-130.76 562.1,-129.92"/>
<polygon fill="midnightblue" stroke="midnightblue" points="1933.95,-180.75 1943.94,-177.21 1933.92,-173.75 1933.95,-180.75"/>
</g>
<!-- Node30 -->
<g id="node12" class="node">
<title>Node30</title>
<g id="a_node12"><a xlink:href="ftw_8h.html" target="_top" xlink:title=" ">
<polygon fill="white" stroke="black" points="580,-112.5 580,-131.5 620,-131.5 620,-112.5 580,-112.5"/>
<text text-anchor="middle" x="600" y="-119.5" font-family="Helvetica,sans-Serif" font-size="10.00">ftw.h</text>
</a>
</g>
</g>
<!-- Node2&#45;&gt;Node30 -->
<g id="edge12" class="edge">
<title>Node2&#45;&gt;Node30</title>
<path fill="none" stroke="midnightblue" d="M1933.71,-177.12C1727.09,-177.38 888.01,-175.69 629,-132 626.09,-131.51 623.06,-130.8 620.11,-130"/>
<polygon fill="midnightblue" stroke="midnightblue" points="1933.91,-180.62 1943.9,-177.1 1933.9,-173.62 1933.91,-180.62"/>
</g>
<!-- Node8 -->
<g id="node13" class="node">
<title>Node8</title>
<g id="a_node13"><a xlink:href="if__arp_8h.html" target="_top" xlink:title=" ">
<polygon fill="white" stroke="black" points="638,-112.5 638,-131.5 710,-131.5 710,-112.5 638,-112.5"/>
<text text-anchor="middle" x="674" y="-119.5" font-family="Helvetica,sans-Serif" font-size="10.00">net/if_arp.h</text>
</a>
</g>
</g>
<!-- Node2&#45;&gt;Node8 -->
<g id="edge13" class="edge">
<title>Node2&#45;&gt;Node8</title>
<path fill="none" stroke="midnightblue" d="M1933.68,-176.35C1735.9,-173.43 961.21,-160.35 719,-132 716.15,-131.67 713.21,-131.25 710.27,-130.78"/>
<polygon fill="midnightblue" stroke="midnightblue" points="1933.69,-179.85 1943.74,-176.5 1933.79,-172.85 1933.69,-179.85"/>
</g>
<!-- Node31 -->
<g id="node14" class="node">
<title>Node31</title>
<g id="a_node14"><a xlink:href="mqueue_8h.html" target="_top" xlink:title=" ">
<polygon fill="white" stroke="black" points="728.5,-112.5 728.5,-131.5 793.5,-131.5 793.5,-112.5 728.5,-112.5"/>
<text text-anchor="middle" x="761" y="-119.5" font-family="Helvetica,sans-Serif" font-size="10.00">mqueue.h</text>
</a>
</g>
</g>
<!-- Node2&#45;&gt;Node31 -->
<g id="edge14" class="edge">
<title>Node2&#45;&gt;Node31</title>
<path fill="none" stroke="midnightblue" d="M1933.72,-176.3C1744.31,-173.27 1027.65,-160.15 803,-132 800.04,-131.63 796.98,-131.15 793.92,-130.62"/>
<polygon fill="midnightblue" stroke="midnightblue" points="1933.83,-179.8 1943.89,-176.46 1933.95,-172.8 1933.83,-179.8"/>
</g>
<!-- Node32 -->
<g id="node15" class="node">
<title>Node32</title>
<g id="a_node15"><a xlink:href="ethernet_8h.html" target="_top" xlink:title=" ">
<polygon fill="white" stroke="black" points="812,-112.5 812,-131.5 898,-131.5 898,-112.5 812,-112.5"/>
<text text-anchor="middle" x="855" y="-119.5" font-family="Helvetica,sans-Serif" font-size="10.00">net/ethernet.h</text>
</a>
</g>
</g>
<!-- Node2&#45;&gt;Node32 -->
<g id="edge15" class="edge">
<title>Node2&#45;&gt;Node32</title>
<path fill="none" stroke="midnightblue" d="M1933.57,-177.19C1784.18,-177.36 1302.58,-174.35 907,-132 904.08,-131.69 901.09,-131.31 898.07,-130.9"/>
<polygon fill="midnightblue" stroke="midnightblue" points="1933.75,-180.69 1943.75,-177.18 1933.74,-173.69 1933.75,-180.69"/>
</g>
<!-- Node9 -->
<g id="node16" class="node">
<title>Node9</title>
<g id="a_node16"><a xlink:href="route_8h.html" target="_top" xlink:title=" ">
<polygon fill="white" stroke="black" points="916,-112.5 916,-131.5 986,-131.5 986,-112.5 916,-112.5"/>
<text text-anchor="middle" x="951" y="-119.5" font-family="Helvetica,sans-Serif" font-size="10.00">net/route.h</text>
</a>
</g>
</g>
<!-- Node2&#45;&gt;Node9 -->
<g id="edge16" class="edge">
<title>Node2&#45;&gt;Node9</title>
<path fill="none" stroke="midnightblue" d="M1933.54,-177.44C1792.06,-178.25 1354.22,-176.67 995,-132 992.21,-131.65 989.34,-131.23 986.46,-130.75"/>
<polygon fill="midnightblue" stroke="midnightblue" points="1933.63,-180.94 1943.6,-177.38 1933.58,-173.94 1933.63,-180.94"/>
</g>
<!-- Node33 -->
<g id="node17" class="node">
<title>Node33</title>
<g id="a_node17"><a xlink:href="if__shaper_8h.html" target="_top" xlink:title=" ">
<polygon fill="white" stroke="black" points="1004.5,-112.5 1004.5,-131.5 1093.5,-131.5 1093.5,-112.5 1004.5,-112.5"/>
<text text-anchor="middle" x="1049" y="-119.5" font-family="Helvetica,sans-Serif" font-size="10.00">net/if_shaper.h</text>
</a>
</g>
</g>
<!-- Node2&#45;&gt;Node33 -->
<g id="edge17" class="edge">
<title>Node2&#45;&gt;Node33</title>
<path fill="none" stroke="midnightblue" d="M1933.91,-176.48C1803.28,-174.62 1419.54,-166.39 1103,-132 1099.98,-131.67 1096.86,-131.28 1093.73,-130.86"/>
<polygon fill="midnightblue" stroke="midnightblue" points="1933.91,-179.98 1943.96,-176.62 1934.01,-172.98 1933.91,-179.98"/>
</g>
<!-- Node34 -->
<g id="node18" class="node">
<title>Node34</title>
<g id="a_node18"><a xlink:href="if__ether_8h.html" target="_top" xlink:title=" ">
<polygon fill="white" stroke="red" points="1112,-112.5 1112,-131.5 1212,-131.5 1212,-112.5 1112,-112.5"/>
<text text-anchor="middle" x="1162" y="-119.5" font-family="Helvetica,sans-Serif" font-size="10.00">netinet/if_ether.h</text>
</a>
</g>
</g>
<!-- Node2&#45;&gt;Node34 -->
<g id="edge18" class="edge">
<title>Node2&#45;&gt;Node34</title>
<path fill="none" stroke="midnightblue" d="M1933.78,-175.74C1815.12,-172.2 1490.19,-160.45 1221,-132 1218.11,-131.7 1215.15,-131.35 1212.17,-130.97"/>
<polygon fill="midnightblue" stroke="midnightblue" points="1933.85,-179.25 1943.95,-176.04 1934.06,-172.25 1933.85,-179.25"/>
</g>
<!-- Node36 -->
<g id="node19" class="node">
<title>Node36</title>
<g id="a_node19"><a xlink:href="if__ppp_8h.html" target="_top" xlink:title=" ">
<polygon fill="white" stroke="black" points="1230,-112.5 1230,-131.5 1304,-131.5 1304,-112.5 1230,-112.5"/>
<text text-anchor="middle" x="1267" y="-119.5" font-family="Helvetica,sans-Serif" font-size="10.00">net/if_ppp.h</text>
</a>
</g>
</g>
<!-- Node2&#45;&gt;Node36 -->
<g id="edge19" class="edge">
<title>Node2&#45;&gt;Node36</title>
<path fill="none" stroke="midnightblue" d="M1933.38,-175.87C1824.4,-172.8 1544.65,-162.35 1313,-132 1310.1,-131.62 1307.1,-131.17 1304.09,-130.67"/>
<polygon fill="midnightblue" stroke="midnightblue" points="1933.6,-179.38 1943.69,-176.16 1933.79,-172.38 1933.6,-179.38"/>
</g>
<!-- Node37 -->
<g id="node20" class="node">
<title>Node37</title>
<g id="a_node20"><a xlink:href="if__fddi_8h.html" target="_top" xlink:title=" ">
<polygon fill="white" stroke="black" points="1322,-112.5 1322,-131.5 1416,-131.5 1416,-112.5 1322,-112.5"/>
<text text-anchor="middle" x="1369" y="-119.5" font-family="Helvetica,sans-Serif" font-size="10.00">netinet/if_fddi.h</text>
</a>
</g>
</g>
<!-- Node2&#45;&gt;Node37 -->
<g id="edge20" class="edge">
<title>Node2&#45;&gt;Node37</title>
<path fill="none" stroke="midnightblue" d="M1933.69,-174.48C1838.29,-169.01 1613.02,-154.7 1425,-132 1422.07,-131.65 1419.05,-131.25 1416.02,-130.83"/>
<polygon fill="midnightblue" stroke="midnightblue" points="1933.68,-177.98 1943.86,-175.05 1934.08,-170.99 1933.68,-177.98"/>
</g>
<!-- Node15 -->
<g id="node21" class="node">
<title>Node15</title>
<g id="a_node21"><a xlink:href="icmp6_8h.html" target="_top" xlink:title=" ">
<polygon fill="white" stroke="black" points="1434.5,-112.5 1434.5,-131.5 1527.5,-131.5 1527.5,-112.5 1434.5,-112.5"/>
<text text-anchor="middle" x="1481" y="-119.5" font-family="Helvetica,sans-Serif" font-size="10.00">netinet/icmp6.h</text>
</a>
</g>
</g>
<!-- Node2&#45;&gt;Node15 -->
<g id="edge21" class="edge">
<title>Node2&#45;&gt;Node15</title>
<path fill="none" stroke="midnightblue" d="M1933.41,-173.16C1852.57,-166.31 1681.15,-150.89 1537,-132 1533.97,-131.6 1530.86,-131.17 1527.72,-130.72"/>
<polygon fill="midnightblue" stroke="midnightblue" points="1933.48,-176.68 1943.74,-174.04 1934.07,-169.71 1933.48,-176.68"/>
</g>
<!-- Node38 -->
<g id="node22" class="node">
<title>Node38</title>
<g id="a_node22"><a xlink:href="if__tr_8h.html" target="_top" xlink:title=" ">
<polygon fill="white" stroke="black" points="1546,-112.5 1546,-131.5 1628,-131.5 1628,-112.5 1546,-112.5"/>
<text text-anchor="middle" x="1587" y="-119.5" font-family="Helvetica,sans-Serif" font-size="10.00">netinet/if_tr.h</text>
</a>
</g>
</g>
<!-- Node2&#45;&gt;Node38 -->
<g id="edge22" class="edge">
<title>Node2&#45;&gt;Node38</title>
<path fill="none" stroke="midnightblue" d="M1933.8,-171.65C1867.83,-163.84 1742.9,-148.47 1637,-132 1634.12,-131.55 1631.16,-131.07 1628.17,-130.57"/>
<polygon fill="midnightblue" stroke="midnightblue" points="1933.53,-175.14 1943.87,-172.83 1934.35,-168.19 1933.53,-175.14"/>
</g>
<!-- Node39 -->
<g id="node23" class="node">
<title>Node39</title>
<g id="a_node23"><a xlink:href="igmp_8h.html" target="_top" xlink:title=" ">
<polygon fill="white" stroke="black" points="1646,-112.5 1646,-131.5 1734,-131.5 1734,-112.5 1646,-112.5"/>
<text text-anchor="middle" x="1690" y="-119.5" font-family="Helvetica,sans-Serif" font-size="10.00">netinet/igmp.h</text>
</a>
</g>
</g>
<!-- Node2&#45;&gt;Node39 -->
<g id="edge23" class="edge">
<title>Node2&#45;&gt;Node39</title>
<path fill="none" stroke="midnightblue" d="M1933.72,-168.38C1878.87,-158.17 1788.13,-141.27 1734.2,-131.23"/>
<polygon fill="midnightblue" stroke="midnightblue" points="1933.39,-171.88 1943.86,-170.27 1934.67,-165 1933.39,-171.88"/>
</g>
<!-- Node40 -->
<g id="node24" class="node">
<title>Node40</title>
<g id="a_node24"><a xlink:href="in__systm_8h.html" target="_top" xlink:title=" ">
<polygon fill="white" stroke="black" points="1751.5,-112.5 1751.5,-131.5 1858.5,-131.5 1858.5,-112.5 1751.5,-112.5"/>
<text text-anchor="middle" x="1805" y="-119.5" font-family="Helvetica,sans-Serif" font-size="10.00">netinet/in_systm.h</text>
</a>
</g>
</g>
<!-- Node2&#45;&gt;Node40 -->
<g id="edge24" class="edge">
<title>Node2&#45;&gt;Node40</title>
<path fill="none" stroke="midnightblue" d="M1942.53,-165.44C1909.53,-155.26 1862.24,-140.66 1832.6,-131.52"/>
<polygon fill="midnightblue" stroke="midnightblue" points="1941.68,-168.84 1952.27,-168.44 1943.75,-162.15 1941.68,-168.84"/>
</g>
<!-- Node41 -->
<g id="node25" class="node">
<title>Node41</title>
<g id="a_node25"><a xlink:href="link_8h.html" target="_top" xlink:title=" ">
<polygon fill="white" stroke="black" points="1877,-112.5 1877,-131.5 1921,-131.5 1921,-112.5 1877,-112.5"/>
<text text-anchor="middle" x="1899" y="-119.5" font-family="Helvetica,sans-Serif" font-size="10.00">link.h</text>
</a>
</g>
</g>
<!-- Node2&#45;&gt;Node41 -->
<g id="edge25" class="edge">
<title>Node2&#45;&gt;Node41</title>
<path fill="none" stroke="midnightblue" d="M1958.43,-162.62C1943.64,-152.76 1924.49,-139.99 1911.98,-131.65"/>
<polygon fill="midnightblue" stroke="midnightblue" points="1956.72,-165.69 1966.99,-168.32 1960.61,-159.86 1956.72,-165.69"/>
</g>
<!-- Node42 -->
<g id="node26" class="node">
<title>Node42</title>
<g id="a_node26"><a xlink:href="udp_8h.html" target="_top" xlink:title=" ">
<polygon fill="white" stroke="black" points="1939.5,-112.5 1939.5,-131.5 2020.5,-131.5 2020.5,-112.5 1939.5,-112.5"/>
<text text-anchor="middle" x="1980" y="-119.5" font-family="Helvetica,sans-Serif" font-size="10.00">netinet/udp.h</text>
</a>
</g>
</g>
<!-- Node2&#45;&gt;Node42 -->
<g id="edge26" class="edge">
<title>Node2&#45;&gt;Node42</title>
<path fill="none" stroke="midnightblue" d="M1980,-157.8C1980,-148.91 1980,-138.78 1980,-131.75"/>
<polygon fill="midnightblue" stroke="midnightblue" points="1976.5,-158.08 1980,-168.08 1983.5,-158.08 1976.5,-158.08"/>
</g>
<!-- Node17 -->
<g id="node27" class="node">
<title>Node17</title>
<g id="a_node27"><a xlink:href="ip_8h.html" target="_top" xlink:title=" ">
<polygon fill="white" stroke="black" points="2039,-112.5 2039,-131.5 2111,-131.5 2111,-112.5 2039,-112.5"/>
<text text-anchor="middle" x="2075" y="-119.5" font-family="Helvetica,sans-Serif" font-size="10.00">netinet/ip.h</text>
</a>
</g>
</g>
<!-- Node2&#45;&gt;Node17 -->
<g id="edge27" class="edge">
<title>Node2&#45;&gt;Node17</title>
<path fill="none" stroke="midnightblue" d="M2004.32,-163.18C2021.8,-153.24 2044.83,-140.15 2059.77,-131.65"/>
<polygon fill="midnightblue" stroke="midnightblue" points="2002.23,-160.34 1995.26,-168.32 2005.69,-166.43 2002.23,-160.34"/>
</g>
<!-- Node43 -->
<g id="node28" class="node">
<title>Node43</title>
<g id="a_node28"><a xlink:href="ip__icmp_8h.html" target="_top" xlink:title=" ">
<polygon fill="white" stroke="black" points="2129.5,-112.5 2129.5,-131.5 2230.5,-131.5 2230.5,-112.5 2129.5,-112.5"/>
<text text-anchor="middle" x="2180" y="-119.5" font-family="Helvetica,sans-Serif" font-size="10.00">netinet/ip_icmp.h</text>
</a>
</g>
</g>
<!-- Node2&#45;&gt;Node43 -->
<g id="edge28" class="edge">
<title>Node2&#45;&gt;Node43</title>
<path fill="none" stroke="midnightblue" d="M2021.37,-165.83C2059.14,-155.63 2114.14,-140.78 2148.46,-131.52"/>
<polygon fill="midnightblue" stroke="midnightblue" points="2020.43,-162.46 2011.69,-168.44 2022.26,-169.22 2020.43,-162.46"/>
</g>
<!-- Node44 -->
<g id="node29" class="node">
<title>Node44</title>
<g id="a_node29"><a xlink:href="ipx_8h.html" target="_top" xlink:title=" ">
<polygon fill="white" stroke="black" points="2249,-112.5 2249,-131.5 2323,-131.5 2323,-112.5 2249,-112.5"/>
<text text-anchor="middle" x="2286" y="-119.5" font-family="Helvetica,sans-Serif" font-size="10.00">netipx/ipx.h</text>
</a>
</g>
</g>
<!-- Node2&#45;&gt;Node44 -->
<g id="edge29" class="edge">
<title>Node2&#45;&gt;Node44</title>
<path fill="none" stroke="midnightblue" d="M2026.43,-167.78C2121.99,-150.4 2147.84,-148.73 2240,-132 2242.88,-131.48 2245.86,-130.92 2248.86,-130.36"/>
<polygon fill="midnightblue" stroke="midnightblue" points="2025.54,-164.39 2016.33,-169.63 2026.8,-171.27 2025.54,-164.39"/>
</g>
<!-- Node45 -->
<g id="node30" class="node">
<title>Node45</title>
<g id="a_node30"><a xlink:href="nss_8h.html" target="_top" xlink:title=" ">
<polygon fill="white" stroke="black" points="2341,-112.5 2341,-131.5 2383,-131.5 2383,-112.5 2341,-112.5"/>
<text text-anchor="middle" x="2362" y="-119.5" font-family="Helvetica,sans-Serif" font-size="10.00">nss.h</text>
</a>
</g>
</g>
<!-- Node2&#45;&gt;Node45 -->
<g id="edge30" class="edge">
<title>Node2&#45;&gt;Node45</title>
<path fill="none" stroke="midnightblue" d="M2026.28,-167.92C2162.47,-147.11 2200.62,-159.19 2332,-132 2334.88,-131.4 2337.87,-130.66 2340.81,-129.86"/>
<polygon fill="midnightblue" stroke="midnightblue" points="2025.65,-164.48 2016.3,-169.48 2026.72,-171.4 2025.65,-164.48"/>
</g>
<!-- Node46 -->
<g id="node31" class="node">
<title>Node46</title>
<g id="a_node31"><a xlink:href="rwhod_8h.html" target="_top" xlink:title=" ">
<polygon fill="white" stroke="black" points="2401,-112.5 2401,-131.5 2505,-131.5 2505,-112.5 2401,-112.5"/>
<text text-anchor="middle" x="2453" y="-119.5" font-family="Helvetica,sans-Serif" font-size="10.00">protocols/rwhod.h</text>
</a>
</g>
</g>
<!-- Node2&#45;&gt;Node46 -->
<g id="edge31" class="edge">
<title>Node2&#45;&gt;Node46</title>
<path fill="none" stroke="midnightblue" d="M2026.64,-167.89C2188.89,-144.22 2232.66,-151.56 2392,-132 2394.87,-131.65 2397.81,-131.27 2400.78,-130.88"/>
<polygon fill="midnightblue" stroke="midnightblue" points="2025.68,-164.5 2016.29,-169.42 2026.7,-171.42 2025.68,-164.5"/>
</g>
<!-- Node21 -->
<g id="node32" class="node">
<title>Node21</title>
<g id="a_node32"><a xlink:href="talkd_8h.html" target="_top" xlink:title=" ">
<polygon fill="white" stroke="black" points="2523,-112.5 2523,-131.5 2621,-131.5 2621,-112.5 2523,-112.5"/>
<text text-anchor="middle" x="2572" y="-119.5" font-family="Helvetica,sans-Serif" font-size="10.00">protocols/talkd.h</text>
</a>
</g>
</g>
<!-- Node2&#45;&gt;Node21 -->
<g id="edge32" class="edge">
<title>Node2&#45;&gt;Node21</title>
<path fill="none" stroke="midnightblue" d="M2026.37,-167.98C2242.67,-139.11 2300.76,-156.35 2514,-132 2516.94,-131.66 2519.95,-131.29 2522.99,-130.89"/>
<polygon fill="midnightblue" stroke="midnightblue" points="2025.72,-164.53 2016.28,-169.34 2026.66,-171.47 2025.72,-164.53"/>
</g>
<!-- Node47 -->
<g id="node33" class="node">
<title>Node47</title>
<g id="a_node33"><a xlink:href="timed_8h.html" target="_top" xlink:title=" ">
<polygon fill="white" stroke="black" points="2639,-112.5 2639,-131.5 2741,-131.5 2741,-112.5 2639,-112.5"/>
<text text-anchor="middle" x="2690" y="-119.5" font-family="Helvetica,sans-Serif" font-size="10.00">protocols/timed.h</text>
</a>
</g>
</g>
<!-- Node2&#45;&gt;Node47 -->
<g id="edge33" class="edge">
<title>Node2&#45;&gt;Node47</title>
<path fill="none" stroke="midnightblue" d="M2026.29,-168.01C2293.88,-134.14 2365.37,-159.66 2630,-132 2632.93,-131.69 2635.94,-131.35 2638.98,-130.97"/>
<polygon fill="midnightblue" stroke="midnightblue" points="2025.75,-164.55 2016.28,-169.3 2026.64,-171.5 2025.75,-164.55"/>
</g>
<!-- Node48 -->
<g id="node34" class="node">
<title>Node48</title>
<g id="a_node34"><a xlink:href="regex_8h.html" target="_top" xlink:title=" ">
<polygon fill="white" stroke="red" points="2759.5,-112.5 2759.5,-131.5 2812.5,-131.5 2812.5,-112.5 2759.5,-112.5"/>
<text text-anchor="middle" x="2786" y="-119.5" font-family="Helvetica,sans-Serif" font-size="10.00">regex.h</text>
</a>
</g>
</g>
<!-- Node2&#45;&gt;Node48 -->
<g id="edge34" class="edge">
<title>Node2&#45;&gt;Node48</title>
<path fill="none" stroke="midnightblue" d="M2026.32,-168.03C2346.94,-129.29 2434.15,-178.86 2750,-132 2753.06,-131.55 2756.24,-130.95 2759.38,-130.27"/>
<polygon fill="midnightblue" stroke="midnightblue" points="2025.77,-164.57 2016.27,-169.27 2026.63,-171.52 2025.77,-164.57"/>
</g>
<!-- Node50 -->
<g id="node35" class="node">
<title>Node50</title>
<g id="a_node35"><a xlink:href="semaphore_8h.html" target="_top" xlink:title=" ">
<polygon fill="white" stroke="black" points="2831,-112.5 2831,-131.5 2911,-131.5 2911,-112.5 2831,-112.5"/>
<text text-anchor="middle" x="2871" y="-119.5" font-family="Helvetica,sans-Serif" font-size="10.00">semaphore.h</text>
</a>
</g>
</g>
<!-- Node2&#45;&gt;Node50 -->
<g id="edge36" class="edge">
<title>Node2&#45;&gt;Node50</title>
<path fill="none" stroke="midnightblue" d="M2026.24,-168.05C2378.72,-125.97 2472.96,-171.75 2822,-132 2824.92,-131.67 2827.93,-131.26 2830.96,-130.82"/>
<polygon fill="midnightblue" stroke="midnightblue" points="2025.78,-164.58 2016.27,-169.25 2026.62,-171.53 2025.78,-164.58"/>
</g>
<!-- Node51 -->
<g id="node36" class="node">
<title>Node51</title>
<g id="a_node36"><a xlink:href="spawn_8h.html" target="_top" xlink:title=" ">
<polygon fill="white" stroke="black" points="2929.5,-112.5 2929.5,-131.5 2986.5,-131.5 2986.5,-112.5 2929.5,-112.5"/>
<text text-anchor="middle" x="2958" y="-119.5" font-family="Helvetica,sans-Serif" font-size="10.00">spawn.h</text>
</a>
</g>
</g>
<!-- Node2&#45;&gt;Node51 -->
<g id="edge37" class="edge">
<title>Node2&#45;&gt;Node51</title>
<path fill="none" stroke="midnightblue" d="M2026.27,-168.05C2422.06,-121.89 2528.87,-185.68 2920,-132 2923.09,-131.58 2926.3,-131.01 2929.48,-130.38"/>
<polygon fill="midnightblue" stroke="midnightblue" points="2025.79,-164.59 2016.27,-169.24 2026.61,-171.54 2025.79,-164.59"/>
</g>
<!-- Node52 -->
<g id="node37" class="node">
<title>Node52</title>
<g id="a_node37"><a xlink:href="acct_8h.html" target="_top" xlink:title=" ">
<polygon fill="white" stroke="black" points="3004.5,-112.5 3004.5,-131.5 3069.5,-131.5 3069.5,-112.5 3004.5,-112.5"/>
<text text-anchor="middle" x="3037" y="-119.5" font-family="Helvetica,sans-Serif" font-size="10.00">sys/acct.h</text>
</a>
</g>
</g>
<!-- Node2&#45;&gt;Node52 -->
<g id="edge38" class="edge">
<title>Node2&#45;&gt;Node52</title>
<path fill="none" stroke="midnightblue" d="M2026.47,-168.04C2455.68,-118.56 2570.95,-186.09 2996,-132 2998.75,-131.65 3001.58,-131.21 3004.42,-130.7"/>
<polygon fill="midnightblue" stroke="midnightblue" points="2025.8,-164.59 2016.27,-169.23 2026.61,-171.54 2025.8,-164.59"/>
</g>
<!-- Node53 -->
<g id="node38" class="node">
<title>Node53</title>
<g id="a_node38"><a xlink:href="bitypes_8h.html" target="_top" xlink:title=" ">
<polygon fill="white" stroke="black" points="3087.5,-112.5 3087.5,-131.5 3168.5,-131.5 3168.5,-112.5 3087.5,-112.5"/>
<text text-anchor="middle" x="3128" y="-119.5" font-family="Helvetica,sans-Serif" font-size="10.00">sys/bitypes.h</text>
</a>
</g>
</g>
<!-- Node2&#45;&gt;Node53 -->
<g id="edge39" class="edge">
<title>Node2&#45;&gt;Node53</title>
<path fill="none" stroke="midnightblue" d="M2026.29,-168.06C2492.33,-114.82 2616.31,-182.12 3079,-132 3081.75,-131.7 3084.58,-131.34 3087.43,-130.93"/>
<polygon fill="midnightblue" stroke="midnightblue" points="2025.8,-164.59 2016.27,-169.22 2026.6,-171.55 2025.8,-164.59"/>
</g>
<!-- Node54 -->
<g id="node39" class="node">
<title>Node54</title>
<g id="a_node39"><a xlink:href="sys_2epoll_8h.html" target="_top" xlink:title=" ">
<polygon fill="white" stroke="black" points="3186.5,-112.5 3186.5,-131.5 3255.5,-131.5 3255.5,-112.5 3186.5,-112.5"/>
<text text-anchor="middle" x="3221" y="-119.5" font-family="Helvetica,sans-Serif" font-size="10.00">sys/epoll.h</text>
</a>
</g>
</g>
<!-- Node2&#45;&gt;Node54 -->
<g id="edge40" class="edge">
<title>Node2&#45;&gt;Node54</title>
<path fill="none" stroke="midnightblue" d="M2026.46,-168.05C2536.14,-110.62 2672.27,-192.35 3178,-132 3180.73,-131.67 3183.54,-131.26 3186.35,-130.8"/>
<polygon fill="midnightblue" stroke="midnightblue" points="2025.81,-164.6 2016.27,-169.21 2026.6,-171.55 2025.81,-164.6"/>
</g>
<!-- Node55 -->
<g id="node40" class="node">
<title>Node55</title>
<g id="a_node40"><a xlink:href="gmon_8h.html" target="_top" xlink:title=" ">
<polygon fill="white" stroke="black" points="3273.5,-112.5 3273.5,-131.5 3346.5,-131.5 3346.5,-112.5 3273.5,-112.5"/>
<text text-anchor="middle" x="3310" y="-119.5" font-family="Helvetica,sans-Serif" font-size="10.00">sys/gmon.h</text>
</a>
</g>
</g>
<!-- Node2&#45;&gt;Node55 -->
<g id="edge41" class="edge">
<title>Node2&#45;&gt;Node55</title>
<path fill="none" stroke="midnightblue" d="M2026.41,-168.06C2574.59,-106.79 2720.53,-193.9 3265,-132 3267.69,-131.69 3270.46,-131.31 3273.24,-130.88"/>
<polygon fill="midnightblue" stroke="midnightblue" points="2025.81,-164.6 2016.27,-169.2 2026.6,-171.56 2025.81,-164.6"/>
</g>
<!-- Node56 -->
<g id="node41" class="node">
<title>Node56</title>
<g id="a_node41"><a xlink:href="fsuid_8h.html" target="_top" xlink:title=" ">
<polygon fill="white" stroke="black" points="3364.5,-112.5 3364.5,-131.5 3433.5,-131.5 3433.5,-112.5 3364.5,-112.5"/>
<text text-anchor="middle" x="3399" y="-119.5" font-family="Helvetica,sans-Serif" font-size="10.00">sys/fsuid.h</text>
</a>
</g>
</g>
<!-- Node2&#45;&gt;Node56 -->
<g id="edge42" class="edge">
<title>Node2&#45;&gt;Node56</title>
<path fill="none" stroke="midnightblue" d="M2026.28,-168.07C2614.81,-102.84 2771.55,-200.51 3356,-132 3358.73,-131.68 3361.54,-131.27 3364.35,-130.81"/>
<polygon fill="midnightblue" stroke="midnightblue" points="2025.81,-164.6 2016.27,-169.2 2026.59,-171.56 2025.81,-164.6"/>
</g>
<!-- Node57 -->
<g id="node42" class="node">
<title>Node57</title>
<g id="a_node42"><a xlink:href="sys_2param_8h.html" target="_top" xlink:title=" ">
<polygon fill="white" stroke="black" points="3451.5,-112.5 3451.5,-131.5 3528.5,-131.5 3528.5,-112.5 3451.5,-112.5"/>
<text text-anchor="middle" x="3490" y="-119.5" font-family="Helvetica,sans-Serif" font-size="10.00">sys/param.h</text>
</a>
</g>
</g>
<!-- Node2&#45;&gt;Node57 -->
<g id="edge43" class="edge">
<title>Node2&#45;&gt;Node57</title>
<path fill="none" stroke="midnightblue" d="M2026.46,-168.06C2653.3,-99.01 2819.57,-199.15 3443,-132 3445.73,-131.71 3448.53,-131.34 3451.35,-130.92"/>
<polygon fill="midnightblue" stroke="midnightblue" points="2025.82,-164.61 2016.27,-169.19 2026.59,-171.56 2025.82,-164.61"/>
</g>
<!-- Node58 -->
<g id="node43" class="node">
<title>Node58</title>
<g id="a_node43"><a xlink:href="mtio_8h.html" target="_top" xlink:title=" ">
<polygon fill="white" stroke="black" points="3547,-112.5 3547,-131.5 3615,-131.5 3615,-112.5 3547,-112.5"/>
<text text-anchor="middle" x="3581" y="-119.5" font-family="Helvetica,sans-Serif" font-size="10.00">sys/mtio.h</text>
</a>
</g>
</g>
<!-- Node2&#45;&gt;Node58 -->
<g id="edge46" class="edge">
<title>Node2&#45;&gt;Node58</title>
<path fill="none" stroke="midnightblue" d="M2026.64,-168.04C2695.35,-94.94 2873.24,-208.82 3538,-132 3540.88,-131.67 3543.85,-131.24 3546.82,-130.74"/>
<polygon fill="midnightblue" stroke="midnightblue" points="2025.82,-164.61 2016.26,-169.19 2026.59,-171.57 2025.82,-164.61"/>
</g>
<!-- Node59 -->
<g id="node44" class="node">
<title>Node59</title>
<g id="a_node44"><a xlink:href="sys_2procfs_8h.html" target="_top" xlink:title=" ">
<polygon fill="white" stroke="red" points="3633.5,-112.5 3633.5,-131.5 3708.5,-131.5 3708.5,-112.5 3633.5,-112.5"/>
<text text-anchor="middle" x="3671" y="-119.5" font-family="Helvetica,sans-Serif" font-size="10.00">sys/procfs.h</text>
</a>
</g>
</g>
<!-- Node2&#45;&gt;Node59 -->
<g id="edge47" class="edge">
<title>Node2&#45;&gt;Node59</title>
<path fill="none" stroke="midnightblue" d="M2026.44,-168.06C2733.33,-91.11 2920.5,-206.75 3624,-132 3627.06,-131.68 3630.21,-131.26 3633.37,-130.78"/>
<polygon fill="midnightblue" stroke="midnightblue" points="2025.82,-164.61 2016.26,-169.18 2026.59,-171.57 2025.82,-164.61"/>
</g>
<!-- Node64 -->
<g id="node45" class="node">
<title>Node64</title>
<g id="a_node45"><a xlink:href="profil_8h.html" target="_top" xlink:title=" ">
<polygon fill="white" stroke="black" points="3727,-112.5 3727,-131.5 3797,-131.5 3797,-112.5 3727,-112.5"/>
<text text-anchor="middle" x="3762" y="-119.5" font-family="Helvetica,sans-Serif" font-size="10.00">sys/profil.h</text>
</a>
</g>
</g>
<!-- Node2&#45;&gt;Node64 -->
<g id="edge48" class="edge">
<title>Node2&#45;&gt;Node64</title>
<path fill="none" stroke="midnightblue" d="M2026.21,-168.09C2774.86,-87.02 2973.35,-215.38 3718,-132 3720.79,-131.69 3723.66,-131.29 3726.55,-130.82"/>
<polygon fill="midnightblue" stroke="midnightblue" points="2025.82,-164.61 2016.26,-169.18 2026.58,-171.57 2025.82,-164.61"/>
</g>
<!-- Node65 -->
<g id="node46" class="node">
<title>Node65</title>
<g id="a_node46"><a xlink:href="quota_8h.html" target="_top" xlink:title=" ">
<polygon fill="white" stroke="black" points="3815.5,-112.5 3815.5,-131.5 3888.5,-131.5 3888.5,-112.5 3815.5,-112.5"/>
<text text-anchor="middle" x="3852" y="-119.5" font-family="Helvetica,sans-Serif" font-size="10.00">sys/quota.h</text>
</a>
</g>
</g>
<!-- Node2&#45;&gt;Node65 -->
<g id="edge49" class="edge">
<title>Node2&#45;&gt;Node65</title>
<path fill="none" stroke="midnightblue" d="M2026.43,-168.07C2813.81,-83.17 3022.15,-215.96 3806,-132 3809.07,-131.67 3812.25,-131.24 3815.43,-130.75"/>
<polygon fill="midnightblue" stroke="midnightblue" points="2025.83,-164.61 2016.26,-169.17 2026.58,-171.57 2025.83,-164.61"/>
</g>
<!-- Node66 -->
<g id="node47" class="node">
<title>Node66</title>
<g id="a_node47"><a xlink:href="random_8h.html" target="_top" xlink:title=" ">
<polygon fill="white" stroke="black" points="3906.5,-112.5 3906.5,-131.5 3989.5,-131.5 3989.5,-112.5 3906.5,-112.5"/>
<text text-anchor="middle" x="3948" y="-119.5" font-family="Helvetica,sans-Serif" font-size="10.00">sys/random.h</text>
</a>
</g>
</g>
<!-- Node2&#45;&gt;Node66 -->
<g id="edge50" class="edge">
<title>Node2&#45;&gt;Node66</title>
<path fill="none" stroke="midnightblue" d="M2026.34,-168.08C2854.48,-79.09 3072.79,-213.68 3898,-132 3900.72,-131.73 3903.52,-131.39 3906.33,-131.01"/>
<polygon fill="midnightblue" stroke="midnightblue" points="2025.83,-164.62 2016.26,-169.17 2026.58,-171.57 2025.83,-164.62"/>
</g>
<!-- Node67 -->
<g id="node48" class="node">
<title>Node67</title>
<g id="a_node48"><a xlink:href="sendfile_8h.html" target="_top" xlink:title=" ">
<polygon fill="white" stroke="black" points="4007.5,-112.5 4007.5,-131.5 4090.5,-131.5 4090.5,-112.5 4007.5,-112.5"/>
<text text-anchor="middle" x="4049" y="-119.5" font-family="Helvetica,sans-Serif" font-size="10.00">sys/sendfile.h</text>
</a>
</g>
</g>
<!-- Node2&#45;&gt;Node67 -->
<g id="edge51" class="edge">
<title>Node2&#45;&gt;Node67</title>
<path fill="none" stroke="midnightblue" d="M2026.24,-168.09C2899.12,-74.67 3129.05,-217.67 3999,-132 4001.72,-131.73 4004.52,-131.4 4007.33,-131.02"/>
<polygon fill="midnightblue" stroke="midnightblue" points="2025.83,-164.62 2016.26,-169.17 2026.58,-171.58 2025.83,-164.62"/>
</g>
<!-- Node68 -->
<g id="node49" class="node">
<title>Node68</title>
<g id="a_node49"><a xlink:href="uio_8h.html" target="_top" xlink:title=" ">
<polygon fill="white" stroke="black" points="4109,-112.5 4109,-131.5 4169,-131.5 4169,-112.5 4109,-112.5"/>
<text text-anchor="middle" x="4139" y="-119.5" font-family="Helvetica,sans-Serif" font-size="10.00">sys/uio.h</text>
</a>
</g>
</g>
<!-- Node2&#45;&gt;Node68 -->
<g id="edge52" class="edge">
<title>Node2&#45;&gt;Node68</title>
<path fill="none" stroke="midnightblue" d="M2026.29,-168.11C2499.9,-119.56 3645.49,-187.76 4100,-132 4102.9,-131.64 4105.89,-131.16 4108.88,-130.61"/>
<polygon fill="midnightblue" stroke="midnightblue" points="2025.84,-164.64 2016.26,-169.16 2026.57,-171.6 2025.84,-164.64"/>
</g>
<!-- Node25&#45;&gt;Node14 -->
<g id="edge7" class="edge">
<title>Node25&#45;&gt;Node14</title>
<path fill="none" stroke="midnightblue" d="M525.96,-49.54C514.73,-39.91 500.68,-27.87 491.31,-19.83"/>
<polygon fill="midnightblue" stroke="midnightblue" points="524.01,-52.47 533.88,-56.32 528.56,-47.16 524.01,-52.47"/>
</g>
<!-- Node13&#45;&gt;Node14 -->
<g id="edge9" class="edge">
<title>Node13&#45;&gt;Node14</title>
<path fill="none" stroke="midnightblue" d="M436.75,-49.54C447.81,-39.91 461.63,-27.87 470.86,-19.83"/>
<polygon fill="midnightblue" stroke="midnightblue" points="434.2,-47.12 428.96,-56.32 438.8,-52.4 434.2,-47.12"/>
</g>
<!-- Node57&#45;&gt;Node25 -->
<g id="edge44" class="edge">
<title>Node57&#45;&gt;Node25</title>
<path fill="none" stroke="midnightblue" d="M3441.17,-112.07C3101.69,-81.42 934.15,-69.02 590.01,-67.23"/>
<polygon fill="midnightblue" stroke="midnightblue" points="3441.06,-115.57 3451.35,-113.05 3441.73,-108.6 3441.06,-115.57"/>
</g>
<!-- Node57&#45;&gt;Node14 -->
<g id="edge45" class="edge">
<title>Node57&#45;&gt;Node14</title>
<path fill="none" stroke="midnightblue" d="M3441.22,-111.99C2808.61,-43.05 770.17,-14.73 508.7,-11.35"/>
<polygon fill="midnightblue" stroke="midnightblue" points="3441.02,-115.48 3451.34,-113.11 3441.79,-108.53 3441.02,-115.48"/>
</g>
</g>
</svg>
