<?xml version="1.0" encoding="UTF-8" standalone="no"?>
<!DOCTYPE svg PUBLIC "-//W3C//DTD SVG 1.1//EN"
 "http://www.w3.org/Graphics/SVG/1.1/DTD/svg11.dtd">
<!-- Generated by graphviz version 2.44.1 (0)
 -->
<!-- Title: netinet Pages: 1 -->
<svg width="89pt" height="188pt"
 viewBox="0.00 0.00 89.00 188.00" xmlns="http://www.w3.org/2000/svg" xmlns:xlink="http://www.w3.org/1999/xlink">
<g id="graph0" class="graph" transform="scale(1 1) rotate(0) translate(4 184)">
<title>netinet</title>
<polygon fill="white" stroke="transparent" points="-4,4 -4,-184 85,-184 85,4 -4,4"/>
<!-- dir_508b638447eadd9751e554fefbd4478c -->
<g id="node1" class="node">
<title>dir_508b638447eadd9751e554fefbd4478c</title>
<g id="a_node1"><a xlink:href="dir_508b638447eadd9751e554fefbd4478c.html" target="_top" xlink:title="netinet">
<polygon fill="#eeeeff" stroke="black" points="81,-180 27,-180 27,-144 81,-144 81,-180"/>
<text text-anchor="middle" x="54" y="-159.5" font-family="Helvetica,sans-Serif" font-size="10.00">netinet</text>
</a>
</g>
</g>
<!-- dir_a408b6d3a4a484720bc3ecfeac8947e3 -->
<g id="node2" class="node">
<title>dir_a408b6d3a4a484720bc3ecfeac8947e3</title>
<g id="a_node2"><a xlink:href="dir_a408b6d3a4a484720bc3ecfeac8947e3.html" target="_top" xlink:title="sys">
<polygon fill="none" stroke="black" points="54,-108 0,-108 0,-72 54,-72 54,-108"/>
<text text-anchor="middle" x="27" y="-87.5" font-family="Helvetica,sans-Serif" font-size="10.00">sys</text>
</a>
</g>
</g>
<!-- dir_508b638447eadd9751e554fefbd4478c&#45;&gt;dir_a408b6d3a4a484720bc3ecfeac8947e3 -->
<g id="edge2" class="edge">
<title>dir_508b638447eadd9751e554fefbd4478c&#45;&gt;dir_a408b6d3a4a484720bc3ecfeac8947e3</title>
<path fill="none" stroke="black" d="M47.33,-143.7C44.29,-135.81 40.62,-126.3 37.24,-117.55"/>
<polygon fill="black" stroke="black" points="40.46,-116.17 33.6,-108.1 33.93,-118.69 40.46,-116.17"/>
<g id="a_edge2&#45;headlabel"><a xlink:href="dir_000003_000002.html" target="_top" xlink:title="11">
<text text-anchor="middle" x="44.4" y="-116.01" font-family="Helvetica,sans-Serif" font-size="10.00">11</text>
</a>
</g>
</g>
<!-- dir_4cb89d43f92538ff4356f1c340b21854 -->
<g id="node3" class="node">
<title>dir_4cb89d43f92538ff4356f1c340b21854</title>
<g id="a_node3"><a xlink:href="dir_4cb89d43f92538ff4356f1c340b21854.html" target="_top" xlink:title="bits">
<polygon fill="white" stroke="red" points="54,-36 0,-36 0,0 54,0 54,-36"/>
<text text-anchor="middle" x="27" y="-15.5" font-family="Helvetica,sans-Serif" font-size="10.00">bits</text>
</a>
</g>
</g>
<!-- dir_508b638447eadd9751e554fefbd4478c&#45;&gt;dir_4cb89d43f92538ff4356f1c340b21854 -->
<g id="edge3" class="edge">
<title>dir_508b638447eadd9751e554fefbd4478c&#45;&gt;dir_4cb89d43f92538ff4356f1c340b21854</title>
<path fill="none" stroke="black" d="M59.65,-143.88C64.76,-125.66 70.44,-96.2 63,-72 59.99,-62.22 54.49,-52.62 48.68,-44.33"/>
<polygon fill="black" stroke="black" points="51.41,-42.13 42.61,-36.23 45.81,-46.33 51.41,-42.13"/>
<g id="a_edge3&#45;headlabel"><a xlink:href="dir_000003_000000.html" target="_top" xlink:title="5">
<text text-anchor="middle" x="55.83" y="-40.8" font-family="Helvetica,sans-Serif" font-size="10.00">5</text>
</a>
</g>
</g>
<!-- dir_a408b6d3a4a484720bc3ecfeac8947e3&#45;&gt;dir_4cb89d43f92538ff4356f1c340b21854 -->
<g id="edge1" class="edge">
<title>dir_a408b6d3a4a484720bc3ecfeac8947e3&#45;&gt;dir_4cb89d43f92538ff4356f1c340b21854</title>
<path fill="none" stroke="black" d="M21.08,-71.7C20.29,-63.98 20.06,-54.71 20.4,-46.11"/>
<polygon fill="black" stroke="black" points="23.9,-46.32 21.1,-36.1 16.92,-45.84 23.9,-46.32"/>
<g id="a_edge1&#45;headlabel"><a xlink:href="dir_000002_000000.html" target="_top" xlink:title="70">
<text text-anchor="middle" x="26.48" y="-47.61" font-family="Helvetica,sans-Serif" font-size="10.00">70</text>
</a>
</g>
</g>
<!-- dir_4cb89d43f92538ff4356f1c340b21854&#45;&gt;dir_a408b6d3a4a484720bc3ecfeac8947e3 -->
<g id="edge4" class="edge">
<title>dir_4cb89d43f92538ff4356f1c340b21854&#45;&gt;dir_a408b6d3a4a484720bc3ecfeac8947e3</title>
<path fill="none" stroke="black" d="M32.9,-36.1C33.7,-43.79 33.94,-53.05 33.6,-61.67"/>
<polygon fill="black" stroke="black" points="30.11,-61.48 32.92,-71.7 37.09,-61.96 30.11,-61.48"/>
<g id="a_edge4&#45;headlabel"><a xlink:href="dir_000000_000002.html" target="_top" xlink:title="6">
<text text-anchor="middle" x="27.52" y="-55.2" font-family="Helvetica,sans-Serif" font-size="10.00">6</text>
</a>
</g>
</g>
</g>
</svg>
