<?xml version="1.0" encoding="UTF-8" standalone="no"?>
<!DOCTYPE svg PUBLIC "-//W3C//DTD SVG 1.1//EN"
 "http://www.w3.org/Graphics/SVG/1.1/DTD/svg11.dtd">
<!-- Generated by graphviz version 2.44.1 (0)
 -->
<!-- Title: neteconet Pages: 1 -->
<svg width="73pt" height="116pt"
 viewBox="0.00 0.00 73.00 116.00" xmlns="http://www.w3.org/2000/svg" xmlns:xlink="http://www.w3.org/1999/xlink">
<g id="graph0" class="graph" transform="scale(1 1) rotate(0) translate(4 112)">
<title>neteconet</title>
<polygon fill="white" stroke="transparent" points="-4,4 -4,-112 69,-112 69,4 -4,4"/>
<!-- dir_59f1d48b2ca3eeeed042b27f6b73e7e0 -->
<g id="node1" class="node">
<title>dir_59f1d48b2ca3eeeed042b27f6b73e7e0</title>
<g id="a_node1"><a xlink:href="dir_59f1d48b2ca3eeeed042b27f6b73e7e0.html" target="_top" xlink:title="neteconet">
<polygon fill="#eeeeff" stroke="black" points="65,-108 0,-108 0,-72 65,-72 65,-108"/>
<text text-anchor="middle" x="32.5" y="-87.5" font-family="Helvetica,sans-Serif" font-size="10.00">neteconet</text>
</a>
</g>
</g>
<!-- dir_4cb89d43f92538ff4356f1c340b21854 -->
<g id="node2" class="node">
<title>dir_4cb89d43f92538ff4356f1c340b21854</title>
<g id="a_node2"><a xlink:href="dir_4cb89d43f92538ff4356f1c340b21854.html" target="_top" xlink:title="bits">
<polygon fill="white" stroke="red" points="59.5,-36 5.5,-36 5.5,0 59.5,0 59.5,-36"/>
<text text-anchor="middle" x="32.5" y="-15.5" font-family="Helvetica,sans-Serif" font-size="10.00">bits</text>
</a>
</g>
</g>
<!-- dir_59f1d48b2ca3eeeed042b27f6b73e7e0&#45;&gt;dir_4cb89d43f92538ff4356f1c340b21854 -->
<g id="edge1" class="edge">
<title>dir_59f1d48b2ca3eeeed042b27f6b73e7e0&#45;&gt;dir_4cb89d43f92538ff4356f1c340b21854</title>
<path fill="none" stroke="black" d="M32.5,-71.7C32.5,-63.98 32.5,-54.71 32.5,-46.11"/>
<polygon fill="black" stroke="black" points="36,-46.1 32.5,-36.1 29,-46.1 36,-46.1"/>
<g id="a_edge1&#45;headlabel"><a xlink:href="dir_000012_000000.html" target="_top" xlink:title="1">
<text text-anchor="middle" x="38.84" y="-47.2" font-family="Helvetica,sans-Serif" font-size="10.00">1</text>
</a>
</g>
</g>
</g>
</svg>
