<?xml version="1.0" encoding="UTF-8" standalone="no"?>
<!DOCTYPE svg PUBLIC "-//W3C//DTD SVG 1.1//EN"
 "http://www.w3.org/Graphics/SVG/1.1/DTD/svg11.dtd">
<!-- Generated by graphviz version 2.44.1 (0)
 -->
<!-- Title: netinet/ether.h Pages: 1 -->
<svg width="824pt" height="420pt"
 viewBox="0.00 0.00 824.00 420.00" xmlns="http://www.w3.org/2000/svg" xmlns:xlink="http://www.w3.org/1999/xlink">
<g id="graph0" class="graph" transform="scale(1 1) rotate(0) translate(4 416)">
<title>netinet/ether.h</title>
<polygon fill="white" stroke="transparent" points="-4,4 -4,-416 820,-416 820,4 -4,4"/>
<!-- Node1 -->
<g id="node1" class="node">
<title>Node1</title>
<g id="a_node1"><a xlink:title=" ">
<polygon fill="#bfbfbf" stroke="black" points="699,-392.5 699,-411.5 787,-411.5 787,-392.5 699,-392.5"/>
<text text-anchor="middle" x="743" y="-399.5" font-family="Helvetica,sans-Serif" font-size="10.00">netinet/ether.h</text>
</a>
</g>
</g>
<!-- Node2 -->
<g id="node2" class="node">
<title>Node2</title>
<g id="a_node2"><a xlink:href="features_8h.html" target="_top" xlink:title=" ">
<polygon fill="white" stroke="black" points="604,-112.5 604,-131.5 670,-131.5 670,-112.5 604,-112.5"/>
<text text-anchor="middle" x="637" y="-119.5" font-family="Helvetica,sans-Serif" font-size="10.00">features.h</text>
</a>
</g>
</g>
<!-- Node1&#45;&gt;Node2 -->
<g id="edge1" class="edge">
<title>Node1&#45;&gt;Node2</title>
<path fill="none" stroke="midnightblue" d="M754.09,-392.33C774.51,-375.29 816,-335.24 816,-291 816,-291 816,-291 816,-233 816,-169.44 733.05,-141.44 680.09,-130.04"/>
<polygon fill="midnightblue" stroke="midnightblue" points="680.75,-126.6 670.25,-128.04 679.35,-133.46 680.75,-126.6"/>
</g>
<!-- Node9 -->
<g id="node9" class="node">
<title>Node9</title>
<g id="a_node9"><a xlink:href="if__ether_8h.html" target="_top" xlink:title=" ">
<polygon fill="white" stroke="black" points="654,-336.5 654,-355.5 754,-355.5 754,-336.5 654,-336.5"/>
<text text-anchor="middle" x="704" y="-343.5" font-family="Helvetica,sans-Serif" font-size="10.00">netinet/if_ether.h</text>
</a>
</g>
</g>
<!-- Node1&#45;&gt;Node9 -->
<g id="edge9" class="edge">
<title>Node1&#45;&gt;Node9</title>
<path fill="none" stroke="midnightblue" d="M736.56,-392.08C731.05,-384.46 722.97,-373.26 716.24,-363.94"/>
<polygon fill="midnightblue" stroke="midnightblue" points="719.01,-361.81 710.32,-355.75 713.34,-365.91 719.01,-361.81"/>
</g>
<!-- Node3 -->
<g id="node3" class="node">
<title>Node3</title>
<g id="a_node3"><a xlink:href="stdc-predef_8h.html" target="_top" xlink:title=" ">
<polygon fill="white" stroke="black" points="692,-56.5 692,-75.5 772,-75.5 772,-56.5 692,-56.5"/>
<text text-anchor="middle" x="732" y="-63.5" font-family="Helvetica,sans-Serif" font-size="10.00">stdc&#45;predef.h</text>
</a>
</g>
</g>
<!-- Node2&#45;&gt;Node3 -->
<g id="edge2" class="edge">
<title>Node2&#45;&gt;Node3</title>
<path fill="none" stroke="midnightblue" d="M652.26,-112.32C667.22,-103.82 690.25,-90.73 707.73,-80.8"/>
<polygon fill="midnightblue" stroke="midnightblue" points="709.81,-83.64 716.77,-75.65 706.35,-77.55 709.81,-83.64"/>
</g>
<!-- Node4 -->
<g id="node4" class="node">
<title>Node4</title>
<g id="a_node4"><a xlink:href="cdefs_8h.html" target="_top" xlink:title=" ">
<polygon fill="white" stroke="black" points="499.5,-56.5 499.5,-75.5 570.5,-75.5 570.5,-56.5 499.5,-56.5"/>
<text text-anchor="middle" x="535" y="-63.5" font-family="Helvetica,sans-Serif" font-size="10.00">sys/cdefs.h</text>
</a>
</g>
</g>
<!-- Node2&#45;&gt;Node4 -->
<g id="edge3" class="edge">
<title>Node2&#45;&gt;Node4</title>
<path fill="none" stroke="midnightblue" d="M615.75,-112.44C597.76,-103.91 572.47,-90.67 554.89,-80.68"/>
<polygon fill="midnightblue" stroke="midnightblue" points="556.41,-77.52 546.01,-75.52 552.89,-83.57 556.41,-77.52"/>
</g>
<!-- Node7 -->
<g id="node7" class="node">
<title>Node7</title>
<g id="a_node7"><a xlink:href="stubs_8h.html" target="_top" xlink:title=" ">
<polygon fill="white" stroke="black" points="600.5,-56.5 600.5,-75.5 673.5,-75.5 673.5,-56.5 600.5,-56.5"/>
<text text-anchor="middle" x="637" y="-63.5" font-family="Helvetica,sans-Serif" font-size="10.00">gnu/stubs.h</text>
</a>
</g>
</g>
<!-- Node2&#45;&gt;Node7 -->
<g id="edge7" class="edge">
<title>Node2&#45;&gt;Node7</title>
<path fill="none" stroke="midnightblue" d="M637,-112.08C637,-105.01 637,-94.86 637,-85.99"/>
<polygon fill="midnightblue" stroke="midnightblue" points="640.5,-85.75 637,-75.75 633.5,-85.75 640.5,-85.75"/>
</g>
<!-- Node4&#45;&gt;Node2 -->
<g id="edge4" class="edge">
<title>Node4&#45;&gt;Node2</title>
<path fill="none" stroke="midnightblue" d="M556.46,-75.65C574.35,-84.15 599.36,-97.24 616.87,-107.18"/>
<polygon fill="midnightblue" stroke="midnightblue" points="615.32,-110.33 625.73,-112.32 618.84,-104.27 615.32,-110.33"/>
</g>
<!-- Node5 -->
<g id="node5" class="node">
<title>Node5</title>
<g id="a_node5"><a xlink:href="wordsize_8h.html" target="_top" xlink:title=" ">
<polygon fill="white" stroke="black" points="282,-0.5 282,-19.5 372,-19.5 372,-0.5 282,-0.5"/>
<text text-anchor="middle" x="327" y="-7.5" font-family="Helvetica,sans-Serif" font-size="10.00">bits/wordsize.h</text>
</a>
</g>
</g>
<!-- Node4&#45;&gt;Node5 -->
<g id="edge5" class="edge">
<title>Node4&#45;&gt;Node5</title>
<path fill="none" stroke="midnightblue" d="M502.04,-56.44C466.21,-47.14 408.84,-32.25 369.61,-22.06"/>
<polygon fill="midnightblue" stroke="midnightblue" points="370.36,-18.64 359.8,-19.52 368.6,-25.42 370.36,-18.64"/>
</g>
<!-- Node6 -->
<g id="node6" class="node">
<title>Node6</title>
<g id="a_node6"><a xlink:href="long-double_8h.html" target="_top" xlink:title=" ">
<polygon fill="white" stroke="black" points="477,-0.5 477,-19.5 581,-19.5 581,-0.5 477,-0.5"/>
<text text-anchor="middle" x="529" y="-7.5" font-family="Helvetica,sans-Serif" font-size="10.00">bits/long&#45;double.h</text>
</a>
</g>
</g>
<!-- Node4&#45;&gt;Node6 -->
<g id="edge6" class="edge">
<title>Node4&#45;&gt;Node6</title>
<path fill="none" stroke="midnightblue" d="M534.01,-56.08C533.21,-48.93 532.07,-38.64 531.08,-29.69"/>
<polygon fill="midnightblue" stroke="midnightblue" points="534.56,-29.3 529.97,-19.75 527.6,-30.08 534.56,-29.3"/>
</g>
<!-- Node8 -->
<g id="node8" class="node">
<title>Node8</title>
<g id="a_node8"><a xlink:title=" ">
<polygon fill="white" stroke="#bfbfbf" points="599.5,-0.5 599.5,-19.5 688.5,-19.5 688.5,-0.5 599.5,-0.5"/>
<text text-anchor="middle" x="644" y="-7.5" font-family="Helvetica,sans-Serif" font-size="10.00">gnu/stubs&#45;32.h</text>
</a>
</g>
</g>
<!-- Node7&#45;&gt;Node8 -->
<g id="edge8" class="edge">
<title>Node7&#45;&gt;Node8</title>
<path fill="none" stroke="midnightblue" d="M638.16,-56.08C639.08,-48.93 640.42,-38.64 641.58,-29.69"/>
<polygon fill="midnightblue" stroke="midnightblue" points="645.05,-30.12 642.87,-19.75 638.11,-29.22 645.05,-30.12"/>
</g>
<!-- Node9&#45;&gt;Node2 -->
<g id="edge10" class="edge">
<title>Node9&#45;&gt;Node2</title>
<path fill="none" stroke="midnightblue" d="M701.26,-336.39C698.4,-327.35 693.8,-312.7 690,-300 672.49,-241.52 670.1,-226.3 652,-168 649.25,-159.14 646.02,-149.37 643.26,-141.2"/>
<polygon fill="midnightblue" stroke="midnightblue" points="646.52,-139.93 639.98,-131.59 639.9,-142.19 646.52,-139.93"/>
</g>
<!-- Node10 -->
<g id="node10" class="node">
<title>Node10</title>
<g id="a_node10"><a xlink:href="sys_2types_8h.html" target="_top" xlink:title=" ">
<polygon fill="white" stroke="black" points="374,-280.5 374,-299.5 446,-299.5 446,-280.5 374,-280.5"/>
<text text-anchor="middle" x="410" y="-287.5" font-family="Helvetica,sans-Serif" font-size="10.00">sys/types.h</text>
</a>
</g>
</g>
<!-- Node9&#45;&gt;Node10 -->
<g id="edge11" class="edge">
<title>Node9&#45;&gt;Node10</title>
<path fill="none" stroke="midnightblue" d="M657.41,-336.44C602.35,-326.33 511.28,-309.6 456.33,-299.51"/>
<polygon fill="midnightblue" stroke="midnightblue" points="456.64,-296.01 446.17,-297.64 455.38,-302.89 456.64,-296.01"/>
</g>
<!-- Node20 -->
<g id="node20" class="node">
<title>Node20</title>
<g id="a_node20"><a xlink:title=" ">
<polygon fill="white" stroke="#bfbfbf" points="698.5,-280.5 698.5,-299.5 787.5,-299.5 787.5,-280.5 698.5,-280.5"/>
<text text-anchor="middle" x="743" y="-287.5" font-family="Helvetica,sans-Serif" font-size="10.00">linux/if_ether.h</text>
</a>
</g>
</g>
<!-- Node9&#45;&gt;Node20 -->
<g id="edge28" class="edge">
<title>Node9&#45;&gt;Node20</title>
<path fill="none" stroke="midnightblue" d="M710.44,-336.08C715.95,-328.46 724.03,-317.26 730.76,-307.94"/>
<polygon fill="midnightblue" stroke="midnightblue" points="733.66,-309.91 736.68,-299.75 727.99,-305.81 733.66,-309.91"/>
</g>
<!-- Node10&#45;&gt;Node2 -->
<g id="edge12" class="edge">
<title>Node10&#45;&gt;Node2</title>
<path fill="none" stroke="midnightblue" d="M446.18,-285.69C498.14,-280.18 590.16,-267.36 613,-244 639.74,-216.66 640.85,-168.58 639.08,-142.01"/>
<polygon fill="midnightblue" stroke="midnightblue" points="642.54,-141.41 638.18,-131.76 635.57,-142.02 642.54,-141.41"/>
</g>
<!-- Node11 -->
<g id="node11" class="node">
<title>Node11</title>
<g id="a_node11"><a xlink:href="bits_2types_8h.html" target="_top" xlink:title=" ">
<polygon fill="white" stroke="black" points="298,-168.5 298,-187.5 372,-187.5 372,-168.5 298,-168.5"/>
<text text-anchor="middle" x="335" y="-175.5" font-family="Helvetica,sans-Serif" font-size="10.00">bits/types.h</text>
</a>
</g>
</g>
<!-- Node10&#45;&gt;Node11 -->
<g id="edge13" class="edge">
<title>Node10&#45;&gt;Node11</title>
<path fill="none" stroke="midnightblue" d="M374,-288.02C342.16,-285.01 297.39,-275.07 275,-244 261.17,-224.81 285.69,-205.19 307.43,-192.6"/>
<polygon fill="midnightblue" stroke="midnightblue" points="309.37,-195.53 316.45,-187.65 306,-189.39 309.37,-195.53"/>
</g>
<!-- Node15 -->
<g id="node15" class="node">
<title>Node15</title>
<g id="a_node15"><a xlink:href="clockid__t_8h.html" target="_top" xlink:title=" ">
<polygon fill="white" stroke="black" points="284,-224.5 284,-243.5 404,-243.5 404,-224.5 284,-224.5"/>
<text text-anchor="middle" x="344" y="-231.5" font-family="Helvetica,sans-Serif" font-size="10.00">bits/types/clockid_t.h</text>
</a>
</g>
</g>
<!-- Node10&#45;&gt;Node15 -->
<g id="edge19" class="edge">
<title>Node10&#45;&gt;Node15</title>
<path fill="none" stroke="midnightblue" d="M399.4,-280.32C389.54,-272.26 374.65,-260.08 362.78,-250.37"/>
<polygon fill="midnightblue" stroke="midnightblue" points="364.75,-247.46 354.8,-243.83 360.32,-252.88 364.75,-247.46"/>
</g>
<!-- Node16 -->
<g id="node16" class="node">
<title>Node16</title>
<g id="a_node16"><a xlink:href="time__t_8h.html" target="_top" xlink:title=" ">
<polygon fill="white" stroke="black" points="422,-224.5 422,-243.5 530,-243.5 530,-224.5 422,-224.5"/>
<text text-anchor="middle" x="476" y="-231.5" font-family="Helvetica,sans-Serif" font-size="10.00">bits/types/time_t.h</text>
</a>
</g>
</g>
<!-- Node10&#45;&gt;Node16 -->
<g id="edge21" class="edge">
<title>Node10&#45;&gt;Node16</title>
<path fill="none" stroke="midnightblue" d="M420.6,-280.32C430.46,-272.26 445.35,-260.08 457.22,-250.37"/>
<polygon fill="midnightblue" stroke="midnightblue" points="459.68,-252.88 465.2,-243.83 455.25,-247.46 459.68,-252.88"/>
</g>
<!-- Node17 -->
<g id="node17" class="node">
<title>Node17</title>
<g id="a_node17"><a xlink:href="timer__t_8h.html" target="_top" xlink:title=" ">
<polygon fill="white" stroke="black" points="0,-224.5 0,-243.5 112,-243.5 112,-224.5 0,-224.5"/>
<text text-anchor="middle" x="56" y="-231.5" font-family="Helvetica,sans-Serif" font-size="10.00">bits/types/timer_t.h</text>
</a>
</g>
</g>
<!-- Node10&#45;&gt;Node17 -->
<g id="edge23" class="edge">
<title>Node10&#45;&gt;Node17</title>
<path fill="none" stroke="midnightblue" d="M373.78,-283.47C314.62,-274.45 196.42,-256.42 122.04,-245.07"/>
<polygon fill="midnightblue" stroke="midnightblue" points="122.26,-241.57 111.84,-243.52 121.2,-248.49 122.26,-241.57"/>
</g>
<!-- Node18 -->
<g id="node18" class="node">
<title>Node18</title>
<g id="a_node18"><a xlink:title=" ">
<polygon fill="white" stroke="#bfbfbf" points="548,-224.5 548,-243.5 604,-243.5 604,-224.5 548,-224.5"/>
<text text-anchor="middle" x="576" y="-231.5" font-family="Helvetica,sans-Serif" font-size="10.00">stddef.h</text>
</a>
</g>
</g>
<!-- Node10&#45;&gt;Node18 -->
<g id="edge25" class="edge">
<title>Node10&#45;&gt;Node18</title>
<path fill="none" stroke="midnightblue" d="M436.3,-280.44C464.35,-271.32 508.94,-256.81 540.18,-246.65"/>
<polygon fill="midnightblue" stroke="midnightblue" points="541.39,-249.94 549.82,-243.52 539.23,-243.28 541.39,-249.94"/>
</g>
<!-- Node19 -->
<g id="node19" class="node">
<title>Node19</title>
<g id="a_node19"><a xlink:href="stdint-intn_8h.html" target="_top" xlink:title=" ">
<polygon fill="white" stroke="black" points="130.5,-224.5 130.5,-243.5 227.5,-243.5 227.5,-224.5 130.5,-224.5"/>
<text text-anchor="middle" x="179" y="-231.5" font-family="Helvetica,sans-Serif" font-size="10.00">bits/stdint&#45;intn.h</text>
</a>
</g>
</g>
<!-- Node10&#45;&gt;Node19 -->
<g id="edge26" class="edge">
<title>Node10&#45;&gt;Node19</title>
<path fill="none" stroke="midnightblue" d="M373.91,-280.56C333.88,-271.21 269.2,-256.08 225.43,-245.85"/>
<polygon fill="midnightblue" stroke="midnightblue" points="226.14,-242.42 215.6,-243.56 224.54,-249.24 226.14,-242.42"/>
</g>
<!-- Node11&#45;&gt;Node2 -->
<g id="edge14" class="edge">
<title>Node11&#45;&gt;Node2</title>
<path fill="none" stroke="midnightblue" d="M372.11,-171.05C420.71,-163.16 508.81,-148.5 593.51,-132.23"/>
<polygon fill="midnightblue" stroke="midnightblue" points="594.4,-135.62 603.55,-130.29 593.07,-128.75 594.4,-135.62"/>
</g>
<!-- Node11&#45;&gt;Node5 -->
<g id="edge15" class="edge">
<title>Node11&#45;&gt;Node5</title>
<path fill="none" stroke="midnightblue" d="M316.61,-168.47C302.9,-161 285.19,-148.71 277,-132 259.1,-95.46 290.68,-50.85 311.3,-27.33"/>
<polygon fill="midnightblue" stroke="midnightblue" points="314.13,-29.42 318.29,-19.67 308.96,-24.7 314.13,-29.42"/>
</g>
<!-- Node12 -->
<g id="node12" class="node">
<title>Node12</title>
<g id="a_node12"><a xlink:href="timesize_8h.html" target="_top" xlink:title=" ">
<polygon fill="white" stroke="black" points="286.5,-112.5 286.5,-131.5 375.5,-131.5 375.5,-112.5 286.5,-112.5"/>
<text text-anchor="middle" x="331" y="-119.5" font-family="Helvetica,sans-Serif" font-size="10.00">bits/timesize.h</text>
</a>
</g>
</g>
<!-- Node11&#45;&gt;Node12 -->
<g id="edge16" class="edge">
<title>Node11&#45;&gt;Node12</title>
<path fill="none" stroke="midnightblue" d="M334.34,-168.08C333.82,-161.01 333.06,-150.86 332.41,-141.99"/>
<polygon fill="midnightblue" stroke="midnightblue" points="335.88,-141.47 331.65,-131.75 328.9,-141.98 335.88,-141.47"/>
</g>
<!-- Node13 -->
<g id="node13" class="node">
<title>Node13</title>
<g id="a_node13"><a xlink:href="typesizes_8h.html" target="_top" xlink:title=" ">
<polygon fill="white" stroke="black" points="393.5,-112.5 393.5,-131.5 486.5,-131.5 486.5,-112.5 393.5,-112.5"/>
<text text-anchor="middle" x="440" y="-119.5" font-family="Helvetica,sans-Serif" font-size="10.00">bits/typesizes.h</text>
</a>
</g>
</g>
<!-- Node11&#45;&gt;Node13 -->
<g id="edge17" class="edge">
<title>Node11&#45;&gt;Node13</title>
<path fill="none" stroke="midnightblue" d="M351.87,-168.32C368.71,-159.66 394.81,-146.24 414.24,-136.25"/>
<polygon fill="midnightblue" stroke="midnightblue" points="415.88,-139.34 423.17,-131.65 412.68,-133.12 415.88,-139.34"/>
</g>
<!-- Node14 -->
<g id="node14" class="node">
<title>Node14</title>
<g id="a_node14"><a xlink:href="time64_8h.html" target="_top" xlink:title=" ">
<polygon fill="white" stroke="black" points="504.5,-112.5 504.5,-131.5 585.5,-131.5 585.5,-112.5 504.5,-112.5"/>
<text text-anchor="middle" x="545" y="-119.5" font-family="Helvetica,sans-Serif" font-size="10.00">bits/time64.h</text>
</a>
</g>
</g>
<!-- Node11&#45;&gt;Node14 -->
<g id="edge18" class="edge">
<title>Node11&#45;&gt;Node14</title>
<path fill="none" stroke="midnightblue" d="M368.28,-168.44C404.45,-159.14 462.38,-144.25 501.98,-134.06"/>
<polygon fill="midnightblue" stroke="midnightblue" points="503.07,-137.4 511.88,-131.52 501.32,-130.62 503.07,-137.4"/>
</g>
<!-- Node15&#45;&gt;Node11 -->
<g id="edge20" class="edge">
<title>Node15&#45;&gt;Node11</title>
<path fill="none" stroke="midnightblue" d="M342.51,-224.08C341.32,-216.93 339.61,-206.64 338.12,-197.69"/>
<polygon fill="midnightblue" stroke="midnightblue" points="341.55,-197.04 336.46,-187.75 334.65,-198.19 341.55,-197.04"/>
</g>
<!-- Node16&#45;&gt;Node11 -->
<g id="edge22" class="edge">
<title>Node16&#45;&gt;Node11</title>
<path fill="none" stroke="midnightblue" d="M453.66,-224.44C430.25,-215.48 393.26,-201.31 366.81,-191.18"/>
<polygon fill="midnightblue" stroke="midnightblue" points="367.83,-187.82 357.24,-187.52 365.32,-194.36 367.83,-187.82"/>
</g>
<!-- Node17&#45;&gt;Node11 -->
<g id="edge24" class="edge">
<title>Node17&#45;&gt;Node11</title>
<path fill="none" stroke="midnightblue" d="M100.21,-224.44C151.35,-214.55 235.21,-198.31 287.65,-188.17"/>
<polygon fill="midnightblue" stroke="midnightblue" points="288.54,-191.56 297.7,-186.22 287.21,-184.68 288.54,-191.56"/>
</g>
<!-- Node19&#45;&gt;Node11 -->
<g id="edge27" class="edge">
<title>Node19&#45;&gt;Node11</title>
<path fill="none" stroke="midnightblue" d="M203.72,-224.44C229.85,-215.4 271.26,-201.06 300.58,-190.92"/>
<polygon fill="midnightblue" stroke="midnightblue" points="302.09,-194.1 310.4,-187.52 299.8,-187.48 302.09,-194.1"/>
</g>
</g>
</svg>
