<?xml version="1.0" encoding="UTF-8" standalone="no"?>
<!DOCTYPE svg PUBLIC "-//W3C//DTD SVG 1.1//EN"
 "http://www.w3.org/Graphics/SVG/1.1/DTD/svg11.dtd">
<!-- Generated by graphviz version 2.44.1 (0)
 -->
<!-- Title: fcntl.h Pages: 1 -->
<svg width="708pt" height="308pt"
 viewBox="0.00 0.00 708.00 308.00" xmlns="http://www.w3.org/2000/svg" xmlns:xlink="http://www.w3.org/1999/xlink">
<g id="graph0" class="graph" transform="scale(1 1) rotate(0) translate(4 304)">
<title>fcntl.h</title>
<polygon fill="white" stroke="transparent" points="-4,4 -4,-304 704,-304 704,4 -4,4"/>
<!-- Node1 -->
<g id="node1" class="node">
<title>Node1</title>
<g id="a_node1"><a xlink:title=" ">
<polygon fill="#bfbfbf" stroke="black" points="429,-280.5 429,-299.5 476,-299.5 476,-280.5 429,-280.5"/>
<text text-anchor="middle" x="452.5" y="-287.5" font-family="Helvetica,sans-Serif" font-size="10.00">fcntl.h</text>
</a>
</g>
</g>
<!-- Node2 -->
<g id="node2" class="node">
<title>Node2</title>
<g id="a_node2"><a xlink:href="features_8h.html" target="_top" xlink:title=" ">
<polygon fill="white" stroke="black" points="119.5,-112.5 119.5,-131.5 185.5,-131.5 185.5,-112.5 119.5,-112.5"/>
<text text-anchor="middle" x="152.5" y="-119.5" font-family="Helvetica,sans-Serif" font-size="10.00">features.h</text>
</a>
</g>
</g>
<!-- Node1&#45;&gt;Node2 -->
<g id="edge1" class="edge">
<title>Node1&#45;&gt;Node2</title>
<path fill="none" stroke="midnightblue" d="M431.69,-280.37C411.42,-271.77 379.9,-257.89 353.5,-244 286.66,-208.84 211.19,-161.13 174.66,-137.5"/>
<polygon fill="midnightblue" stroke="midnightblue" points="176.13,-134.28 165.84,-131.77 172.32,-140.15 176.13,-134.28"/>
</g>
<!-- Node9 -->
<g id="node9" class="node">
<title>Node9</title>
<g id="a_node9"><a xlink:href="bits_2types_8h.html" target="_top" xlink:title=" ">
<polygon fill="white" stroke="black" points="318.5,-168.5 318.5,-187.5 392.5,-187.5 392.5,-168.5 318.5,-168.5"/>
<text text-anchor="middle" x="355.5" y="-175.5" font-family="Helvetica,sans-Serif" font-size="10.00">bits/types.h</text>
</a>
</g>
</g>
<!-- Node1&#45;&gt;Node9 -->
<g id="edge9" class="edge">
<title>Node1&#45;&gt;Node9</title>
<path fill="none" stroke="midnightblue" d="M428.9,-283.01C409.05,-276.7 381.55,-264.72 366.5,-244 356.94,-230.83 354.6,-212.24 354.42,-198.31"/>
<polygon fill="midnightblue" stroke="midnightblue" points="357.93,-198.01 354.66,-187.93 350.93,-197.85 357.93,-198.01"/>
</g>
<!-- Node13 -->
<g id="node13" class="node">
<title>Node13</title>
<g id="a_node13"><a xlink:href="bits_2fcntl_8h.html" target="_top" xlink:title=" ">
<polygon fill="white" stroke="black" points="548.5,-224.5 548.5,-243.5 616.5,-243.5 616.5,-224.5 548.5,-224.5"/>
<text text-anchor="middle" x="582.5" y="-231.5" font-family="Helvetica,sans-Serif" font-size="10.00">bits/fcntl.h</text>
</a>
</g>
</g>
<!-- Node1&#45;&gt;Node13 -->
<g id="edge15" class="edge">
<title>Node1&#45;&gt;Node13</title>
<path fill="none" stroke="midnightblue" d="M473.1,-280.44C494.49,-271.56 528.18,-257.56 552.52,-247.45"/>
<polygon fill="midnightblue" stroke="midnightblue" points="554.11,-250.58 562,-243.52 551.42,-244.12 554.11,-250.58"/>
</g>
<!-- Node15 -->
<g id="node15" class="node">
<title>Node15</title>
<g id="a_node15"><a xlink:href="struct__timespec_8h.html" target="_top" xlink:title=" ">
<polygon fill="white" stroke="black" points="375,-224.5 375,-243.5 530,-243.5 530,-224.5 375,-224.5"/>
<text text-anchor="middle" x="452.5" y="-231.5" font-family="Helvetica,sans-Serif" font-size="10.00">bits/types/struct_timespec.h</text>
</a>
</g>
</g>
<!-- Node1&#45;&gt;Node15 -->
<g id="edge17" class="edge">
<title>Node1&#45;&gt;Node15</title>
<path fill="none" stroke="midnightblue" d="M452.5,-280.08C452.5,-273.01 452.5,-262.86 452.5,-253.99"/>
<polygon fill="midnightblue" stroke="midnightblue" points="456,-253.75 452.5,-243.75 449,-253.75 456,-253.75"/>
</g>
<!-- Node18 -->
<g id="node18" class="node">
<title>Node18</title>
<g id="a_node18"><a xlink:href="bits_2stat_8h.html" target="_top" xlink:title=" ">
<polygon fill="white" stroke="black" points="635,-224.5 635,-243.5 700,-243.5 700,-224.5 635,-224.5"/>
<text text-anchor="middle" x="667.5" y="-231.5" font-family="Helvetica,sans-Serif" font-size="10.00">bits/stat.h</text>
</a>
</g>
</g>
<!-- Node1&#45;&gt;Node18 -->
<g id="edge21" class="edge">
<title>Node1&#45;&gt;Node18</title>
<path fill="none" stroke="midnightblue" d="M476.33,-283.01C512.14,-274.02 580.35,-256.89 624.86,-245.71"/>
<polygon fill="midnightblue" stroke="midnightblue" points="625.96,-249.04 634.81,-243.21 624.26,-242.25 625.96,-249.04"/>
</g>
<!-- Node3 -->
<g id="node3" class="node">
<title>Node3</title>
<g id="a_node3"><a xlink:href="stdc-predef_8h.html" target="_top" xlink:title=" ">
<polygon fill="white" stroke="black" points="206.5,-56.5 206.5,-75.5 286.5,-75.5 286.5,-56.5 206.5,-56.5"/>
<text text-anchor="middle" x="246.5" y="-63.5" font-family="Helvetica,sans-Serif" font-size="10.00">stdc&#45;predef.h</text>
</a>
</g>
</g>
<!-- Node2&#45;&gt;Node3 -->
<g id="edge2" class="edge">
<title>Node2&#45;&gt;Node3</title>
<path fill="none" stroke="midnightblue" d="M167.6,-112.32C182.4,-103.82 205.19,-90.73 222.48,-80.8"/>
<polygon fill="midnightblue" stroke="midnightblue" points="224.51,-83.67 231.43,-75.65 221.02,-77.6 224.51,-83.67"/>
</g>
<!-- Node4 -->
<g id="node4" class="node">
<title>Node4</title>
<g id="a_node4"><a xlink:href="cdefs_8h.html" target="_top" xlink:title=" ">
<polygon fill="white" stroke="black" points="117,-56.5 117,-75.5 188,-75.5 188,-56.5 117,-56.5"/>
<text text-anchor="middle" x="152.5" y="-63.5" font-family="Helvetica,sans-Serif" font-size="10.00">sys/cdefs.h</text>
</a>
</g>
</g>
<!-- Node2&#45;&gt;Node4 -->
<g id="edge3" class="edge">
<title>Node2&#45;&gt;Node4</title>
<path fill="none" stroke="midnightblue" d="M147.33,-112.08C145.82,-104.93 145.39,-94.64 146.04,-85.69"/>
<polygon fill="midnightblue" stroke="midnightblue" points="149.52,-86.13 147.37,-75.75 142.58,-85.2 149.52,-86.13"/>
</g>
<!-- Node7 -->
<g id="node7" class="node">
<title>Node7</title>
<g id="a_node7"><a xlink:href="stubs_8h.html" target="_top" xlink:title=" ">
<polygon fill="white" stroke="black" points="20,-56.5 20,-75.5 93,-75.5 93,-56.5 20,-56.5"/>
<text text-anchor="middle" x="56.5" y="-63.5" font-family="Helvetica,sans-Serif" font-size="10.00">gnu/stubs.h</text>
</a>
</g>
</g>
<!-- Node2&#45;&gt;Node7 -->
<g id="edge7" class="edge">
<title>Node2&#45;&gt;Node7</title>
<path fill="none" stroke="midnightblue" d="M137.08,-112.32C121.96,-103.82 98.68,-90.73 81.03,-80.8"/>
<polygon fill="midnightblue" stroke="midnightblue" points="82.32,-77.51 71.89,-75.65 78.89,-83.61 82.32,-77.51"/>
</g>
<!-- Node4&#45;&gt;Node2 -->
<g id="edge4" class="edge">
<title>Node4&#45;&gt;Node2</title>
<path fill="none" stroke="midnightblue" d="M157.63,-75.75C159.16,-82.86 159.6,-93.14 158.97,-102.1"/>
<polygon fill="midnightblue" stroke="midnightblue" points="155.49,-101.71 157.67,-112.08 162.43,-102.62 155.49,-101.71"/>
</g>
<!-- Node5 -->
<g id="node5" class="node">
<title>Node5</title>
<g id="a_node5"><a xlink:href="wordsize_8h.html" target="_top" xlink:title=" ">
<polygon fill="white" stroke="black" points="304.5,-0.5 304.5,-19.5 394.5,-19.5 394.5,-0.5 304.5,-0.5"/>
<text text-anchor="middle" x="349.5" y="-7.5" font-family="Helvetica,sans-Serif" font-size="10.00">bits/wordsize.h</text>
</a>
</g>
</g>
<!-- Node4&#45;&gt;Node5 -->
<g id="edge5" class="edge">
<title>Node4&#45;&gt;Node5</title>
<path fill="none" stroke="midnightblue" d="M183.72,-56.44C217.43,-47.2 271.3,-32.44 308.43,-22.26"/>
<polygon fill="midnightblue" stroke="midnightblue" points="309.71,-25.54 318.43,-19.52 307.86,-18.78 309.71,-25.54"/>
</g>
<!-- Node6 -->
<g id="node6" class="node">
<title>Node6</title>
<g id="a_node6"><a xlink:href="long-double_8h.html" target="_top" xlink:title=" ">
<polygon fill="white" stroke="black" points="107.5,-0.5 107.5,-19.5 211.5,-19.5 211.5,-0.5 107.5,-0.5"/>
<text text-anchor="middle" x="159.5" y="-7.5" font-family="Helvetica,sans-Serif" font-size="10.00">bits/long&#45;double.h</text>
</a>
</g>
</g>
<!-- Node4&#45;&gt;Node6 -->
<g id="edge6" class="edge">
<title>Node4&#45;&gt;Node6</title>
<path fill="none" stroke="midnightblue" d="M153.66,-56.08C154.58,-48.93 155.92,-38.64 157.08,-29.69"/>
<polygon fill="midnightblue" stroke="midnightblue" points="160.55,-30.12 158.37,-19.75 153.61,-29.22 160.55,-30.12"/>
</g>
<!-- Node8 -->
<g id="node8" class="node">
<title>Node8</title>
<g id="a_node8"><a xlink:title=" ">
<polygon fill="white" stroke="#bfbfbf" points="0,-0.5 0,-19.5 89,-19.5 89,-0.5 0,-0.5"/>
<text text-anchor="middle" x="44.5" y="-7.5" font-family="Helvetica,sans-Serif" font-size="10.00">gnu/stubs&#45;32.h</text>
</a>
</g>
</g>
<!-- Node7&#45;&gt;Node8 -->
<g id="edge8" class="edge">
<title>Node7&#45;&gt;Node8</title>
<path fill="none" stroke="midnightblue" d="M54.52,-56.08C52.93,-48.93 50.64,-38.64 48.65,-29.69"/>
<polygon fill="midnightblue" stroke="midnightblue" points="52.03,-28.75 46.44,-19.75 45.2,-30.27 52.03,-28.75"/>
</g>
<!-- Node9&#45;&gt;Node2 -->
<g id="edge10" class="edge">
<title>Node9&#45;&gt;Node2</title>
<path fill="none" stroke="midnightblue" d="M323.33,-168.44C288.44,-159.16 232.61,-144.31 194.33,-134.13"/>
<polygon fill="midnightblue" stroke="midnightblue" points="195.08,-130.7 184.52,-131.52 193.28,-137.47 195.08,-130.7"/>
</g>
<!-- Node9&#45;&gt;Node5 -->
<g id="edge11" class="edge">
<title>Node9&#45;&gt;Node5</title>
<path fill="none" stroke="midnightblue" d="M370.45,-168.47C382.43,-160.7 398.37,-148 405.5,-132 409.12,-123.88 407.73,-120.61 405.5,-112 397.17,-79.81 376.13,-46.93 362.34,-27.77"/>
<polygon fill="midnightblue" stroke="midnightblue" points="365.01,-25.49 356.24,-19.53 359.38,-29.65 365.01,-25.49"/>
</g>
<!-- Node10 -->
<g id="node10" class="node">
<title>Node10</title>
<g id="a_node10"><a xlink:href="timesize_8h.html" target="_top" xlink:title=" ">
<polygon fill="white" stroke="black" points="453,-112.5 453,-131.5 542,-131.5 542,-112.5 453,-112.5"/>
<text text-anchor="middle" x="497.5" y="-119.5" font-family="Helvetica,sans-Serif" font-size="10.00">bits/timesize.h</text>
</a>
</g>
</g>
<!-- Node9&#45;&gt;Node10 -->
<g id="edge12" class="edge">
<title>Node9&#45;&gt;Node10</title>
<path fill="none" stroke="midnightblue" d="M378,-168.44C401.58,-159.48 438.82,-145.31 465.46,-135.18"/>
<polygon fill="midnightblue" stroke="midnightblue" points="467,-138.34 475.1,-131.52 464.51,-131.8 467,-138.34"/>
</g>
<!-- Node11 -->
<g id="node11" class="node">
<title>Node11</title>
<g id="a_node11"><a xlink:href="typesizes_8h.html" target="_top" xlink:title=" ">
<polygon fill="white" stroke="black" points="204,-112.5 204,-131.5 297,-131.5 297,-112.5 204,-112.5"/>
<text text-anchor="middle" x="250.5" y="-119.5" font-family="Helvetica,sans-Serif" font-size="10.00">bits/typesizes.h</text>
</a>
</g>
</g>
<!-- Node9&#45;&gt;Node11 -->
<g id="edge13" class="edge">
<title>Node9&#45;&gt;Node11</title>
<path fill="none" stroke="midnightblue" d="M338.63,-168.32C321.79,-159.66 295.69,-146.24 276.26,-136.25"/>
<polygon fill="midnightblue" stroke="midnightblue" points="277.82,-133.12 267.33,-131.65 274.62,-139.34 277.82,-133.12"/>
</g>
<!-- Node12 -->
<g id="node12" class="node">
<title>Node12</title>
<g id="a_node12"><a xlink:href="time64_8h.html" target="_top" xlink:title=" ">
<polygon fill="white" stroke="black" points="315,-112.5 315,-131.5 396,-131.5 396,-112.5 315,-112.5"/>
<text text-anchor="middle" x="355.5" y="-119.5" font-family="Helvetica,sans-Serif" font-size="10.00">bits/time64.h</text>
</a>
</g>
</g>
<!-- Node9&#45;&gt;Node12 -->
<g id="edge14" class="edge">
<title>Node9&#45;&gt;Node12</title>
<path fill="none" stroke="midnightblue" d="M355.5,-168.08C355.5,-161.01 355.5,-150.86 355.5,-141.99"/>
<polygon fill="midnightblue" stroke="midnightblue" points="359,-141.75 355.5,-131.75 352,-141.75 359,-141.75"/>
</g>
<!-- Node14 -->
<g id="node14" class="node">
<title>Node14</title>
<g id="a_node14"><a xlink:href="fcntl-linux_8h.html" target="_top" xlink:title=" ">
<polygon fill="white" stroke="black" points="534.5,-168.5 534.5,-187.5 630.5,-187.5 630.5,-168.5 534.5,-168.5"/>
<text text-anchor="middle" x="582.5" y="-175.5" font-family="Helvetica,sans-Serif" font-size="10.00">bits/fcntl&#45;linux.h</text>
</a>
</g>
</g>
<!-- Node13&#45;&gt;Node14 -->
<g id="edge16" class="edge">
<title>Node13&#45;&gt;Node14</title>
<path fill="none" stroke="midnightblue" d="M582.5,-224.08C582.5,-217.01 582.5,-206.86 582.5,-197.99"/>
<polygon fill="midnightblue" stroke="midnightblue" points="586,-197.75 582.5,-187.75 579,-197.75 586,-197.75"/>
</g>
<!-- Node15&#45;&gt;Node9 -->
<g id="edge18" class="edge">
<title>Node15&#45;&gt;Node9</title>
<path fill="none" stroke="midnightblue" d="M436.92,-224.32C421.5,-215.74 397.69,-202.49 379.79,-192.52"/>
<polygon fill="midnightblue" stroke="midnightblue" points="381.49,-189.46 371.05,-187.65 378.08,-195.58 381.49,-189.46"/>
</g>
<!-- Node16 -->
<g id="node16" class="node">
<title>Node16</title>
<g id="a_node16"><a xlink:href="bits_2endian_8h.html" target="_top" xlink:title=" ">
<polygon fill="white" stroke="black" points="427.5,-168.5 427.5,-187.5 507.5,-187.5 507.5,-168.5 427.5,-168.5"/>
<text text-anchor="middle" x="467.5" y="-175.5" font-family="Helvetica,sans-Serif" font-size="10.00">bits/endian.h</text>
</a>
</g>
</g>
<!-- Node15&#45;&gt;Node16 -->
<g id="edge19" class="edge">
<title>Node15&#45;&gt;Node16</title>
<path fill="none" stroke="midnightblue" d="M454.98,-224.08C456.99,-216.85 459.89,-206.41 462.39,-197.4"/>
<polygon fill="midnightblue" stroke="midnightblue" points="465.76,-198.32 465.07,-187.75 459.02,-196.45 465.76,-198.32"/>
</g>
<!-- Node17 -->
<g id="node17" class="node">
<title>Node17</title>
<g id="a_node17"><a xlink:href="endianness_8h.html" target="_top" xlink:title=" ">
<polygon fill="white" stroke="black" points="559.5,-112.5 559.5,-131.5 661.5,-131.5 661.5,-112.5 559.5,-112.5"/>
<text text-anchor="middle" x="610.5" y="-119.5" font-family="Helvetica,sans-Serif" font-size="10.00">bits/endianness.h</text>
</a>
</g>
</g>
<!-- Node16&#45;&gt;Node17 -->
<g id="edge20" class="edge">
<title>Node16&#45;&gt;Node17</title>
<path fill="none" stroke="midnightblue" d="M490.16,-168.44C513.9,-159.48 551.41,-145.31 578.24,-135.18"/>
<polygon fill="midnightblue" stroke="midnightblue" points="579.83,-138.32 587.95,-131.52 577.36,-131.77 579.83,-138.32"/>
</g>
</g>
</svg>
