<?xml version="1.0" encoding="UTF-8" standalone="no"?>
<!DOCTYPE svg PUBLIC "-//W3C//DTD SVG 1.1//EN"
 "http://www.w3.org/Graphics/SVG/1.1/DTD/svg11.dtd">
<!-- Generated by graphviz version 2.44.1 (0)
 -->
<!-- Title: bits/floatn&#45;common.h Pages: 1 -->
<svg width="810pt" height="196pt"
 viewBox="0.00 0.00 809.50 196.00" xmlns="http://www.w3.org/2000/svg" xmlns:xlink="http://www.w3.org/1999/xlink">
<g id="graph0" class="graph" transform="scale(1 1) rotate(0) translate(4 192)">
<title>bits/floatn&#45;common.h</title>
<polygon fill="white" stroke="transparent" points="-4,4 -4,-192 805.5,-192 805.5,4 -4,4"/>
<!-- Node1 -->
<g id="node1" class="node">
<title>Node1</title>
<g id="a_node1"><a xlink:title=" ">
<polygon fill="#bfbfbf" stroke="black" points="297,-168.5 297,-187.5 418,-187.5 418,-168.5 297,-168.5"/>
<text text-anchor="middle" x="357.5" y="-175.5" font-family="Helvetica,sans-Serif" font-size="10.00">bits/floatn&#45;common.h</text>
</a>
</g>
</g>
<!-- Node2 -->
<g id="node2" class="node">
<title>Node2</title>
<g id="a_node2"><a xlink:href="floatn_8h.html" target="_top" xlink:title=" ">
<polygon fill="white" stroke="black" points="320.5,-112.5 320.5,-131.5 394.5,-131.5 394.5,-112.5 320.5,-112.5"/>
<text text-anchor="middle" x="357.5" y="-119.5" font-family="Helvetica,sans-Serif" font-size="10.00">bits/floatn.h</text>
</a>
</g>
</g>
<!-- Node1&#45;&gt;Node2 -->
<g id="edge1" class="edge">
<title>Node1&#45;&gt;Node2</title>
<path fill="none" stroke="midnightblue" d="M357.5,-157.8C357.5,-148.91 357.5,-138.78 357.5,-131.75"/>
<polygon fill="midnightblue" stroke="midnightblue" points="354,-158.08 357.5,-168.08 361,-158.08 354,-158.08"/>
</g>
<!-- Node3 -->
<g id="node3" class="node">
<title>Node3</title>
<g id="a_node3"><a xlink:href="argp_8h.html" target="_top" xlink:title=" ">
<polygon fill="white" stroke="black" points="332,-0.5 332,-19.5 379,-19.5 379,-0.5 332,-0.5"/>
<text text-anchor="middle" x="355.5" y="-7.5" font-family="Helvetica,sans-Serif" font-size="10.00">argp.h</text>
</a>
</g>
</g>
<!-- Node2&#45;&gt;Node3 -->
<g id="edge2" class="edge">
<title>Node2&#45;&gt;Node3</title>
<path fill="none" stroke="midnightblue" d="M351.37,-102.39C349.03,-94.37 346.66,-84.82 345.5,-76 342.86,-55.85 348.73,-32.3 352.55,-19.81"/>
<polygon fill="midnightblue" stroke="midnightblue" points="348.1,-103.66 354.41,-112.17 354.79,-101.58 348.1,-103.66"/>
</g>
<!-- Node4 -->
<g id="node4" class="node">
<title>Node4</title>
<g id="a_node4"><a xlink:href="complex_8h.html" target="_top" xlink:title=" ">
<polygon fill="white" stroke="black" points="107.5,-56.5 107.5,-75.5 175.5,-75.5 175.5,-56.5 107.5,-56.5"/>
<text text-anchor="middle" x="141.5" y="-63.5" font-family="Helvetica,sans-Serif" font-size="10.00">complex.h</text>
</a>
</g>
</g>
<!-- Node2&#45;&gt;Node4 -->
<g id="edge3" class="edge">
<title>Node2&#45;&gt;Node4</title>
<path fill="none" stroke="midnightblue" d="M313.34,-109.96C272.54,-99.76 212.79,-84.82 175.57,-75.52"/>
<polygon fill="midnightblue" stroke="midnightblue" points="312.72,-113.41 323.27,-112.44 314.42,-106.62 312.72,-113.41"/>
</g>
<!-- Node5 -->
<g id="node5" class="node">
<title>Node5</title>
<g id="a_node5"><a xlink:href="tgmath_8h.html" target="_top" xlink:title=" ">
<polygon fill="white" stroke="black" points="49,-0.5 49,-19.5 110,-19.5 110,-0.5 49,-0.5"/>
<text text-anchor="middle" x="79.5" y="-7.5" font-family="Helvetica,sans-Serif" font-size="10.00">tgmath.h</text>
</a>
</g>
</g>
<!-- Node2&#45;&gt;Node5 -->
<g id="edge19" class="edge">
<title>Node2&#45;&gt;Node5</title>
<path fill="none" stroke="midnightblue" d="M310.27,-118.67C244.27,-114.45 129.07,-103.31 98.5,-76 82.19,-61.43 79.55,-33.72 79.33,-19.65"/>
<polygon fill="midnightblue" stroke="midnightblue" points="310.23,-122.17 320.43,-119.29 310.66,-115.18 310.23,-122.17"/>
</g>
<!-- Node6 -->
<g id="node6" class="node">
<title>Node6</title>
<g id="a_node6"><a xlink:href="error_8h.html" target="_top" xlink:title=" ">
<polygon fill="white" stroke="black" points="193.5,-56.5 193.5,-75.5 241.5,-75.5 241.5,-56.5 193.5,-56.5"/>
<text text-anchor="middle" x="217.5" y="-63.5" font-family="Helvetica,sans-Serif" font-size="10.00">error.h</text>
</a>
</g>
</g>
<!-- Node2&#45;&gt;Node6 -->
<g id="edge5" class="edge">
<title>Node2&#45;&gt;Node6</title>
<path fill="none" stroke="midnightblue" d="M325.8,-108.77C299.5,-98.63 262.78,-84.47 239.58,-75.52"/>
<polygon fill="midnightblue" stroke="midnightblue" points="324.73,-112.11 335.32,-112.44 327.25,-105.58 324.73,-112.11"/>
</g>
<!-- Node7 -->
<g id="node7" class="node">
<title>Node7</title>
<g id="a_node7"><a xlink:href="err_8h.html" target="_top" xlink:title=" ">
<polygon fill="white" stroke="black" points="259.5,-56.5 259.5,-75.5 297.5,-75.5 297.5,-56.5 259.5,-56.5"/>
<text text-anchor="middle" x="278.5" y="-63.5" font-family="Helvetica,sans-Serif" font-size="10.00">err.h</text>
</a>
</g>
</g>
<!-- Node2&#45;&gt;Node7 -->
<g id="edge6" class="edge">
<title>Node2&#45;&gt;Node7</title>
<path fill="none" stroke="midnightblue" d="M336.47,-106.62C322.03,-96.76 303.36,-83.99 291.16,-75.65"/>
<polygon fill="midnightblue" stroke="midnightblue" points="334.58,-109.57 344.81,-112.32 338.53,-103.79 334.58,-109.57"/>
</g>
<!-- Node8 -->
<g id="node8" class="node">
<title>Node8</title>
<g id="a_node8"><a xlink:href="math_8h.html" target="_top" xlink:title=" ">
<polygon fill="white" stroke="black" points="0,-56.5 0,-75.5 51,-75.5 51,-56.5 0,-56.5"/>
<text text-anchor="middle" x="25.5" y="-63.5" font-family="Helvetica,sans-Serif" font-size="10.00">math.h</text>
</a>
</g>
</g>
<!-- Node2&#45;&gt;Node8 -->
<g id="edge7" class="edge">
<title>Node2&#45;&gt;Node8</title>
<path fill="none" stroke="midnightblue" d="M310.55,-114.77C252.72,-106.87 151.55,-92.29 65.5,-76 60.88,-75.13 55.99,-74.1 51.27,-73.07"/>
<polygon fill="midnightblue" stroke="midnightblue" points="310.11,-118.24 320.49,-116.12 311.05,-111.31 310.11,-118.24"/>
</g>
<!-- Node9 -->
<g id="node9" class="node">
<title>Node9</title>
<g id="a_node9"><a xlink:href="monetary_8h.html" target="_top" xlink:title=" ">
<polygon fill="white" stroke="black" points="354,-56.5 354,-75.5 425,-75.5 425,-56.5 354,-56.5"/>
<text text-anchor="middle" x="389.5" y="-63.5" font-family="Helvetica,sans-Serif" font-size="10.00">monetary.h</text>
</a>
</g>
</g>
<!-- Node2&#45;&gt;Node9 -->
<g id="edge9" class="edge">
<title>Node2&#45;&gt;Node9</title>
<path fill="none" stroke="midnightblue" d="M368,-103.27C373.47,-94.05 379.92,-83.17 384.31,-75.75"/>
<polygon fill="midnightblue" stroke="midnightblue" points="364.87,-101.7 362.78,-112.08 370.89,-105.26 364.87,-101.7"/>
</g>
<!-- Node10 -->
<g id="node10" class="node">
<title>Node10</title>
<g id="a_node10"><a xlink:href="printf_8h.html" target="_top" xlink:title=" ">
<polygon fill="white" stroke="black" points="443,-56.5 443,-75.5 494,-75.5 494,-56.5 443,-56.5"/>
<text text-anchor="middle" x="468.5" y="-63.5" font-family="Helvetica,sans-Serif" font-size="10.00">printf.h</text>
</a>
</g>
</g>
<!-- Node2&#45;&gt;Node10 -->
<g id="edge10" class="edge">
<title>Node2&#45;&gt;Node10</title>
<path fill="none" stroke="midnightblue" d="M384.51,-107.86C405.09,-97.85 432.84,-84.35 450.71,-75.65"/>
<polygon fill="midnightblue" stroke="midnightblue" points="382.8,-104.8 375.33,-112.32 385.86,-111.1 382.8,-104.8"/>
</g>
<!-- Node11 -->
<g id="node11" class="node">
<title>Node11</title>
<g id="a_node11"><a xlink:href="stdio_8h.html" target="_top" xlink:title=" ">
<polygon fill="white" stroke="black" points="512.5,-56.5 512.5,-75.5 562.5,-75.5 562.5,-56.5 512.5,-56.5"/>
<text text-anchor="middle" x="537.5" y="-63.5" font-family="Helvetica,sans-Serif" font-size="10.00">stdio.h</text>
</a>
</g>
</g>
<!-- Node2&#45;&gt;Node11 -->
<g id="edge11" class="edge">
<title>Node2&#45;&gt;Node11</title>
<path fill="none" stroke="midnightblue" d="M395.93,-109.47C431.09,-98.92 482.08,-83.63 512.31,-74.56"/>
<polygon fill="midnightblue" stroke="midnightblue" points="394.59,-106.22 386.02,-112.44 396.61,-112.92 394.59,-106.22"/>
</g>
<!-- Node15 -->
<g id="node15" class="node">
<title>Node15</title>
<g id="a_node15"><a xlink:href="stdlib_8h.html" target="_top" xlink:title=" ">
<polygon fill="white" stroke="black" points="581,-56.5 581,-75.5 634,-75.5 634,-56.5 581,-56.5"/>
<text text-anchor="middle" x="607.5" y="-63.5" font-family="Helvetica,sans-Serif" font-size="10.00">stdlib.h</text>
</a>
</g>
</g>
<!-- Node2&#45;&gt;Node15 -->
<g id="edge16" class="edge">
<title>Node2&#45;&gt;Node15</title>
<path fill="none" stroke="midnightblue" d="M404.7,-111.61C448.14,-102.84 514.3,-89.16 571.5,-76 574.51,-75.31 577.66,-74.56 580.79,-73.8"/>
<polygon fill="midnightblue" stroke="midnightblue" points="403.82,-108.21 394.71,-113.62 405.2,-115.08 403.82,-108.21"/>
</g>
<!-- Node16 -->
<g id="node16" class="node">
<title>Node16</title>
<g id="a_node16"><a xlink:href="sys_2syslog_8h.html" target="_top" xlink:title=" ">
<polygon fill="white" stroke="black" points="652,-56.5 652,-75.5 729,-75.5 729,-56.5 652,-56.5"/>
<text text-anchor="middle" x="690.5" y="-63.5" font-family="Helvetica,sans-Serif" font-size="10.00">sys/syslog.h</text>
</a>
</g>
</g>
<!-- Node2&#45;&gt;Node16 -->
<g id="edge17" class="edge">
<title>Node2&#45;&gt;Node16</title>
<path fill="none" stroke="midnightblue" d="M404.69,-114.06C461.46,-105.61 559.59,-90.63 643.5,-76 646.2,-75.53 648.99,-75.03 651.79,-74.52"/>
<polygon fill="midnightblue" stroke="midnightblue" points="403.96,-110.63 394.59,-115.57 404.99,-117.56 403.96,-110.63"/>
</g>
<!-- Node18 -->
<g id="node18" class="node">
<title>Node18</title>
<g id="a_node18"><a xlink:href="wchar_8h.html" target="_top" xlink:title=" ">
<polygon fill="white" stroke="black" points="747.5,-56.5 747.5,-75.5 801.5,-75.5 801.5,-56.5 747.5,-56.5"/>
<text text-anchor="middle" x="774.5" y="-63.5" font-family="Helvetica,sans-Serif" font-size="10.00">wchar.h</text>
</a>
</g>
</g>
<!-- Node2&#45;&gt;Node18 -->
<g id="edge20" class="edge">
<title>Node2&#45;&gt;Node18</title>
<path fill="none" stroke="midnightblue" d="M404.66,-117.38C476.92,-111.39 619.23,-97.86 738.5,-76 741.41,-75.47 744.44,-74.83 747.45,-74.15"/>
<polygon fill="midnightblue" stroke="midnightblue" points="404.19,-113.9 394.51,-118.21 404.76,-120.88 404.19,-113.9"/>
</g>
<!-- Node4&#45;&gt;Node5 -->
<g id="edge4" class="edge">
<title>Node4&#45;&gt;Node5</title>
<path fill="none" stroke="midnightblue" d="M123.75,-49.54C112.69,-39.91 98.87,-27.87 89.64,-19.83"/>
<polygon fill="midnightblue" stroke="midnightblue" points="121.7,-52.4 131.54,-56.32 126.3,-47.12 121.7,-52.4"/>
</g>
<!-- Node8&#45;&gt;Node5 -->
<g id="edge8" class="edge">
<title>Node8&#45;&gt;Node5</title>
<path fill="none" stroke="midnightblue" d="M41.5,-49C51.07,-39.43 62.86,-27.64 70.75,-19.75"/>
<polygon fill="midnightblue" stroke="midnightblue" points="39.01,-46.54 34.42,-56.08 43.96,-51.49 39.01,-46.54"/>
</g>
<!-- Node11&#45;&gt;Node3 -->
<g id="edge12" class="edge">
<title>Node11&#45;&gt;Node3</title>
<path fill="none" stroke="midnightblue" d="M502.52,-54.62C466.25,-43.86 410.55,-27.33 379.15,-18.02"/>
<polygon fill="midnightblue" stroke="midnightblue" points="501.61,-58 512.19,-57.49 503.6,-51.29 501.61,-58"/>
</g>
<!-- Node12 -->
<g id="node12" class="node">
<title>Node12</title>
<g id="a_node12"><a xlink:href="malloc_8h.html" target="_top" xlink:title=" ">
<polygon fill="white" stroke="black" points="428,-0.5 428,-19.5 487,-19.5 487,-0.5 428,-0.5"/>
<text text-anchor="middle" x="457.5" y="-7.5" font-family="Helvetica,sans-Serif" font-size="10.00">malloc.h</text>
</a>
</g>
</g>
<!-- Node11&#45;&gt;Node12 -->
<g id="edge13" class="edge">
<title>Node11&#45;&gt;Node12</title>
<path fill="none" stroke="midnightblue" d="M516.2,-50.62C501.58,-40.76 482.67,-27.99 470.32,-19.65"/>
<polygon fill="midnightblue" stroke="midnightblue" points="514.4,-53.63 524.65,-56.32 518.32,-47.83 514.4,-53.63"/>
</g>
<!-- Node13 -->
<g id="node13" class="node">
<title>Node13</title>
<g id="a_node13"><a xlink:href="resolv_8h.html" target="_top" xlink:title=" ">
<polygon fill="white" stroke="black" points="505,-0.5 505,-19.5 560,-19.5 560,-0.5 505,-0.5"/>
<text text-anchor="middle" x="532.5" y="-7.5" font-family="Helvetica,sans-Serif" font-size="10.00">resolv.h</text>
</a>
</g>
</g>
<!-- Node11&#45;&gt;Node13 -->
<g id="edge14" class="edge">
<title>Node11&#45;&gt;Node13</title>
<path fill="none" stroke="midnightblue" d="M535.75,-46.1C534.92,-37.14 533.97,-26.86 533.31,-19.75"/>
<polygon fill="midnightblue" stroke="midnightblue" points="532.27,-46.45 536.67,-56.08 539.24,-45.8 532.27,-46.45"/>
</g>
<!-- Node14 -->
<g id="node14" class="node">
<title>Node14</title>
<g id="a_node14"><a xlink:href="stdio__ext_8h.html" target="_top" xlink:title=" ">
<polygon fill="white" stroke="black" points="578,-0.5 578,-19.5 649,-19.5 649,-0.5 578,-0.5"/>
<text text-anchor="middle" x="613.5" y="-7.5" font-family="Helvetica,sans-Serif" font-size="10.00">stdio_ext.h</text>
</a>
</g>
</g>
<!-- Node11&#45;&gt;Node14 -->
<g id="edge15" class="edge">
<title>Node11&#45;&gt;Node14</title>
<path fill="none" stroke="midnightblue" d="M558.08,-50.38C571.81,-40.62 589.43,-28.11 601.07,-19.83"/>
<polygon fill="midnightblue" stroke="midnightblue" points="555.84,-47.68 549.71,-56.32 559.89,-53.38 555.84,-47.68"/>
</g>
<!-- Node17 -->
<g id="node17" class="node">
<title>Node17</title>
<g id="a_node17"><a xlink:href="syslog_8h.html" target="_top" xlink:title=" ">
<polygon fill="white" stroke="black" points="667,-0.5 667,-19.5 724,-19.5 724,-0.5 667,-0.5"/>
<text text-anchor="middle" x="695.5" y="-7.5" font-family="Helvetica,sans-Serif" font-size="10.00">syslog.h</text>
</a>
</g>
</g>
<!-- Node16&#45;&gt;Node17 -->
<g id="edge18" class="edge">
<title>Node16&#45;&gt;Node17</title>
<path fill="none" stroke="midnightblue" d="M692.25,-46.1C693.08,-37.14 694.03,-26.86 694.69,-19.75"/>
<polygon fill="midnightblue" stroke="midnightblue" points="688.76,-45.8 691.33,-56.08 695.73,-46.45 688.76,-45.8"/>
</g>
</g>
</svg>
