<?xml version="1.0" encoding="UTF-8" standalone="no"?>
<!DOCTYPE svg PUBLIC "-//W3C//DTD SVG 1.1//EN"
 "http://www.w3.org/Graphics/SVG/1.1/DTD/svg11.dtd">
<!-- Generated by graphviz version 2.44.1 (0)
 -->
<!-- Title: ftw.h Pages: 1 -->
<svg width="831pt" height="364pt"
 viewBox="0.00 0.00 830.50 364.00" xmlns="http://www.w3.org/2000/svg" xmlns:xlink="http://www.w3.org/1999/xlink">
<g id="graph0" class="graph" transform="scale(1 1) rotate(0) translate(4 360)">
<title>ftw.h</title>
<polygon fill="white" stroke="transparent" points="-4,4 -4,-360 826.5,-360 826.5,4 -4,4"/>
<!-- Node1 -->
<g id="node1" class="node">
<title>Node1</title>
<g id="a_node1"><a xlink:title=" ">
<polygon fill="#bfbfbf" stroke="black" points="672,-336.5 672,-355.5 712,-355.5 712,-336.5 672,-336.5"/>
<text text-anchor="middle" x="692" y="-343.5" font-family="Helvetica,sans-Serif" font-size="10.00">ftw.h</text>
</a>
</g>
</g>
<!-- Node2 -->
<g id="node2" class="node">
<title>Node2</title>
<g id="a_node2"><a xlink:href="features_8h.html" target="_top" xlink:title=" ">
<polygon fill="white" stroke="black" points="637,-112.5 637,-131.5 703,-131.5 703,-112.5 637,-112.5"/>
<text text-anchor="middle" x="670" y="-119.5" font-family="Helvetica,sans-Serif" font-size="10.00">features.h</text>
</a>
</g>
</g>
<!-- Node1&#45;&gt;Node2 -->
<g id="edge1" class="edge">
<title>Node1&#45;&gt;Node2</title>
<path fill="none" stroke="midnightblue" d="M701.83,-336.42C730.94,-309.99 812.23,-227.95 773,-168 759.66,-147.61 734.82,-136.4 712.88,-130.28"/>
<polygon fill="midnightblue" stroke="midnightblue" points="713.61,-126.85 703.06,-127.8 711.9,-133.64 713.61,-126.85"/>
</g>
<!-- Node9 -->
<g id="node9" class="node">
<title>Node9</title>
<g id="a_node9"><a xlink:href="sys_2types_8h.html" target="_top" xlink:title=" ">
<polygon fill="white" stroke="black" points="420,-280.5 420,-299.5 492,-299.5 492,-280.5 420,-280.5"/>
<text text-anchor="middle" x="456" y="-287.5" font-family="Helvetica,sans-Serif" font-size="10.00">sys/types.h</text>
</a>
</g>
</g>
<!-- Node1&#45;&gt;Node9 -->
<g id="edge9" class="edge">
<title>Node1&#45;&gt;Node9</title>
<path fill="none" stroke="midnightblue" d="M671.88,-340.4C634.47,-331.84 553.34,-313.27 501.89,-301.5"/>
<polygon fill="midnightblue" stroke="midnightblue" points="502.54,-298.06 492.01,-299.24 500.98,-304.88 502.54,-298.06"/>
</g>
<!-- Node19 -->
<g id="node19" class="node">
<title>Node19</title>
<g id="a_node19"><a xlink:href="sys_2stat_8h.html" target="_top" xlink:title=" ">
<polygon fill="white" stroke="black" points="660,-224.5 660,-243.5 724,-243.5 724,-224.5 660,-224.5"/>
<text text-anchor="middle" x="692" y="-231.5" font-family="Helvetica,sans-Serif" font-size="10.00">sys/stat.h</text>
</a>
</g>
</g>
<!-- Node1&#45;&gt;Node19 -->
<g id="edge26" class="edge">
<title>Node1&#45;&gt;Node19</title>
<path fill="none" stroke="midnightblue" d="M692,-336.37C692,-318.62 692,-277.67 692,-253.6"/>
<polygon fill="midnightblue" stroke="midnightblue" points="695.5,-253.59 692,-243.59 688.5,-253.59 695.5,-253.59"/>
</g>
<!-- Node3 -->
<g id="node3" class="node">
<title>Node3</title>
<g id="a_node3"><a xlink:href="stdc-predef_8h.html" target="_top" xlink:title=" ">
<polygon fill="white" stroke="black" points="536,-56.5 536,-75.5 616,-75.5 616,-56.5 536,-56.5"/>
<text text-anchor="middle" x="576" y="-63.5" font-family="Helvetica,sans-Serif" font-size="10.00">stdc&#45;predef.h</text>
</a>
</g>
</g>
<!-- Node2&#45;&gt;Node3 -->
<g id="edge2" class="edge">
<title>Node2&#45;&gt;Node3</title>
<path fill="none" stroke="midnightblue" d="M654.9,-112.32C640.1,-103.82 617.31,-90.73 600.02,-80.8"/>
<polygon fill="midnightblue" stroke="midnightblue" points="601.48,-77.6 591.07,-75.65 597.99,-83.67 601.48,-77.6"/>
</g>
<!-- Node4 -->
<g id="node4" class="node">
<title>Node4</title>
<g id="a_node4"><a xlink:href="cdefs_8h.html" target="_top" xlink:title=" ">
<polygon fill="white" stroke="black" points="634.5,-56.5 634.5,-75.5 705.5,-75.5 705.5,-56.5 634.5,-56.5"/>
<text text-anchor="middle" x="670" y="-63.5" font-family="Helvetica,sans-Serif" font-size="10.00">sys/cdefs.h</text>
</a>
</g>
</g>
<!-- Node2&#45;&gt;Node4 -->
<g id="edge3" class="edge">
<title>Node2&#45;&gt;Node4</title>
<path fill="none" stroke="midnightblue" d="M664.83,-112.08C663.32,-104.93 662.89,-94.64 663.54,-85.69"/>
<polygon fill="midnightblue" stroke="midnightblue" points="667.02,-86.13 664.87,-75.75 660.08,-85.2 667.02,-86.13"/>
</g>
<!-- Node7 -->
<g id="node7" class="node">
<title>Node7</title>
<g id="a_node7"><a xlink:href="stubs_8h.html" target="_top" xlink:title=" ">
<polygon fill="white" stroke="black" points="735.5,-56.5 735.5,-75.5 808.5,-75.5 808.5,-56.5 735.5,-56.5"/>
<text text-anchor="middle" x="772" y="-63.5" font-family="Helvetica,sans-Serif" font-size="10.00">gnu/stubs.h</text>
</a>
</g>
</g>
<!-- Node2&#45;&gt;Node7 -->
<g id="edge7" class="edge">
<title>Node2&#45;&gt;Node7</title>
<path fill="none" stroke="midnightblue" d="M686.39,-112.32C702.67,-103.7 727.87,-90.36 746.72,-80.39"/>
<polygon fill="midnightblue" stroke="midnightblue" points="748.45,-83.43 755.65,-75.65 745.18,-77.24 748.45,-83.43"/>
</g>
<!-- Node4&#45;&gt;Node2 -->
<g id="edge4" class="edge">
<title>Node4&#45;&gt;Node2</title>
<path fill="none" stroke="midnightblue" d="M675.13,-75.75C676.66,-82.86 677.1,-93.14 676.47,-102.1"/>
<polygon fill="midnightblue" stroke="midnightblue" points="672.99,-101.71 675.17,-112.08 679.93,-102.62 672.99,-101.71"/>
</g>
<!-- Node5 -->
<g id="node5" class="node">
<title>Node5</title>
<g id="a_node5"><a xlink:href="wordsize_8h.html" target="_top" xlink:title=" ">
<polygon fill="white" stroke="black" points="489,-0.5 489,-19.5 579,-19.5 579,-0.5 489,-0.5"/>
<text text-anchor="middle" x="534" y="-7.5" font-family="Helvetica,sans-Serif" font-size="10.00">bits/wordsize.h</text>
</a>
</g>
</g>
<!-- Node4&#45;&gt;Node5 -->
<g id="edge5" class="edge">
<title>Node4&#45;&gt;Node5</title>
<path fill="none" stroke="midnightblue" d="M648.45,-56.44C625.97,-47.52 590.51,-33.44 565.02,-23.32"/>
<polygon fill="midnightblue" stroke="midnightblue" points="566.03,-19.95 555.45,-19.52 563.45,-26.46 566.03,-19.95"/>
</g>
<!-- Node6 -->
<g id="node6" class="node">
<title>Node6</title>
<g id="a_node6"><a xlink:href="long-double_8h.html" target="_top" xlink:title=" ">
<polygon fill="white" stroke="black" points="611,-0.5 611,-19.5 715,-19.5 715,-0.5 611,-0.5"/>
<text text-anchor="middle" x="663" y="-7.5" font-family="Helvetica,sans-Serif" font-size="10.00">bits/long&#45;double.h</text>
</a>
</g>
</g>
<!-- Node4&#45;&gt;Node6 -->
<g id="edge6" class="edge">
<title>Node4&#45;&gt;Node6</title>
<path fill="none" stroke="midnightblue" d="M668.84,-56.08C667.92,-48.93 666.58,-38.64 665.42,-29.69"/>
<polygon fill="midnightblue" stroke="midnightblue" points="668.89,-29.22 664.13,-19.75 661.95,-30.12 668.89,-29.22"/>
</g>
<!-- Node8 -->
<g id="node8" class="node">
<title>Node8</title>
<g id="a_node8"><a xlink:title=" ">
<polygon fill="white" stroke="#bfbfbf" points="733.5,-0.5 733.5,-19.5 822.5,-19.5 822.5,-0.5 733.5,-0.5"/>
<text text-anchor="middle" x="778" y="-7.5" font-family="Helvetica,sans-Serif" font-size="10.00">gnu/stubs&#45;32.h</text>
</a>
</g>
</g>
<!-- Node7&#45;&gt;Node8 -->
<g id="edge8" class="edge">
<title>Node7&#45;&gt;Node8</title>
<path fill="none" stroke="midnightblue" d="M772.99,-56.08C773.79,-48.93 774.93,-38.64 775.92,-29.69"/>
<polygon fill="midnightblue" stroke="midnightblue" points="779.4,-30.08 777.03,-19.75 772.44,-29.3 779.4,-30.08"/>
</g>
<!-- Node9&#45;&gt;Node2 -->
<g id="edge10" class="edge">
<title>Node9&#45;&gt;Node2</title>
<path fill="none" stroke="midnightblue" d="M492.04,-283.38C520.65,-277.47 560.45,-265.86 589,-244 625.16,-216.31 650.54,-167.66 662.41,-141.27"/>
<polygon fill="midnightblue" stroke="midnightblue" points="665.77,-142.31 666.54,-131.74 659.35,-139.53 665.77,-142.31"/>
</g>
<!-- Node10 -->
<g id="node10" class="node">
<title>Node10</title>
<g id="a_node10"><a xlink:href="bits_2types_8h.html" target="_top" xlink:title=" ">
<polygon fill="white" stroke="black" points="464,-168.5 464,-187.5 538,-187.5 538,-168.5 464,-168.5"/>
<text text-anchor="middle" x="501" y="-175.5" font-family="Helvetica,sans-Serif" font-size="10.00">bits/types.h</text>
</a>
</g>
</g>
<!-- Node9&#45;&gt;Node10 -->
<g id="edge11" class="edge">
<title>Node9&#45;&gt;Node10</title>
<path fill="none" stroke="midnightblue" d="M492.02,-285.91C519.52,-281.44 555.72,-270.54 574,-244 588.75,-222.59 559.71,-203.53 534,-191.67"/>
<polygon fill="midnightblue" stroke="midnightblue" points="535.33,-188.44 524.77,-187.64 532.53,-194.85 535.33,-188.44"/>
</g>
<!-- Node14 -->
<g id="node14" class="node">
<title>Node14</title>
<g id="a_node14"><a xlink:href="clockid__t_8h.html" target="_top" xlink:title=" ">
<polygon fill="white" stroke="black" points="0,-224.5 0,-243.5 120,-243.5 120,-224.5 0,-224.5"/>
<text text-anchor="middle" x="60" y="-231.5" font-family="Helvetica,sans-Serif" font-size="10.00">bits/types/clockid_t.h</text>
</a>
</g>
</g>
<!-- Node9&#45;&gt;Node14 -->
<g id="edge17" class="edge">
<title>Node9&#45;&gt;Node14</title>
<path fill="none" stroke="midnightblue" d="M419.81,-284.06C354.31,-275.13 215.05,-256.14 130.28,-244.58"/>
<polygon fill="midnightblue" stroke="midnightblue" points="130.6,-241.1 120.22,-243.21 129.66,-248.03 130.6,-241.1"/>
</g>
<!-- Node15 -->
<g id="node15" class="node">
<title>Node15</title>
<g id="a_node15"><a xlink:href="time__t_8h.html" target="_top" xlink:title=" ">
<polygon fill="white" stroke="black" points="212,-224.5 212,-243.5 320,-243.5 320,-224.5 212,-224.5"/>
<text text-anchor="middle" x="266" y="-231.5" font-family="Helvetica,sans-Serif" font-size="10.00">bits/types/time_t.h</text>
</a>
</g>
</g>
<!-- Node9&#45;&gt;Node15 -->
<g id="edge19" class="edge">
<title>Node9&#45;&gt;Node15</title>
<path fill="none" stroke="midnightblue" d="M425.89,-280.44C393.37,-271.2 341.42,-256.44 305.61,-246.26"/>
<polygon fill="midnightblue" stroke="midnightblue" points="306.54,-242.88 295.97,-243.52 304.63,-249.62 306.54,-242.88"/>
</g>
<!-- Node16 -->
<g id="node16" class="node">
<title>Node16</title>
<g id="a_node16"><a xlink:href="timer__t_8h.html" target="_top" xlink:title=" ">
<polygon fill="white" stroke="black" points="338,-224.5 338,-243.5 450,-243.5 450,-224.5 338,-224.5"/>
<text text-anchor="middle" x="394" y="-231.5" font-family="Helvetica,sans-Serif" font-size="10.00">bits/types/timer_t.h</text>
</a>
</g>
</g>
<!-- Node9&#45;&gt;Node16 -->
<g id="edge21" class="edge">
<title>Node9&#45;&gt;Node16</title>
<path fill="none" stroke="midnightblue" d="M446.04,-280.32C436.87,-272.34 423.06,-260.31 411.97,-250.65"/>
<polygon fill="midnightblue" stroke="midnightblue" points="413.98,-247.76 404.14,-243.83 409.38,-253.04 413.98,-247.76"/>
</g>
<!-- Node17 -->
<g id="node17" class="node">
<title>Node17</title>
<g id="a_node17"><a xlink:title=" ">
<polygon fill="white" stroke="#bfbfbf" points="138,-224.5 138,-243.5 194,-243.5 194,-224.5 138,-224.5"/>
<text text-anchor="middle" x="166" y="-231.5" font-family="Helvetica,sans-Serif" font-size="10.00">stddef.h</text>
</a>
</g>
</g>
<!-- Node9&#45;&gt;Node17 -->
<g id="edge23" class="edge">
<title>Node9&#45;&gt;Node17</title>
<path fill="none" stroke="midnightblue" d="M419.83,-283.3C372.48,-275.67 286.69,-261.31 204.04,-244.12"/>
<polygon fill="midnightblue" stroke="midnightblue" points="204.75,-240.69 194.24,-242.06 203.31,-247.54 204.75,-240.69"/>
</g>
<!-- Node18 -->
<g id="node18" class="node">
<title>Node18</title>
<g id="a_node18"><a xlink:href="stdint-intn_8h.html" target="_top" xlink:title=" ">
<polygon fill="white" stroke="black" points="468.5,-224.5 468.5,-243.5 565.5,-243.5 565.5,-224.5 468.5,-224.5"/>
<text text-anchor="middle" x="517" y="-231.5" font-family="Helvetica,sans-Serif" font-size="10.00">bits/stdint&#45;intn.h</text>
</a>
</g>
</g>
<!-- Node9&#45;&gt;Node18 -->
<g id="edge24" class="edge">
<title>Node9&#45;&gt;Node18</title>
<path fill="none" stroke="midnightblue" d="M465.8,-280.32C474.82,-272.34 488.41,-260.31 499.32,-250.65"/>
<polygon fill="midnightblue" stroke="midnightblue" points="501.85,-253.08 507.02,-243.83 497.21,-247.84 501.85,-253.08"/>
</g>
<!-- Node10&#45;&gt;Node2 -->
<g id="edge12" class="edge">
<title>Node10&#45;&gt;Node2</title>
<path fill="none" stroke="midnightblue" d="M527.78,-168.44C556.33,-159.32 601.73,-144.81 633.54,-134.65"/>
<polygon fill="midnightblue" stroke="midnightblue" points="634.89,-137.89 643.35,-131.52 632.76,-131.23 634.89,-137.89"/>
</g>
<!-- Node10&#45;&gt;Node5 -->
<g id="edge13" class="edge">
<title>Node10&#45;&gt;Node5</title>
<path fill="none" stroke="midnightblue" d="M502.77,-168.08C507.97,-141.95 523.22,-65.21 530.31,-29.58"/>
<polygon fill="midnightblue" stroke="midnightblue" points="533.78,-30.06 532.3,-19.57 526.91,-28.69 533.78,-30.06"/>
</g>
<!-- Node11 -->
<g id="node11" class="node">
<title>Node11</title>
<g id="a_node11"><a xlink:href="timesize_8h.html" target="_top" xlink:title=" ">
<polygon fill="white" stroke="black" points="529.5,-112.5 529.5,-131.5 618.5,-131.5 618.5,-112.5 529.5,-112.5"/>
<text text-anchor="middle" x="574" y="-119.5" font-family="Helvetica,sans-Serif" font-size="10.00">bits/timesize.h</text>
</a>
</g>
</g>
<!-- Node10&#45;&gt;Node11 -->
<g id="edge14" class="edge">
<title>Node10&#45;&gt;Node11</title>
<path fill="none" stroke="midnightblue" d="M512.73,-168.32C523.84,-160.11 540.74,-147.6 553.98,-137.81"/>
<polygon fill="midnightblue" stroke="midnightblue" points="556.1,-140.59 562.06,-131.83 551.94,-134.97 556.1,-140.59"/>
</g>
<!-- Node12 -->
<g id="node12" class="node">
<title>Node12</title>
<g id="a_node12"><a xlink:href="typesizes_8h.html" target="_top" xlink:title=" ">
<polygon fill="white" stroke="black" points="280.5,-112.5 280.5,-131.5 373.5,-131.5 373.5,-112.5 280.5,-112.5"/>
<text text-anchor="middle" x="327" y="-119.5" font-family="Helvetica,sans-Serif" font-size="10.00">bits/typesizes.h</text>
</a>
</g>
</g>
<!-- Node10&#45;&gt;Node12 -->
<g id="edge15" class="edge">
<title>Node10&#45;&gt;Node12</title>
<path fill="none" stroke="midnightblue" d="M473.43,-168.44C443.9,-159.28 396.88,-144.69 364.12,-134.52"/>
<polygon fill="midnightblue" stroke="midnightblue" points="365.03,-131.14 354.44,-131.52 362.96,-137.82 365.03,-131.14"/>
</g>
<!-- Node13 -->
<g id="node13" class="node">
<title>Node13</title>
<g id="a_node13"><a xlink:href="time64_8h.html" target="_top" xlink:title=" ">
<polygon fill="white" stroke="black" points="391.5,-112.5 391.5,-131.5 472.5,-131.5 472.5,-112.5 391.5,-112.5"/>
<text text-anchor="middle" x="432" y="-119.5" font-family="Helvetica,sans-Serif" font-size="10.00">bits/time64.h</text>
</a>
</g>
</g>
<!-- Node10&#45;&gt;Node13 -->
<g id="edge16" class="edge">
<title>Node10&#45;&gt;Node13</title>
<path fill="none" stroke="midnightblue" d="M489.91,-168.32C479.51,-160.18 463.74,-147.84 451.28,-138.09"/>
<polygon fill="midnightblue" stroke="midnightblue" points="453.32,-135.24 443.29,-131.83 449.01,-140.75 453.32,-135.24"/>
</g>
<!-- Node14&#45;&gt;Node10 -->
<g id="edge18" class="edge">
<title>Node14&#45;&gt;Node10</title>
<path fill="none" stroke="midnightblue" d="M120.21,-225.11C123.18,-224.73 126.12,-224.36 129,-224 245.5,-209.36 382.63,-192.99 453.4,-184.61"/>
<polygon fill="midnightblue" stroke="midnightblue" points="454.24,-188.04 463.76,-183.39 453.42,-181.09 454.24,-188.04"/>
</g>
<!-- Node15&#45;&gt;Node10 -->
<g id="edge20" class="edge">
<title>Node15&#45;&gt;Node10</title>
<path fill="none" stroke="midnightblue" d="M303.24,-224.44C344.06,-215.06 409.64,-199.99 453.98,-189.8"/>
<polygon fill="midnightblue" stroke="midnightblue" points="454.98,-193.17 463.94,-187.52 453.41,-186.34 454.98,-193.17"/>
</g>
<!-- Node16&#45;&gt;Node10 -->
<g id="edge22" class="edge">
<title>Node16&#45;&gt;Node10</title>
<path fill="none" stroke="midnightblue" d="M411.19,-224.32C428.35,-215.66 454.95,-202.24 474.75,-192.25"/>
<polygon fill="midnightblue" stroke="midnightblue" points="476.5,-195.28 483.85,-187.65 473.35,-189.04 476.5,-195.28"/>
</g>
<!-- Node18&#45;&gt;Node10 -->
<g id="edge25" class="edge">
<title>Node18&#45;&gt;Node10</title>
<path fill="none" stroke="midnightblue" d="M514.36,-224.08C512.21,-216.85 509.12,-206.41 506.45,-197.4"/>
<polygon fill="midnightblue" stroke="midnightblue" points="509.79,-196.34 503.59,-187.75 503.08,-198.33 509.79,-196.34"/>
</g>
<!-- Node19&#45;&gt;Node2 -->
<g id="edge27" class="edge">
<title>Node19&#45;&gt;Node2</title>
<path fill="none" stroke="midnightblue" d="M690.27,-224.37C686.72,-206.62 678.53,-165.67 673.72,-141.6"/>
<polygon fill="midnightblue" stroke="midnightblue" points="677.11,-140.71 671.72,-131.59 670.25,-142.08 677.11,-140.71"/>
</g>
<!-- Node19&#45;&gt;Node10 -->
<g id="edge28" class="edge">
<title>Node19&#45;&gt;Node10</title>
<path fill="none" stroke="midnightblue" d="M661.74,-224.44C629.04,-215.2 576.82,-200.44 540.82,-190.26"/>
<polygon fill="midnightblue" stroke="midnightblue" points="541.7,-186.87 531.12,-187.52 539.79,-193.61 541.7,-186.87"/>
</g>
<!-- Node20 -->
<g id="node20" class="node">
<title>Node20</title>
<g id="a_node20"><a xlink:href="bits_2stat_8h.html" target="_top" xlink:title=" ">
<polygon fill="white" stroke="black" points="698.5,-168.5 698.5,-187.5 763.5,-187.5 763.5,-168.5 698.5,-168.5"/>
<text text-anchor="middle" x="731" y="-175.5" font-family="Helvetica,sans-Serif" font-size="10.00">bits/stat.h</text>
</a>
</g>
</g>
<!-- Node19&#45;&gt;Node20 -->
<g id="edge29" class="edge">
<title>Node19&#45;&gt;Node20</title>
<path fill="none" stroke="midnightblue" d="M698.44,-224.08C703.95,-216.46 712.03,-205.26 718.76,-195.94"/>
<polygon fill="midnightblue" stroke="midnightblue" points="721.66,-197.91 724.68,-187.75 715.99,-193.81 721.66,-197.91"/>
</g>
</g>
</svg>
