<?xml version="1.0" encoding="UTF-8" standalone="no"?>
<!DOCTYPE svg PUBLIC "-//W3C//DTD SVG 1.1//EN"
 "http://www.w3.org/Graphics/SVG/1.1/DTD/svg11.dtd">
<!-- Generated by graphviz version 2.44.1 (0)
 -->
<!-- Title: netinet/icmp6.h Pages: 1 -->
<!--zoomable 532 -->
<svg id="main" version="1.1" xmlns="http://www.w3.org/2000/svg" xmlns:xlink="http://www.w3.org/1999/xlink" xml:space="preserve" onload="init(evt)">
<style type="text/css"><![CDATA[
.edge:hover path { stroke: red; }
.edge:hover polygon { stroke: red; fill: red; }
]]></style>
<script type="text/javascript"><![CDATA[
var edges = document.getElementsByTagName('g');
if (edges && edges.length) {
  for (var i=0;i<edges.length;i++) {
    if (edges[i].id.substr(0,4)=='edge') {
      edges[i].setAttribute('class','edge');
    }
  }
}
]]></script>
        <defs>
                <circle id="rim" cx="0" cy="0" r="7"/>
                <circle id="rim2" cx="0" cy="0" r="3.5"/>
                <g id="zoomPlus">
                        <use xlink:href="#rim" fill="#404040">
                                <set attributeName="fill" to="#808080" begin="zoomplus.mouseover" end="zoomplus.mouseout"/>
                        </use>
                        <path d="M-4,0h8M0,-4v8" fill="none" stroke="white" stroke-width="1.5" pointer-events="none"/>
                </g>
                <g id="zoomMin">
                        <use xlink:href="#rim" fill="#404040">
                                <set attributeName="fill" to="#808080" begin="zoomminus.mouseover" end="zoomminus.mouseout"/>
                        </use>
                        <path d="M-4,0h8" fill="none" stroke="white" stroke-width="1.5" pointer-events="none"/>
                </g>
                <g id="dirArrow">
                        <path fill="none" stroke="white" stroke-width="1.5" d="M0,-3.0v7 M-2.5,-0.5L0,-3.0L2.5,-0.5"/>
                </g>
               <g id="resetDef">
                       <use xlink:href="#rim2" fill="#404040">
                               <set attributeName="fill" to="#808080" begin="reset.mouseover" end="reset.mouseout"/>
                       </use>
               </g>
        </defs>

<script type="text/javascript">
var viewWidth = 1443;
var viewHeight = 532;
var sectionId = 'dynsection-0';
</script>
<script xlink:href="svgpan.js"/>
<svg id="graph" class="graph">
<g id="viewport">
<title>netinet/icmp6.h</title>
<polygon fill="white" stroke="transparent" points="-4,4 -4,-528 1438.75,-528 1438.75,4 -4,4"/>
<!-- Node1 -->
<g id="node1" class="node">
<title>Node1</title>
<g id="a_node1"><a xlink:title=" ">
<polygon fill="#bfbfbf" stroke="black" points="554.5,-504.5 554.5,-523.5 647.5,-523.5 647.5,-504.5 554.5,-504.5"/>
<text text-anchor="middle" x="601" y="-511.5" font-family="Helvetica,sans-Serif" font-size="10.00">netinet/icmp6.h</text>
</a>
</g>
</g>
<!-- Node2 -->
<g id="node2" class="node">
<title>Node2</title>
<g id="a_node2"><a xlink:href="inttypes_8h.html" target="_top" xlink:title=" ">
<polygon fill="white" stroke="black" points="912.5,-336.5 912.5,-355.5 977.5,-355.5 977.5,-336.5 912.5,-336.5"/>
<text text-anchor="middle" x="945" y="-343.5" font-family="Helvetica,sans-Serif" font-size="10.00">inttypes.h</text>
</a>
</g>
</g>
<!-- Node1&#45;&gt;Node2 -->
<g id="edge1" class="edge">
<title>Node1&#45;&gt;Node2</title>
<path fill="none" stroke="midnightblue" d="M629.28,-504.49C655.37,-496.28 694.96,-482.94 728,-468 801.74,-434.66 883.94,-385.21 922.6,-361.16"/>
<polygon fill="midnightblue" stroke="midnightblue" points="924.83,-363.89 931.46,-355.62 921.12,-357.95 924.83,-363.89"/>
</g>
<!-- Node20 -->
<g id="node20" class="node">
<title>Node20</title>
<g id="a_node20"><a xlink:href="string_8h.html" target="_top" xlink:title=" ">
<polygon fill="white" stroke="black" points="362.5,-280.5 362.5,-299.5 415.5,-299.5 415.5,-280.5 362.5,-280.5"/>
<text text-anchor="middle" x="389" y="-287.5" font-family="Helvetica,sans-Serif" font-size="10.00">string.h</text>
</a>
</g>
</g>
<!-- Node1&#45;&gt;Node20 -->
<g id="edge26" class="edge">
<title>Node1&#45;&gt;Node20</title>
<path fill="none" stroke="midnightblue" d="M596.27,-504.26C580.98,-476.64 530.32,-389.91 469,-336 454.13,-322.93 434.86,-311.95 418.95,-304.11"/>
<polygon fill="midnightblue" stroke="midnightblue" points="420.09,-300.77 409.56,-299.64 417.08,-307.09 420.09,-300.77"/>
</g>
<!-- Node21 -->
<g id="node21" class="node">
<title>Node21</title>
<g id="a_node21"><a xlink:href="sys_2types_8h.html" target="_top" xlink:title=" ">
<polygon fill="white" stroke="black" points="778,-280.5 778,-299.5 850,-299.5 850,-280.5 778,-280.5"/>
<text text-anchor="middle" x="814" y="-287.5" font-family="Helvetica,sans-Serif" font-size="10.00">sys/types.h</text>
</a>
</g>
</g>
<!-- Node1&#45;&gt;Node21 -->
<g id="edge29" class="edge">
<title>Node1&#45;&gt;Node21</title>
<path fill="none" stroke="midnightblue" d="M609.35,-504.3C641.35,-470.94 756.51,-350.92 798.52,-307.13"/>
<polygon fill="midnightblue" stroke="midnightblue" points="801.08,-309.52 805.48,-299.88 796.03,-304.68 801.08,-309.52"/>
</g>
<!-- Node25 -->
<g id="node25" class="node">
<title>Node25</title>
<g id="a_node25"><a xlink:href="netinet_2in_8h.html" target="_top" xlink:title=" ">
<polygon fill="white" stroke="black" points="171,-448.5 171,-467.5 243,-467.5 243,-448.5 171,-448.5"/>
<text text-anchor="middle" x="207" y="-455.5" font-family="Helvetica,sans-Serif" font-size="10.00">netinet/in.h</text>
</a>
</g>
</g>
<!-- Node1&#45;&gt;Node25 -->
<g id="edge40" class="edge">
<title>Node1&#45;&gt;Node25</title>
<path fill="none" stroke="midnightblue" d="M554.26,-506.59C478.33,-496.19 329.09,-475.73 253.39,-465.36"/>
<polygon fill="midnightblue" stroke="midnightblue" points="253.59,-461.85 243.21,-463.96 252.64,-468.79 253.59,-461.85"/>
</g>
<!-- Node3 -->
<g id="node3" class="node">
<title>Node3</title>
<g id="a_node3"><a xlink:href="features_8h.html" target="_top" xlink:title=" ">
<polygon fill="white" stroke="black" points="465,-112.5 465,-131.5 531,-131.5 531,-112.5 465,-112.5"/>
<text text-anchor="middle" x="498" y="-119.5" font-family="Helvetica,sans-Serif" font-size="10.00">features.h</text>
</a>
</g>
</g>
<!-- Node2&#45;&gt;Node3 -->
<g id="edge2" class="edge">
<title>Node2&#45;&gt;Node3</title>
<path fill="none" stroke="midnightblue" d="M977.57,-337.37C1040.91,-321.07 1170.47,-279.77 1123,-224 1118.22,-218.39 682.14,-151.19 541.32,-129.62"/>
<polygon fill="midnightblue" stroke="midnightblue" points="541.73,-126.14 531.31,-128.09 540.67,-133.06 541.73,-126.14"/>
</g>
<!-- Node10 -->
<g id="node10" class="node">
<title>Node10</title>
<g id="a_node10"><a xlink:href="stdint_8h.html" target="_top" xlink:title=" ">
<polygon fill="white" stroke="black" points="1181.5,-280.5 1181.5,-299.5 1234.5,-299.5 1234.5,-280.5 1181.5,-280.5"/>
<text text-anchor="middle" x="1208" y="-287.5" font-family="Helvetica,sans-Serif" font-size="10.00">stdint.h</text>
</a>
</g>
</g>
<!-- Node2&#45;&gt;Node10 -->
<g id="edge10" class="edge">
<title>Node2&#45;&gt;Node10</title>
<path fill="none" stroke="midnightblue" d="M977.51,-338.32C1026.63,-328.24 1119.47,-309.18 1171.07,-298.58"/>
<polygon fill="midnightblue" stroke="midnightblue" points="1172.03,-301.96 1181.12,-296.52 1170.62,-295.1 1172.03,-301.96"/>
</g>
<!-- Node19 -->
<g id="node19" class="node">
<title>Node19</title>
<g id="a_node19"><a xlink:title=" ">
<polygon fill="white" stroke="#bfbfbf" points="288,-224.5 288,-243.5 344,-243.5 344,-224.5 288,-224.5"/>
<text text-anchor="middle" x="316" y="-231.5" font-family="Helvetica,sans-Serif" font-size="10.00">stddef.h</text>
</a>
</g>
</g>
<!-- Node2&#45;&gt;Node19 -->
<g id="edge25" class="edge">
<title>Node2&#45;&gt;Node19</title>
<path fill="none" stroke="midnightblue" d="M912.31,-336.72C850.29,-321.11 717.6,-288.13 671,-280 534.03,-256.09 494.8,-268.28 354.07,-243.98"/>
<polygon fill="midnightblue" stroke="midnightblue" points="354.66,-240.53 344.2,-242.25 353.45,-247.43 354.66,-240.53"/>
</g>
<!-- Node4 -->
<g id="node4" class="node">
<title>Node4</title>
<g id="a_node4"><a xlink:href="stdc-predef_8h.html" target="_top" xlink:title=" ">
<polygon fill="white" stroke="black" points="458,-56.5 458,-75.5 538,-75.5 538,-56.5 458,-56.5"/>
<text text-anchor="middle" x="498" y="-63.5" font-family="Helvetica,sans-Serif" font-size="10.00">stdc&#45;predef.h</text>
</a>
</g>
</g>
<!-- Node3&#45;&gt;Node4 -->
<g id="edge3" class="edge">
<title>Node3&#45;&gt;Node4</title>
<path fill="none" stroke="midnightblue" d="M498,-112.08C498,-105.01 498,-94.86 498,-85.99"/>
<polygon fill="midnightblue" stroke="midnightblue" points="501.5,-85.75 498,-75.75 494.5,-85.75 501.5,-85.75"/>
</g>
<!-- Node5 -->
<g id="node5" class="node">
<title>Node5</title>
<g id="a_node5"><a xlink:href="cdefs_8h.html" target="_top" xlink:title=" ">
<polygon fill="white" stroke="black" points="556.5,-56.5 556.5,-75.5 627.5,-75.5 627.5,-56.5 556.5,-56.5"/>
<text text-anchor="middle" x="592" y="-63.5" font-family="Helvetica,sans-Serif" font-size="10.00">sys/cdefs.h</text>
</a>
</g>
</g>
<!-- Node3&#45;&gt;Node5 -->
<g id="edge4" class="edge">
<title>Node3&#45;&gt;Node5</title>
<path fill="none" stroke="midnightblue" d="M507.99,-112.32C521.13,-103.7 544.08,-90.36 562.78,-80.39"/>
<polygon fill="midnightblue" stroke="midnightblue" points="564.59,-83.39 571.82,-75.65 561.34,-77.19 564.59,-83.39"/>
</g>
<!-- Node8 -->
<g id="node8" class="node">
<title>Node8</title>
<g id="a_node8"><a xlink:href="stubs_8h.html" target="_top" xlink:title=" ">
<polygon fill="white" stroke="black" points="366.5,-56.5 366.5,-75.5 439.5,-75.5 439.5,-56.5 366.5,-56.5"/>
<text text-anchor="middle" x="403" y="-63.5" font-family="Helvetica,sans-Serif" font-size="10.00">gnu/stubs.h</text>
</a>
</g>
</g>
<!-- Node3&#45;&gt;Node8 -->
<g id="edge8" class="edge">
<title>Node3&#45;&gt;Node8</title>
<path fill="none" stroke="midnightblue" d="M482.74,-112.32C467.78,-103.82 444.75,-90.73 427.27,-80.8"/>
<polygon fill="midnightblue" stroke="midnightblue" points="428.65,-77.55 418.23,-75.65 425.19,-83.64 428.65,-77.55"/>
</g>
<!-- Node5&#45;&gt;Node3 -->
<g id="edge5" class="edge">
<title>Node5&#45;&gt;Node3</title>
<path fill="none" stroke="midnightblue" d="M582.04,-75.65C568.92,-84.27 545.97,-97.61 527.27,-107.59"/>
<polygon fill="midnightblue" stroke="midnightblue" points="525.46,-104.59 518.22,-112.32 528.7,-110.79 525.46,-104.59"/>
</g>
<!-- Node6 -->
<g id="node6" class="node">
<title>Node6</title>
<g id="a_node6"><a xlink:href="wordsize_8h.html" target="_top" xlink:title=" ">
<polygon fill="white" stroke="black" points="849,-0.5 849,-19.5 939,-19.5 939,-0.5 849,-0.5"/>
<text text-anchor="middle" x="894" y="-7.5" font-family="Helvetica,sans-Serif" font-size="10.00">bits/wordsize.h</text>
</a>
</g>
</g>
<!-- Node5&#45;&gt;Node6 -->
<g id="edge6" class="edge">
<title>Node5&#45;&gt;Node6</title>
<path fill="none" stroke="midnightblue" d="M627.53,-58.65C679.67,-49.32 777.36,-31.86 838.87,-20.86"/>
<polygon fill="midnightblue" stroke="midnightblue" points="839.56,-24.29 848.79,-19.08 838.33,-17.4 839.56,-24.29"/>
</g>
<!-- Node7 -->
<g id="node7" class="node">
<title>Node7</title>
<g id="a_node7"><a xlink:href="long-double_8h.html" target="_top" xlink:title=" ">
<polygon fill="white" stroke="black" points="540,-0.5 540,-19.5 644,-19.5 644,-0.5 540,-0.5"/>
<text text-anchor="middle" x="592" y="-7.5" font-family="Helvetica,sans-Serif" font-size="10.00">bits/long&#45;double.h</text>
</a>
</g>
</g>
<!-- Node5&#45;&gt;Node7 -->
<g id="edge7" class="edge">
<title>Node5&#45;&gt;Node7</title>
<path fill="none" stroke="midnightblue" d="M592,-56.08C592,-49.01 592,-38.86 592,-29.99"/>
<polygon fill="midnightblue" stroke="midnightblue" points="595.5,-29.75 592,-19.75 588.5,-29.75 595.5,-29.75"/>
</g>
<!-- Node9 -->
<g id="node9" class="node">
<title>Node9</title>
<g id="a_node9"><a xlink:title=" ">
<polygon fill="white" stroke="#bfbfbf" points="358.5,-0.5 358.5,-19.5 447.5,-19.5 447.5,-0.5 358.5,-0.5"/>
<text text-anchor="middle" x="403" y="-7.5" font-family="Helvetica,sans-Serif" font-size="10.00">gnu/stubs&#45;32.h</text>
</a>
</g>
</g>
<!-- Node8&#45;&gt;Node9 -->
<g id="edge9" class="edge">
<title>Node8&#45;&gt;Node9</title>
<path fill="none" stroke="midnightblue" d="M403,-56.08C403,-49.01 403,-38.86 403,-29.99"/>
<polygon fill="midnightblue" stroke="midnightblue" points="406.5,-29.75 403,-19.75 399.5,-29.75 406.5,-29.75"/>
</g>
<!-- Node10&#45;&gt;Node6 -->
<g id="edge20" class="edge">
<title>Node10&#45;&gt;Node6</title>
<path fill="none" stroke="midnightblue" d="M1234.72,-286.56C1284.57,-281.49 1389.04,-268.2 1415,-244 1437.02,-223.48 1434,-209.1 1434,-179 1434,-179 1434,-179 1434,-121 1434,-22.86 1087.2,-11.37 949.44,-10.68"/>
<polygon fill="midnightblue" stroke="midnightblue" points="949.12,-7.18 939.11,-10.65 949.1,-14.18 949.12,-7.18"/>
</g>
<!-- Node11 -->
<g id="node11" class="node">
<title>Node11</title>
<g id="a_node11"><a xlink:href="libc-header-start_8h.html" target="_top" xlink:title=" ">
<polygon fill="white" stroke="black" points="362,-224.5 362,-243.5 490,-243.5 490,-224.5 362,-224.5"/>
<text text-anchor="middle" x="426" y="-231.5" font-family="Helvetica,sans-Serif" font-size="10.00">bits/libc&#45;header&#45;start.h</text>
</a>
</g>
</g>
<!-- Node10&#45;&gt;Node11 -->
<g id="edge11" class="edge">
<title>Node10&#45;&gt;Node11</title>
<path fill="none" stroke="midnightblue" d="M1181.08,-287.14C1073.04,-279.68 668.64,-251.76 500.28,-240.13"/>
<polygon fill="midnightblue" stroke="midnightblue" points="500.48,-236.63 490.26,-239.44 500,-243.62 500.48,-236.63"/>
</g>
<!-- Node12 -->
<g id="node12" class="node">
<title>Node12</title>
<g id="a_node12"><a xlink:href="bits_2types_8h.html" target="_top" xlink:title=" ">
<polygon fill="white" stroke="black" points="694,-168.5 694,-187.5 768,-187.5 768,-168.5 694,-168.5"/>
<text text-anchor="middle" x="731" y="-175.5" font-family="Helvetica,sans-Serif" font-size="10.00">bits/types.h</text>
</a>
</g>
</g>
<!-- Node10&#45;&gt;Node12 -->
<g id="edge13" class="edge">
<title>Node10&#45;&gt;Node12</title>
<path fill="none" stroke="midnightblue" d="M1222.13,-280.31C1241.49,-267.37 1272.04,-242.57 1255,-224 1223.09,-189.23 901.02,-181.27 778.22,-179.5"/>
<polygon fill="midnightblue" stroke="midnightblue" points="778.05,-175.99 768,-179.36 777.95,-182.99 778.05,-175.99"/>
</g>
<!-- Node16 -->
<g id="node16" class="node">
<title>Node16</title>
<g id="a_node16"><a xlink:href="bits_2wchar_8h.html" target="_top" xlink:title=" ">
<polygon fill="white" stroke="black" points="1170.5,-224.5 1170.5,-243.5 1245.5,-243.5 1245.5,-224.5 1170.5,-224.5"/>
<text text-anchor="middle" x="1208" y="-231.5" font-family="Helvetica,sans-Serif" font-size="10.00">bits/wchar.h</text>
</a>
</g>
</g>
<!-- Node10&#45;&gt;Node16 -->
<g id="edge19" class="edge">
<title>Node10&#45;&gt;Node16</title>
<path fill="none" stroke="midnightblue" d="M1208,-280.08C1208,-273.01 1208,-262.86 1208,-253.99"/>
<polygon fill="midnightblue" stroke="midnightblue" points="1211.5,-253.75 1208,-243.75 1204.5,-253.75 1211.5,-253.75"/>
</g>
<!-- Node17 -->
<g id="node17" class="node">
<title>Node17</title>
<g id="a_node17"><a xlink:href="stdint-intn_8h.html" target="_top" xlink:title=" ">
<polygon fill="white" stroke="black" points="1016.5,-224.5 1016.5,-243.5 1113.5,-243.5 1113.5,-224.5 1016.5,-224.5"/>
<text text-anchor="middle" x="1065" y="-231.5" font-family="Helvetica,sans-Serif" font-size="10.00">bits/stdint&#45;intn.h</text>
</a>
</g>
</g>
<!-- Node10&#45;&gt;Node17 -->
<g id="edge21" class="edge">
<title>Node10&#45;&gt;Node17</title>
<path fill="none" stroke="midnightblue" d="M1185.34,-280.44C1161.6,-271.48 1124.09,-257.31 1097.26,-247.18"/>
<polygon fill="midnightblue" stroke="midnightblue" points="1098.14,-243.77 1087.55,-243.52 1095.67,-250.32 1098.14,-243.77"/>
</g>
<!-- Node18 -->
<g id="node18" class="node">
<title>Node18</title>
<g id="a_node18"><a xlink:href="stdint-uintn_8h.html" target="_top" xlink:title=" ">
<polygon fill="white" stroke="black" points="1302.5,-224.5 1302.5,-243.5 1405.5,-243.5 1405.5,-224.5 1302.5,-224.5"/>
<text text-anchor="middle" x="1354" y="-231.5" font-family="Helvetica,sans-Serif" font-size="10.00">bits/stdint&#45;uintn.h</text>
</a>
</g>
</g>
<!-- Node10&#45;&gt;Node18 -->
<g id="edge23" class="edge">
<title>Node10&#45;&gt;Node18</title>
<path fill="none" stroke="midnightblue" d="M1231.13,-280.44C1255.48,-271.44 1294.01,-257.19 1321.42,-247.05"/>
<polygon fill="midnightblue" stroke="midnightblue" points="1322.81,-250.27 1330.97,-243.52 1320.38,-243.7 1322.81,-250.27"/>
</g>
<!-- Node11&#45;&gt;Node3 -->
<g id="edge12" class="edge">
<title>Node11&#45;&gt;Node3</title>
<path fill="none" stroke="midnightblue" d="M431.65,-224.37C443.53,-206.22 471.29,-163.8 486.88,-139.99"/>
<polygon fill="midnightblue" stroke="midnightblue" points="489.83,-141.88 492.38,-131.59 483.97,-138.04 489.83,-141.88"/>
</g>
<!-- Node12&#45;&gt;Node3 -->
<g id="edge14" class="edge">
<title>Node12&#45;&gt;Node3</title>
<path fill="none" stroke="midnightblue" d="M694.08,-168.44C652.53,-158.81 585.12,-143.19 541.17,-133"/>
<polygon fill="midnightblue" stroke="midnightblue" points="541.88,-129.58 531.35,-130.73 540.3,-136.4 541.88,-129.58"/>
</g>
<!-- Node12&#45;&gt;Node6 -->
<g id="edge15" class="edge">
<title>Node12&#45;&gt;Node6</title>
<path fill="none" stroke="midnightblue" d="M768.17,-175.87C801.29,-172.75 848.48,-162.74 875,-132 899.8,-103.25 899.25,-55.73 896.64,-29.62"/>
<polygon fill="midnightblue" stroke="midnightblue" points="900.1,-29.07 895.43,-19.56 893.15,-29.91 900.1,-29.07"/>
</g>
<!-- Node13 -->
<g id="node13" class="node">
<title>Node13</title>
<g id="a_node13"><a xlink:href="timesize_8h.html" target="_top" xlink:title=" ">
<polygon fill="white" stroke="black" points="566.5,-112.5 566.5,-131.5 655.5,-131.5 655.5,-112.5 566.5,-112.5"/>
<text text-anchor="middle" x="611" y="-119.5" font-family="Helvetica,sans-Serif" font-size="10.00">bits/timesize.h</text>
</a>
</g>
</g>
<!-- Node12&#45;&gt;Node13 -->
<g id="edge16" class="edge">
<title>Node12&#45;&gt;Node13</title>
<path fill="none" stroke="midnightblue" d="M711.99,-168.44C692.41,-159.64 661.69,-145.81 639.27,-135.72"/>
<polygon fill="midnightblue" stroke="midnightblue" points="640.48,-132.43 629.93,-131.52 637.61,-138.81 640.48,-132.43"/>
</g>
<!-- Node14 -->
<g id="node14" class="node">
<title>Node14</title>
<g id="a_node14"><a xlink:href="typesizes_8h.html" target="_top" xlink:title=" ">
<polygon fill="white" stroke="black" points="673.5,-112.5 673.5,-131.5 766.5,-131.5 766.5,-112.5 673.5,-112.5"/>
<text text-anchor="middle" x="720" y="-119.5" font-family="Helvetica,sans-Serif" font-size="10.00">bits/typesizes.h</text>
</a>
</g>
</g>
<!-- Node12&#45;&gt;Node14 -->
<g id="edge17" class="edge">
<title>Node12&#45;&gt;Node14</title>
<path fill="none" stroke="midnightblue" d="M729.18,-168.08C727.73,-160.93 725.63,-150.64 723.81,-141.69"/>
<polygon fill="midnightblue" stroke="midnightblue" points="727.21,-140.85 721.78,-131.75 720.35,-142.25 727.21,-140.85"/>
</g>
<!-- Node15 -->
<g id="node15" class="node">
<title>Node15</title>
<g id="a_node15"><a xlink:href="time64_8h.html" target="_top" xlink:title=" ">
<polygon fill="white" stroke="black" points="784.5,-112.5 784.5,-131.5 865.5,-131.5 865.5,-112.5 784.5,-112.5"/>
<text text-anchor="middle" x="825" y="-119.5" font-family="Helvetica,sans-Serif" font-size="10.00">bits/time64.h</text>
</a>
</g>
</g>
<!-- Node12&#45;&gt;Node15 -->
<g id="edge18" class="edge">
<title>Node12&#45;&gt;Node15</title>
<path fill="none" stroke="midnightblue" d="M746.1,-168.32C760.9,-159.82 783.69,-146.73 800.98,-136.8"/>
<polygon fill="midnightblue" stroke="midnightblue" points="803.01,-139.67 809.93,-131.65 799.52,-133.6 803.01,-139.67"/>
</g>
<!-- Node17&#45;&gt;Node12 -->
<g id="edge22" class="edge">
<title>Node17&#45;&gt;Node12</title>
<path fill="none" stroke="midnightblue" d="M1016.43,-225.15C952.68,-214.84 841.48,-196.86 778.34,-186.65"/>
<polygon fill="midnightblue" stroke="midnightblue" points="778.69,-183.16 768.26,-185.02 777.57,-190.07 778.69,-183.16"/>
</g>
<!-- Node18&#45;&gt;Node12 -->
<g id="edge24" class="edge">
<title>Node18&#45;&gt;Node12</title>
<path fill="none" stroke="midnightblue" d="M1302.15,-225.66C1297.37,-225.06 1292.6,-224.5 1288,-224 1099.55,-203.55 874.31,-188.11 778.2,-181.94"/>
<polygon fill="midnightblue" stroke="midnightblue" points="778.42,-178.44 768.22,-181.3 777.98,-185.43 778.42,-178.44"/>
</g>
<!-- Node20&#45;&gt;Node11 -->
<g id="edge27" class="edge">
<title>Node20&#45;&gt;Node11</title>
<path fill="none" stroke="midnightblue" d="M395.11,-280.08C400.28,-272.53 407.85,-261.49 414.19,-252.23"/>
<polygon fill="midnightblue" stroke="midnightblue" points="417.24,-253.98 420,-243.75 411.46,-250.02 417.24,-253.98"/>
</g>
<!-- Node20&#45;&gt;Node19 -->
<g id="edge28" class="edge">
<title>Node20&#45;&gt;Node19</title>
<path fill="none" stroke="midnightblue" d="M377.27,-280.32C366.16,-272.11 349.26,-259.6 336.02,-249.81"/>
<polygon fill="midnightblue" stroke="midnightblue" points="338.06,-246.97 327.94,-243.83 333.9,-252.59 338.06,-246.97"/>
</g>
<!-- Node21&#45;&gt;Node3 -->
<g id="edge30" class="edge">
<title>Node21&#45;&gt;Node3</title>
<path fill="none" stroke="midnightblue" d="M777.97,-285.67C719.65,-279.71 607.79,-265.79 575,-244 537.29,-218.94 514.3,-168.42 504.14,-141.26"/>
<polygon fill="midnightblue" stroke="midnightblue" points="507.43,-140.04 500.78,-131.8 500.83,-142.39 507.43,-140.04"/>
</g>
<!-- Node21&#45;&gt;Node12 -->
<g id="edge31" class="edge">
<title>Node21&#45;&gt;Node12</title>
<path fill="none" stroke="midnightblue" d="M791.2,-280.39C775.18,-273.14 754.6,-261.17 743,-244 733.86,-230.48 731.18,-211.93 730.59,-198.1"/>
<polygon fill="midnightblue" stroke="midnightblue" points="734.09,-197.78 730.5,-187.82 727.09,-197.85 734.09,-197.78"/>
</g>
<!-- Node21&#45;&gt;Node17 -->
<g id="edge39" class="edge">
<title>Node21&#45;&gt;Node17</title>
<path fill="none" stroke="midnightblue" d="M850.23,-281.21C893.7,-271.85 966.81,-256.12 1015.47,-245.65"/>
<polygon fill="midnightblue" stroke="midnightblue" points="1016.43,-249.03 1025.47,-243.5 1014.96,-242.19 1016.43,-249.03"/>
</g>
<!-- Node21&#45;&gt;Node19 -->
<g id="edge38" class="edge">
<title>Node21&#45;&gt;Node19</title>
<path fill="none" stroke="midnightblue" d="M777.74,-282.07C773.13,-281.31 768.46,-280.6 764,-280 585.44,-256.16 535.68,-273.13 354.07,-243.93"/>
<polygon fill="midnightblue" stroke="midnightblue" points="354.62,-240.48 344.19,-242.32 353.5,-247.39 354.62,-240.48"/>
</g>
<!-- Node22 -->
<g id="node22" class="node">
<title>Node22</title>
<g id="a_node22"><a xlink:href="clockid__t_8h.html" target="_top" xlink:title=" ">
<polygon fill="white" stroke="black" points="752,-224.5 752,-243.5 872,-243.5 872,-224.5 752,-224.5"/>
<text text-anchor="middle" x="812" y="-231.5" font-family="Helvetica,sans-Serif" font-size="10.00">bits/types/clockid_t.h</text>
</a>
</g>
</g>
<!-- Node21&#45;&gt;Node22 -->
<g id="edge32" class="edge">
<title>Node21&#45;&gt;Node22</title>
<path fill="none" stroke="midnightblue" d="M813.67,-280.08C813.41,-273.01 813.03,-262.86 812.7,-253.99"/>
<polygon fill="midnightblue" stroke="midnightblue" points="816.19,-253.61 812.32,-243.75 809.2,-253.87 816.19,-253.61"/>
</g>
<!-- Node23 -->
<g id="node23" class="node">
<title>Node23</title>
<g id="a_node23"><a xlink:href="time__t_8h.html" target="_top" xlink:title=" ">
<polygon fill="white" stroke="black" points="890,-224.5 890,-243.5 998,-243.5 998,-224.5 890,-224.5"/>
<text text-anchor="middle" x="944" y="-231.5" font-family="Helvetica,sans-Serif" font-size="10.00">bits/types/time_t.h</text>
</a>
</g>
</g>
<!-- Node21&#45;&gt;Node23 -->
<g id="edge34" class="edge">
<title>Node21&#45;&gt;Node23</title>
<path fill="none" stroke="midnightblue" d="M834.6,-280.44C855.99,-271.56 889.68,-257.56 914.02,-247.45"/>
<polygon fill="midnightblue" stroke="midnightblue" points="915.61,-250.58 923.5,-243.52 912.92,-244.12 915.61,-250.58"/>
</g>
<!-- Node24 -->
<g id="node24" class="node">
<title>Node24</title>
<g id="a_node24"><a xlink:href="timer__t_8h.html" target="_top" xlink:title=" ">
<polygon fill="white" stroke="black" points="584,-224.5 584,-243.5 696,-243.5 696,-224.5 584,-224.5"/>
<text text-anchor="middle" x="640" y="-231.5" font-family="Helvetica,sans-Serif" font-size="10.00">bits/types/timer_t.h</text>
</a>
</g>
</g>
<!-- Node21&#45;&gt;Node24 -->
<g id="edge36" class="edge">
<title>Node21&#45;&gt;Node24</title>
<path fill="none" stroke="midnightblue" d="M786.43,-280.44C756.9,-271.28 709.88,-256.69 677.12,-246.52"/>
<polygon fill="midnightblue" stroke="midnightblue" points="678.03,-243.14 667.44,-243.52 675.96,-249.82 678.03,-243.14"/>
</g>
<!-- Node22&#45;&gt;Node12 -->
<g id="edge33" class="edge">
<title>Node22&#45;&gt;Node12</title>
<path fill="none" stroke="midnightblue" d="M798.99,-224.32C786.47,-215.98 767.32,-203.21 752.53,-193.35"/>
<polygon fill="midnightblue" stroke="midnightblue" points="754.24,-190.29 743.98,-187.65 750.36,-196.11 754.24,-190.29"/>
</g>
<!-- Node23&#45;&gt;Node12 -->
<g id="edge35" class="edge">
<title>Node23&#45;&gt;Node12</title>
<path fill="none" stroke="midnightblue" d="M910.25,-224.44C873.48,-215.12 814.55,-200.18 774.38,-190"/>
<polygon fill="midnightblue" stroke="midnightblue" points="775.15,-186.58 764.59,-187.52 773.43,-193.37 775.15,-186.58"/>
</g>
<!-- Node24&#45;&gt;Node12 -->
<g id="edge37" class="edge">
<title>Node24&#45;&gt;Node12</title>
<path fill="none" stroke="midnightblue" d="M654.62,-224.32C668.95,-215.82 691.01,-202.73 707.75,-192.8"/>
<polygon fill="midnightblue" stroke="midnightblue" points="709.6,-195.77 716.42,-187.65 706.03,-189.75 709.6,-195.77"/>
</g>
<!-- Node25&#45;&gt;Node3 -->
<g id="edge41" class="edge">
<title>Node25&#45;&gt;Node3</title>
<path fill="none" stroke="midnightblue" d="M170.94,-454.03C111.64,-446.97 0,-423.51 0,-347 0,-347 0,-347 0,-233 0,-140.19 333.96,-125.62 454.92,-123.38"/>
<polygon fill="midnightblue" stroke="midnightblue" points="455,-126.88 464.94,-123.22 454.88,-119.88 455,-126.88"/>
</g>
<!-- Node25&#45;&gt;Node12 -->
<g id="edge55" class="edge">
<title>Node25&#45;&gt;Node12</title>
<path fill="none" stroke="midnightblue" d="M190.39,-448.48C156.84,-430.05 86.04,-384.2 109,-336 142.97,-264.69 173.7,-253.44 247,-224 334.88,-188.71 573.23,-200.61 683.92,-187.89"/>
<polygon fill="midnightblue" stroke="midnightblue" points="684.42,-191.36 693.9,-186.63 683.54,-184.41 684.42,-191.36"/>
</g>
<!-- Node25&#45;&gt;Node18 -->
<g id="edge42" class="edge">
<title>Node25&#45;&gt;Node18</title>
<path fill="none" stroke="midnightblue" d="M243.32,-453.42C354.86,-442.18 702.11,-405.39 987,-356 1102.18,-336.03 1135.18,-342.72 1244,-300 1277.6,-286.81 1312.94,-264.12 1334.22,-249.34"/>
<polygon fill="midnightblue" stroke="midnightblue" points="1336.29,-252.17 1342.44,-243.54 1332.25,-246.45 1336.29,-252.17"/>
</g>
<!-- Node26 -->
<g id="node26" class="node">
<title>Node26</title>
<g id="a_node26"><a xlink:href="sys_2socket_8h.html" target="_top" xlink:title=" ">
<polygon fill="white" stroke="black" points="330.5,-392.5 330.5,-411.5 407.5,-411.5 407.5,-392.5 330.5,-392.5"/>
<text text-anchor="middle" x="369" y="-399.5" font-family="Helvetica,sans-Serif" font-size="10.00">sys/socket.h</text>
</a>
</g>
</g>
<!-- Node25&#45;&gt;Node26 -->
<g id="edge43" class="edge">
<title>Node25&#45;&gt;Node26</title>
<path fill="none" stroke="midnightblue" d="M232.67,-448.44C259.92,-439.36 303.18,-424.94 333.65,-414.78"/>
<polygon fill="midnightblue" stroke="midnightblue" points="335.07,-418 343.45,-411.52 332.86,-411.36 335.07,-418"/>
</g>
<!-- Node32 -->
<g id="node32" class="node">
<title>Node32</title>
<g id="a_node32"><a xlink:href="bits_2in_8h.html" target="_top" xlink:title=" ">
<polygon fill="white" stroke="black" points="179,-392.5 179,-411.5 235,-411.5 235,-392.5 179,-392.5"/>
<text text-anchor="middle" x="207" y="-399.5" font-family="Helvetica,sans-Serif" font-size="10.00">bits/in.h</text>
</a>
</g>
</g>
<!-- Node25&#45;&gt;Node32 -->
<g id="edge56" class="edge">
<title>Node25&#45;&gt;Node32</title>
<path fill="none" stroke="midnightblue" d="M207,-448.08C207,-441.01 207,-430.86 207,-421.99"/>
<polygon fill="midnightblue" stroke="midnightblue" points="210.5,-421.75 207,-411.75 203.5,-421.75 210.5,-421.75"/>
</g>
<!-- Node33 -->
<g id="node33" class="node">
<title>Node33</title>
<g id="a_node33"><a xlink:title=" ">
<polygon fill="white" stroke="#bfbfbf" points="253.5,-392.5 253.5,-411.5 312.5,-411.5 312.5,-392.5 253.5,-392.5"/>
<text text-anchor="middle" x="283" y="-399.5" font-family="Helvetica,sans-Serif" font-size="10.00">endian.h</text>
</a>
</g>
</g>
<!-- Node25&#45;&gt;Node33 -->
<g id="edge57" class="edge">
<title>Node25&#45;&gt;Node33</title>
<path fill="none" stroke="midnightblue" d="M219.21,-448.32C230.78,-440.11 248.38,-427.6 262.16,-417.81"/>
<polygon fill="midnightblue" stroke="midnightblue" points="264.44,-420.48 270.57,-411.83 260.39,-414.77 264.44,-420.48"/>
</g>
<!-- Node34 -->
<g id="node34" class="node">
<title>Node34</title>
<g id="a_node34"><a xlink:href="bits_2byteswap_8h.html" target="_top" xlink:title=" ">
<polygon fill="white" stroke="black" points="28,-224.5 28,-243.5 122,-243.5 122,-224.5 28,-224.5"/>
<text text-anchor="middle" x="75" y="-231.5" font-family="Helvetica,sans-Serif" font-size="10.00">bits/byteswap.h</text>
</a>
</g>
</g>
<!-- Node25&#45;&gt;Node34 -->
<g id="edge58" class="edge">
<title>Node25&#45;&gt;Node34</title>
<path fill="none" stroke="midnightblue" d="M170.87,-455.52C140.06,-452.12 97.46,-441.89 76,-412 41.55,-364.03 58.26,-288.32 68.74,-253.56"/>
<polygon fill="midnightblue" stroke="midnightblue" points="72.14,-254.39 71.84,-243.8 65.47,-252.27 72.14,-254.39"/>
</g>
<!-- Node35 -->
<g id="node35" class="node">
<title>Node35</title>
<g id="a_node35"><a xlink:href="uintn-identity_8h.html" target="_top" xlink:title=" ">
<polygon fill="white" stroke="black" points="118.5,-336.5 118.5,-355.5 229.5,-355.5 229.5,-336.5 118.5,-336.5"/>
<text text-anchor="middle" x="174" y="-343.5" font-family="Helvetica,sans-Serif" font-size="10.00">bits/uintn&#45;identity.h</text>
</a>
</g>
</g>
<!-- Node25&#45;&gt;Node35 -->
<g id="edge61" class="edge">
<title>Node25&#45;&gt;Node35</title>
<path fill="none" stroke="midnightblue" d="M196.56,-448.24C187.58,-439.97 175.25,-426.66 170,-412 164.64,-397.03 166.37,-378.9 169.03,-365.59"/>
<polygon fill="midnightblue" stroke="midnightblue" points="172.47,-366.25 171.34,-355.72 165.65,-364.66 172.47,-366.25"/>
</g>
<!-- Node26&#45;&gt;Node3 -->
<g id="edge44" class="edge">
<title>Node26&#45;&gt;Node3</title>
<path fill="none" stroke="midnightblue" d="M349.16,-392.39C317.23,-377.04 258,-341.73 258,-291 258,-291 258,-291 258,-233 258,-147.44 385.61,-128.17 454.72,-124.01"/>
<polygon fill="midnightblue" stroke="midnightblue" points="455.08,-127.49 464.88,-123.48 454.71,-120.5 455.08,-127.49"/>
</g>
<!-- Node26&#45;&gt;Node19 -->
<g id="edge47" class="edge">
<title>Node26&#45;&gt;Node19</title>
<path fill="none" stroke="midnightblue" d="M352.37,-392.46C339.51,-384.84 322.66,-372.36 315,-356 299.39,-322.67 305.61,-278.3 311.1,-253.6"/>
<polygon fill="midnightblue" stroke="midnightblue" points="314.53,-254.29 313.48,-243.75 307.73,-252.65 314.53,-254.29"/>
</g>
<!-- Node27 -->
<g id="node27" class="node">
<title>Node27</title>
<g id="a_node27"><a xlink:href="struct__iovec_8h.html" target="_top" xlink:title=" ">
<polygon fill="white" stroke="black" points="324,-336.5 324,-355.5 460,-355.5 460,-336.5 324,-336.5"/>
<text text-anchor="middle" x="392" y="-343.5" font-family="Helvetica,sans-Serif" font-size="10.00">bits/types/struct_iovec.h</text>
</a>
</g>
</g>
<!-- Node26&#45;&gt;Node27 -->
<g id="edge45" class="edge">
<title>Node26&#45;&gt;Node27</title>
<path fill="none" stroke="midnightblue" d="M372.8,-392.08C375.91,-384.77 380.42,-374.18 384.29,-365.1"/>
<polygon fill="midnightblue" stroke="midnightblue" points="387.57,-366.32 388.27,-355.75 381.13,-363.58 387.57,-366.32"/>
</g>
<!-- Node28 -->
<g id="node28" class="node">
<title>Node28</title>
<g id="a_node28"><a xlink:href="bits_2socket_8h.html" target="_top" xlink:title=" ">
<polygon fill="white" stroke="black" points="598,-336.5 598,-355.5 676,-355.5 676,-336.5 598,-336.5"/>
<text text-anchor="middle" x="637" y="-343.5" font-family="Helvetica,sans-Serif" font-size="10.00">bits/socket.h</text>
</a>
</g>
</g>
<!-- Node26&#45;&gt;Node28 -->
<g id="edge48" class="edge">
<title>Node26&#45;&gt;Node28</title>
<path fill="none" stroke="midnightblue" d="M407.68,-393.21C455.25,-383.62 536.03,-367.34 587.92,-356.89"/>
<polygon fill="midnightblue" stroke="midnightblue" points="588.78,-360.29 597.89,-354.88 587.4,-353.42 588.78,-360.29"/>
</g>
<!-- Node27&#45;&gt;Node19 -->
<g id="edge46" class="edge">
<title>Node27&#45;&gt;Node19</title>
<path fill="none" stroke="midnightblue" d="M383.69,-336.46C375.4,-327.71 362.55,-313.5 353,-300 342.24,-284.8 331.92,-266.22 324.93,-252.83"/>
<polygon fill="midnightblue" stroke="midnightblue" points="327.95,-251.05 320.28,-243.74 321.72,-254.24 327.95,-251.05"/>
</g>
<!-- Node28&#45;&gt;Node19 -->
<g id="edge49" class="edge">
<title>Node28&#45;&gt;Node19</title>
<path fill="none" stroke="midnightblue" d="M643.87,-336.29C653.75,-322.64 669.3,-296.11 655,-280 612.05,-231.63 435.62,-253.87 354.53,-243.79"/>
<polygon fill="midnightblue" stroke="midnightblue" points="354.62,-240.27 344.21,-242.23 353.57,-247.19 354.62,-240.27"/>
</g>
<!-- Node28&#45;&gt;Node21 -->
<g id="edge50" class="edge">
<title>Node28&#45;&gt;Node21</title>
<path fill="none" stroke="midnightblue" d="M665.05,-336.44C695.08,-327.28 742.91,-312.69 776.24,-302.52"/>
<polygon fill="midnightblue" stroke="midnightblue" points="777.54,-305.78 786.09,-299.52 775.5,-299.09 777.54,-305.78"/>
</g>
<!-- Node29 -->
<g id="node29" class="node">
<title>Node29</title>
<g id="a_node29"><a xlink:href="socket__type_8h.html" target="_top" xlink:title=" ">
<polygon fill="white" stroke="black" points="433.5,-280.5 433.5,-299.5 538.5,-299.5 538.5,-280.5 433.5,-280.5"/>
<text text-anchor="middle" x="486" y="-287.5" font-family="Helvetica,sans-Serif" font-size="10.00">bits/socket_type.h</text>
</a>
</g>
</g>
<!-- Node28&#45;&gt;Node29 -->
<g id="edge51" class="edge">
<title>Node28&#45;&gt;Node29</title>
<path fill="none" stroke="midnightblue" d="M613.07,-336.44C587.78,-327.4 547.7,-313.06 519.32,-302.92"/>
<polygon fill="midnightblue" stroke="midnightblue" points="520.41,-299.59 509.81,-299.52 518.05,-306.18 520.41,-299.59"/>
</g>
<!-- Node30 -->
<g id="node30" class="node">
<title>Node30</title>
<g id="a_node30"><a xlink:href="sockaddr_8h.html" target="_top" xlink:title=" ">
<polygon fill="white" stroke="black" points="556.5,-280.5 556.5,-299.5 645.5,-299.5 645.5,-280.5 556.5,-280.5"/>
<text text-anchor="middle" x="601" y="-287.5" font-family="Helvetica,sans-Serif" font-size="10.00">bits/sockaddr.h</text>
</a>
</g>
</g>
<!-- Node28&#45;&gt;Node30 -->
<g id="edge52" class="edge">
<title>Node28&#45;&gt;Node30</title>
<path fill="none" stroke="midnightblue" d="M631.06,-336.08C626.02,-328.53 618.66,-317.49 612.49,-308.23"/>
<polygon fill="midnightblue" stroke="midnightblue" points="615.29,-306.13 606.83,-299.75 609.47,-310.01 615.29,-306.13"/>
</g>
<!-- Node31 -->
<g id="node31" class="node">
<title>Node31</title>
<g id="a_node31"><a xlink:href="socket-constants_8h.html" target="_top" xlink:title=" ">
<polygon fill="white" stroke="black" points="546.5,-168.5 546.5,-187.5 675.5,-187.5 675.5,-168.5 546.5,-168.5"/>
<text text-anchor="middle" x="611" y="-175.5" font-family="Helvetica,sans-Serif" font-size="10.00">bits/socket&#45;constants.h</text>
</a>
</g>
</g>
<!-- Node28&#45;&gt;Node31 -->
<g id="edge53" class="edge">
<title>Node28&#45;&gt;Node31</title>
<path fill="none" stroke="midnightblue" d="M647.66,-336.2C661.94,-323.32 684.06,-298.84 671,-280 645.04,-242.55 600.96,-281.45 575,-244 563.84,-227.9 578.59,-208.02 592.44,-194.52"/>
<polygon fill="midnightblue" stroke="midnightblue" points="594.84,-197.07 599.87,-187.74 590.12,-191.9 594.84,-197.07"/>
</g>
<!-- Node31&#45;&gt;Node13 -->
<g id="edge54" class="edge">
<title>Node31&#45;&gt;Node13</title>
<path fill="none" stroke="midnightblue" d="M611,-168.08C611,-161.01 611,-150.86 611,-141.99"/>
<polygon fill="midnightblue" stroke="midnightblue" points="614.5,-141.75 611,-131.75 607.5,-141.75 614.5,-141.75"/>
</g>
<!-- Node34&#45;&gt;Node3 -->
<g id="edge59" class="edge">
<title>Node34&#45;&gt;Node3</title>
<path fill="none" stroke="midnightblue" d="M93.86,-224.37C124.66,-210.59 187.97,-183.58 244,-168 316.66,-147.79 403.63,-134.7 454.65,-128.1"/>
<polygon fill="midnightblue" stroke="midnightblue" points="455.19,-131.56 464.67,-126.83 454.31,-124.62 455.19,-131.56"/>
</g>
<!-- Node34&#45;&gt;Node12 -->
<g id="edge60" class="edge">
<title>Node34&#45;&gt;Node12</title>
<path fill="none" stroke="midnightblue" d="M122.24,-225.64C126.88,-225.04 131.53,-224.48 136,-224 375.83,-198.49 440.75,-218.96 683.7,-188"/>
<polygon fill="midnightblue" stroke="midnightblue" points="684.44,-191.43 693.91,-186.68 683.54,-184.49 684.44,-191.43"/>
</g>
<!-- Node35&#45;&gt;Node12 -->
<g id="edge62" class="edge">
<title>Node35&#45;&gt;Node12</title>
<path fill="none" stroke="midnightblue" d="M178.43,-336.28C190.72,-313.14 227.73,-250.19 279,-224 357.06,-184.12 580.29,-199.62 683.95,-187.87"/>
<polygon fill="midnightblue" stroke="midnightblue" points="684.42,-191.34 693.9,-186.61 683.54,-184.4 684.42,-191.34"/>
</g>
</g>
</svg>
        <g id="navigator" transform="translate(0 0)" fill="#404254">
                <rect fill="#f2f5e9" fill-opacity="0.5" stroke="#606060" stroke-width=".5" x="0" y="0" width="60" height="60"/>
                <use id="zoomplus" xlink:href="#zoomPlus" x="17" y="9" onmousedown="handleZoom(evt,'in')"/>
                <use id="zoomminus" xlink:href="#zoomMin" x="42" y="9" onmousedown="handleZoom(evt,'out')"/>
                <use id="reset" xlink:href="#resetDef" x="30" y="36" onmousedown="handleReset()"/>
                <g id="arrowUp" xlink:href="#dirArrow" transform="translate(30 24)" onmousedown="handlePan(0,-1)">
                  <use xlink:href="#rim" fill="#404040">
                        <set attributeName="fill" to="#808080" begin="arrowUp.mouseover" end="arrowUp.mouseout"/>
                  </use>
                  <path fill="none" stroke="white" stroke-width="1.5" d="M0,-3.0v7 M-2.5,-0.5L0,-3.0L2.5,-0.5"/>
                </g>
                <g id="arrowRight" xlink:href="#dirArrow" transform="rotate(90) translate(36 -43)" onmousedown="handlePan(1,0)">
                  <use xlink:href="#rim" fill="#404040">
                        <set attributeName="fill" to="#808080" begin="arrowRight.mouseover" end="arrowRight.mouseout"/>
                  </use>
                  <path fill="none" stroke="white" stroke-width="1.5" d="M0,-3.0v7 M-2.5,-0.5L0,-3.0L2.5,-0.5"/>
                </g>
                <g id="arrowDown" xlink:href="#dirArrow" transform="rotate(180) translate(-30 -48)" onmousedown="handlePan(0,1)">
                  <use xlink:href="#rim" fill="#404040">
                        <set attributeName="fill" to="#808080" begin="arrowDown.mouseover" end="arrowDown.mouseout"/>
                  </use>
                  <path fill="none" stroke="white" stroke-width="1.5" d="M0,-3.0v7 M-2.5,-0.5L0,-3.0L2.5,-0.5"/>
                </g>
                <g id="arrowLeft" xlink:href="#dirArrow" transform="rotate(270) translate(-36 17)" onmousedown="handlePan(-1,0)">
                  <use xlink:href="#rim" fill="#404040">
                        <set attributeName="fill" to="#808080" begin="arrowLeft.mouseover" end="arrowLeft.mouseout"/>
                  </use>
                  <path fill="none" stroke="white" stroke-width="1.5" d="M0,-3.0v7 M-2.5,-0.5L0,-3.0L2.5,-0.5"/>
                </g>
        </g>
        <svg viewBox="0 0 15 15" width="100%" height="30px" preserveAspectRatio="xMaxYMin meet">
         <g id="arrow_out" transform="scale(0.3 0.3)">
          <a xlink:href="icmp6_8h__incl_org.svg" target="_base">
           <rect id="button" ry="5" rx="5" y="6" x="6" height="38" width="38"
                fill="#f2f5e9" fill-opacity="0.5" stroke="#606060" stroke-width="1.0"/>
           <path id="arrow"
             d="M 11.500037,31.436501 C 11.940474,20.09759 22.043105,11.32322 32.158766,21.979434 L 37.068811,17.246167 C 37.068811,17.246167 37.088388,32 37.088388,32 L 22.160133,31.978069 C 22.160133,31.978069 26.997745,27.140456 26.997745,27.140456 C 18.528582,18.264221 13.291696,25.230495 11.500037,31.436501 z"
             style="fill:#404040;"/>
          </a>
         </g>
        </svg>
</svg>
