<?xml version="1.0" encoding="UTF-8" standalone="no"?>
<!DOCTYPE svg PUBLIC "-//W3C//DTD SVG 1.1//EN"
 "http://www.w3.org/Graphics/SVG/1.1/DTD/svg11.dtd">
<!-- Generated by graphviz version 2.44.1 (0)
 -->
<!-- Title: net/if_ppp.h Pages: 1 -->
<!--zoomable 364 -->
<svg id="main" version="1.1" xmlns="http://www.w3.org/2000/svg" xmlns:xlink="http://www.w3.org/1999/xlink" xml:space="preserve" onload="init(evt)">
<style type="text/css"><![CDATA[
.edge:hover path { stroke: red; }
.edge:hover polygon { stroke: red; fill: red; }
]]></style>
<script type="text/javascript"><![CDATA[
var edges = document.getElementsByTagName('g');
if (edges && edges.length) {
  for (var i=0;i<edges.length;i++) {
    if (edges[i].id.substr(0,4)=='edge') {
      edges[i].setAttribute('class','edge');
    }
  }
}
]]></script>
        <defs>
                <circle id="rim" cx="0" cy="0" r="7"/>
                <circle id="rim2" cx="0" cy="0" r="3.5"/>
                <g id="zoomPlus">
                        <use xlink:href="#rim" fill="#404040">
                                <set attributeName="fill" to="#808080" begin="zoomplus.mouseover" end="zoomplus.mouseout"/>
                        </use>
                        <path d="M-4,0h8M0,-4v8" fill="none" stroke="white" stroke-width="1.5" pointer-events="none"/>
                </g>
                <g id="zoomMin">
                        <use xlink:href="#rim" fill="#404040">
                                <set attributeName="fill" to="#808080" begin="zoomminus.mouseover" end="zoomminus.mouseout"/>
                        </use>
                        <path d="M-4,0h8" fill="none" stroke="white" stroke-width="1.5" pointer-events="none"/>
                </g>
                <g id="dirArrow">
                        <path fill="none" stroke="white" stroke-width="1.5" d="M0,-3.0v7 M-2.5,-0.5L0,-3.0L2.5,-0.5"/>
                </g>
               <g id="resetDef">
                       <use xlink:href="#rim2" fill="#404040">
                               <set attributeName="fill" to="#808080" begin="reset.mouseover" end="reset.mouseout"/>
                       </use>
               </g>
        </defs>

<script type="text/javascript">
var viewWidth = 1567;
var viewHeight = 364;
var sectionId = 'dynsection-0';
</script>
<script xlink:href="svgpan.js"/>
<svg id="graph" class="graph">
<g id="viewport">
<title>net/if_ppp.h</title>
<polygon fill="white" stroke="transparent" points="-4,4 -4,-360 1562.62,-360 1562.62,4 -4,4"/>
<!-- Node1 -->
<g id="node1" class="node">
<title>Node1</title>
<g id="a_node1"><a xlink:title=" ">
<polygon fill="#bfbfbf" stroke="black" points="992,-336.5 992,-355.5 1066,-355.5 1066,-336.5 992,-336.5"/>
<text text-anchor="middle" x="1029" y="-343.5" font-family="Helvetica,sans-Serif" font-size="10.00">net/if_ppp.h</text>
</a>
</g>
</g>
<!-- Node2 -->
<g id="node2" class="node">
<title>Node2</title>
<g id="a_node2"><a xlink:href="sys_2types_8h.html" target="_top" xlink:title=" ">
<polygon fill="white" stroke="black" points="330,-280.5 330,-299.5 402,-299.5 402,-280.5 330,-280.5"/>
<text text-anchor="middle" x="366" y="-287.5" font-family="Helvetica,sans-Serif" font-size="10.00">sys/types.h</text>
</a>
</g>
</g>
<!-- Node1&#45;&gt;Node2 -->
<g id="edge1" class="edge">
<title>Node1&#45;&gt;Node2</title>
<path fill="none" stroke="midnightblue" d="M991.93,-341.98C878.67,-332.76 537.29,-304.95 412.41,-294.78"/>
<polygon fill="midnightblue" stroke="midnightblue" points="412.65,-291.29 402.4,-293.96 412.08,-298.26 412.65,-291.29"/>
</g>
<!-- Node19 -->
<g id="node19" class="node">
<title>Node19</title>
<g id="a_node19"><a xlink:href="stdint_8h.html" target="_top" xlink:title=" ">
<polygon fill="white" stroke="black" points="803.5,-280.5 803.5,-299.5 856.5,-299.5 856.5,-280.5 803.5,-280.5"/>
<text text-anchor="middle" x="830" y="-287.5" font-family="Helvetica,sans-Serif" font-size="10.00">stdint.h</text>
</a>
</g>
</g>
<!-- Node1&#45;&gt;Node19 -->
<g id="edge25" class="edge">
<title>Node1&#45;&gt;Node19</title>
<path fill="none" stroke="midnightblue" d="M997.47,-336.44C961.91,-326.79 904.15,-311.12 866.62,-300.94"/>
<polygon fill="midnightblue" stroke="midnightblue" points="867.18,-297.46 856.61,-298.22 865.34,-304.22 867.18,-297.46"/>
</g>
<!-- Node23 -->
<g id="node23" class="node">
<title>Node23</title>
<g id="a_node23"><a xlink:href="if_8h.html" target="_top" xlink:title=" ">
<polygon fill="white" stroke="black" points="1466,-168.5 1466,-187.5 1516,-187.5 1516,-168.5 1466,-168.5"/>
<text text-anchor="middle" x="1491" y="-175.5" font-family="Helvetica,sans-Serif" font-size="10.00">net/if.h</text>
</a>
</g>
</g>
<!-- Node1&#45;&gt;Node23 -->
<g id="edge34" class="edge">
<title>Node1&#45;&gt;Node23</title>
<path fill="none" stroke="midnightblue" d="M1066.33,-343.86C1176,-339.62 1493.28,-320.82 1554,-244 1569.23,-224.74 1542.39,-204.77 1519.17,-192.14"/>
<polygon fill="midnightblue" stroke="midnightblue" points="1520.71,-189 1510.22,-187.52 1517.5,-195.22 1520.71,-189"/>
</g>
<!-- Node24 -->
<g id="node24" class="node">
<title>Node24</title>
<g id="a_node24"><a xlink:href="ioctl_8h.html" target="_top" xlink:title=" ">
<polygon fill="white" stroke="black" points="1243,-280.5 1243,-299.5 1309,-299.5 1309,-280.5 1243,-280.5"/>
<text text-anchor="middle" x="1276" y="-287.5" font-family="Helvetica,sans-Serif" font-size="10.00">sys/ioctl.h</text>
</a>
</g>
</g>
<!-- Node1&#45;&gt;Node24 -->
<g id="edge36" class="edge">
<title>Node1&#45;&gt;Node24</title>
<path fill="none" stroke="midnightblue" d="M1066.25,-336.86C1110.94,-327.09 1185.75,-310.73 1232.9,-300.42"/>
<polygon fill="midnightblue" stroke="midnightblue" points="1233.79,-303.81 1242.81,-298.26 1232.29,-296.97 1233.79,-303.81"/>
</g>
<!-- Node29 -->
<g id="node29" class="node">
<title>Node29</title>
<g id="a_node29"><a xlink:href="ppp__defs_8h.html" target="_top" xlink:title=" ">
<polygon fill="white" stroke="black" points="984.5,-280.5 984.5,-299.5 1073.5,-299.5 1073.5,-280.5 984.5,-280.5"/>
<text text-anchor="middle" x="1029" y="-287.5" font-family="Helvetica,sans-Serif" font-size="10.00">net/ppp_defs.h</text>
</a>
</g>
</g>
<!-- Node1&#45;&gt;Node29 -->
<g id="edge43" class="edge">
<title>Node1&#45;&gt;Node29</title>
<path fill="none" stroke="midnightblue" d="M1029,-336.08C1029,-329.01 1029,-318.86 1029,-309.99"/>
<polygon fill="midnightblue" stroke="midnightblue" points="1032.5,-309.75 1029,-299.75 1025.5,-309.75 1032.5,-309.75"/>
</g>
<!-- Node3 -->
<g id="node3" class="node">
<title>Node3</title>
<g id="a_node3"><a xlink:href="features_8h.html" target="_top" xlink:title=" ">
<polygon fill="white" stroke="black" points="959,-112.5 959,-131.5 1025,-131.5 1025,-112.5 959,-112.5"/>
<text text-anchor="middle" x="992" y="-119.5" font-family="Helvetica,sans-Serif" font-size="10.00">features.h</text>
</a>
</g>
</g>
<!-- Node2&#45;&gt;Node3 -->
<g id="edge2" class="edge">
<title>Node2&#45;&gt;Node3</title>
<path fill="none" stroke="midnightblue" d="M402.3,-286.91C488.7,-281.64 704.46,-266.55 773,-244 836.94,-222.96 844.9,-200.22 904,-168 924.47,-156.84 947.99,-144.85 965.56,-136.06"/>
<polygon fill="midnightblue" stroke="midnightblue" points="967.27,-139.12 974.66,-131.53 964.15,-132.86 967.27,-139.12"/>
</g>
<!-- Node10 -->
<g id="node10" class="node">
<title>Node10</title>
<g id="a_node10"><a xlink:href="bits_2types_8h.html" target="_top" xlink:title=" ">
<polygon fill="white" stroke="black" points="469,-168.5 469,-187.5 543,-187.5 543,-168.5 469,-168.5"/>
<text text-anchor="middle" x="506" y="-175.5" font-family="Helvetica,sans-Serif" font-size="10.00">bits/types.h</text>
</a>
</g>
</g>
<!-- Node2&#45;&gt;Node10 -->
<g id="edge10" class="edge">
<title>Node2&#45;&gt;Node10</title>
<path fill="none" stroke="midnightblue" d="M329.88,-284.54C280.98,-277.08 203.07,-259.27 233,-224 261.38,-190.56 388.2,-181.93 458.57,-179.73"/>
<polygon fill="midnightblue" stroke="midnightblue" points="459.04,-183.22 468.94,-179.44 458.84,-176.22 459.04,-183.22"/>
</g>
<!-- Node14 -->
<g id="node14" class="node">
<title>Node14</title>
<g id="a_node14"><a xlink:href="clockid__t_8h.html" target="_top" xlink:title=" ">
<polygon fill="white" stroke="black" points="242,-224.5 242,-243.5 362,-243.5 362,-224.5 242,-224.5"/>
<text text-anchor="middle" x="302" y="-231.5" font-family="Helvetica,sans-Serif" font-size="10.00">bits/types/clockid_t.h</text>
</a>
</g>
</g>
<!-- Node2&#45;&gt;Node14 -->
<g id="edge16" class="edge">
<title>Node2&#45;&gt;Node14</title>
<path fill="none" stroke="midnightblue" d="M355.72,-280.32C346.16,-272.26 331.72,-260.08 320.22,-250.37"/>
<polygon fill="midnightblue" stroke="midnightblue" points="322.37,-247.61 312.47,-243.83 317.86,-252.96 322.37,-247.61"/>
</g>
<!-- Node15 -->
<g id="node15" class="node">
<title>Node15</title>
<g id="a_node15"><a xlink:href="time__t_8h.html" target="_top" xlink:title=" ">
<polygon fill="white" stroke="black" points="656,-224.5 656,-243.5 764,-243.5 764,-224.5 656,-224.5"/>
<text text-anchor="middle" x="710" y="-231.5" font-family="Helvetica,sans-Serif" font-size="10.00">bits/types/time_t.h</text>
</a>
</g>
</g>
<!-- Node2&#45;&gt;Node15 -->
<g id="edge18" class="edge">
<title>Node2&#45;&gt;Node15</title>
<path fill="none" stroke="midnightblue" d="M402.16,-283.32C459.87,-274.26 573.6,-256.41 645.49,-245.13"/>
<polygon fill="midnightblue" stroke="midnightblue" points="646.45,-248.52 655.79,-243.51 645.37,-241.6 646.45,-248.52"/>
</g>
<!-- Node16 -->
<g id="node16" class="node">
<title>Node16</title>
<g id="a_node16"><a xlink:href="timer__t_8h.html" target="_top" xlink:title=" ">
<polygon fill="white" stroke="black" points="74,-224.5 74,-243.5 186,-243.5 186,-224.5 74,-224.5"/>
<text text-anchor="middle" x="130" y="-231.5" font-family="Helvetica,sans-Serif" font-size="10.00">bits/types/timer_t.h</text>
</a>
</g>
</g>
<!-- Node2&#45;&gt;Node16 -->
<g id="edge20" class="edge">
<title>Node2&#45;&gt;Node16</title>
<path fill="none" stroke="midnightblue" d="M329.9,-280.74C288.96,-271.37 222.08,-256.07 177.08,-245.77"/>
<polygon fill="midnightblue" stroke="midnightblue" points="177.79,-242.35 167.27,-243.53 176.23,-249.17 177.79,-242.35"/>
</g>
<!-- Node17 -->
<g id="node17" class="node">
<title>Node17</title>
<g id="a_node17"><a xlink:title=" ">
<polygon fill="white" stroke="#bfbfbf" points="0,-224.5 0,-243.5 56,-243.5 56,-224.5 0,-224.5"/>
<text text-anchor="middle" x="28" y="-231.5" font-family="Helvetica,sans-Serif" font-size="10.00">stddef.h</text>
</a>
</g>
</g>
<!-- Node2&#45;&gt;Node17 -->
<g id="edge22" class="edge">
<title>Node2&#45;&gt;Node17</title>
<path fill="none" stroke="midnightblue" d="M329.68,-284.65C274.76,-277.83 167.12,-263.55 66.27,-244.1"/>
<polygon fill="midnightblue" stroke="midnightblue" points="66.71,-240.62 56.22,-242.14 65.37,-247.49 66.71,-240.62"/>
</g>
<!-- Node18 -->
<g id="node18" class="node">
<title>Node18</title>
<g id="a_node18"><a xlink:href="stdint-intn_8h.html" target="_top" xlink:title=" ">
<polygon fill="white" stroke="black" points="380.5,-224.5 380.5,-243.5 477.5,-243.5 477.5,-224.5 380.5,-224.5"/>
<text text-anchor="middle" x="429" y="-231.5" font-family="Helvetica,sans-Serif" font-size="10.00">bits/stdint&#45;intn.h</text>
</a>
</g>
</g>
<!-- Node2&#45;&gt;Node18 -->
<g id="edge23" class="edge">
<title>Node2&#45;&gt;Node18</title>
<path fill="none" stroke="midnightblue" d="M376.12,-280.32C385.53,-272.26 399.74,-260.08 411.07,-250.37"/>
<polygon fill="midnightblue" stroke="midnightblue" points="413.38,-253 418.69,-243.83 408.82,-247.68 413.38,-253"/>
</g>
<!-- Node4 -->
<g id="node4" class="node">
<title>Node4</title>
<g id="a_node4"><a xlink:href="stdc-predef_8h.html" target="_top" xlink:title=" ">
<polygon fill="white" stroke="black" points="858,-56.5 858,-75.5 938,-75.5 938,-56.5 858,-56.5"/>
<text text-anchor="middle" x="898" y="-63.5" font-family="Helvetica,sans-Serif" font-size="10.00">stdc&#45;predef.h</text>
</a>
</g>
</g>
<!-- Node3&#45;&gt;Node4 -->
<g id="edge3" class="edge">
<title>Node3&#45;&gt;Node4</title>
<path fill="none" stroke="midnightblue" d="M976.9,-112.32C962.1,-103.82 939.31,-90.73 922.02,-80.8"/>
<polygon fill="midnightblue" stroke="midnightblue" points="923.48,-77.6 913.07,-75.65 919.99,-83.67 923.48,-77.6"/>
</g>
<!-- Node5 -->
<g id="node5" class="node">
<title>Node5</title>
<g id="a_node5"><a xlink:href="cdefs_8h.html" target="_top" xlink:title=" ">
<polygon fill="white" stroke="black" points="956.5,-56.5 956.5,-75.5 1027.5,-75.5 1027.5,-56.5 956.5,-56.5"/>
<text text-anchor="middle" x="992" y="-63.5" font-family="Helvetica,sans-Serif" font-size="10.00">sys/cdefs.h</text>
</a>
</g>
</g>
<!-- Node3&#45;&gt;Node5 -->
<g id="edge4" class="edge">
<title>Node3&#45;&gt;Node5</title>
<path fill="none" stroke="midnightblue" d="M986.83,-112.08C985.32,-104.93 984.89,-94.64 985.54,-85.69"/>
<polygon fill="midnightblue" stroke="midnightblue" points="989.02,-86.13 986.87,-75.75 982.08,-85.2 989.02,-86.13"/>
</g>
<!-- Node8 -->
<g id="node8" class="node">
<title>Node8</title>
<g id="a_node8"><a xlink:href="stubs_8h.html" target="_top" xlink:title=" ">
<polygon fill="white" stroke="black" points="1057.5,-56.5 1057.5,-75.5 1130.5,-75.5 1130.5,-56.5 1057.5,-56.5"/>
<text text-anchor="middle" x="1094" y="-63.5" font-family="Helvetica,sans-Serif" font-size="10.00">gnu/stubs.h</text>
</a>
</g>
</g>
<!-- Node3&#45;&gt;Node8 -->
<g id="edge8" class="edge">
<title>Node3&#45;&gt;Node8</title>
<path fill="none" stroke="midnightblue" d="M1008.39,-112.32C1024.67,-103.7 1049.87,-90.36 1068.72,-80.39"/>
<polygon fill="midnightblue" stroke="midnightblue" points="1070.45,-83.43 1077.65,-75.65 1067.18,-77.24 1070.45,-83.43"/>
</g>
<!-- Node5&#45;&gt;Node3 -->
<g id="edge5" class="edge">
<title>Node5&#45;&gt;Node3</title>
<path fill="none" stroke="midnightblue" d="M997.13,-75.75C998.66,-82.86 999.1,-93.14 998.47,-102.1"/>
<polygon fill="midnightblue" stroke="midnightblue" points="994.99,-101.71 997.17,-112.08 1001.93,-102.62 994.99,-101.71"/>
</g>
<!-- Node6 -->
<g id="node6" class="node">
<title>Node6</title>
<g id="a_node6"><a xlink:href="wordsize_8h.html" target="_top" xlink:title=" ">
<polygon fill="white" stroke="black" points="785,-0.5 785,-19.5 875,-19.5 875,-0.5 785,-0.5"/>
<text text-anchor="middle" x="830" y="-7.5" font-family="Helvetica,sans-Serif" font-size="10.00">bits/wordsize.h</text>
</a>
</g>
</g>
<!-- Node5&#45;&gt;Node6 -->
<g id="edge6" class="edge">
<title>Node5&#45;&gt;Node6</title>
<path fill="none" stroke="midnightblue" d="M966.33,-56.44C939.08,-47.36 895.82,-32.94 865.35,-22.78"/>
<polygon fill="midnightblue" stroke="midnightblue" points="866.14,-19.36 855.55,-19.52 863.93,-26 866.14,-19.36"/>
</g>
<!-- Node7 -->
<g id="node7" class="node">
<title>Node7</title>
<g id="a_node7"><a xlink:href="long-double_8h.html" target="_top" xlink:title=" ">
<polygon fill="white" stroke="black" points="933,-0.5 933,-19.5 1037,-19.5 1037,-0.5 933,-0.5"/>
<text text-anchor="middle" x="985" y="-7.5" font-family="Helvetica,sans-Serif" font-size="10.00">bits/long&#45;double.h</text>
</a>
</g>
</g>
<!-- Node5&#45;&gt;Node7 -->
<g id="edge7" class="edge">
<title>Node5&#45;&gt;Node7</title>
<path fill="none" stroke="midnightblue" d="M990.84,-56.08C989.92,-48.93 988.58,-38.64 987.42,-29.69"/>
<polygon fill="midnightblue" stroke="midnightblue" points="990.89,-29.22 986.13,-19.75 983.95,-30.12 990.89,-29.22"/>
</g>
<!-- Node9 -->
<g id="node9" class="node">
<title>Node9</title>
<g id="a_node9"><a xlink:title=" ">
<polygon fill="white" stroke="#bfbfbf" points="1055.5,-0.5 1055.5,-19.5 1144.5,-19.5 1144.5,-0.5 1055.5,-0.5"/>
<text text-anchor="middle" x="1100" y="-7.5" font-family="Helvetica,sans-Serif" font-size="10.00">gnu/stubs&#45;32.h</text>
</a>
</g>
</g>
<!-- Node8&#45;&gt;Node9 -->
<g id="edge9" class="edge">
<title>Node8&#45;&gt;Node9</title>
<path fill="none" stroke="midnightblue" d="M1094.99,-56.08C1095.79,-48.93 1096.93,-38.64 1097.92,-29.69"/>
<polygon fill="midnightblue" stroke="midnightblue" points="1101.4,-30.08 1099.03,-19.75 1094.44,-29.3 1101.4,-30.08"/>
</g>
<!-- Node10&#45;&gt;Node3 -->
<g id="edge11" class="edge">
<title>Node10&#45;&gt;Node3</title>
<path fill="none" stroke="midnightblue" d="M543.33,-172.85C631.92,-163.01 854.46,-138.28 948.73,-127.81"/>
<polygon fill="midnightblue" stroke="midnightblue" points="949.22,-131.27 958.78,-126.69 948.45,-124.32 949.22,-131.27"/>
</g>
<!-- Node10&#45;&gt;Node6 -->
<g id="edge12" class="edge">
<title>Node10&#45;&gt;Node6</title>
<path fill="none" stroke="midnightblue" d="M543.24,-170.03C575.7,-163.08 623.47,-150.73 662,-132 722.32,-102.68 783.95,-51.82 812.95,-26.4"/>
<polygon fill="midnightblue" stroke="midnightblue" points="815.39,-28.91 820.54,-19.66 810.74,-23.68 815.39,-28.91"/>
</g>
<!-- Node11 -->
<g id="node11" class="node">
<title>Node11</title>
<g id="a_node11"><a xlink:href="timesize_8h.html" target="_top" xlink:title=" ">
<polygon fill="white" stroke="black" points="564.5,-112.5 564.5,-131.5 653.5,-131.5 653.5,-112.5 564.5,-112.5"/>
<text text-anchor="middle" x="609" y="-119.5" font-family="Helvetica,sans-Serif" font-size="10.00">bits/timesize.h</text>
</a>
</g>
</g>
<!-- Node10&#45;&gt;Node11 -->
<g id="edge13" class="edge">
<title>Node10&#45;&gt;Node11</title>
<path fill="none" stroke="midnightblue" d="M522.55,-168.32C538.99,-159.7 564.43,-146.36 583.47,-136.39"/>
<polygon fill="midnightblue" stroke="midnightblue" points="585.26,-139.4 592.49,-131.65 582.01,-133.2 585.26,-139.4"/>
</g>
<!-- Node12 -->
<g id="node12" class="node">
<title>Node12</title>
<g id="a_node12"><a xlink:href="typesizes_8h.html" target="_top" xlink:title=" ">
<polygon fill="white" stroke="black" points="354.5,-112.5 354.5,-131.5 447.5,-131.5 447.5,-112.5 354.5,-112.5"/>
<text text-anchor="middle" x="401" y="-119.5" font-family="Helvetica,sans-Serif" font-size="10.00">bits/typesizes.h</text>
</a>
</g>
</g>
<!-- Node10&#45;&gt;Node12 -->
<g id="edge14" class="edge">
<title>Node10&#45;&gt;Node12</title>
<path fill="none" stroke="midnightblue" d="M489.13,-168.32C472.29,-159.66 446.19,-146.24 426.76,-136.25"/>
<polygon fill="midnightblue" stroke="midnightblue" points="428.32,-133.12 417.83,-131.65 425.12,-139.34 428.32,-133.12"/>
</g>
<!-- Node13 -->
<g id="node13" class="node">
<title>Node13</title>
<g id="a_node13"><a xlink:href="time64_8h.html" target="_top" xlink:title=" ">
<polygon fill="white" stroke="black" points="465.5,-112.5 465.5,-131.5 546.5,-131.5 546.5,-112.5 465.5,-112.5"/>
<text text-anchor="middle" x="506" y="-119.5" font-family="Helvetica,sans-Serif" font-size="10.00">bits/time64.h</text>
</a>
</g>
</g>
<!-- Node10&#45;&gt;Node13 -->
<g id="edge15" class="edge">
<title>Node10&#45;&gt;Node13</title>
<path fill="none" stroke="midnightblue" d="M506,-168.08C506,-161.01 506,-150.86 506,-141.99"/>
<polygon fill="midnightblue" stroke="midnightblue" points="509.5,-141.75 506,-131.75 502.5,-141.75 509.5,-141.75"/>
</g>
<!-- Node14&#45;&gt;Node10 -->
<g id="edge17" class="edge">
<title>Node14&#45;&gt;Node10</title>
<path fill="none" stroke="midnightblue" d="M334.32,-224.44C369.39,-215.16 425.5,-200.31 463.96,-190.13"/>
<polygon fill="midnightblue" stroke="midnightblue" points="465.06,-193.46 473.83,-187.52 463.26,-186.69 465.06,-193.46"/>
</g>
<!-- Node15&#45;&gt;Node10 -->
<g id="edge19" class="edge">
<title>Node15&#45;&gt;Node10</title>
<path fill="none" stroke="midnightblue" d="M677.68,-224.44C642.61,-215.16 586.5,-200.31 548.04,-190.13"/>
<polygon fill="midnightblue" stroke="midnightblue" points="548.74,-186.69 538.17,-187.52 546.94,-193.46 548.74,-186.69"/>
</g>
<!-- Node16&#45;&gt;Node10 -->
<g id="edge21" class="edge">
<title>Node16&#45;&gt;Node10</title>
<path fill="none" stroke="midnightblue" d="M186.29,-224.92C260.44,-214.27 389.51,-195.73 458.81,-185.78"/>
<polygon fill="midnightblue" stroke="midnightblue" points="459.59,-189.2 468.99,-184.32 458.59,-182.27 459.59,-189.2"/>
</g>
<!-- Node18&#45;&gt;Node10 -->
<g id="edge24" class="edge">
<title>Node18&#45;&gt;Node10</title>
<path fill="none" stroke="midnightblue" d="M441.37,-224.32C453.16,-216.06 471.13,-203.45 485.14,-193.63"/>
<polygon fill="midnightblue" stroke="midnightblue" points="487.48,-196.26 493.66,-187.65 483.46,-190.53 487.48,-196.26"/>
</g>
<!-- Node19&#45;&gt;Node6 -->
<g id="edge30" class="edge">
<title>Node19&#45;&gt;Node6</title>
<path fill="none" stroke="midnightblue" d="M830,-280.44C830,-261.94 830,-216.81 830,-179 830,-179 830,-179 830,-121 830,-88.95 830,-51.64 830,-29.75"/>
<polygon fill="midnightblue" stroke="midnightblue" points="833.5,-29.56 830,-19.56 826.5,-29.56 833.5,-29.56"/>
</g>
<!-- Node19&#45;&gt;Node10 -->
<g id="edge28" class="edge">
<title>Node19&#45;&gt;Node10</title>
<path fill="none" stroke="midnightblue" d="M803.43,-288.64C737.07,-287.21 566.37,-280.03 525,-244 511.86,-232.56 507.57,-212.57 506.28,-197.78"/>
<polygon fill="midnightblue" stroke="midnightblue" points="509.77,-197.52 505.79,-187.7 502.78,-197.86 509.77,-197.52"/>
</g>
<!-- Node19&#45;&gt;Node18 -->
<g id="edge31" class="edge">
<title>Node19&#45;&gt;Node18</title>
<path fill="none" stroke="midnightblue" d="M803.26,-285.53C746.11,-278.09 607.82,-259.98 492,-244 490.71,-243.82 489.4,-243.64 488.08,-243.46"/>
<polygon fill="midnightblue" stroke="midnightblue" points="488.22,-239.94 477.83,-242.02 487.25,-246.88 488.22,-239.94"/>
</g>
<!-- Node20 -->
<g id="node20" class="node">
<title>Node20</title>
<g id="a_node20"><a xlink:href="libc-header-start_8h.html" target="_top" xlink:title=" ">
<polygon fill="white" stroke="black" points="913,-168.5 913,-187.5 1041,-187.5 1041,-168.5 913,-168.5"/>
<text text-anchor="middle" x="977" y="-175.5" font-family="Helvetica,sans-Serif" font-size="10.00">bits/libc&#45;header&#45;start.h</text>
</a>
</g>
</g>
<!-- Node19&#45;&gt;Node20 -->
<g id="edge26" class="edge">
<title>Node19&#45;&gt;Node20</title>
<path fill="none" stroke="midnightblue" d="M856.76,-283.74C881.37,-277.73 917.63,-265.79 942,-244 956.01,-231.48 965.45,-211.97 970.97,-197.6"/>
<polygon fill="midnightblue" stroke="midnightblue" points="974.39,-198.4 974.42,-187.8 967.79,-196.07 974.39,-198.4"/>
</g>
<!-- Node21 -->
<g id="node21" class="node">
<title>Node21</title>
<g id="a_node21"><a xlink:href="bits_2wchar_8h.html" target="_top" xlink:title=" ">
<polygon fill="white" stroke="black" points="858.5,-224.5 858.5,-243.5 933.5,-243.5 933.5,-224.5 858.5,-224.5"/>
<text text-anchor="middle" x="896" y="-231.5" font-family="Helvetica,sans-Serif" font-size="10.00">bits/wchar.h</text>
</a>
</g>
</g>
<!-- Node19&#45;&gt;Node21 -->
<g id="edge29" class="edge">
<title>Node19&#45;&gt;Node21</title>
<path fill="none" stroke="midnightblue" d="M840.6,-280.32C850.46,-272.26 865.35,-260.08 877.22,-250.37"/>
<polygon fill="midnightblue" stroke="midnightblue" points="879.68,-252.88 885.2,-243.83 875.25,-247.46 879.68,-252.88"/>
</g>
<!-- Node22 -->
<g id="node22" class="node">
<title>Node22</title>
<g id="a_node22"><a xlink:href="stdint-uintn_8h.html" target="_top" xlink:title=" ">
<polygon fill="white" stroke="black" points="534.5,-224.5 534.5,-243.5 637.5,-243.5 637.5,-224.5 534.5,-224.5"/>
<text text-anchor="middle" x="586" y="-231.5" font-family="Helvetica,sans-Serif" font-size="10.00">bits/stdint&#45;uintn.h</text>
</a>
</g>
</g>
<!-- Node19&#45;&gt;Node22 -->
<g id="edge32" class="edge">
<title>Node19&#45;&gt;Node22</title>
<path fill="none" stroke="midnightblue" d="M803.42,-283.12C762.98,-274.17 685.34,-256.98 634.62,-245.76"/>
<polygon fill="midnightblue" stroke="midnightblue" points="635.06,-242.27 624.54,-243.53 633.55,-249.11 635.06,-242.27"/>
</g>
<!-- Node20&#45;&gt;Node3 -->
<g id="edge27" class="edge">
<title>Node20&#45;&gt;Node3</title>
<path fill="none" stroke="midnightblue" d="M979.48,-168.08C981.49,-160.85 984.39,-150.41 986.89,-141.4"/>
<polygon fill="midnightblue" stroke="midnightblue" points="990.26,-142.32 989.57,-131.75 983.52,-140.45 990.26,-142.32"/>
</g>
<!-- Node22&#45;&gt;Node10 -->
<g id="edge33" class="edge">
<title>Node22&#45;&gt;Node10</title>
<path fill="none" stroke="midnightblue" d="M573.15,-224.32C560.78,-215.98 541.87,-203.21 527.26,-193.35"/>
<polygon fill="midnightblue" stroke="midnightblue" points="529.07,-190.35 518.82,-187.65 525.15,-196.15 529.07,-190.35"/>
</g>
<!-- Node23&#45;&gt;Node3 -->
<g id="edge35" class="edge">
<title>Node23&#45;&gt;Node3</title>
<path fill="none" stroke="midnightblue" d="M1465.91,-174.29C1385.93,-165.63 1136.32,-138.62 1035.2,-127.67"/>
<polygon fill="midnightblue" stroke="midnightblue" points="1035.35,-124.17 1025.03,-126.57 1034.6,-131.13 1035.35,-124.17"/>
</g>
<!-- Node24&#45;&gt;Node3 -->
<g id="edge37" class="edge">
<title>Node24&#45;&gt;Node3</title>
<path fill="none" stroke="midnightblue" d="M1265.97,-280.36C1250.51,-267.26 1219.62,-242 1191,-224 1133.25,-187.69 1060.8,-153.55 1021.19,-135.77"/>
<polygon fill="midnightblue" stroke="midnightblue" points="1022.42,-132.48 1011.86,-131.61 1019.57,-138.88 1022.42,-132.48"/>
</g>
<!-- Node25 -->
<g id="node25" class="node">
<title>Node25</title>
<g id="a_node25"><a xlink:href="ioctls_8h.html" target="_top" xlink:title=" ">
<polygon fill="white" stroke="black" points="1239.5,-224.5 1239.5,-243.5 1312.5,-243.5 1312.5,-224.5 1239.5,-224.5"/>
<text text-anchor="middle" x="1276" y="-231.5" font-family="Helvetica,sans-Serif" font-size="10.00">bits/ioctls.h</text>
</a>
</g>
</g>
<!-- Node24&#45;&gt;Node25 -->
<g id="edge38" class="edge">
<title>Node24&#45;&gt;Node25</title>
<path fill="none" stroke="midnightblue" d="M1276,-280.08C1276,-273.01 1276,-262.86 1276,-253.99"/>
<polygon fill="midnightblue" stroke="midnightblue" points="1279.5,-253.75 1276,-243.75 1272.5,-253.75 1279.5,-253.75"/>
</g>
<!-- Node27 -->
<g id="node27" class="node">
<title>Node27</title>
<g id="a_node27"><a xlink:href="ioctl-types_8h.html" target="_top" xlink:title=" ">
<polygon fill="white" stroke="black" points="1331,-224.5 1331,-243.5 1429,-243.5 1429,-224.5 1331,-224.5"/>
<text text-anchor="middle" x="1380" y="-231.5" font-family="Helvetica,sans-Serif" font-size="10.00">bits/ioctl&#45;types.h</text>
</a>
</g>
</g>
<!-- Node24&#45;&gt;Node27 -->
<g id="edge40" class="edge">
<title>Node24&#45;&gt;Node27</title>
<path fill="none" stroke="midnightblue" d="M1292.71,-280.32C1309.31,-271.7 1335,-258.36 1354.22,-248.39"/>
<polygon fill="midnightblue" stroke="midnightblue" points="1356.07,-251.37 1363.33,-243.65 1352.84,-245.16 1356.07,-251.37"/>
</g>
<!-- Node28 -->
<g id="node28" class="node">
<title>Node28</title>
<g id="a_node28"><a xlink:href="ttydefaults_8h.html" target="_top" xlink:title=" ">
<polygon fill="white" stroke="black" points="1447,-224.5 1447,-243.5 1545,-243.5 1545,-224.5 1447,-224.5"/>
<text text-anchor="middle" x="1496" y="-231.5" font-family="Helvetica,sans-Serif" font-size="10.00">sys/ttydefaults.h</text>
</a>
</g>
</g>
<!-- Node24&#45;&gt;Node28 -->
<g id="edge42" class="edge">
<title>Node24&#45;&gt;Node28</title>
<path fill="none" stroke="midnightblue" d="M1309.41,-280.8C1347.28,-271.5 1409.19,-256.31 1451.21,-245.99"/>
<polygon fill="midnightblue" stroke="midnightblue" points="1452.3,-249.33 1461.18,-243.55 1450.63,-242.53 1452.3,-249.33"/>
</g>
<!-- Node26 -->
<g id="node26" class="node">
<title>Node26</title>
<g id="a_node26"><a xlink:title=" ">
<polygon fill="white" stroke="#bfbfbf" points="1290,-168.5 1290,-187.5 1366,-187.5 1366,-168.5 1290,-168.5"/>
<text text-anchor="middle" x="1328" y="-175.5" font-family="Helvetica,sans-Serif" font-size="10.00">asm/ioctls.h</text>
</a>
</g>
</g>
<!-- Node25&#45;&gt;Node26 -->
<g id="edge39" class="edge">
<title>Node25&#45;&gt;Node26</title>
<path fill="none" stroke="midnightblue" d="M1284.59,-224.08C1292.16,-216.22 1303.38,-204.57 1312.51,-195.08"/>
<polygon fill="midnightblue" stroke="midnightblue" points="1315.16,-197.38 1319.57,-187.75 1310.12,-192.53 1315.16,-197.38"/>
</g>
<!-- Node27&#45;&gt;Node26 -->
<g id="edge41" class="edge">
<title>Node27&#45;&gt;Node26</title>
<path fill="none" stroke="midnightblue" d="M1371.41,-224.08C1363.84,-216.22 1352.62,-204.57 1343.49,-195.08"/>
<polygon fill="midnightblue" stroke="midnightblue" points="1345.88,-192.53 1336.43,-187.75 1340.84,-197.38 1345.88,-192.53"/>
</g>
<!-- Node29&#45;&gt;Node15 -->
<g id="edge44" class="edge">
<title>Node29&#45;&gt;Node15</title>
<path fill="none" stroke="midnightblue" d="M984.31,-281.43C928.51,-271.99 832.85,-255.8 770.52,-245.25"/>
<polygon fill="midnightblue" stroke="midnightblue" points="770.88,-241.76 760.44,-243.54 769.71,-248.66 770.88,-241.76"/>
</g>
<!-- Node30 -->
<g id="node30" class="node">
<title>Node30</title>
<g id="a_node30"><a xlink:title=" ">
<polygon fill="white" stroke="#bfbfbf" points="990.5,-224.5 990.5,-243.5 1067.5,-243.5 1067.5,-224.5 990.5,-224.5"/>
<text text-anchor="middle" x="1029" y="-231.5" font-family="Helvetica,sans-Serif" font-size="10.00">asm/types.h</text>
</a>
</g>
</g>
<!-- Node29&#45;&gt;Node30 -->
<g id="edge45" class="edge">
<title>Node29&#45;&gt;Node30</title>
<path fill="none" stroke="midnightblue" d="M1029,-280.08C1029,-273.01 1029,-262.86 1029,-253.99"/>
<polygon fill="midnightblue" stroke="midnightblue" points="1032.5,-253.75 1029,-243.75 1025.5,-253.75 1032.5,-253.75"/>
</g>
<!-- Node31 -->
<g id="node31" class="node">
<title>Node31</title>
<g id="a_node31"><a xlink:title=" ">
<polygon fill="white" stroke="#bfbfbf" points="1085.5,-224.5 1085.5,-243.5 1182.5,-243.5 1182.5,-224.5 1085.5,-224.5"/>
<text text-anchor="middle" x="1134" y="-231.5" font-family="Helvetica,sans-Serif" font-size="10.00">linux/ppp_defs.h</text>
</a>
</g>
</g>
<!-- Node29&#45;&gt;Node31 -->
<g id="edge46" class="edge">
<title>Node29&#45;&gt;Node31</title>
<path fill="none" stroke="midnightblue" d="M1045.87,-280.32C1062.71,-271.66 1088.81,-258.24 1108.24,-248.25"/>
<polygon fill="midnightblue" stroke="midnightblue" points="1109.88,-251.34 1117.17,-243.65 1106.68,-245.12 1109.88,-251.34"/>
</g>
</g>
</svg>
        <g id="navigator" transform="translate(0 0)" fill="#404254">
                <rect fill="#f2f5e9" fill-opacity="0.5" stroke="#606060" stroke-width=".5" x="0" y="0" width="60" height="60"/>
                <use id="zoomplus" xlink:href="#zoomPlus" x="17" y="9" onmousedown="handleZoom(evt,'in')"/>
                <use id="zoomminus" xlink:href="#zoomMin" x="42" y="9" onmousedown="handleZoom(evt,'out')"/>
                <use id="reset" xlink:href="#resetDef" x="30" y="36" onmousedown="handleReset()"/>
                <g id="arrowUp" xlink:href="#dirArrow" transform="translate(30 24)" onmousedown="handlePan(0,-1)">
                  <use xlink:href="#rim" fill="#404040">
                        <set attributeName="fill" to="#808080" begin="arrowUp.mouseover" end="arrowUp.mouseout"/>
                  </use>
                  <path fill="none" stroke="white" stroke-width="1.5" d="M0,-3.0v7 M-2.5,-0.5L0,-3.0L2.5,-0.5"/>
                </g>
                <g id="arrowRight" xlink:href="#dirArrow" transform="rotate(90) translate(36 -43)" onmousedown="handlePan(1,0)">
                  <use xlink:href="#rim" fill="#404040">
                        <set attributeName="fill" to="#808080" begin="arrowRight.mouseover" end="arrowRight.mouseout"/>
                  </use>
                  <path fill="none" stroke="white" stroke-width="1.5" d="M0,-3.0v7 M-2.5,-0.5L0,-3.0L2.5,-0.5"/>
                </g>
                <g id="arrowDown" xlink:href="#dirArrow" transform="rotate(180) translate(-30 -48)" onmousedown="handlePan(0,1)">
                  <use xlink:href="#rim" fill="#404040">
                        <set attributeName="fill" to="#808080" begin="arrowDown.mouseover" end="arrowDown.mouseout"/>
                  </use>
                  <path fill="none" stroke="white" stroke-width="1.5" d="M0,-3.0v7 M-2.5,-0.5L0,-3.0L2.5,-0.5"/>
                </g>
                <g id="arrowLeft" xlink:href="#dirArrow" transform="rotate(270) translate(-36 17)" onmousedown="handlePan(-1,0)">
                  <use xlink:href="#rim" fill="#404040">
                        <set attributeName="fill" to="#808080" begin="arrowLeft.mouseover" end="arrowLeft.mouseout"/>
                  </use>
                  <path fill="none" stroke="white" stroke-width="1.5" d="M0,-3.0v7 M-2.5,-0.5L0,-3.0L2.5,-0.5"/>
                </g>
        </g>
        <svg viewBox="0 0 15 15" width="100%" height="30px" preserveAspectRatio="xMaxYMin meet">
         <g id="arrow_out" transform="scale(0.3 0.3)">
          <a xlink:href="if__ppp_8h__incl_org.svg" target="_base">
           <rect id="button" ry="5" rx="5" y="6" x="6" height="38" width="38"
                fill="#f2f5e9" fill-opacity="0.5" stroke="#606060" stroke-width="1.0"/>
           <path id="arrow"
             d="M 11.500037,31.436501 C 11.940474,20.09759 22.043105,11.32322 32.158766,21.979434 L 37.068811,17.246167 C 37.068811,17.246167 37.088388,32 37.088388,32 L 22.160133,31.978069 C 22.160133,31.978069 26.997745,27.140456 26.997745,27.140456 C 18.528582,18.264221 13.291696,25.230495 11.500037,31.436501 z"
             style="fill:#404040;"/>
          </a>
         </g>
        </svg>
</svg>
