<?xml version="1.0" encoding="UTF-8" standalone="no"?>
<!DOCTYPE svg PUBLIC "-//W3C//DTD SVG 1.1//EN"
 "http://www.w3.org/Graphics/SVG/1.1/DTD/svg11.dtd">
<!-- Generated by graphviz version 2.44.1 (0)
 -->
<!-- Title: ifaddrs.h Pages: 1 -->
<svg width="817pt" height="476pt"
 viewBox="0.00 0.00 816.50 476.00" xmlns="http://www.w3.org/2000/svg" xmlns:xlink="http://www.w3.org/1999/xlink">
<g id="graph0" class="graph" transform="scale(1 1) rotate(0) translate(4 472)">
<title>ifaddrs.h</title>
<polygon fill="white" stroke="transparent" points="-4,4 -4,-472 812.5,-472 812.5,4 -4,4"/>
<!-- Node1 -->
<g id="node1" class="node">
<title>Node1</title>
<g id="a_node1"><a xlink:title=" ">
<polygon fill="#bfbfbf" stroke="black" points="37.5,-448.5 37.5,-467.5 96.5,-467.5 96.5,-448.5 37.5,-448.5"/>
<text text-anchor="middle" x="67" y="-455.5" font-family="Helvetica,sans-Serif" font-size="10.00">ifaddrs.h</text>
</a>
</g>
</g>
<!-- Node2 -->
<g id="node2" class="node">
<title>Node2</title>
<g id="a_node2"><a xlink:href="features_8h.html" target="_top" xlink:title=" ">
<polygon fill="white" stroke="black" points="157,-112.5 157,-131.5 223,-131.5 223,-112.5 157,-112.5"/>
<text text-anchor="middle" x="190" y="-119.5" font-family="Helvetica,sans-Serif" font-size="10.00">features.h</text>
</a>
</g>
</g>
<!-- Node1&#45;&gt;Node2 -->
<g id="edge1" class="edge">
<title>Node1&#45;&gt;Node2</title>
<path fill="none" stroke="midnightblue" d="M57.11,-448.4C38.48,-431.18 0,-390.38 0,-347 0,-347 0,-347 0,-233 0,-165.54 90.81,-138.78 146.87,-128.69"/>
<polygon fill="midnightblue" stroke="midnightblue" points="147.63,-132.11 156.9,-126.99 146.46,-125.21 147.63,-132.11"/>
</g>
<!-- Node9 -->
<g id="node9" class="node">
<title>Node9</title>
<g id="a_node9"><a xlink:href="sys_2socket_8h.html" target="_top" xlink:title=" ">
<polygon fill="white" stroke="black" points="95.5,-392.5 95.5,-411.5 172.5,-411.5 172.5,-392.5 95.5,-392.5"/>
<text text-anchor="middle" x="134" y="-399.5" font-family="Helvetica,sans-Serif" font-size="10.00">sys/socket.h</text>
</a>
</g>
</g>
<!-- Node1&#45;&gt;Node9 -->
<g id="edge9" class="edge">
<title>Node1&#45;&gt;Node9</title>
<path fill="none" stroke="midnightblue" d="M77.76,-448.32C87.77,-440.26 102.89,-428.08 114.93,-418.37"/>
<polygon fill="midnightblue" stroke="midnightblue" points="117.45,-420.83 123.04,-411.83 113.06,-415.38 117.45,-420.83"/>
</g>
<!-- Node3 -->
<g id="node3" class="node">
<title>Node3</title>
<g id="a_node3"><a xlink:href="stdc-predef_8h.html" target="_top" xlink:title=" ">
<polygon fill="white" stroke="black" points="56,-56.5 56,-75.5 136,-75.5 136,-56.5 56,-56.5"/>
<text text-anchor="middle" x="96" y="-63.5" font-family="Helvetica,sans-Serif" font-size="10.00">stdc&#45;predef.h</text>
</a>
</g>
</g>
<!-- Node2&#45;&gt;Node3 -->
<g id="edge2" class="edge">
<title>Node2&#45;&gt;Node3</title>
<path fill="none" stroke="midnightblue" d="M174.9,-112.32C160.1,-103.82 137.31,-90.73 120.02,-80.8"/>
<polygon fill="midnightblue" stroke="midnightblue" points="121.48,-77.6 111.07,-75.65 117.99,-83.67 121.48,-77.6"/>
</g>
<!-- Node4 -->
<g id="node4" class="node">
<title>Node4</title>
<g id="a_node4"><a xlink:href="cdefs_8h.html" target="_top" xlink:title=" ">
<polygon fill="white" stroke="black" points="154.5,-56.5 154.5,-75.5 225.5,-75.5 225.5,-56.5 154.5,-56.5"/>
<text text-anchor="middle" x="190" y="-63.5" font-family="Helvetica,sans-Serif" font-size="10.00">sys/cdefs.h</text>
</a>
</g>
</g>
<!-- Node2&#45;&gt;Node4 -->
<g id="edge3" class="edge">
<title>Node2&#45;&gt;Node4</title>
<path fill="none" stroke="midnightblue" d="M184.83,-112.08C183.32,-104.93 182.89,-94.64 183.54,-85.69"/>
<polygon fill="midnightblue" stroke="midnightblue" points="187.02,-86.13 184.87,-75.75 180.08,-85.2 187.02,-86.13"/>
</g>
<!-- Node7 -->
<g id="node7" class="node">
<title>Node7</title>
<g id="a_node7"><a xlink:href="stubs_8h.html" target="_top" xlink:title=" ">
<polygon fill="white" stroke="black" points="252.5,-56.5 252.5,-75.5 325.5,-75.5 325.5,-56.5 252.5,-56.5"/>
<text text-anchor="middle" x="289" y="-63.5" font-family="Helvetica,sans-Serif" font-size="10.00">gnu/stubs.h</text>
</a>
</g>
</g>
<!-- Node2&#45;&gt;Node7 -->
<g id="edge7" class="edge">
<title>Node2&#45;&gt;Node7</title>
<path fill="none" stroke="midnightblue" d="M205.91,-112.32C221.64,-103.74 245.94,-90.49 264.21,-80.52"/>
<polygon fill="midnightblue" stroke="midnightblue" points="266.03,-83.52 273.13,-75.65 262.68,-77.37 266.03,-83.52"/>
</g>
<!-- Node4&#45;&gt;Node2 -->
<g id="edge4" class="edge">
<title>Node4&#45;&gt;Node2</title>
<path fill="none" stroke="midnightblue" d="M195.13,-75.75C196.66,-82.86 197.1,-93.14 196.47,-102.1"/>
<polygon fill="midnightblue" stroke="midnightblue" points="192.99,-101.71 195.17,-112.08 199.93,-102.62 192.99,-101.71"/>
</g>
<!-- Node5 -->
<g id="node5" class="node">
<title>Node5</title>
<g id="a_node5"><a xlink:href="wordsize_8h.html" target="_top" xlink:title=" ">
<polygon fill="white" stroke="black" points="202,-0.5 202,-19.5 292,-19.5 292,-0.5 202,-0.5"/>
<text text-anchor="middle" x="247" y="-7.5" font-family="Helvetica,sans-Serif" font-size="10.00">bits/wordsize.h</text>
</a>
</g>
</g>
<!-- Node4&#45;&gt;Node5 -->
<g id="edge5" class="edge">
<title>Node4&#45;&gt;Node5</title>
<path fill="none" stroke="midnightblue" d="M199.16,-56.32C207.5,-48.42 220.03,-36.55 230.18,-26.94"/>
<polygon fill="midnightblue" stroke="midnightblue" points="232.82,-29.25 237.68,-19.83 228.01,-24.17 232.82,-29.25"/>
</g>
<!-- Node6 -->
<g id="node6" class="node">
<title>Node6</title>
<g id="a_node6"><a xlink:href="long-double_8h.html" target="_top" xlink:title=" ">
<polygon fill="white" stroke="black" points="80,-0.5 80,-19.5 184,-19.5 184,-0.5 80,-0.5"/>
<text text-anchor="middle" x="132" y="-7.5" font-family="Helvetica,sans-Serif" font-size="10.00">bits/long&#45;double.h</text>
</a>
</g>
</g>
<!-- Node4&#45;&gt;Node6 -->
<g id="edge6" class="edge">
<title>Node4&#45;&gt;Node6</title>
<path fill="none" stroke="midnightblue" d="M180.68,-56.32C172.11,-48.34 159.19,-36.31 148.81,-26.65"/>
<polygon fill="midnightblue" stroke="midnightblue" points="151.19,-24.09 141.49,-19.83 146.42,-29.21 151.19,-24.09"/>
</g>
<!-- Node8 -->
<g id="node8" class="node">
<title>Node8</title>
<g id="a_node8"><a xlink:title=" ">
<polygon fill="white" stroke="#bfbfbf" points="310.5,-0.5 310.5,-19.5 399.5,-19.5 399.5,-0.5 310.5,-0.5"/>
<text text-anchor="middle" x="355" y="-7.5" font-family="Helvetica,sans-Serif" font-size="10.00">gnu/stubs&#45;32.h</text>
</a>
</g>
</g>
<!-- Node7&#45;&gt;Node8 -->
<g id="edge8" class="edge">
<title>Node7&#45;&gt;Node8</title>
<path fill="none" stroke="midnightblue" d="M299.6,-56.32C309.46,-48.26 324.35,-36.08 336.22,-26.37"/>
<polygon fill="midnightblue" stroke="midnightblue" points="338.68,-28.88 344.2,-19.83 334.25,-23.46 338.68,-28.88"/>
</g>
<!-- Node9&#45;&gt;Node2 -->
<g id="edge10" class="edge">
<title>Node9&#45;&gt;Node2</title>
<path fill="none" stroke="midnightblue" d="M109.84,-392.48C92.75,-385.28 70.54,-373.33 57,-356 38.47,-332.28 38,-321.1 38,-291 38,-291 38,-291 38,-233 38,-178.94 101.87,-148.75 146.81,-134.19"/>
<polygon fill="midnightblue" stroke="midnightblue" points="148.12,-137.45 156.64,-131.15 146.06,-130.76 148.12,-137.45"/>
</g>
<!-- Node10 -->
<g id="node10" class="node">
<title>Node10</title>
<g id="a_node10"><a xlink:href="struct__iovec_8h.html" target="_top" xlink:title=" ">
<polygon fill="white" stroke="black" points="66,-336.5 66,-355.5 202,-355.5 202,-336.5 66,-336.5"/>
<text text-anchor="middle" x="134" y="-343.5" font-family="Helvetica,sans-Serif" font-size="10.00">bits/types/struct_iovec.h</text>
</a>
</g>
</g>
<!-- Node9&#45;&gt;Node10 -->
<g id="edge11" class="edge">
<title>Node9&#45;&gt;Node10</title>
<path fill="none" stroke="midnightblue" d="M134,-392.08C134,-385.01 134,-374.86 134,-365.99"/>
<polygon fill="midnightblue" stroke="midnightblue" points="137.5,-365.75 134,-355.75 130.5,-365.75 137.5,-365.75"/>
</g>
<!-- Node11 -->
<g id="node11" class="node">
<title>Node11</title>
<g id="a_node11"><a xlink:title=" ">
<polygon fill="white" stroke="#bfbfbf" points="106,-224.5 106,-243.5 162,-243.5 162,-224.5 106,-224.5"/>
<text text-anchor="middle" x="134" y="-231.5" font-family="Helvetica,sans-Serif" font-size="10.00">stddef.h</text>
</a>
</g>
</g>
<!-- Node9&#45;&gt;Node11 -->
<g id="edge13" class="edge">
<title>Node9&#45;&gt;Node11</title>
<path fill="none" stroke="midnightblue" d="M162.37,-392.49C179.75,-385.65 200.6,-374.13 211,-356 215.42,-348.29 213.84,-344.42 211,-336 199.21,-301.09 170,-268.71 151.13,-250.44"/>
<polygon fill="midnightblue" stroke="midnightblue" points="153.45,-247.81 143.77,-243.51 148.65,-252.91 153.45,-247.81"/>
</g>
<!-- Node12 -->
<g id="node12" class="node">
<title>Node12</title>
<g id="a_node12"><a xlink:href="bits_2socket_8h.html" target="_top" xlink:title=" ">
<polygon fill="white" stroke="black" points="346,-336.5 346,-355.5 424,-355.5 424,-336.5 346,-336.5"/>
<text text-anchor="middle" x="385" y="-343.5" font-family="Helvetica,sans-Serif" font-size="10.00">bits/socket.h</text>
</a>
</g>
</g>
<!-- Node9&#45;&gt;Node12 -->
<g id="edge14" class="edge">
<title>Node9&#45;&gt;Node12</title>
<path fill="none" stroke="midnightblue" d="M172.67,-392.68C216.58,-383.23 288.29,-367.81 336.06,-357.53"/>
<polygon fill="midnightblue" stroke="midnightblue" points="336.83,-360.94 345.87,-355.42 335.36,-354.1 336.83,-360.94"/>
</g>
<!-- Node10&#45;&gt;Node11 -->
<g id="edge12" class="edge">
<title>Node10&#45;&gt;Node11</title>
<path fill="none" stroke="midnightblue" d="M134,-336.37C134,-318.62 134,-277.67 134,-253.6"/>
<polygon fill="midnightblue" stroke="midnightblue" points="137.5,-253.59 134,-243.59 130.5,-253.59 137.5,-253.59"/>
</g>
<!-- Node12&#45;&gt;Node11 -->
<g id="edge15" class="edge">
<title>Node12&#45;&gt;Node11</title>
<path fill="none" stroke="midnightblue" d="M366.2,-336.4C346.46,-327.36 314.53,-312.72 287,-300 267.87,-291.16 263.31,-288.44 244,-280 217.76,-268.54 187.66,-256.28 165.58,-247.46"/>
<polygon fill="midnightblue" stroke="midnightblue" points="166.63,-244.11 156.04,-243.66 164.04,-250.61 166.63,-244.11"/>
</g>
<!-- Node13 -->
<g id="node13" class="node">
<title>Node13</title>
<g id="a_node13"><a xlink:href="sys_2types_8h.html" target="_top" xlink:title=" ">
<polygon fill="white" stroke="black" points="296,-280.5 296,-299.5 368,-299.5 368,-280.5 296,-280.5"/>
<text text-anchor="middle" x="332" y="-287.5" font-family="Helvetica,sans-Serif" font-size="10.00">sys/types.h</text>
</a>
</g>
</g>
<!-- Node12&#45;&gt;Node13 -->
<g id="edge16" class="edge">
<title>Node12&#45;&gt;Node13</title>
<path fill="none" stroke="midnightblue" d="M376.25,-336.08C368.53,-328.22 357.1,-316.57 347.78,-307.08"/>
<polygon fill="midnightblue" stroke="midnightblue" points="350.09,-304.44 340.59,-299.75 345.1,-309.34 350.09,-304.44"/>
</g>
<!-- Node22 -->
<g id="node22" class="node">
<title>Node22</title>
<g id="a_node22"><a xlink:href="socket__type_8h.html" target="_top" xlink:title=" ">
<polygon fill="white" stroke="black" points="386.5,-280.5 386.5,-299.5 491.5,-299.5 491.5,-280.5 386.5,-280.5"/>
<text text-anchor="middle" x="439" y="-287.5" font-family="Helvetica,sans-Serif" font-size="10.00">bits/socket_type.h</text>
</a>
</g>
</g>
<!-- Node12&#45;&gt;Node22 -->
<g id="edge33" class="edge">
<title>Node12&#45;&gt;Node22</title>
<path fill="none" stroke="midnightblue" d="M393.92,-336.08C401.78,-328.22 413.43,-316.57 422.92,-307.08"/>
<polygon fill="midnightblue" stroke="midnightblue" points="425.65,-309.3 430.25,-299.75 420.7,-304.35 425.65,-309.3"/>
</g>
<!-- Node23 -->
<g id="node23" class="node">
<title>Node23</title>
<g id="a_node23"><a xlink:href="sockaddr_8h.html" target="_top" xlink:title=" ">
<polygon fill="white" stroke="black" points="509.5,-280.5 509.5,-299.5 598.5,-299.5 598.5,-280.5 509.5,-280.5"/>
<text text-anchor="middle" x="554" y="-287.5" font-family="Helvetica,sans-Serif" font-size="10.00">bits/sockaddr.h</text>
</a>
</g>
</g>
<!-- Node12&#45;&gt;Node23 -->
<g id="edge34" class="edge">
<title>Node12&#45;&gt;Node23</title>
<path fill="none" stroke="midnightblue" d="M411.78,-336.44C440.33,-327.32 485.73,-312.81 517.54,-302.65"/>
<polygon fill="midnightblue" stroke="midnightblue" points="518.89,-305.89 527.35,-299.52 516.76,-299.23 518.89,-305.89"/>
</g>
<!-- Node24 -->
<g id="node24" class="node">
<title>Node24</title>
<g id="a_node24"><a xlink:href="socket-constants_8h.html" target="_top" xlink:title=" ">
<polygon fill="white" stroke="black" points="679.5,-168.5 679.5,-187.5 808.5,-187.5 808.5,-168.5 679.5,-168.5"/>
<text text-anchor="middle" x="744" y="-175.5" font-family="Helvetica,sans-Serif" font-size="10.00">bits/socket&#45;constants.h</text>
</a>
</g>
</g>
<!-- Node12&#45;&gt;Node24 -->
<g id="edge35" class="edge">
<title>Node12&#45;&gt;Node24</title>
<path fill="none" stroke="midnightblue" d="M424.16,-340.63C511.74,-329.95 718.76,-299.22 757,-244 766.59,-230.14 760.96,-210.87 754.38,-196.91"/>
<polygon fill="midnightblue" stroke="midnightblue" points="757.36,-195.07 749.62,-187.84 751.16,-198.32 757.36,-195.07"/>
</g>
<!-- Node13&#45;&gt;Node2 -->
<g id="edge17" class="edge">
<title>Node13&#45;&gt;Node2</title>
<path fill="none" stroke="midnightblue" d="M301.28,-280.5C281.25,-273.57 255.79,-261.94 239,-244 211.47,-214.6 198.55,-167.71 193.22,-141.78"/>
<polygon fill="midnightblue" stroke="midnightblue" points="196.63,-140.95 191.33,-131.77 189.75,-142.25 196.63,-140.95"/>
</g>
<!-- Node13&#45;&gt;Node11 -->
<g id="edge30" class="edge">
<title>Node13&#45;&gt;Node11</title>
<path fill="none" stroke="midnightblue" d="M300.63,-280.44C265.74,-270.93 209.39,-255.56 172.03,-245.37"/>
<polygon fill="midnightblue" stroke="midnightblue" points="172.59,-241.9 162.03,-242.64 170.75,-248.65 172.59,-241.9"/>
</g>
<!-- Node14 -->
<g id="node14" class="node">
<title>Node14</title>
<g id="a_node14"><a xlink:href="bits_2types_8h.html" target="_top" xlink:title=" ">
<polygon fill="white" stroke="black" points="408,-168.5 408,-187.5 482,-187.5 482,-168.5 408,-168.5"/>
<text text-anchor="middle" x="445" y="-175.5" font-family="Helvetica,sans-Serif" font-size="10.00">bits/types.h</text>
</a>
</g>
</g>
<!-- Node13&#45;&gt;Node14 -->
<g id="edge18" class="edge">
<title>Node13&#45;&gt;Node14</title>
<path fill="none" stroke="midnightblue" d="M303.56,-280.47C271.77,-269.49 227.18,-248.83 247,-224 265.5,-200.82 345.24,-188.67 397.71,-183.06"/>
<polygon fill="midnightblue" stroke="midnightblue" points="398.22,-186.53 407.81,-182.03 397.51,-179.57 398.22,-186.53"/>
</g>
<!-- Node18 -->
<g id="node18" class="node">
<title>Node18</title>
<g id="a_node18"><a xlink:href="clockid__t_8h.html" target="_top" xlink:title=" ">
<polygon fill="white" stroke="black" points="256,-224.5 256,-243.5 376,-243.5 376,-224.5 256,-224.5"/>
<text text-anchor="middle" x="316" y="-231.5" font-family="Helvetica,sans-Serif" font-size="10.00">bits/types/clockid_t.h</text>
</a>
</g>
</g>
<!-- Node13&#45;&gt;Node18 -->
<g id="edge24" class="edge">
<title>Node13&#45;&gt;Node18</title>
<path fill="none" stroke="midnightblue" d="M329.36,-280.08C327.21,-272.85 324.12,-262.41 321.45,-253.4"/>
<polygon fill="midnightblue" stroke="midnightblue" points="324.79,-252.34 318.59,-243.75 318.08,-254.33 324.79,-252.34"/>
</g>
<!-- Node19 -->
<g id="node19" class="node">
<title>Node19</title>
<g id="a_node19"><a xlink:href="time__t_8h.html" target="_top" xlink:title=" ">
<polygon fill="white" stroke="black" points="394,-224.5 394,-243.5 502,-243.5 502,-224.5 394,-224.5"/>
<text text-anchor="middle" x="448" y="-231.5" font-family="Helvetica,sans-Serif" font-size="10.00">bits/types/time_t.h</text>
</a>
</g>
</g>
<!-- Node13&#45;&gt;Node19 -->
<g id="edge26" class="edge">
<title>Node13&#45;&gt;Node19</title>
<path fill="none" stroke="midnightblue" d="M350.38,-280.44C369.22,-271.68 398.73,-257.94 420.38,-247.86"/>
<polygon fill="midnightblue" stroke="midnightblue" points="422.12,-250.91 429.71,-243.52 419.16,-244.56 422.12,-250.91"/>
</g>
<!-- Node20 -->
<g id="node20" class="node">
<title>Node20</title>
<g id="a_node20"><a xlink:href="timer__t_8h.html" target="_top" xlink:title=" ">
<polygon fill="white" stroke="black" points="520,-224.5 520,-243.5 632,-243.5 632,-224.5 520,-224.5"/>
<text text-anchor="middle" x="576" y="-231.5" font-family="Helvetica,sans-Serif" font-size="10.00">bits/types/timer_t.h</text>
</a>
</g>
</g>
<!-- Node13&#45;&gt;Node20 -->
<g id="edge28" class="edge">
<title>Node13&#45;&gt;Node20</title>
<path fill="none" stroke="midnightblue" d="M368,-281.03C410.24,-271.68 480.46,-256.14 527.48,-245.74"/>
<polygon fill="midnightblue" stroke="midnightblue" points="528.42,-249.11 537.43,-243.54 526.91,-242.28 528.42,-249.11"/>
</g>
<!-- Node21 -->
<g id="node21" class="node">
<title>Node21</title>
<g id="a_node21"><a xlink:href="stdint-intn_8h.html" target="_top" xlink:title=" ">
<polygon fill="white" stroke="black" points="650.5,-224.5 650.5,-243.5 747.5,-243.5 747.5,-224.5 650.5,-224.5"/>
<text text-anchor="middle" x="699" y="-231.5" font-family="Helvetica,sans-Serif" font-size="10.00">bits/stdint&#45;intn.h</text>
</a>
</g>
</g>
<!-- Node13&#45;&gt;Node21 -->
<g id="edge31" class="edge">
<title>Node13&#45;&gt;Node21</title>
<path fill="none" stroke="midnightblue" d="M368.12,-281.73C371.46,-281.12 374.79,-280.53 378,-280 491.2,-261.19 522.56,-261.04 640.15,-244.1"/>
<polygon fill="midnightblue" stroke="midnightblue" points="640.88,-247.53 650.28,-242.63 639.88,-240.6 640.88,-247.53"/>
</g>
<!-- Node14&#45;&gt;Node2 -->
<g id="edge19" class="edge">
<title>Node14&#45;&gt;Node2</title>
<path fill="none" stroke="midnightblue" d="M407.92,-169.15C361.5,-159.32 282.12,-142.51 233.05,-132.12"/>
<polygon fill="midnightblue" stroke="midnightblue" points="233.58,-128.65 223.07,-130 232.13,-135.5 233.58,-128.65"/>
</g>
<!-- Node14&#45;&gt;Node5 -->
<g id="edge20" class="edge">
<title>Node14&#45;&gt;Node5</title>
<path fill="none" stroke="midnightblue" d="M430.56,-168.22C417.66,-159.93 398.74,-146.61 385,-132 357.3,-102.54 365.11,-82.99 335,-56 319.26,-41.89 298.29,-30.94 280.77,-23.38"/>
<polygon fill="midnightblue" stroke="midnightblue" points="282.03,-20.11 271.45,-19.52 279.35,-26.58 282.03,-20.11"/>
</g>
<!-- Node15 -->
<g id="node15" class="node">
<title>Node15</title>
<g id="a_node15"><a xlink:href="timesize_8h.html" target="_top" xlink:title=" ">
<polygon fill="white" stroke="black" points="667.5,-112.5 667.5,-131.5 756.5,-131.5 756.5,-112.5 667.5,-112.5"/>
<text text-anchor="middle" x="712" y="-119.5" font-family="Helvetica,sans-Serif" font-size="10.00">bits/timesize.h</text>
</a>
</g>
</g>
<!-- Node14&#45;&gt;Node15 -->
<g id="edge21" class="edge">
<title>Node14&#45;&gt;Node15</title>
<path fill="none" stroke="midnightblue" d="M482.13,-169.49C528.34,-160.15 607.54,-144.13 659.83,-133.55"/>
<polygon fill="midnightblue" stroke="midnightblue" points="660.81,-136.92 669.91,-131.51 659.42,-130.06 660.81,-136.92"/>
</g>
<!-- Node16 -->
<g id="node16" class="node">
<title>Node16</title>
<g id="a_node16"><a xlink:href="typesizes_8h.html" target="_top" xlink:title=" ">
<polygon fill="white" stroke="black" points="393.5,-112.5 393.5,-131.5 486.5,-131.5 486.5,-112.5 393.5,-112.5"/>
<text text-anchor="middle" x="440" y="-119.5" font-family="Helvetica,sans-Serif" font-size="10.00">bits/typesizes.h</text>
</a>
</g>
</g>
<!-- Node14&#45;&gt;Node16 -->
<g id="edge22" class="edge">
<title>Node14&#45;&gt;Node16</title>
<path fill="none" stroke="midnightblue" d="M444.17,-168.08C443.52,-161.01 442.58,-150.86 441.76,-141.99"/>
<polygon fill="midnightblue" stroke="midnightblue" points="445.22,-141.39 440.81,-131.75 438.25,-142.03 445.22,-141.39"/>
</g>
<!-- Node17 -->
<g id="node17" class="node">
<title>Node17</title>
<g id="a_node17"><a xlink:href="time64_8h.html" target="_top" xlink:title=" ">
<polygon fill="white" stroke="black" points="504.5,-112.5 504.5,-131.5 585.5,-131.5 585.5,-112.5 504.5,-112.5"/>
<text text-anchor="middle" x="545" y="-119.5" font-family="Helvetica,sans-Serif" font-size="10.00">bits/time64.h</text>
</a>
</g>
</g>
<!-- Node14&#45;&gt;Node17 -->
<g id="edge23" class="edge">
<title>Node14&#45;&gt;Node17</title>
<path fill="none" stroke="midnightblue" d="M461.07,-168.32C476.96,-159.74 501.51,-146.49 519.96,-136.52"/>
<polygon fill="midnightblue" stroke="midnightblue" points="521.84,-139.49 528.97,-131.65 518.51,-133.33 521.84,-139.49"/>
</g>
<!-- Node18&#45;&gt;Node14 -->
<g id="edge25" class="edge">
<title>Node18&#45;&gt;Node14</title>
<path fill="none" stroke="midnightblue" d="M336.44,-224.44C357.67,-215.56 391.1,-201.56 415.25,-191.45"/>
<polygon fill="midnightblue" stroke="midnightblue" points="416.78,-194.61 424.66,-187.52 414.08,-188.15 416.78,-194.61"/>
</g>
<!-- Node19&#45;&gt;Node14 -->
<g id="edge27" class="edge">
<title>Node19&#45;&gt;Node14</title>
<path fill="none" stroke="midnightblue" d="M447.5,-224.08C447.11,-217.01 446.55,-206.86 446.05,-197.99"/>
<polygon fill="midnightblue" stroke="midnightblue" points="449.54,-197.54 445.49,-187.75 442.55,-197.93 449.54,-197.54"/>
</g>
<!-- Node20&#45;&gt;Node14 -->
<g id="edge29" class="edge">
<title>Node20&#45;&gt;Node14</title>
<path fill="none" stroke="midnightblue" d="M555.24,-224.44C533.68,-215.56 499.74,-201.56 475.21,-191.45"/>
<polygon fill="midnightblue" stroke="midnightblue" points="476.24,-188.09 465.66,-187.52 473.57,-194.56 476.24,-188.09"/>
</g>
<!-- Node21&#45;&gt;Node14 -->
<g id="edge32" class="edge">
<title>Node21&#45;&gt;Node14</title>
<path fill="none" stroke="midnightblue" d="M658.75,-224.44C613.44,-214.81 539.89,-199.17 491.98,-188.99"/>
<polygon fill="midnightblue" stroke="midnightblue" points="492.68,-185.56 482.17,-186.9 491.22,-192.4 492.68,-185.56"/>
</g>
<!-- Node24&#45;&gt;Node15 -->
<g id="edge36" class="edge">
<title>Node24&#45;&gt;Node15</title>
<path fill="none" stroke="midnightblue" d="M738.72,-168.08C734.29,-160.61 727.84,-149.72 722.38,-140.52"/>
<polygon fill="midnightblue" stroke="midnightblue" points="725.29,-138.57 717.19,-131.75 719.27,-142.14 725.29,-138.57"/>
</g>
</g>
</svg>
