<?xml version="1.0" encoding="UTF-8" standalone="no"?>
<!DOCTYPE svg PUBLIC "-//W3C//DTD SVG 1.1//EN"
 "http://www.w3.org/Graphics/SVG/1.1/DTD/svg11.dtd">
<!-- Generated by graphviz version 2.44.1 (0)
 -->
<!-- Title: netinet/igmp.h Pages: 1 -->
<svg width="839pt" height="364pt"
 viewBox="0.00 0.00 839.00 364.00" xmlns="http://www.w3.org/2000/svg" xmlns:xlink="http://www.w3.org/1999/xlink">
<g id="graph0" class="graph" transform="scale(1 1) rotate(0) translate(4 360)">
<title>netinet/igmp.h</title>
<polygon fill="white" stroke="transparent" points="-4,4 -4,-360 835,-360 835,4 -4,4"/>
<!-- Node1 -->
<g id="node1" class="node">
<title>Node1</title>
<g id="a_node1"><a xlink:title=" ">
<polygon fill="#bfbfbf" stroke="black" points="200,-336.5 200,-355.5 288,-355.5 288,-336.5 200,-336.5"/>
<text text-anchor="middle" x="244" y="-343.5" font-family="Helvetica,sans-Serif" font-size="10.00">netinet/igmp.h</text>
</a>
</g>
</g>
<!-- Node2 -->
<g id="node2" class="node">
<title>Node2</title>
<g id="a_node2"><a xlink:href="cdefs_8h.html" target="_top" xlink:title=" ">
<polygon fill="white" stroke="black" points="99.5,-168.5 99.5,-187.5 170.5,-187.5 170.5,-168.5 99.5,-168.5"/>
<text text-anchor="middle" x="135" y="-175.5" font-family="Helvetica,sans-Serif" font-size="10.00">sys/cdefs.h</text>
</a>
</g>
</g>
<!-- Node1&#45;&gt;Node2 -->
<g id="edge1" class="edge">
<title>Node1&#45;&gt;Node2</title>
<path fill="none" stroke="midnightblue" d="M238.14,-336.08C220.76,-309.61 169.28,-231.21 146.3,-196.21"/>
<polygon fill="midnightblue" stroke="midnightblue" points="149.04,-194.01 140.63,-187.57 143.19,-197.85 149.04,-194.01"/>
</g>
<!-- Node9 -->
<g id="node9" class="node">
<title>Node9</title>
<g id="a_node9"><a xlink:href="sys_2types_8h.html" target="_top" xlink:title=" ">
<polygon fill="white" stroke="black" points="345,-280.5 345,-299.5 417,-299.5 417,-280.5 345,-280.5"/>
<text text-anchor="middle" x="381" y="-287.5" font-family="Helvetica,sans-Serif" font-size="10.00">sys/types.h</text>
</a>
</g>
</g>
<!-- Node1&#45;&gt;Node9 -->
<g id="edge9" class="edge">
<title>Node1&#45;&gt;Node9</title>
<path fill="none" stroke="midnightblue" d="M265.71,-336.44C288.35,-327.52 324.07,-313.44 349.75,-303.32"/>
<polygon fill="midnightblue" stroke="midnightblue" points="351.37,-306.44 359.39,-299.52 348.81,-299.93 351.37,-306.44"/>
</g>
<!-- Node3 -->
<g id="node3" class="node">
<title>Node3</title>
<g id="a_node3"><a xlink:href="features_8h.html" target="_top" xlink:title=" ">
<polygon fill="white" stroke="black" points="122,-112.5 122,-131.5 188,-131.5 188,-112.5 122,-112.5"/>
<text text-anchor="middle" x="155" y="-119.5" font-family="Helvetica,sans-Serif" font-size="10.00">features.h</text>
</a>
</g>
</g>
<!-- Node2&#45;&gt;Node3 -->
<g id="edge2" class="edge">
<title>Node2&#45;&gt;Node3</title>
<path fill="none" stroke="midnightblue" d="M133.14,-168.08C134.31,-160.69 137.88,-149.95 142.01,-140.81"/>
<polygon fill="midnightblue" stroke="midnightblue" points="145.21,-142.25 146.63,-131.75 138.97,-139.07 145.21,-142.25"/>
</g>
<!-- Node7 -->
<g id="node7" class="node">
<title>Node7</title>
<g id="a_node7"><a xlink:href="wordsize_8h.html" target="_top" xlink:title=" ">
<polygon fill="white" stroke="black" points="206,-112.5 206,-131.5 296,-131.5 296,-112.5 206,-112.5"/>
<text text-anchor="middle" x="251" y="-119.5" font-family="Helvetica,sans-Serif" font-size="10.00">bits/wordsize.h</text>
</a>
</g>
</g>
<!-- Node2&#45;&gt;Node7 -->
<g id="edge7" class="edge">
<title>Node2&#45;&gt;Node7</title>
<path fill="none" stroke="midnightblue" d="M153.38,-168.44C172.22,-159.68 201.73,-145.94 223.38,-135.86"/>
<polygon fill="midnightblue" stroke="midnightblue" points="225.12,-138.91 232.71,-131.52 222.16,-132.56 225.12,-138.91"/>
</g>
<!-- Node8 -->
<g id="node8" class="node">
<title>Node8</title>
<g id="a_node8"><a xlink:href="long-double_8h.html" target="_top" xlink:title=" ">
<polygon fill="white" stroke="black" points="0,-112.5 0,-131.5 104,-131.5 104,-112.5 0,-112.5"/>
<text text-anchor="middle" x="52" y="-119.5" font-family="Helvetica,sans-Serif" font-size="10.00">bits/long&#45;double.h</text>
</a>
</g>
</g>
<!-- Node2&#45;&gt;Node8 -->
<g id="edge8" class="edge">
<title>Node2&#45;&gt;Node8</title>
<path fill="none" stroke="midnightblue" d="M121.66,-168.32C108.84,-159.98 89.22,-147.21 74.06,-137.35"/>
<polygon fill="midnightblue" stroke="midnightblue" points="75.59,-134.17 65.3,-131.65 71.78,-140.04 75.59,-134.17"/>
</g>
<!-- Node3&#45;&gt;Node2 -->
<g id="edge4" class="edge">
<title>Node3&#45;&gt;Node2</title>
<path fill="none" stroke="midnightblue" d="M156.89,-131.75C155.75,-139.09 152.2,-149.82 148.08,-158.98"/>
<polygon fill="midnightblue" stroke="midnightblue" points="144.87,-157.58 143.47,-168.08 151.11,-160.74 144.87,-157.58"/>
</g>
<!-- Node4 -->
<g id="node4" class="node">
<title>Node4</title>
<g id="a_node4"><a xlink:href="stdc-predef_8h.html" target="_top" xlink:title=" ">
<polygon fill="white" stroke="black" points="68,-56.5 68,-75.5 148,-75.5 148,-56.5 68,-56.5"/>
<text text-anchor="middle" x="108" y="-63.5" font-family="Helvetica,sans-Serif" font-size="10.00">stdc&#45;predef.h</text>
</a>
</g>
</g>
<!-- Node3&#45;&gt;Node4 -->
<g id="edge3" class="edge">
<title>Node3&#45;&gt;Node4</title>
<path fill="none" stroke="midnightblue" d="M147.24,-112.08C140.46,-104.3 130.46,-92.8 122.24,-83.37"/>
<polygon fill="midnightblue" stroke="midnightblue" points="124.82,-81 115.62,-75.75 119.54,-85.59 124.82,-81"/>
</g>
<!-- Node5 -->
<g id="node5" class="node">
<title>Node5</title>
<g id="a_node5"><a xlink:href="stubs_8h.html" target="_top" xlink:title=" ">
<polygon fill="white" stroke="black" points="166.5,-56.5 166.5,-75.5 239.5,-75.5 239.5,-56.5 166.5,-56.5"/>
<text text-anchor="middle" x="203" y="-63.5" font-family="Helvetica,sans-Serif" font-size="10.00">gnu/stubs.h</text>
</a>
</g>
</g>
<!-- Node3&#45;&gt;Node5 -->
<g id="edge5" class="edge">
<title>Node3&#45;&gt;Node5</title>
<path fill="none" stroke="midnightblue" d="M162.93,-112.08C169.85,-104.3 180.07,-92.8 188.45,-83.37"/>
<polygon fill="midnightblue" stroke="midnightblue" points="191.19,-85.55 195.22,-75.75 185.96,-80.9 191.19,-85.55"/>
</g>
<!-- Node6 -->
<g id="node6" class="node">
<title>Node6</title>
<g id="a_node6"><a xlink:title=" ">
<polygon fill="white" stroke="#bfbfbf" points="158.5,-0.5 158.5,-19.5 247.5,-19.5 247.5,-0.5 158.5,-0.5"/>
<text text-anchor="middle" x="203" y="-7.5" font-family="Helvetica,sans-Serif" font-size="10.00">gnu/stubs&#45;32.h</text>
</a>
</g>
</g>
<!-- Node5&#45;&gt;Node6 -->
<g id="edge6" class="edge">
<title>Node5&#45;&gt;Node6</title>
<path fill="none" stroke="midnightblue" d="M203,-56.08C203,-49.01 203,-38.86 203,-29.99"/>
<polygon fill="midnightblue" stroke="midnightblue" points="206.5,-29.75 203,-19.75 199.5,-29.75 206.5,-29.75"/>
</g>
<!-- Node9&#45;&gt;Node3 -->
<g id="edge10" class="edge">
<title>Node9&#45;&gt;Node3</title>
<path fill="none" stroke="midnightblue" d="M344.8,-287.27C309,-283.81 254.43,-273.65 218,-244 188.55,-220.04 196.6,-201.64 179,-168 174.27,-158.96 168.94,-148.95 164.51,-140.67"/>
<polygon fill="midnightblue" stroke="midnightblue" points="167.45,-138.76 159.64,-131.61 161.29,-142.07 167.45,-138.76"/>
</g>
<!-- Node10 -->
<g id="node10" class="node">
<title>Node10</title>
<g id="a_node10"><a xlink:href="bits_2types_8h.html" target="_top" xlink:title=" ">
<polygon fill="white" stroke="black" points="341,-168.5 341,-187.5 415,-187.5 415,-168.5 341,-168.5"/>
<text text-anchor="middle" x="378" y="-175.5" font-family="Helvetica,sans-Serif" font-size="10.00">bits/types.h</text>
</a>
</g>
</g>
<!-- Node9&#45;&gt;Node10 -->
<g id="edge11" class="edge">
<title>Node9&#45;&gt;Node10</title>
<path fill="none" stroke="midnightblue" d="M378.77,-280.45C376.54,-271.45 373.27,-256.84 372,-244 370.46,-228.47 372.31,-210.85 374.35,-197.87"/>
<polygon fill="midnightblue" stroke="midnightblue" points="377.83,-198.29 376.11,-187.83 370.94,-197.08 377.83,-198.29"/>
</g>
<!-- Node14 -->
<g id="node14" class="node">
<title>Node14</title>
<g id="a_node14"><a xlink:href="clockid__t_8h.html" target="_top" xlink:title=" ">
<polygon fill="white" stroke="black" points="455,-224.5 455,-243.5 575,-243.5 575,-224.5 455,-224.5"/>
<text text-anchor="middle" x="515" y="-231.5" font-family="Helvetica,sans-Serif" font-size="10.00">bits/types/clockid_t.h</text>
</a>
</g>
</g>
<!-- Node9&#45;&gt;Node14 -->
<g id="edge17" class="edge">
<title>Node9&#45;&gt;Node14</title>
<path fill="none" stroke="midnightblue" d="M402.23,-280.44C424.38,-271.52 459.32,-257.44 484.44,-247.32"/>
<polygon fill="midnightblue" stroke="midnightblue" points="485.9,-250.5 493.87,-243.52 483.28,-244.01 485.9,-250.5"/>
</g>
<!-- Node15 -->
<g id="node15" class="node">
<title>Node15</title>
<g id="a_node15"><a xlink:href="time__t_8h.html" target="_top" xlink:title=" ">
<polygon fill="white" stroke="black" points="593,-224.5 593,-243.5 701,-243.5 701,-224.5 593,-224.5"/>
<text text-anchor="middle" x="647" y="-231.5" font-family="Helvetica,sans-Serif" font-size="10.00">bits/types/time_t.h</text>
</a>
</g>
</g>
<!-- Node9&#45;&gt;Node15 -->
<g id="edge19" class="edge">
<title>Node9&#45;&gt;Node15</title>
<path fill="none" stroke="midnightblue" d="M417.15,-281.66C462.96,-272.36 542.25,-256.26 594.67,-245.62"/>
<polygon fill="midnightblue" stroke="midnightblue" points="595.68,-248.99 604.78,-243.57 594.29,-242.13 595.68,-248.99"/>
</g>
<!-- Node16 -->
<g id="node16" class="node">
<title>Node16</title>
<g id="a_node16"><a xlink:href="timer__t_8h.html" target="_top" xlink:title=" ">
<polygon fill="white" stroke="black" points="719,-224.5 719,-243.5 831,-243.5 831,-224.5 719,-224.5"/>
<text text-anchor="middle" x="775" y="-231.5" font-family="Helvetica,sans-Serif" font-size="10.00">bits/types/timer_t.h</text>
</a>
</g>
</g>
<!-- Node9&#45;&gt;Node16 -->
<g id="edge21" class="edge">
<title>Node9&#45;&gt;Node16</title>
<path fill="none" stroke="midnightblue" d="M417.03,-284.09C475.78,-276.08 596.16,-259.66 708.81,-244.16"/>
<polygon fill="midnightblue" stroke="midnightblue" points="709.55,-247.59 718.98,-242.76 708.6,-240.66 709.55,-247.59"/>
</g>
<!-- Node17 -->
<g id="node17" class="node">
<title>Node17</title>
<g id="a_node17"><a xlink:title=" ">
<polygon fill="white" stroke="#bfbfbf" points="381,-224.5 381,-243.5 437,-243.5 437,-224.5 381,-224.5"/>
<text text-anchor="middle" x="409" y="-231.5" font-family="Helvetica,sans-Serif" font-size="10.00">stddef.h</text>
</a>
</g>
</g>
<!-- Node9&#45;&gt;Node17 -->
<g id="edge23" class="edge">
<title>Node9&#45;&gt;Node17</title>
<path fill="none" stroke="midnightblue" d="M385.62,-280.08C389.46,-272.69 395.02,-261.95 399.76,-252.81"/>
<polygon fill="midnightblue" stroke="midnightblue" points="402.97,-254.24 404.46,-243.75 396.75,-251.02 402.97,-254.24"/>
</g>
<!-- Node18 -->
<g id="node18" class="node">
<title>Node18</title>
<g id="a_node18"><a xlink:href="stdint-intn_8h.html" target="_top" xlink:title=" ">
<polygon fill="white" stroke="black" points="227.5,-224.5 227.5,-243.5 324.5,-243.5 324.5,-224.5 227.5,-224.5"/>
<text text-anchor="middle" x="276" y="-231.5" font-family="Helvetica,sans-Serif" font-size="10.00">bits/stdint&#45;intn.h</text>
</a>
</g>
</g>
<!-- Node9&#45;&gt;Node18 -->
<g id="edge24" class="edge">
<title>Node9&#45;&gt;Node18</title>
<path fill="none" stroke="midnightblue" d="M364.13,-280.32C347.29,-271.66 321.19,-258.24 301.76,-248.25"/>
<polygon fill="midnightblue" stroke="midnightblue" points="303.32,-245.12 292.83,-243.65 300.12,-251.34 303.32,-245.12"/>
</g>
<!-- Node10&#45;&gt;Node3 -->
<g id="edge12" class="edge">
<title>Node10&#45;&gt;Node3</title>
<path fill="none" stroke="midnightblue" d="M342.66,-168.44C303.52,-158.96 240.39,-143.68 198.3,-133.49"/>
<polygon fill="midnightblue" stroke="midnightblue" points="198.89,-130.03 188.35,-131.08 197.24,-136.83 198.89,-130.03"/>
</g>
<!-- Node10&#45;&gt;Node7 -->
<g id="edge13" class="edge">
<title>Node10&#45;&gt;Node7</title>
<path fill="none" stroke="midnightblue" d="M357.88,-168.44C336.98,-159.56 304.07,-145.56 280.28,-135.45"/>
<polygon fill="midnightblue" stroke="midnightblue" points="281.6,-132.21 271.03,-131.52 278.86,-138.65 281.6,-132.21"/>
</g>
<!-- Node11 -->
<g id="node11" class="node">
<title>Node11</title>
<g id="a_node11"><a xlink:href="timesize_8h.html" target="_top" xlink:title=" ">
<polygon fill="white" stroke="black" points="314.5,-112.5 314.5,-131.5 403.5,-131.5 403.5,-112.5 314.5,-112.5"/>
<text text-anchor="middle" x="359" y="-119.5" font-family="Helvetica,sans-Serif" font-size="10.00">bits/timesize.h</text>
</a>
</g>
</g>
<!-- Node10&#45;&gt;Node11 -->
<g id="edge14" class="edge">
<title>Node10&#45;&gt;Node11</title>
<path fill="none" stroke="midnightblue" d="M374.86,-168.08C372.32,-160.85 368.64,-150.41 365.47,-141.4"/>
<polygon fill="midnightblue" stroke="midnightblue" points="368.7,-140.02 362.08,-131.75 362.1,-142.35 368.7,-140.02"/>
</g>
<!-- Node12 -->
<g id="node12" class="node">
<title>Node12</title>
<g id="a_node12"><a xlink:href="typesizes_8h.html" target="_top" xlink:title=" ">
<polygon fill="white" stroke="black" points="421.5,-112.5 421.5,-131.5 514.5,-131.5 514.5,-112.5 421.5,-112.5"/>
<text text-anchor="middle" x="468" y="-119.5" font-family="Helvetica,sans-Serif" font-size="10.00">bits/typesizes.h</text>
</a>
</g>
</g>
<!-- Node10&#45;&gt;Node12 -->
<g id="edge15" class="edge">
<title>Node10&#45;&gt;Node12</title>
<path fill="none" stroke="midnightblue" d="M392.46,-168.32C406.5,-159.9 428.05,-146.97 444.54,-137.07"/>
<polygon fill="midnightblue" stroke="midnightblue" points="446.8,-139.8 453.58,-131.65 443.2,-133.8 446.8,-139.8"/>
</g>
<!-- Node13 -->
<g id="node13" class="node">
<title>Node13</title>
<g id="a_node13"><a xlink:href="time64_8h.html" target="_top" xlink:title=" ">
<polygon fill="white" stroke="black" points="532.5,-112.5 532.5,-131.5 613.5,-131.5 613.5,-112.5 532.5,-112.5"/>
<text text-anchor="middle" x="573" y="-119.5" font-family="Helvetica,sans-Serif" font-size="10.00">bits/time64.h</text>
</a>
</g>
</g>
<!-- Node10&#45;&gt;Node13 -->
<g id="edge16" class="edge">
<title>Node10&#45;&gt;Node13</title>
<path fill="none" stroke="midnightblue" d="M408.9,-168.44C442.27,-159.2 495.59,-144.44 532.35,-134.26"/>
<polygon fill="midnightblue" stroke="midnightblue" points="533.54,-137.56 542.25,-131.52 531.67,-130.81 533.54,-137.56"/>
</g>
<!-- Node14&#45;&gt;Node10 -->
<g id="edge18" class="edge">
<title>Node14&#45;&gt;Node10</title>
<path fill="none" stroke="midnightblue" d="M493.29,-224.44C470.65,-215.52 434.93,-201.44 409.25,-191.32"/>
<polygon fill="midnightblue" stroke="midnightblue" points="410.19,-187.93 399.61,-187.52 407.63,-194.44 410.19,-187.93"/>
</g>
<!-- Node15&#45;&gt;Node10 -->
<g id="edge20" class="edge">
<title>Node15&#45;&gt;Node10</title>
<path fill="none" stroke="midnightblue" d="M604.38,-224.44C555.59,-214.65 475.91,-198.66 425.26,-188.49"/>
<polygon fill="midnightblue" stroke="midnightblue" points="425.72,-185.01 415.23,-186.47 424.34,-191.87 425.72,-185.01"/>
</g>
<!-- Node16&#45;&gt;Node10 -->
<g id="edge22" class="edge">
<title>Node16&#45;&gt;Node10</title>
<path fill="none" stroke="midnightblue" d="M718.98,-225.23C715.94,-224.82 712.93,-224.4 710,-224 608.74,-210.13 490.07,-194.1 425.6,-185.41"/>
<polygon fill="midnightblue" stroke="midnightblue" points="425.72,-181.89 415.35,-184.03 424.79,-188.83 425.72,-181.89"/>
</g>
<!-- Node18&#45;&gt;Node10 -->
<g id="edge25" class="edge">
<title>Node18&#45;&gt;Node10</title>
<path fill="none" stroke="midnightblue" d="M292.39,-224.32C308.67,-215.7 333.87,-202.36 352.72,-192.39"/>
<polygon fill="midnightblue" stroke="midnightblue" points="354.45,-195.43 361.65,-187.65 351.18,-189.24 354.45,-195.43"/>
</g>
</g>
</svg>
