<?xml version="1.0" encoding="UTF-8" standalone="no"?>
<!DOCTYPE svg PUBLIC "-//W3C//DTD SVG 1.1//EN"
 "http://www.w3.org/Graphics/SVG/1.1/DTD/svg11.dtd">
<!-- Generated by graphviz version 2.44.1 (0)
 -->
<!-- Title: netinet/ip6.h Pages: 1 -->
<!--zoomable 532 -->
<svg id="main" version="1.1" xmlns="http://www.w3.org/2000/svg" xmlns:xlink="http://www.w3.org/1999/xlink" xml:space="preserve" onload="init(evt)">
<style type="text/css"><![CDATA[
.edge:hover path { stroke: red; }
.edge:hover polygon { stroke: red; fill: red; }
]]></style>
<script type="text/javascript"><![CDATA[
var edges = document.getElementsByTagName('g');
if (edges && edges.length) {
  for (var i=0;i<edges.length;i++) {
    if (edges[i].id.substr(0,4)=='edge') {
      edges[i].setAttribute('class','edge');
    }
  }
}
]]></script>
        <defs>
                <circle id="rim" cx="0" cy="0" r="7"/>
                <circle id="rim2" cx="0" cy="0" r="3.5"/>
                <g id="zoomPlus">
                        <use xlink:href="#rim" fill="#404040">
                                <set attributeName="fill" to="#808080" begin="zoomplus.mouseover" end="zoomplus.mouseout"/>
                        </use>
                        <path d="M-4,0h8M0,-4v8" fill="none" stroke="white" stroke-width="1.5" pointer-events="none"/>
                </g>
                <g id="zoomMin">
                        <use xlink:href="#rim" fill="#404040">
                                <set attributeName="fill" to="#808080" begin="zoomminus.mouseover" end="zoomminus.mouseout"/>
                        </use>
                        <path d="M-4,0h8" fill="none" stroke="white" stroke-width="1.5" pointer-events="none"/>
                </g>
                <g id="dirArrow">
                        <path fill="none" stroke="white" stroke-width="1.5" d="M0,-3.0v7 M-2.5,-0.5L0,-3.0L2.5,-0.5"/>
                </g>
               <g id="resetDef">
                       <use xlink:href="#rim2" fill="#404040">
                               <set attributeName="fill" to="#808080" begin="reset.mouseover" end="reset.mouseout"/>
                       </use>
               </g>
        </defs>

<script type="text/javascript">
var viewWidth = 1420;
var viewHeight = 532;
var sectionId = 'dynsection-0';
</script>
<script xlink:href="svgpan.js"/>
<svg id="graph" class="graph">
<g id="viewport">
<title>netinet/ip6.h</title>
<polygon fill="white" stroke="transparent" points="-4,4 -4,-528 1416.06,-528 1416.06,4 -4,4"/>
<!-- Node1 -->
<g id="node1" class="node">
<title>Node1</title>
<g id="a_node1"><a xlink:title=" ">
<polygon fill="#bfbfbf" stroke="black" points="998.5,-504.5 998.5,-523.5 1076.5,-523.5 1076.5,-504.5 998.5,-504.5"/>
<text text-anchor="middle" x="1037.5" y="-511.5" font-family="Helvetica,sans-Serif" font-size="10.00">netinet/ip6.h</text>
</a>
</g>
</g>
<!-- Node2 -->
<g id="node2" class="node">
<title>Node2</title>
<g id="a_node2"><a xlink:href="inttypes_8h.html" target="_top" xlink:title=" ">
<polygon fill="white" stroke="black" points="1201,-336.5 1201,-355.5 1266,-355.5 1266,-336.5 1201,-336.5"/>
<text text-anchor="middle" x="1233.5" y="-343.5" font-family="Helvetica,sans-Serif" font-size="10.00">inttypes.h</text>
</a>
</g>
</g>
<!-- Node1&#45;&gt;Node2 -->
<g id="edge1" class="edge">
<title>Node1&#45;&gt;Node2</title>
<path fill="none" stroke="midnightblue" d="M1052.12,-504.37C1078.94,-488.18 1137.14,-451.3 1179.5,-412 1195.56,-397.1 1211.25,-377.47 1221.55,-363.7"/>
<polygon fill="midnightblue" stroke="midnightblue" points="1224.39,-365.74 1227.48,-355.6 1218.75,-361.6 1224.39,-365.74"/>
</g>
<!-- Node20 -->
<g id="node20" class="node">
<title>Node20</title>
<g id="a_node20"><a xlink:href="netinet_2in_8h.html" target="_top" xlink:title=" ">
<polygon fill="white" stroke="black" points="865.5,-448.5 865.5,-467.5 937.5,-467.5 937.5,-448.5 865.5,-448.5"/>
<text text-anchor="middle" x="901.5" y="-455.5" font-family="Helvetica,sans-Serif" font-size="10.00">netinet/in.h</text>
</a>
</g>
</g>
<!-- Node1&#45;&gt;Node20 -->
<g id="edge26" class="edge">
<title>Node1&#45;&gt;Node20</title>
<path fill="none" stroke="midnightblue" d="M1015.95,-504.44C993.47,-495.52 958.01,-481.44 932.52,-471.32"/>
<polygon fill="midnightblue" stroke="midnightblue" points="933.53,-467.95 922.95,-467.52 930.95,-474.46 933.53,-467.95"/>
</g>
<!-- Node3 -->
<g id="node3" class="node">
<title>Node3</title>
<g id="a_node3"><a xlink:href="features_8h.html" target="_top" xlink:title=" ">
<polygon fill="white" stroke="black" points="398.5,-112.5 398.5,-131.5 464.5,-131.5 464.5,-112.5 398.5,-112.5"/>
<text text-anchor="middle" x="431.5" y="-119.5" font-family="Helvetica,sans-Serif" font-size="10.00">features.h</text>
</a>
</g>
</g>
<!-- Node2&#45;&gt;Node3 -->
<g id="edge2" class="edge">
<title>Node2&#45;&gt;Node3</title>
<path fill="none" stroke="midnightblue" d="M1264.3,-336.44C1321.39,-319.07 1434.21,-276.81 1392.5,-224 1309.08,-118.37 861.51,-150.7 567.5,-132 536.54,-130.03 501.62,-127.72 474.92,-125.93"/>
<polygon fill="midnightblue" stroke="midnightblue" points="474.96,-122.43 464.75,-125.25 474.5,-129.41 474.96,-122.43"/>
</g>
<!-- Node10 -->
<g id="node10" class="node">
<title>Node10</title>
<g id="a_node10"><a xlink:href="stdint_8h.html" target="_top" xlink:title=" ">
<polygon fill="white" stroke="black" points="1215,-280.5 1215,-299.5 1268,-299.5 1268,-280.5 1215,-280.5"/>
<text text-anchor="middle" x="1241.5" y="-287.5" font-family="Helvetica,sans-Serif" font-size="10.00">stdint.h</text>
</a>
</g>
</g>
<!-- Node2&#45;&gt;Node10 -->
<g id="edge10" class="edge">
<title>Node2&#45;&gt;Node10</title>
<path fill="none" stroke="midnightblue" d="M1234.82,-336.08C1235.88,-328.93 1237.41,-318.64 1238.73,-309.69"/>
<polygon fill="midnightblue" stroke="midnightblue" points="1242.2,-310.16 1240.2,-299.75 1235.28,-309.13 1242.2,-310.16"/>
</g>
<!-- Node19 -->
<g id="node19" class="node">
<title>Node19</title>
<g id="a_node19"><a xlink:title=" ">
<polygon fill="white" stroke="#bfbfbf" points="843.5,-224.5 843.5,-243.5 899.5,-243.5 899.5,-224.5 843.5,-224.5"/>
<text text-anchor="middle" x="871.5" y="-231.5" font-family="Helvetica,sans-Serif" font-size="10.00">stddef.h</text>
</a>
</g>
</g>
<!-- Node2&#45;&gt;Node19 -->
<g id="edge25" class="edge">
<title>Node2&#45;&gt;Node19</title>
<path fill="none" stroke="midnightblue" d="M1205.4,-336.46C1140.98,-316.89 982.62,-268.77 909.56,-246.57"/>
<polygon fill="midnightblue" stroke="midnightblue" points="910.42,-243.17 899.84,-243.61 908.39,-249.87 910.42,-243.17"/>
</g>
<!-- Node4 -->
<g id="node4" class="node">
<title>Node4</title>
<g id="a_node4"><a xlink:href="stdc-predef_8h.html" target="_top" xlink:title=" ">
<polygon fill="white" stroke="black" points="391.5,-56.5 391.5,-75.5 471.5,-75.5 471.5,-56.5 391.5,-56.5"/>
<text text-anchor="middle" x="431.5" y="-63.5" font-family="Helvetica,sans-Serif" font-size="10.00">stdc&#45;predef.h</text>
</a>
</g>
</g>
<!-- Node3&#45;&gt;Node4 -->
<g id="edge3" class="edge">
<title>Node3&#45;&gt;Node4</title>
<path fill="none" stroke="midnightblue" d="M431.5,-112.08C431.5,-105.01 431.5,-94.86 431.5,-85.99"/>
<polygon fill="midnightblue" stroke="midnightblue" points="435,-85.75 431.5,-75.75 428,-85.75 435,-85.75"/>
</g>
<!-- Node5 -->
<g id="node5" class="node">
<title>Node5</title>
<g id="a_node5"><a xlink:href="cdefs_8h.html" target="_top" xlink:title=" ">
<polygon fill="white" stroke="black" points="490,-56.5 490,-75.5 561,-75.5 561,-56.5 490,-56.5"/>
<text text-anchor="middle" x="525.5" y="-63.5" font-family="Helvetica,sans-Serif" font-size="10.00">sys/cdefs.h</text>
</a>
</g>
</g>
<!-- Node3&#45;&gt;Node5 -->
<g id="edge4" class="edge">
<title>Node3&#45;&gt;Node5</title>
<path fill="none" stroke="midnightblue" d="M441.49,-112.32C454.63,-103.7 477.58,-90.36 496.28,-80.39"/>
<polygon fill="midnightblue" stroke="midnightblue" points="498.09,-83.39 505.32,-75.65 494.84,-77.19 498.09,-83.39"/>
</g>
<!-- Node8 -->
<g id="node8" class="node">
<title>Node8</title>
<g id="a_node8"><a xlink:href="stubs_8h.html" target="_top" xlink:title=" ">
<polygon fill="white" stroke="black" points="300,-56.5 300,-75.5 373,-75.5 373,-56.5 300,-56.5"/>
<text text-anchor="middle" x="336.5" y="-63.5" font-family="Helvetica,sans-Serif" font-size="10.00">gnu/stubs.h</text>
</a>
</g>
</g>
<!-- Node3&#45;&gt;Node8 -->
<g id="edge8" class="edge">
<title>Node3&#45;&gt;Node8</title>
<path fill="none" stroke="midnightblue" d="M416.24,-112.32C401.28,-103.82 378.25,-90.73 360.77,-80.8"/>
<polygon fill="midnightblue" stroke="midnightblue" points="362.15,-77.55 351.73,-75.65 358.69,-83.64 362.15,-77.55"/>
</g>
<!-- Node5&#45;&gt;Node3 -->
<g id="edge5" class="edge">
<title>Node5&#45;&gt;Node3</title>
<path fill="none" stroke="midnightblue" d="M515.54,-75.65C502.42,-84.27 479.47,-97.61 460.77,-107.59"/>
<polygon fill="midnightblue" stroke="midnightblue" points="458.96,-104.59 451.72,-112.32 462.2,-110.79 458.96,-104.59"/>
</g>
<!-- Node6 -->
<g id="node6" class="node">
<title>Node6</title>
<g id="a_node6"><a xlink:href="wordsize_8h.html" target="_top" xlink:title=" ">
<polygon fill="white" stroke="black" points="752.5,-0.5 752.5,-19.5 842.5,-19.5 842.5,-0.5 752.5,-0.5"/>
<text text-anchor="middle" x="797.5" y="-7.5" font-family="Helvetica,sans-Serif" font-size="10.00">bits/wordsize.h</text>
</a>
</g>
</g>
<!-- Node5&#45;&gt;Node6 -->
<g id="edge6" class="edge">
<title>Node5&#45;&gt;Node6</title>
<path fill="none" stroke="midnightblue" d="M561.06,-57.94C607.73,-48.67 690.06,-32.33 744.2,-21.58"/>
<polygon fill="midnightblue" stroke="midnightblue" points="745.18,-24.96 754.3,-19.58 743.81,-18.09 745.18,-24.96"/>
</g>
<!-- Node7 -->
<g id="node7" class="node">
<title>Node7</title>
<g id="a_node7"><a xlink:href="long-double_8h.html" target="_top" xlink:title=" ">
<polygon fill="white" stroke="black" points="473.5,-0.5 473.5,-19.5 577.5,-19.5 577.5,-0.5 473.5,-0.5"/>
<text text-anchor="middle" x="525.5" y="-7.5" font-family="Helvetica,sans-Serif" font-size="10.00">bits/long&#45;double.h</text>
</a>
</g>
</g>
<!-- Node5&#45;&gt;Node7 -->
<g id="edge7" class="edge">
<title>Node5&#45;&gt;Node7</title>
<path fill="none" stroke="midnightblue" d="M525.5,-56.08C525.5,-49.01 525.5,-38.86 525.5,-29.99"/>
<polygon fill="midnightblue" stroke="midnightblue" points="529,-29.75 525.5,-19.75 522,-29.75 529,-29.75"/>
</g>
<!-- Node9 -->
<g id="node9" class="node">
<title>Node9</title>
<g id="a_node9"><a xlink:title=" ">
<polygon fill="white" stroke="#bfbfbf" points="292,-0.5 292,-19.5 381,-19.5 381,-0.5 292,-0.5"/>
<text text-anchor="middle" x="336.5" y="-7.5" font-family="Helvetica,sans-Serif" font-size="10.00">gnu/stubs&#45;32.h</text>
</a>
</g>
</g>
<!-- Node8&#45;&gt;Node9 -->
<g id="edge9" class="edge">
<title>Node8&#45;&gt;Node9</title>
<path fill="none" stroke="midnightblue" d="M336.5,-56.08C336.5,-49.01 336.5,-38.86 336.5,-29.99"/>
<polygon fill="midnightblue" stroke="midnightblue" points="340,-29.75 336.5,-19.75 333,-29.75 340,-29.75"/>
</g>
<!-- Node10&#45;&gt;Node6 -->
<g id="edge20" class="edge">
<title>Node10&#45;&gt;Node6</title>
<path fill="none" stroke="midnightblue" d="M1268.01,-288.48C1301.57,-286.36 1359.03,-277.65 1392.5,-244 1413.73,-222.66 1411.5,-209.1 1411.5,-179 1411.5,-179 1411.5,-179 1411.5,-121 1411.5,-64.5 1003.41,-27.01 852.63,-15.09"/>
<polygon fill="midnightblue" stroke="midnightblue" points="852.89,-11.6 842.65,-14.31 852.35,-18.58 852.89,-11.6"/>
</g>
<!-- Node11 -->
<g id="node11" class="node">
<title>Node11</title>
<g id="a_node11"><a xlink:href="libc-header-start_8h.html" target="_top" xlink:title=" ">
<polygon fill="white" stroke="black" points="1020.5,-168.5 1020.5,-187.5 1148.5,-187.5 1148.5,-168.5 1020.5,-168.5"/>
<text text-anchor="middle" x="1084.5" y="-175.5" font-family="Helvetica,sans-Serif" font-size="10.00">bits/libc&#45;header&#45;start.h</text>
</a>
</g>
</g>
<!-- Node10&#45;&gt;Node11 -->
<g id="edge11" class="edge">
<title>Node10&#45;&gt;Node11</title>
<path fill="none" stroke="midnightblue" d="M1247.28,-280.46C1255.56,-267.04 1268.47,-240.82 1255.5,-224 1243.21,-208.05 1198.61,-196.63 1158.04,-189.29"/>
<polygon fill="midnightblue" stroke="midnightblue" points="1158.57,-185.83 1148.11,-187.55 1157.36,-192.72 1158.57,-185.83"/>
</g>
<!-- Node12 -->
<g id="node12" class="node">
<title>Node12</title>
<g id="a_node12"><a xlink:href="bits_2types_8h.html" target="_top" xlink:title=" ">
<polygon fill="white" stroke="black" points="685.5,-168.5 685.5,-187.5 759.5,-187.5 759.5,-168.5 685.5,-168.5"/>
<text text-anchor="middle" x="722.5" y="-175.5" font-family="Helvetica,sans-Serif" font-size="10.00">bits/types.h</text>
</a>
</g>
</g>
<!-- Node10&#45;&gt;Node12 -->
<g id="edge13" class="edge">
<title>Node10&#45;&gt;Node12</title>
<path fill="none" stroke="midnightblue" d="M1241.8,-280.19C1241.77,-265.91 1239.39,-237.89 1222.5,-224 1187.99,-195.62 887.95,-183.83 769.91,-180.27"/>
<polygon fill="midnightblue" stroke="midnightblue" points="769.83,-176.76 759.73,-179.96 769.63,-183.76 769.83,-176.76"/>
</g>
<!-- Node16 -->
<g id="node16" class="node">
<title>Node16</title>
<g id="a_node16"><a xlink:href="bits_2wchar_8h.html" target="_top" xlink:title=" ">
<polygon fill="white" stroke="black" points="1308,-224.5 1308,-243.5 1383,-243.5 1383,-224.5 1308,-224.5"/>
<text text-anchor="middle" x="1345.5" y="-231.5" font-family="Helvetica,sans-Serif" font-size="10.00">bits/wchar.h</text>
</a>
</g>
</g>
<!-- Node10&#45;&gt;Node16 -->
<g id="edge19" class="edge">
<title>Node10&#45;&gt;Node16</title>
<path fill="none" stroke="midnightblue" d="M1258.21,-280.32C1274.81,-271.7 1300.5,-258.36 1319.72,-248.39"/>
<polygon fill="midnightblue" stroke="midnightblue" points="1321.57,-251.37 1328.83,-243.65 1318.34,-245.16 1321.57,-251.37"/>
</g>
<!-- Node17 -->
<g id="node17" class="node">
<title>Node17</title>
<g id="a_node17"><a xlink:href="stdint-intn_8h.html" target="_top" xlink:title=" ">
<polygon fill="white" stroke="black" points="918,-224.5 918,-243.5 1015,-243.5 1015,-224.5 918,-224.5"/>
<text text-anchor="middle" x="966.5" y="-231.5" font-family="Helvetica,sans-Serif" font-size="10.00">bits/stdint&#45;intn.h</text>
</a>
</g>
</g>
<!-- Node10&#45;&gt;Node17 -->
<g id="edge21" class="edge">
<title>Node10&#45;&gt;Node17</title>
<path fill="none" stroke="midnightblue" d="M1214.88,-283.77C1170.03,-274.97 1078.57,-257.01 1020.02,-245.51"/>
<polygon fill="midnightblue" stroke="midnightblue" points="1020.69,-242.08 1010.21,-243.58 1019.35,-248.94 1020.69,-242.08"/>
</g>
<!-- Node18 -->
<g id="node18" class="node">
<title>Node18</title>
<g id="a_node18"><a xlink:href="stdint-uintn_8h.html" target="_top" xlink:title=" ">
<polygon fill="white" stroke="black" points="1110,-224.5 1110,-243.5 1213,-243.5 1213,-224.5 1110,-224.5"/>
<text text-anchor="middle" x="1161.5" y="-231.5" font-family="Helvetica,sans-Serif" font-size="10.00">bits/stdint&#45;uintn.h</text>
</a>
</g>
</g>
<!-- Node10&#45;&gt;Node18 -->
<g id="edge23" class="edge">
<title>Node10&#45;&gt;Node18</title>
<path fill="none" stroke="midnightblue" d="M1228.65,-280.32C1216.28,-271.98 1197.37,-259.21 1182.76,-249.35"/>
<polygon fill="midnightblue" stroke="midnightblue" points="1184.57,-246.35 1174.32,-243.65 1180.65,-252.15 1184.57,-246.35"/>
</g>
<!-- Node11&#45;&gt;Node3 -->
<g id="edge12" class="edge">
<title>Node11&#45;&gt;Node3</title>
<path fill="none" stroke="midnightblue" d="M1020.4,-171.7C887.94,-160.75 587.06,-135.86 474.8,-126.58"/>
<polygon fill="midnightblue" stroke="midnightblue" points="474.79,-123.07 464.54,-125.73 474.22,-130.04 474.79,-123.07"/>
</g>
<!-- Node12&#45;&gt;Node3 -->
<g id="edge14" class="edge">
<title>Node12&#45;&gt;Node3</title>
<path fill="none" stroke="midnightblue" d="M685.35,-170.11C631.55,-160.12 532.14,-141.68 474.99,-131.07"/>
<polygon fill="midnightblue" stroke="midnightblue" points="475.3,-127.57 464.83,-129.19 474.03,-134.45 475.3,-127.57"/>
</g>
<!-- Node12&#45;&gt;Node6 -->
<g id="edge15" class="edge">
<title>Node12&#45;&gt;Node6</title>
<path fill="none" stroke="midnightblue" d="M738.79,-168.42C751.75,-160.69 769.19,-148.08 778.5,-132 797.17,-99.75 799.18,-54.95 798.59,-29.9"/>
<polygon fill="midnightblue" stroke="midnightblue" points="802.08,-29.46 798.18,-19.61 795.09,-29.74 802.08,-29.46"/>
</g>
<!-- Node13 -->
<g id="node13" class="node">
<title>Node13</title>
<g id="a_node13"><a xlink:href="timesize_8h.html" target="_top" xlink:title=" ">
<polygon fill="white" stroke="black" points="85,-112.5 85,-131.5 174,-131.5 174,-112.5 85,-112.5"/>
<text text-anchor="middle" x="129.5" y="-119.5" font-family="Helvetica,sans-Serif" font-size="10.00">bits/timesize.h</text>
</a>
</g>
</g>
<!-- Node12&#45;&gt;Node13 -->
<g id="edge16" class="edge">
<title>Node12&#45;&gt;Node13</title>
<path fill="none" stroke="midnightblue" d="M685.41,-173.62C584.27,-164.41 303.32,-138.83 184.11,-127.97"/>
<polygon fill="midnightblue" stroke="midnightblue" points="184.38,-124.48 174.11,-127.06 183.75,-131.45 184.38,-124.48"/>
</g>
<!-- Node14 -->
<g id="node14" class="node">
<title>Node14</title>
<g id="a_node14"><a xlink:href="typesizes_8h.html" target="_top" xlink:title=" ">
<polygon fill="white" stroke="black" points="676,-112.5 676,-131.5 769,-131.5 769,-112.5 676,-112.5"/>
<text text-anchor="middle" x="722.5" y="-119.5" font-family="Helvetica,sans-Serif" font-size="10.00">bits/typesizes.h</text>
</a>
</g>
</g>
<!-- Node12&#45;&gt;Node14 -->
<g id="edge17" class="edge">
<title>Node12&#45;&gt;Node14</title>
<path fill="none" stroke="midnightblue" d="M722.5,-168.08C722.5,-161.01 722.5,-150.86 722.5,-141.99"/>
<polygon fill="midnightblue" stroke="midnightblue" points="726,-141.75 722.5,-131.75 719,-141.75 726,-141.75"/>
</g>
<!-- Node15 -->
<g id="node15" class="node">
<title>Node15</title>
<g id="a_node15"><a xlink:href="time64_8h.html" target="_top" xlink:title=" ">
<polygon fill="white" stroke="black" points="577,-112.5 577,-131.5 658,-131.5 658,-112.5 577,-112.5"/>
<text text-anchor="middle" x="617.5" y="-119.5" font-family="Helvetica,sans-Serif" font-size="10.00">bits/time64.h</text>
</a>
</g>
</g>
<!-- Node12&#45;&gt;Node15 -->
<g id="edge18" class="edge">
<title>Node12&#45;&gt;Node15</title>
<path fill="none" stroke="midnightblue" d="M705.63,-168.32C688.79,-159.66 662.69,-146.24 643.26,-136.25"/>
<polygon fill="midnightblue" stroke="midnightblue" points="644.82,-133.12 634.33,-131.65 641.62,-139.34 644.82,-133.12"/>
</g>
<!-- Node17&#45;&gt;Node12 -->
<g id="edge22" class="edge">
<title>Node17&#45;&gt;Node12</title>
<path fill="none" stroke="midnightblue" d="M927.84,-224.44C884.99,-214.96 815.86,-199.66 769.81,-189.47"/>
<polygon fill="midnightblue" stroke="midnightblue" points="770.3,-185.99 759.78,-187.25 768.79,-192.83 770.3,-185.99"/>
</g>
<!-- Node18&#45;&gt;Node12 -->
<g id="edge24" class="edge">
<title>Node18&#45;&gt;Node12</title>
<path fill="none" stroke="midnightblue" d="M1109.99,-225.9C1105.09,-225.25 1100.2,-224.6 1095.5,-224 978.34,-208.95 840.29,-192.67 769.52,-184.44"/>
<polygon fill="midnightblue" stroke="midnightblue" points="769.92,-180.96 759.58,-183.28 769.11,-187.91 769.92,-180.96"/>
</g>
<!-- Node20&#45;&gt;Node3 -->
<g id="edge27" class="edge">
<title>Node20&#45;&gt;Node3</title>
<path fill="none" stroke="midnightblue" d="M865.36,-455.52C716.37,-448.94 157.5,-419.43 157.5,-347 157.5,-347 157.5,-347 157.5,-233 157.5,-183.82 311.44,-146.57 388.55,-130.99"/>
<polygon fill="midnightblue" stroke="midnightblue" points="389.32,-134.4 398.45,-129.02 387.96,-127.54 389.32,-134.4"/>
</g>
<!-- Node20&#45;&gt;Node12 -->
<g id="edge51" class="edge">
<title>Node20&#45;&gt;Node12</title>
<path fill="none" stroke="midnightblue" d="M913.02,-448.41C923.6,-440.05 939.16,-426.52 949.5,-412 1001.68,-338.72 1083.24,-292.14 1024.5,-224 992.23,-186.56 846.73,-179.79 770.08,-178.87"/>
<polygon fill="midnightblue" stroke="midnightblue" points="769.77,-175.37 759.74,-178.78 769.71,-182.37 769.77,-175.37"/>
</g>
<!-- Node20&#45;&gt;Node18 -->
<g id="edge28" class="edge">
<title>Node20&#45;&gt;Node18</title>
<path fill="none" stroke="midnightblue" d="M937.69,-453.94C993.24,-447.09 1098.15,-425.21 1146.5,-356 1167.95,-325.3 1166.91,-279.25 1164.23,-253.72"/>
<polygon fill="midnightblue" stroke="midnightblue" points="1167.67,-253.05 1162.96,-243.57 1160.73,-253.93 1167.67,-253.05"/>
</g>
<!-- Node21 -->
<g id="node21" class="node">
<title>Node21</title>
<g id="a_node21"><a xlink:href="sys_2socket_8h.html" target="_top" xlink:title=" ">
<polygon fill="white" stroke="black" points="863,-392.5 863,-411.5 940,-411.5 940,-392.5 863,-392.5"/>
<text text-anchor="middle" x="901.5" y="-399.5" font-family="Helvetica,sans-Serif" font-size="10.00">sys/socket.h</text>
</a>
</g>
</g>
<!-- Node20&#45;&gt;Node21 -->
<g id="edge29" class="edge">
<title>Node20&#45;&gt;Node21</title>
<path fill="none" stroke="midnightblue" d="M901.5,-448.08C901.5,-441.01 901.5,-430.86 901.5,-421.99"/>
<polygon fill="midnightblue" stroke="midnightblue" points="905,-421.75 901.5,-411.75 898,-421.75 905,-421.75"/>
</g>
<!-- Node31 -->
<g id="node31" class="node">
<title>Node31</title>
<g id="a_node31"><a xlink:href="bits_2in_8h.html" target="_top" xlink:title=" ">
<polygon fill="white" stroke="black" points="711.5,-392.5 711.5,-411.5 767.5,-411.5 767.5,-392.5 711.5,-392.5"/>
<text text-anchor="middle" x="739.5" y="-399.5" font-family="Helvetica,sans-Serif" font-size="10.00">bits/in.h</text>
</a>
</g>
</g>
<!-- Node20&#45;&gt;Node31 -->
<g id="edge52" class="edge">
<title>Node20&#45;&gt;Node31</title>
<path fill="none" stroke="midnightblue" d="M875.83,-448.44C848.58,-439.36 805.32,-424.94 774.85,-414.78"/>
<polygon fill="midnightblue" stroke="midnightblue" points="775.64,-411.36 765.05,-411.52 773.43,-418 775.64,-411.36"/>
</g>
<!-- Node32 -->
<g id="node32" class="node">
<title>Node32</title>
<g id="a_node32"><a xlink:title=" ">
<polygon fill="white" stroke="#bfbfbf" points="786,-392.5 786,-411.5 845,-411.5 845,-392.5 786,-392.5"/>
<text text-anchor="middle" x="815.5" y="-399.5" font-family="Helvetica,sans-Serif" font-size="10.00">endian.h</text>
</a>
</g>
</g>
<!-- Node20&#45;&gt;Node32 -->
<g id="edge53" class="edge">
<title>Node20&#45;&gt;Node32</title>
<path fill="none" stroke="midnightblue" d="M887.68,-448.32C874.27,-439.9 853.68,-426.97 837.91,-417.07"/>
<polygon fill="midnightblue" stroke="midnightblue" points="839.61,-414.01 829.28,-411.65 835.89,-419.94 839.61,-414.01"/>
</g>
<!-- Node33 -->
<g id="node33" class="node">
<title>Node33</title>
<g id="a_node33"><a xlink:href="bits_2byteswap_8h.html" target="_top" xlink:title=" ">
<polygon fill="white" stroke="black" points="223.5,-224.5 223.5,-243.5 317.5,-243.5 317.5,-224.5 223.5,-224.5"/>
<text text-anchor="middle" x="270.5" y="-231.5" font-family="Helvetica,sans-Serif" font-size="10.00">bits/byteswap.h</text>
</a>
</g>
</g>
<!-- Node20&#45;&gt;Node33 -->
<g id="edge54" class="edge">
<title>Node20&#45;&gt;Node33</title>
<path fill="none" stroke="midnightblue" d="M865.36,-451.85C784.55,-439.81 583.58,-406.91 421.5,-356 360.7,-336.9 331.85,-347.62 289.5,-300 278.16,-287.25 273.57,-268.05 271.72,-253.82"/>
<polygon fill="midnightblue" stroke="midnightblue" points="275.19,-253.32 270.75,-243.7 268.22,-253.98 275.19,-253.32"/>
</g>
<!-- Node34 -->
<g id="node34" class="node">
<title>Node34</title>
<g id="a_node34"><a xlink:href="uintn-identity_8h.html" target="_top" xlink:title=" ">
<polygon fill="white" stroke="black" points="1026,-336.5 1026,-355.5 1137,-355.5 1137,-336.5 1026,-336.5"/>
<text text-anchor="middle" x="1081.5" y="-343.5" font-family="Helvetica,sans-Serif" font-size="10.00">bits/uintn&#45;identity.h</text>
</a>
</g>
</g>
<!-- Node20&#45;&gt;Node34 -->
<g id="edge57" class="edge">
<title>Node20&#45;&gt;Node34</title>
<path fill="none" stroke="midnightblue" d="M930.44,-448.35C953.46,-440.74 985.94,-428.33 1011.5,-412 1033,-398.27 1053.93,-377.57 1067.22,-363.24"/>
<polygon fill="midnightblue" stroke="midnightblue" points="1069.99,-365.4 1074.11,-355.64 1064.8,-360.7 1069.99,-365.4"/>
</g>
<!-- Node21&#45;&gt;Node3 -->
<g id="edge30" class="edge">
<title>Node21&#45;&gt;Node3</title>
<path fill="none" stroke="midnightblue" d="M872.78,-392.43C816.11,-375.44 685.99,-336 577.5,-300 575.28,-299.26 419.94,-245.85 418.5,-244 395.26,-214.09 410.95,-166.72 422.44,-141.02"/>
<polygon fill="midnightblue" stroke="midnightblue" points="425.72,-142.27 426.84,-131.74 419.39,-139.28 425.72,-142.27"/>
</g>
<!-- Node21&#45;&gt;Node19 -->
<g id="edge33" class="edge">
<title>Node21&#45;&gt;Node19</title>
<path fill="none" stroke="midnightblue" d="M904.78,-392.13C908.99,-379.59 915.31,-355.96 911.5,-336 905.66,-305.4 890.7,-272.23 880.82,-252.55"/>
<polygon fill="midnightblue" stroke="midnightblue" points="883.89,-250.86 876.2,-243.58 877.67,-254.07 883.89,-250.86"/>
</g>
<!-- Node22 -->
<g id="node22" class="node">
<title>Node22</title>
<g id="a_node22"><a xlink:href="struct__iovec_8h.html" target="_top" xlink:title=" ">
<polygon fill="white" stroke="black" points="766.5,-336.5 766.5,-355.5 902.5,-355.5 902.5,-336.5 766.5,-336.5"/>
<text text-anchor="middle" x="834.5" y="-343.5" font-family="Helvetica,sans-Serif" font-size="10.00">bits/types/struct_iovec.h</text>
</a>
</g>
</g>
<!-- Node21&#45;&gt;Node22 -->
<g id="edge31" class="edge">
<title>Node21&#45;&gt;Node22</title>
<path fill="none" stroke="midnightblue" d="M890.74,-392.32C880.73,-384.26 865.61,-372.08 853.57,-362.37"/>
<polygon fill="midnightblue" stroke="midnightblue" points="855.44,-359.38 845.46,-355.83 851.05,-364.83 855.44,-359.38"/>
</g>
<!-- Node23 -->
<g id="node23" class="node">
<title>Node23</title>
<g id="a_node23"><a xlink:href="bits_2socket_8h.html" target="_top" xlink:title=" ">
<polygon fill="white" stroke="black" points="430.5,-336.5 430.5,-355.5 508.5,-355.5 508.5,-336.5 430.5,-336.5"/>
<text text-anchor="middle" x="469.5" y="-343.5" font-family="Helvetica,sans-Serif" font-size="10.00">bits/socket.h</text>
</a>
</g>
</g>
<!-- Node21&#45;&gt;Node23 -->
<g id="edge34" class="edge">
<title>Node21&#45;&gt;Node23</title>
<path fill="none" stroke="midnightblue" d="M862.81,-393.34C860,-392.86 857.21,-392.41 854.5,-392 709.04,-370.15 671.27,-375.68 525.5,-356 523.28,-355.7 521.01,-355.38 518.72,-355.05"/>
<polygon fill="midnightblue" stroke="midnightblue" points="519.03,-351.56 508.63,-353.55 518,-358.48 519.03,-351.56"/>
</g>
<!-- Node22&#45;&gt;Node19 -->
<g id="edge32" class="edge">
<title>Node22&#45;&gt;Node19</title>
<path fill="none" stroke="midnightblue" d="M837.4,-336.37C843.4,-318.54 857.27,-277.3 865.35,-253.27"/>
<polygon fill="midnightblue" stroke="midnightblue" points="868.74,-254.19 868.61,-243.59 862.1,-251.95 868.74,-254.19"/>
</g>
<!-- Node23&#45;&gt;Node19 -->
<g id="edge35" class="edge">
<title>Node23&#45;&gt;Node19</title>
<path fill="none" stroke="midnightblue" d="M508.81,-337.09C548.94,-328.78 612.91,-314.87 667.5,-300 727.84,-283.56 796.98,-260.66 837.29,-246.88"/>
<polygon fill="midnightblue" stroke="midnightblue" points="838.57,-250.14 846.89,-243.59 836.3,-243.52 838.57,-250.14"/>
</g>
<!-- Node24 -->
<g id="node24" class="node">
<title>Node24</title>
<g id="a_node24"><a xlink:href="sys_2types_8h.html" target="_top" xlink:title=" ">
<polygon fill="white" stroke="black" points="586.5,-280.5 586.5,-299.5 658.5,-299.5 658.5,-280.5 586.5,-280.5"/>
<text text-anchor="middle" x="622.5" y="-287.5" font-family="Helvetica,sans-Serif" font-size="10.00">sys/types.h</text>
</a>
</g>
</g>
<!-- Node23&#45;&gt;Node24 -->
<g id="edge36" class="edge">
<title>Node23&#45;&gt;Node24</title>
<path fill="none" stroke="midnightblue" d="M493.74,-336.44C519.37,-327.4 559.99,-313.06 588.74,-302.92"/>
<polygon fill="midnightblue" stroke="midnightblue" points="590.11,-306.15 598.37,-299.52 587.78,-299.54 590.11,-306.15"/>
</g>
<!-- Node28 -->
<g id="node28" class="node">
<title>Node28</title>
<g id="a_node28"><a xlink:href="socket__type_8h.html" target="_top" xlink:title=" ">
<polygon fill="white" stroke="black" points="299,-280.5 299,-299.5 404,-299.5 404,-280.5 299,-280.5"/>
<text text-anchor="middle" x="351.5" y="-287.5" font-family="Helvetica,sans-Serif" font-size="10.00">bits/socket_type.h</text>
</a>
</g>
</g>
<!-- Node23&#45;&gt;Node28 -->
<g id="edge47" class="edge">
<title>Node23&#45;&gt;Node28</title>
<path fill="none" stroke="midnightblue" d="M450.8,-336.44C431.56,-327.64 401.35,-313.81 379.3,-303.72"/>
<polygon fill="midnightblue" stroke="midnightblue" points="380.66,-300.5 370.11,-299.52 377.75,-306.86 380.66,-300.5"/>
</g>
<!-- Node29 -->
<g id="node29" class="node">
<title>Node29</title>
<g id="a_node29"><a xlink:href="sockaddr_8h.html" target="_top" xlink:title=" ">
<polygon fill="white" stroke="black" points="422,-280.5 422,-299.5 511,-299.5 511,-280.5 422,-280.5"/>
<text text-anchor="middle" x="466.5" y="-287.5" font-family="Helvetica,sans-Serif" font-size="10.00">bits/sockaddr.h</text>
</a>
</g>
</g>
<!-- Node23&#45;&gt;Node29 -->
<g id="edge48" class="edge">
<title>Node23&#45;&gt;Node29</title>
<path fill="none" stroke="midnightblue" d="M469,-336.08C468.61,-329.01 468.05,-318.86 467.55,-309.99"/>
<polygon fill="midnightblue" stroke="midnightblue" points="471.04,-309.54 466.99,-299.75 464.05,-309.93 471.04,-309.54"/>
</g>
<!-- Node30 -->
<g id="node30" class="node">
<title>Node30</title>
<g id="a_node30"><a xlink:href="socket-constants_8h.html" target="_top" xlink:title=" ">
<polygon fill="white" stroke="black" points="0,-168.5 0,-187.5 129,-187.5 129,-168.5 0,-168.5"/>
<text text-anchor="middle" x="64.5" y="-175.5" font-family="Helvetica,sans-Serif" font-size="10.00">bits/socket&#45;constants.h</text>
</a>
</g>
</g>
<!-- Node23&#45;&gt;Node30 -->
<g id="edge49" class="edge">
<title>Node23&#45;&gt;Node30</title>
<path fill="none" stroke="midnightblue" d="M430.37,-338.13C393.32,-330.96 336.51,-318.19 289.5,-300 211,-269.62 125.23,-217.79 86.12,-193"/>
<polygon fill="midnightblue" stroke="midnightblue" points="87.95,-190.02 77.64,-187.59 84.18,-195.92 87.95,-190.02"/>
</g>
<!-- Node24&#45;&gt;Node3 -->
<g id="edge37" class="edge">
<title>Node24&#45;&gt;Node3</title>
<path fill="none" stroke="midnightblue" d="M586.46,-282.92C534.09,-273.72 442.12,-256.06 432.5,-244 409.12,-214.68 417.86,-167.42 425.29,-141.49"/>
<polygon fill="midnightblue" stroke="midnightblue" points="428.68,-142.39 428.3,-131.8 421.99,-140.31 428.68,-142.39"/>
</g>
<!-- Node24&#45;&gt;Node12 -->
<g id="edge38" class="edge">
<title>Node24&#45;&gt;Node12</title>
<path fill="none" stroke="midnightblue" d="M586.29,-282.51C535.84,-273.1 449.53,-255.53 440.5,-244 435.02,-237 434.73,-230.76 440.5,-224 470.09,-189.31 602.77,-181.24 675.1,-179.44"/>
<polygon fill="midnightblue" stroke="midnightblue" points="675.39,-182.94 685.31,-179.22 675.24,-175.94 675.39,-182.94"/>
</g>
<!-- Node24&#45;&gt;Node17 -->
<g id="edge46" class="edge">
<title>Node24&#45;&gt;Node17</title>
<path fill="none" stroke="midnightblue" d="M658.66,-283.32C717.94,-274.02 836.29,-255.44 907.74,-244.22"/>
<polygon fill="midnightblue" stroke="midnightblue" points="908.59,-247.63 917.93,-242.62 907.5,-240.72 908.59,-247.63"/>
</g>
<!-- Node24&#45;&gt;Node19 -->
<g id="edge45" class="edge">
<title>Node24&#45;&gt;Node19</title>
<path fill="none" stroke="midnightblue" d="M658.58,-281.68C698.85,-273.43 766.18,-259.43 833.33,-244.22"/>
<polygon fill="midnightblue" stroke="midnightblue" points="834.26,-247.6 843.24,-241.97 832.71,-240.77 834.26,-247.6"/>
</g>
<!-- Node25 -->
<g id="node25" class="node">
<title>Node25</title>
<g id="a_node25"><a xlink:href="clockid__t_8h.html" target="_top" xlink:title=" ">
<polygon fill="white" stroke="black" points="449.5,-224.5 449.5,-243.5 569.5,-243.5 569.5,-224.5 449.5,-224.5"/>
<text text-anchor="middle" x="509.5" y="-231.5" font-family="Helvetica,sans-Serif" font-size="10.00">bits/types/clockid_t.h</text>
</a>
</g>
</g>
<!-- Node24&#45;&gt;Node25 -->
<g id="edge39" class="edge">
<title>Node24&#45;&gt;Node25</title>
<path fill="none" stroke="midnightblue" d="M604.59,-280.44C586.25,-271.68 557.49,-257.94 536.41,-247.86"/>
<polygon fill="midnightblue" stroke="midnightblue" points="537.85,-244.67 527.32,-243.52 534.83,-250.99 537.85,-244.67"/>
</g>
<!-- Node26 -->
<g id="node26" class="node">
<title>Node26</title>
<g id="a_node26"><a xlink:href="time__t_8h.html" target="_top" xlink:title=" ">
<polygon fill="white" stroke="black" points="587.5,-224.5 587.5,-243.5 695.5,-243.5 695.5,-224.5 587.5,-224.5"/>
<text text-anchor="middle" x="641.5" y="-231.5" font-family="Helvetica,sans-Serif" font-size="10.00">bits/types/time_t.h</text>
</a>
</g>
</g>
<!-- Node24&#45;&gt;Node26 -->
<g id="edge41" class="edge">
<title>Node24&#45;&gt;Node26</title>
<path fill="none" stroke="midnightblue" d="M625.64,-280.08C628.18,-272.85 631.86,-262.41 635.03,-253.4"/>
<polygon fill="midnightblue" stroke="midnightblue" points="638.4,-254.35 638.42,-243.75 631.8,-252.02 638.4,-254.35"/>
</g>
<!-- Node27 -->
<g id="node27" class="node">
<title>Node27</title>
<g id="a_node27"><a xlink:href="timer__t_8h.html" target="_top" xlink:title=" ">
<polygon fill="white" stroke="black" points="713.5,-224.5 713.5,-243.5 825.5,-243.5 825.5,-224.5 713.5,-224.5"/>
<text text-anchor="middle" x="769.5" y="-231.5" font-family="Helvetica,sans-Serif" font-size="10.00">bits/types/timer_t.h</text>
</a>
</g>
</g>
<!-- Node24&#45;&gt;Node27 -->
<g id="edge43" class="edge">
<title>Node24&#45;&gt;Node27</title>
<path fill="none" stroke="midnightblue" d="M645.79,-280.44C670.31,-271.44 709.1,-257.19 736.7,-247.05"/>
<polygon fill="midnightblue" stroke="midnightblue" points="738.14,-250.25 746.32,-243.52 735.72,-243.68 738.14,-250.25"/>
</g>
<!-- Node25&#45;&gt;Node12 -->
<g id="edge40" class="edge">
<title>Node25&#45;&gt;Node12</title>
<path fill="none" stroke="midnightblue" d="M543.25,-224.44C580.02,-215.12 638.95,-200.18 679.12,-190"/>
<polygon fill="midnightblue" stroke="midnightblue" points="680.07,-193.37 688.91,-187.52 678.35,-186.58 680.07,-193.37"/>
</g>
<!-- Node26&#45;&gt;Node12 -->
<g id="edge42" class="edge">
<title>Node26&#45;&gt;Node12</title>
<path fill="none" stroke="midnightblue" d="M654.51,-224.32C667.03,-215.98 686.18,-203.21 700.97,-193.35"/>
<polygon fill="midnightblue" stroke="midnightblue" points="703.14,-196.11 709.52,-187.65 699.26,-190.29 703.14,-196.11"/>
</g>
<!-- Node27&#45;&gt;Node12 -->
<g id="edge44" class="edge">
<title>Node27&#45;&gt;Node12</title>
<path fill="none" stroke="midnightblue" d="M761.74,-224.08C754.96,-216.3 744.96,-204.8 736.74,-195.37"/>
<polygon fill="midnightblue" stroke="midnightblue" points="739.32,-193 730.12,-187.75 734.04,-197.59 739.32,-193"/>
</g>
<!-- Node30&#45;&gt;Node13 -->
<g id="edge50" class="edge">
<title>Node30&#45;&gt;Node13</title>
<path fill="none" stroke="midnightblue" d="M74.94,-168.32C84.65,-160.26 99.32,-148.08 111,-138.37"/>
<polygon fill="midnightblue" stroke="midnightblue" points="113.41,-140.92 118.87,-131.83 108.94,-135.53 113.41,-140.92"/>
</g>
<!-- Node33&#45;&gt;Node3 -->
<g id="edge55" class="edge">
<title>Node33&#45;&gt;Node3</title>
<path fill="none" stroke="midnightblue" d="M276.76,-224.39C286.95,-210.89 308.32,-184.55 331.5,-168 351.21,-153.93 376.02,-142.73 395.99,-135.03"/>
<polygon fill="midnightblue" stroke="midnightblue" points="397.22,-138.3 405.37,-131.53 394.78,-131.75 397.22,-138.3"/>
</g>
<!-- Node33&#45;&gt;Node12 -->
<g id="edge56" class="edge">
<title>Node33&#45;&gt;Node12</title>
<path fill="none" stroke="midnightblue" d="M317.59,-227.37C404.29,-217.02 588.2,-195.04 675.12,-184.66"/>
<polygon fill="midnightblue" stroke="midnightblue" points="675.71,-188.12 685.22,-183.45 674.88,-181.16 675.71,-188.12"/>
</g>
<!-- Node34&#45;&gt;Node12 -->
<g id="edge58" class="edge">
<title>Node34&#45;&gt;Node12</title>
<path fill="none" stroke="midnightblue" d="M1082.79,-336.41C1085.6,-314.15 1089.65,-254.21 1057.5,-224 1016.9,-185.85 852.23,-179.54 769.87,-178.82"/>
<polygon fill="midnightblue" stroke="midnightblue" points="769.8,-175.32 759.78,-178.76 769.75,-182.32 769.8,-175.32"/>
</g>
</g>
</svg>
        <g id="navigator" transform="translate(0 0)" fill="#404254">
                <rect fill="#f2f5e9" fill-opacity="0.5" stroke="#606060" stroke-width=".5" x="0" y="0" width="60" height="60"/>
                <use id="zoomplus" xlink:href="#zoomPlus" x="17" y="9" onmousedown="handleZoom(evt,'in')"/>
                <use id="zoomminus" xlink:href="#zoomMin" x="42" y="9" onmousedown="handleZoom(evt,'out')"/>
                <use id="reset" xlink:href="#resetDef" x="30" y="36" onmousedown="handleReset()"/>
                <g id="arrowUp" xlink:href="#dirArrow" transform="translate(30 24)" onmousedown="handlePan(0,-1)">
                  <use xlink:href="#rim" fill="#404040">
                        <set attributeName="fill" to="#808080" begin="arrowUp.mouseover" end="arrowUp.mouseout"/>
                  </use>
                  <path fill="none" stroke="white" stroke-width="1.5" d="M0,-3.0v7 M-2.5,-0.5L0,-3.0L2.5,-0.5"/>
                </g>
                <g id="arrowRight" xlink:href="#dirArrow" transform="rotate(90) translate(36 -43)" onmousedown="handlePan(1,0)">
                  <use xlink:href="#rim" fill="#404040">
                        <set attributeName="fill" to="#808080" begin="arrowRight.mouseover" end="arrowRight.mouseout"/>
                  </use>
                  <path fill="none" stroke="white" stroke-width="1.5" d="M0,-3.0v7 M-2.5,-0.5L0,-3.0L2.5,-0.5"/>
                </g>
                <g id="arrowDown" xlink:href="#dirArrow" transform="rotate(180) translate(-30 -48)" onmousedown="handlePan(0,1)">
                  <use xlink:href="#rim" fill="#404040">
                        <set attributeName="fill" to="#808080" begin="arrowDown.mouseover" end="arrowDown.mouseout"/>
                  </use>
                  <path fill="none" stroke="white" stroke-width="1.5" d="M0,-3.0v7 M-2.5,-0.5L0,-3.0L2.5,-0.5"/>
                </g>
                <g id="arrowLeft" xlink:href="#dirArrow" transform="rotate(270) translate(-36 17)" onmousedown="handlePan(-1,0)">
                  <use xlink:href="#rim" fill="#404040">
                        <set attributeName="fill" to="#808080" begin="arrowLeft.mouseover" end="arrowLeft.mouseout"/>
                  </use>
                  <path fill="none" stroke="white" stroke-width="1.5" d="M0,-3.0v7 M-2.5,-0.5L0,-3.0L2.5,-0.5"/>
                </g>
        </g>
        <svg viewBox="0 0 15 15" width="100%" height="30px" preserveAspectRatio="xMaxYMin meet">
         <g id="arrow_out" transform="scale(0.3 0.3)">
          <a xlink:href="ip6_8h__incl_org.svg" target="_base">
           <rect id="button" ry="5" rx="5" y="6" x="6" height="38" width="38"
                fill="#f2f5e9" fill-opacity="0.5" stroke="#606060" stroke-width="1.0"/>
           <path id="arrow"
             d="M 11.500037,31.436501 C 11.940474,20.09759 22.043105,11.32322 32.158766,21.979434 L 37.068811,17.246167 C 37.068811,17.246167 37.088388,32 37.088388,32 L 22.160133,31.978069 C 22.160133,31.978069 26.997745,27.140456 26.997745,27.140456 C 18.528582,18.264221 13.291696,25.230495 11.500037,31.436501 z"
             style="fill:#404040;"/>
          </a>
         </g>
        </svg>
</svg>
