<?xml version="1.0" encoding="UTF-8" standalone="no"?>
<!DOCTYPE svg PUBLIC "-//W3C//DTD SVG 1.1//EN"
 "http://www.w3.org/Graphics/SVG/1.1/DTD/svg11.dtd">
<!-- Generated by graphviz version 2.44.1 (0)
 -->
<!-- Title: netinet/ip.h Pages: 1 -->
<!--zoomable 532 -->
<svg id="main" version="1.1" xmlns="http://www.w3.org/2000/svg" xmlns:xlink="http://www.w3.org/1999/xlink" xml:space="preserve" onload="init(evt)">
<style type="text/css"><![CDATA[
.edge:hover path { stroke: red; }
.edge:hover polygon { stroke: red; fill: red; }
]]></style>
<script type="text/javascript"><![CDATA[
var edges = document.getElementsByTagName('g');
if (edges && edges.length) {
  for (var i=0;i<edges.length;i++) {
    if (edges[i].id.substr(0,4)=='edge') {
      edges[i].setAttribute('class','edge');
    }
  }
}
]]></script>
        <defs>
                <circle id="rim" cx="0" cy="0" r="7"/>
                <circle id="rim2" cx="0" cy="0" r="3.5"/>
                <g id="zoomPlus">
                        <use xlink:href="#rim" fill="#404040">
                                <set attributeName="fill" to="#808080" begin="zoomplus.mouseover" end="zoomplus.mouseout"/>
                        </use>
                        <path d="M-4,0h8M0,-4v8" fill="none" stroke="white" stroke-width="1.5" pointer-events="none"/>
                </g>
                <g id="zoomMin">
                        <use xlink:href="#rim" fill="#404040">
                                <set attributeName="fill" to="#808080" begin="zoomminus.mouseover" end="zoomminus.mouseout"/>
                        </use>
                        <path d="M-4,0h8" fill="none" stroke="white" stroke-width="1.5" pointer-events="none"/>
                </g>
                <g id="dirArrow">
                        <path fill="none" stroke="white" stroke-width="1.5" d="M0,-3.0v7 M-2.5,-0.5L0,-3.0L2.5,-0.5"/>
                </g>
               <g id="resetDef">
                       <use xlink:href="#rim2" fill="#404040">
                               <set attributeName="fill" to="#808080" begin="reset.mouseover" end="reset.mouseout"/>
                       </use>
               </g>
        </defs>

<script type="text/javascript">
var viewWidth = 1113;
var viewHeight = 532;
var sectionId = 'dynsection-0';
</script>
<script xlink:href="svgpan.js"/>
<svg id="graph" class="graph">
<g id="viewport">
<title>netinet/ip.h</title>
<polygon fill="white" stroke="transparent" points="-4,4 -4,-528 1109.13,-528 1109.13,4 -4,4"/>
<!-- Node1 -->
<g id="node1" class="node">
<title>Node1</title>
<g id="a_node1"><a xlink:title=" ">
<polygon fill="#bfbfbf" stroke="black" points="795.13,-504.5 795.13,-523.5 867.13,-523.5 867.13,-504.5 795.13,-504.5"/>
<text text-anchor="middle" x="831.13" y="-511.5" font-family="Helvetica,sans-Serif" font-size="10.00">netinet/ip.h</text>
</a>
</g>
</g>
<!-- Node2 -->
<g id="node2" class="node">
<title>Node2</title>
<g id="a_node2"><a xlink:href="features_8h.html" target="_top" xlink:title=" ">
<polygon fill="white" stroke="black" points="884.13,-112.5 884.13,-131.5 950.13,-131.5 950.13,-112.5 884.13,-112.5"/>
<text text-anchor="middle" x="917.13" y="-119.5" font-family="Helvetica,sans-Serif" font-size="10.00">features.h</text>
</a>
</g>
</g>
<!-- Node1&#45;&gt;Node2 -->
<g id="edge1" class="edge">
<title>Node1&#45;&gt;Node2</title>
<path fill="none" stroke="midnightblue" d="M867.23,-506.38C941.63,-491.7 1105.13,-453.68 1105.13,-403 1105.13,-403 1105.13,-403 1105.13,-233 1105.13,-166.25 1015.75,-139.25 960.24,-128.92"/>
<polygon fill="midnightblue" stroke="midnightblue" points="960.76,-125.46 950.3,-127.18 959.55,-132.36 960.76,-125.46"/>
</g>
<!-- Node9 -->
<g id="node9" class="node">
<title>Node9</title>
<g id="a_node9"><a xlink:href="sys_2types_8h.html" target="_top" xlink:title=" ">
<polygon fill="white" stroke="black" points="465.13,-280.5 465.13,-299.5 537.13,-299.5 537.13,-280.5 465.13,-280.5"/>
<text text-anchor="middle" x="501.13" y="-287.5" font-family="Helvetica,sans-Serif" font-size="10.00">sys/types.h</text>
</a>
</g>
</g>
<!-- Node1&#45;&gt;Node9 -->
<g id="edge9" class="edge">
<title>Node1&#45;&gt;Node9</title>
<path fill="none" stroke="midnightblue" d="M795.09,-512.82C646.64,-511.16 86.36,-495.62 4.13,-356 -0.39,-348.34 -1.87,-342.56 4.13,-336 34.19,-303.09 337.08,-294.01 454.74,-291.72"/>
<polygon fill="midnightblue" stroke="midnightblue" points="454.94,-295.21 464.87,-291.53 454.81,-288.21 454.94,-295.21"/>
</g>
<!-- Node19 -->
<g id="node19" class="node">
<title>Node19</title>
<g id="a_node19"><a xlink:href="netinet_2in_8h.html" target="_top" xlink:title=" ">
<polygon fill="white" stroke="black" points="795.13,-448.5 795.13,-467.5 867.13,-467.5 867.13,-448.5 795.13,-448.5"/>
<text text-anchor="middle" x="831.13" y="-455.5" font-family="Helvetica,sans-Serif" font-size="10.00">netinet/in.h</text>
</a>
</g>
</g>
<!-- Node1&#45;&gt;Node19 -->
<g id="edge26" class="edge">
<title>Node1&#45;&gt;Node19</title>
<path fill="none" stroke="midnightblue" d="M831.13,-504.08C831.13,-497.01 831.13,-486.86 831.13,-477.99"/>
<polygon fill="midnightblue" stroke="midnightblue" points="834.63,-477.75 831.13,-467.75 827.63,-477.75 834.63,-477.75"/>
</g>
<!-- Node3 -->
<g id="node3" class="node">
<title>Node3</title>
<g id="a_node3"><a xlink:href="stdc-predef_8h.html" target="_top" xlink:title=" ">
<polygon fill="white" stroke="black" points="972.13,-56.5 972.13,-75.5 1052.13,-75.5 1052.13,-56.5 972.13,-56.5"/>
<text text-anchor="middle" x="1012.13" y="-63.5" font-family="Helvetica,sans-Serif" font-size="10.00">stdc&#45;predef.h</text>
</a>
</g>
</g>
<!-- Node2&#45;&gt;Node3 -->
<g id="edge2" class="edge">
<title>Node2&#45;&gt;Node3</title>
<path fill="none" stroke="midnightblue" d="M932.39,-112.32C947.35,-103.82 970.38,-90.73 987.85,-80.8"/>
<polygon fill="midnightblue" stroke="midnightblue" points="989.94,-83.64 996.9,-75.65 986.48,-77.55 989.94,-83.64"/>
</g>
<!-- Node4 -->
<g id="node4" class="node">
<title>Node4</title>
<g id="a_node4"><a xlink:href="cdefs_8h.html" target="_top" xlink:title=" ">
<polygon fill="white" stroke="black" points="785.63,-56.5 785.63,-75.5 856.63,-75.5 856.63,-56.5 785.63,-56.5"/>
<text text-anchor="middle" x="821.13" y="-63.5" font-family="Helvetica,sans-Serif" font-size="10.00">sys/cdefs.h</text>
</a>
</g>
</g>
<!-- Node2&#45;&gt;Node4 -->
<g id="edge3" class="edge">
<title>Node2&#45;&gt;Node4</title>
<path fill="none" stroke="midnightblue" d="M896.59,-112.32C879.79,-103.9 856.5,-90.97 840.14,-81.07"/>
<polygon fill="midnightblue" stroke="midnightblue" points="841.74,-77.95 831.4,-75.65 838.05,-83.9 841.74,-77.95"/>
</g>
<!-- Node7 -->
<g id="node7" class="node">
<title>Node7</title>
<g id="a_node7"><a xlink:href="stubs_8h.html" target="_top" xlink:title=" ">
<polygon fill="white" stroke="black" points="880.63,-56.5 880.63,-75.5 953.63,-75.5 953.63,-56.5 880.63,-56.5"/>
<text text-anchor="middle" x="917.13" y="-63.5" font-family="Helvetica,sans-Serif" font-size="10.00">gnu/stubs.h</text>
</a>
</g>
</g>
<!-- Node2&#45;&gt;Node7 -->
<g id="edge7" class="edge">
<title>Node2&#45;&gt;Node7</title>
<path fill="none" stroke="midnightblue" d="M917.13,-112.08C917.13,-105.01 917.13,-94.86 917.13,-85.99"/>
<polygon fill="midnightblue" stroke="midnightblue" points="920.63,-85.75 917.13,-75.75 913.63,-85.75 920.63,-85.75"/>
</g>
<!-- Node4&#45;&gt;Node2 -->
<g id="edge4" class="edge">
<title>Node4&#45;&gt;Node2</title>
<path fill="none" stroke="midnightblue" d="M841.62,-75.65C858.41,-84.07 881.69,-97 898.07,-106.9"/>
<polygon fill="midnightblue" stroke="midnightblue" points="896.47,-110.03 906.82,-112.32 900.16,-104.08 896.47,-110.03"/>
</g>
<!-- Node5 -->
<g id="node5" class="node">
<title>Node5</title>
<g id="a_node5"><a xlink:href="wordsize_8h.html" target="_top" xlink:title=" ">
<polygon fill="white" stroke="black" points="646.13,-0.5 646.13,-19.5 736.13,-19.5 736.13,-0.5 646.13,-0.5"/>
<text text-anchor="middle" x="691.13" y="-7.5" font-family="Helvetica,sans-Serif" font-size="10.00">bits/wordsize.h</text>
</a>
</g>
</g>
<!-- Node4&#45;&gt;Node5 -->
<g id="edge5" class="edge">
<title>Node4&#45;&gt;Node5</title>
<path fill="none" stroke="midnightblue" d="M800.53,-56.44C779.13,-47.56 745.44,-33.56 721.1,-23.45"/>
<polygon fill="midnightblue" stroke="midnightblue" points="722.21,-20.12 711.63,-19.52 719.52,-26.58 722.21,-20.12"/>
</g>
<!-- Node6 -->
<g id="node6" class="node">
<title>Node6</title>
<g id="a_node6"><a xlink:href="long-double_8h.html" target="_top" xlink:title=" ">
<polygon fill="white" stroke="black" points="766.13,-0.5 766.13,-19.5 870.13,-19.5 870.13,-0.5 766.13,-0.5"/>
<text text-anchor="middle" x="818.13" y="-7.5" font-family="Helvetica,sans-Serif" font-size="10.00">bits/long&#45;double.h</text>
</a>
</g>
</g>
<!-- Node4&#45;&gt;Node6 -->
<g id="edge6" class="edge">
<title>Node4&#45;&gt;Node6</title>
<path fill="none" stroke="midnightblue" d="M820.63,-56.08C820.24,-49.01 819.67,-38.86 819.18,-29.99"/>
<polygon fill="midnightblue" stroke="midnightblue" points="822.66,-29.54 818.61,-19.75 815.67,-29.93 822.66,-29.54"/>
</g>
<!-- Node8 -->
<g id="node8" class="node">
<title>Node8</title>
<g id="a_node8"><a xlink:title=" ">
<polygon fill="white" stroke="#bfbfbf" points="888.63,-0.5 888.63,-19.5 977.63,-19.5 977.63,-0.5 888.63,-0.5"/>
<text text-anchor="middle" x="933.13" y="-7.5" font-family="Helvetica,sans-Serif" font-size="10.00">gnu/stubs&#45;32.h</text>
</a>
</g>
</g>
<!-- Node7&#45;&gt;Node8 -->
<g id="edge8" class="edge">
<title>Node7&#45;&gt;Node8</title>
<path fill="none" stroke="midnightblue" d="M919.77,-56.08C921.91,-48.85 925,-38.41 927.67,-29.4"/>
<polygon fill="midnightblue" stroke="midnightblue" points="931.05,-30.33 930.53,-19.75 924.34,-28.34 931.05,-30.33"/>
</g>
<!-- Node9&#45;&gt;Node2 -->
<g id="edge10" class="edge">
<title>Node9&#45;&gt;Node2</title>
<path fill="none" stroke="midnightblue" d="M537.24,-287.33C577.39,-283.97 642.81,-273.94 690.13,-244 726.73,-220.84 714.89,-191.72 751.13,-168 788.42,-143.59 838.66,-132.35 874.07,-127.21"/>
<polygon fill="midnightblue" stroke="midnightblue" points="874.65,-130.67 884.09,-125.87 873.72,-123.73 874.65,-130.67"/>
</g>
<!-- Node10 -->
<g id="node10" class="node">
<title>Node10</title>
<g id="a_node10"><a xlink:href="bits_2types_8h.html" target="_top" xlink:title=" ">
<polygon fill="white" stroke="black" points="504.13,-168.5 504.13,-187.5 578.13,-187.5 578.13,-168.5 504.13,-168.5"/>
<text text-anchor="middle" x="541.13" y="-175.5" font-family="Helvetica,sans-Serif" font-size="10.00">bits/types.h</text>
</a>
</g>
</g>
<!-- Node9&#45;&gt;Node10 -->
<g id="edge11" class="edge">
<title>Node9&#45;&gt;Node10</title>
<path fill="none" stroke="midnightblue" d="M537.36,-281.96C585.3,-272.28 664.76,-254.84 673.13,-244 699.07,-210.4 635.71,-193.03 588.05,-184.98"/>
<polygon fill="midnightblue" stroke="midnightblue" points="588.59,-181.52 578.16,-183.4 587.48,-188.43 588.59,-181.52"/>
</g>
<!-- Node14 -->
<g id="node14" class="node">
<title>Node14</title>
<g id="a_node14"><a xlink:href="clockid__t_8h.html" target="_top" xlink:title=" ">
<polygon fill="white" stroke="black" points="173.13,-224.5 173.13,-243.5 293.13,-243.5 293.13,-224.5 173.13,-224.5"/>
<text text-anchor="middle" x="233.13" y="-231.5" font-family="Helvetica,sans-Serif" font-size="10.00">bits/types/clockid_t.h</text>
</a>
</g>
</g>
<!-- Node9&#45;&gt;Node14 -->
<g id="edge17" class="edge">
<title>Node9&#45;&gt;Node14</title>
<path fill="none" stroke="midnightblue" d="M464.98,-281.72C418.81,-272.41 338.55,-256.24 285.63,-245.58"/>
<polygon fill="midnightblue" stroke="midnightblue" points="286.25,-242.13 275.76,-243.59 284.87,-249 286.25,-242.13"/>
</g>
<!-- Node15 -->
<g id="node15" class="node">
<title>Node15</title>
<g id="a_node15"><a xlink:href="time__t_8h.html" target="_top" xlink:title=" ">
<polygon fill="white" stroke="black" points="311.13,-224.5 311.13,-243.5 419.13,-243.5 419.13,-224.5 311.13,-224.5"/>
<text text-anchor="middle" x="365.13" y="-231.5" font-family="Helvetica,sans-Serif" font-size="10.00">bits/types/time_t.h</text>
</a>
</g>
</g>
<!-- Node9&#45;&gt;Node15 -->
<g id="edge19" class="edge">
<title>Node9&#45;&gt;Node15</title>
<path fill="none" stroke="midnightblue" d="M479.58,-280.44C457.09,-271.52 421.64,-257.44 396.15,-247.32"/>
<polygon fill="midnightblue" stroke="midnightblue" points="397.16,-243.95 386.57,-243.52 394.58,-250.46 397.16,-243.95"/>
</g>
<!-- Node16 -->
<g id="node16" class="node">
<title>Node16</title>
<g id="a_node16"><a xlink:href="timer__t_8h.html" target="_top" xlink:title=" ">
<polygon fill="white" stroke="black" points="437.13,-224.5 437.13,-243.5 549.13,-243.5 549.13,-224.5 437.13,-224.5"/>
<text text-anchor="middle" x="493.13" y="-231.5" font-family="Helvetica,sans-Serif" font-size="10.00">bits/types/timer_t.h</text>
</a>
</g>
</g>
<!-- Node9&#45;&gt;Node16 -->
<g id="edge21" class="edge">
<title>Node9&#45;&gt;Node16</title>
<path fill="none" stroke="midnightblue" d="M499.8,-280.08C498.74,-272.93 497.22,-262.64 495.89,-253.69"/>
<polygon fill="midnightblue" stroke="midnightblue" points="499.35,-253.13 494.42,-243.75 492.43,-254.16 499.35,-253.13"/>
</g>
<!-- Node17 -->
<g id="node17" class="node">
<title>Node17</title>
<g id="a_node17"><a xlink:title=" ">
<polygon fill="white" stroke="#bfbfbf" points="759.13,-224.5 759.13,-243.5 815.13,-243.5 815.13,-224.5 759.13,-224.5"/>
<text text-anchor="middle" x="787.13" y="-231.5" font-family="Helvetica,sans-Serif" font-size="10.00">stddef.h</text>
</a>
</g>
</g>
<!-- Node9&#45;&gt;Node17 -->
<g id="edge23" class="edge">
<title>Node9&#45;&gt;Node17</title>
<path fill="none" stroke="midnightblue" d="M537.53,-282.42C595.43,-271.93 705.94,-251.81 745.13,-244 746.36,-243.75 747.61,-243.5 748.88,-243.24"/>
<polygon fill="midnightblue" stroke="midnightblue" points="749.6,-246.67 758.68,-241.21 748.18,-239.81 749.6,-246.67"/>
</g>
<!-- Node18 -->
<g id="node18" class="node">
<title>Node18</title>
<g id="a_node18"><a xlink:href="stdint-intn_8h.html" target="_top" xlink:title=" ">
<polygon fill="white" stroke="black" points="567.63,-224.5 567.63,-243.5 664.63,-243.5 664.63,-224.5 567.63,-224.5"/>
<text text-anchor="middle" x="616.13" y="-231.5" font-family="Helvetica,sans-Serif" font-size="10.00">bits/stdint&#45;intn.h</text>
</a>
</g>
</g>
<!-- Node9&#45;&gt;Node18 -->
<g id="edge24" class="edge">
<title>Node9&#45;&gt;Node18</title>
<path fill="none" stroke="midnightblue" d="M519.35,-280.44C538.02,-271.68 567.28,-257.94 588.74,-247.86"/>
<polygon fill="midnightblue" stroke="midnightblue" points="590.42,-250.93 597.99,-243.52 587.45,-244.6 590.42,-250.93"/>
</g>
<!-- Node10&#45;&gt;Node2 -->
<g id="edge12" class="edge">
<title>Node10&#45;&gt;Node2</title>
<path fill="none" stroke="midnightblue" d="M578.21,-171.67C648.28,-161.61 799.76,-139.86 874.15,-129.17"/>
<polygon fill="midnightblue" stroke="midnightblue" points="874.71,-132.63 884.12,-127.74 873.72,-125.7 874.71,-132.63"/>
</g>
<!-- Node10&#45;&gt;Node5 -->
<g id="edge13" class="edge">
<title>Node10&#45;&gt;Node5</title>
<path fill="none" stroke="midnightblue" d="M578.16,-168.48C599.87,-161.8 626.43,-150.45 644.13,-132 671.99,-102.96 683.85,-55.56 688.47,-29.54"/>
<polygon fill="midnightblue" stroke="midnightblue" points="691.95,-29.95 690.08,-19.52 685.04,-28.84 691.95,-29.95"/>
</g>
<!-- Node11 -->
<g id="node11" class="node">
<title>Node11</title>
<g id="a_node11"><a xlink:href="timesize_8h.html" target="_top" xlink:title=" ">
<polygon fill="white" stroke="black" points="736.63,-112.5 736.63,-131.5 825.63,-131.5 825.63,-112.5 736.63,-112.5"/>
<text text-anchor="middle" x="781.13" y="-119.5" font-family="Helvetica,sans-Serif" font-size="10.00">bits/timesize.h</text>
</a>
</g>
</g>
<!-- Node10&#45;&gt;Node11 -->
<g id="edge14" class="edge">
<title>Node10&#45;&gt;Node11</title>
<path fill="none" stroke="midnightblue" d="M578.36,-168.62C619.98,-159.26 687.49,-144.07 733.06,-133.81"/>
<polygon fill="midnightblue" stroke="midnightblue" points="734.02,-137.19 743.01,-131.58 732.48,-130.36 734.02,-137.19"/>
</g>
<!-- Node12 -->
<g id="node12" class="node">
<title>Node12</title>
<g id="a_node12"><a xlink:href="typesizes_8h.html" target="_top" xlink:title=" ">
<polygon fill="white" stroke="black" points="442.63,-112.5 442.63,-131.5 535.63,-131.5 535.63,-112.5 442.63,-112.5"/>
<text text-anchor="middle" x="489.13" y="-119.5" font-family="Helvetica,sans-Serif" font-size="10.00">bits/typesizes.h</text>
</a>
</g>
</g>
<!-- Node10&#45;&gt;Node12 -->
<g id="edge15" class="edge">
<title>Node10&#45;&gt;Node12</title>
<path fill="none" stroke="midnightblue" d="M532.54,-168.08C524.97,-160.22 513.75,-148.57 504.61,-139.08"/>
<polygon fill="midnightblue" stroke="midnightblue" points="507.01,-136.53 497.55,-131.75 501.97,-141.38 507.01,-136.53"/>
</g>
<!-- Node13 -->
<g id="node13" class="node">
<title>Node13</title>
<g id="a_node13"><a xlink:href="time64_8h.html" target="_top" xlink:title=" ">
<polygon fill="white" stroke="black" points="553.63,-112.5 553.63,-131.5 634.63,-131.5 634.63,-112.5 553.63,-112.5"/>
<text text-anchor="middle" x="594.13" y="-119.5" font-family="Helvetica,sans-Serif" font-size="10.00">bits/time64.h</text>
</a>
</g>
</g>
<!-- Node10&#45;&gt;Node13 -->
<g id="edge16" class="edge">
<title>Node10&#45;&gt;Node13</title>
<path fill="none" stroke="midnightblue" d="M549.88,-168.08C557.6,-160.22 569.03,-148.57 578.34,-139.08"/>
<polygon fill="midnightblue" stroke="midnightblue" points="581.03,-141.34 585.54,-131.75 576.03,-136.44 581.03,-141.34"/>
</g>
<!-- Node14&#45;&gt;Node10 -->
<g id="edge18" class="edge">
<title>Node14&#45;&gt;Node10</title>
<path fill="none" stroke="midnightblue" d="M281.93,-224.44C340.01,-214.26 436.35,-197.37 493.78,-187.3"/>
<polygon fill="midnightblue" stroke="midnightblue" points="494.45,-190.74 503.69,-185.56 493.24,-183.84 494.45,-190.74"/>
</g>
<!-- Node15&#45;&gt;Node10 -->
<g id="edge20" class="edge">
<title>Node15&#45;&gt;Node10</title>
<path fill="none" stroke="midnightblue" d="M393.01,-224.44C422.88,-215.28 470.44,-200.69 503.58,-190.52"/>
<polygon fill="midnightblue" stroke="midnightblue" points="504.83,-193.8 513.37,-187.52 502.78,-187.1 504.83,-193.8"/>
</g>
<!-- Node16&#45;&gt;Node10 -->
<g id="edge22" class="edge">
<title>Node16&#45;&gt;Node10</title>
<path fill="none" stroke="midnightblue" d="M501.05,-224.08C507.97,-216.3 518.19,-204.8 526.58,-195.37"/>
<polygon fill="midnightblue" stroke="midnightblue" points="529.32,-197.55 533.35,-187.75 524.09,-192.9 529.32,-197.55"/>
</g>
<!-- Node18&#45;&gt;Node10 -->
<g id="edge25" class="edge">
<title>Node18&#45;&gt;Node10</title>
<path fill="none" stroke="midnightblue" d="M604.08,-224.32C592.66,-216.11 575.29,-203.6 561.69,-193.81"/>
<polygon fill="midnightblue" stroke="midnightblue" points="563.56,-190.84 553.39,-187.83 559.46,-196.52 563.56,-190.84"/>
</g>
<!-- Node19&#45;&gt;Node2 -->
<g id="edge27" class="edge">
<title>Node19&#45;&gt;Node2</title>
<path fill="none" stroke="midnightblue" d="M867.24,-453.98C921.94,-448.68 1022.19,-435.94 1048.13,-412 1070.24,-391.58 1067.13,-377.1 1067.13,-347 1067.13,-347 1067.13,-347 1067.13,-233 1067.13,-179.56 1004.45,-149.24 960.12,-134.49"/>
<polygon fill="midnightblue" stroke="midnightblue" points="961.01,-131.1 950.42,-131.4 958.89,-137.77 961.01,-131.1"/>
</g>
<!-- Node19&#45;&gt;Node10 -->
<g id="edge42" class="edge">
<title>Node19&#45;&gt;Node10</title>
<path fill="none" stroke="midnightblue" d="M794.99,-453.61C669.76,-441.1 257.22,-393.36 170.13,-300 146.3,-274.46 126.88,-250.07 150.13,-224 172.66,-198.72 394.75,-185.61 493.83,-180.98"/>
<polygon fill="midnightblue" stroke="midnightblue" points="494.04,-184.47 503.87,-180.52 493.72,-177.48 494.04,-184.47"/>
</g>
<!-- Node20 -->
<g id="node20" class="node">
<title>Node20</title>
<g id="a_node20"><a xlink:href="stdint-uintn_8h.html" target="_top" xlink:title=" ">
<polygon fill="white" stroke="black" points="307.63,-336.5 307.63,-355.5 410.63,-355.5 410.63,-336.5 307.63,-336.5"/>
<text text-anchor="middle" x="359.13" y="-343.5" font-family="Helvetica,sans-Serif" font-size="10.00">bits/stdint&#45;uintn.h</text>
</a>
</g>
</g>
<!-- Node19&#45;&gt;Node20 -->
<g id="edge28" class="edge">
<title>Node19&#45;&gt;Node20</title>
<path fill="none" stroke="midnightblue" d="M794.87,-448.55C710.21,-428.82 499.56,-379.73 405.62,-357.84"/>
<polygon fill="midnightblue" stroke="midnightblue" points="406.36,-354.41 395.83,-355.55 404.77,-361.23 406.36,-354.41"/>
</g>
<!-- Node21 -->
<g id="node21" class="node">
<title>Node21</title>
<g id="a_node21"><a xlink:href="sys_2socket_8h.html" target="_top" xlink:title=" ">
<polygon fill="white" stroke="black" points="747.63,-392.5 747.63,-411.5 824.63,-411.5 824.63,-392.5 747.63,-392.5"/>
<text text-anchor="middle" x="786.13" y="-399.5" font-family="Helvetica,sans-Serif" font-size="10.00">sys/socket.h</text>
</a>
</g>
</g>
<!-- Node19&#45;&gt;Node21 -->
<g id="edge30" class="edge">
<title>Node19&#45;&gt;Node21</title>
<path fill="none" stroke="midnightblue" d="M823.69,-448.08C817.27,-440.38 807.82,-429.03 800,-419.65"/>
<polygon fill="midnightblue" stroke="midnightblue" points="802.51,-417.19 793.42,-411.75 797.13,-421.67 802.51,-417.19"/>
</g>
<!-- Node27 -->
<g id="node27" class="node">
<title>Node27</title>
<g id="a_node27"><a xlink:href="bits_2in_8h.html" target="_top" xlink:title=" ">
<polygon fill="white" stroke="black" points="905.13,-392.5 905.13,-411.5 961.13,-411.5 961.13,-392.5 905.13,-392.5"/>
<text text-anchor="middle" x="933.13" y="-399.5" font-family="Helvetica,sans-Serif" font-size="10.00">bits/in.h</text>
</a>
</g>
</g>
<!-- Node19&#45;&gt;Node27 -->
<g id="edge43" class="edge">
<title>Node19&#45;&gt;Node27</title>
<path fill="none" stroke="midnightblue" d="M847.51,-448.32C863.8,-439.7 888.99,-426.36 907.84,-416.39"/>
<polygon fill="midnightblue" stroke="midnightblue" points="909.58,-419.43 916.78,-411.65 906.3,-413.24 909.58,-419.43"/>
</g>
<!-- Node28 -->
<g id="node28" class="node">
<title>Node28</title>
<g id="a_node28"><a xlink:title=" ">
<polygon fill="white" stroke="#bfbfbf" points="979.63,-392.5 979.63,-411.5 1038.63,-411.5 1038.63,-392.5 979.63,-392.5"/>
<text text-anchor="middle" x="1009.13" y="-399.5" font-family="Helvetica,sans-Serif" font-size="10.00">endian.h</text>
</a>
</g>
</g>
<!-- Node19&#45;&gt;Node28 -->
<g id="edge44" class="edge">
<title>Node19&#45;&gt;Node28</title>
<path fill="none" stroke="midnightblue" d="M859.33,-448.44C889.54,-439.28 937.64,-424.69 971.15,-414.52"/>
<polygon fill="midnightblue" stroke="midnightblue" points="972.5,-417.77 981.05,-411.52 970.47,-411.07 972.5,-417.77"/>
</g>
<!-- Node29 -->
<g id="node29" class="node">
<title>Node29</title>
<g id="a_node29"><a xlink:href="bits_2byteswap_8h.html" target="_top" xlink:title=" ">
<polygon fill="white" stroke="black" points="945.13,-224.5 945.13,-243.5 1039.13,-243.5 1039.13,-224.5 945.13,-224.5"/>
<text text-anchor="middle" x="992.13" y="-231.5" font-family="Helvetica,sans-Serif" font-size="10.00">bits/byteswap.h</text>
</a>
</g>
</g>
<!-- Node19&#45;&gt;Node29 -->
<g id="edge45" class="edge">
<title>Node19&#45;&gt;Node29</title>
<path fill="none" stroke="midnightblue" d="M838.44,-448.19C849.8,-434.87 872.81,-409.33 896.13,-392 923.26,-371.83 942.49,-382.78 963.13,-356 986.45,-325.73 991.39,-279.51 992.21,-253.84"/>
<polygon fill="midnightblue" stroke="midnightblue" points="995.71,-253.68 992.35,-243.63 988.71,-253.58 995.71,-253.68"/>
</g>
<!-- Node30 -->
<g id="node30" class="node">
<title>Node30</title>
<g id="a_node30"><a xlink:href="uintn-identity_8h.html" target="_top" xlink:title=" ">
<polygon fill="white" stroke="black" points="13.63,-336.5 13.63,-355.5 124.63,-355.5 124.63,-336.5 13.63,-336.5"/>
<text text-anchor="middle" x="69.13" y="-343.5" font-family="Helvetica,sans-Serif" font-size="10.00">bits/uintn&#45;identity.h</text>
</a>
</g>
</g>
<!-- Node19&#45;&gt;Node30 -->
<g id="edge48" class="edge">
<title>Node19&#45;&gt;Node30</title>
<path fill="none" stroke="midnightblue" d="M794.82,-456.06C660.94,-452.4 199.53,-438.01 139.13,-412 115.19,-401.69 94.26,-379.54 81.67,-363.98"/>
<polygon fill="midnightblue" stroke="midnightblue" points="84.15,-361.47 75.26,-355.71 78.62,-365.76 84.15,-361.47"/>
</g>
<!-- Node20&#45;&gt;Node10 -->
<g id="edge29" class="edge">
<title>Node20&#45;&gt;Node10</title>
<path fill="none" stroke="midnightblue" d="M317.47,-336.44C246.32,-320.05 113.74,-280.76 164.13,-224 185.69,-199.71 397.46,-186.15 493.82,-181.2"/>
<polygon fill="midnightblue" stroke="midnightblue" points="494.07,-184.69 503.88,-180.69 493.71,-177.7 494.07,-184.69"/>
</g>
<!-- Node21&#45;&gt;Node2 -->
<g id="edge31" class="edge">
<title>Node21&#45;&gt;Node2</title>
<path fill="none" stroke="midnightblue" d="M809.96,-392.47C843.88,-378.89 904.76,-348.76 930.13,-300 944.26,-272.82 928.59,-181.08 920.89,-141.47"/>
<polygon fill="midnightblue" stroke="midnightblue" points="924.31,-140.7 918.92,-131.57 917.44,-142.06 924.31,-140.7"/>
</g>
<!-- Node21&#45;&gt;Node17 -->
<g id="edge34" class="edge">
<title>Node21&#45;&gt;Node17</title>
<path fill="none" stroke="midnightblue" d="M747.31,-398C694.48,-393.03 604.18,-381.02 584.13,-356 562.67,-329.24 599.66,-294.4 619.13,-280 629.62,-272.24 702.59,-254.43 748.85,-243.69"/>
<polygon fill="midnightblue" stroke="midnightblue" points="749.89,-247.04 758.84,-241.38 748.31,-240.22 749.89,-247.04"/>
</g>
<!-- Node22 -->
<g id="node22" class="node">
<title>Node22</title>
<g id="a_node22"><a xlink:href="struct__iovec_8h.html" target="_top" xlink:title=" ">
<polygon fill="white" stroke="black" points="593.13,-336.5 593.13,-355.5 729.13,-355.5 729.13,-336.5 593.13,-336.5"/>
<text text-anchor="middle" x="661.13" y="-343.5" font-family="Helvetica,sans-Serif" font-size="10.00">bits/types/struct_iovec.h</text>
</a>
</g>
</g>
<!-- Node21&#45;&gt;Node22 -->
<g id="edge32" class="edge">
<title>Node21&#45;&gt;Node22</title>
<path fill="none" stroke="midnightblue" d="M766.32,-392.44C745.84,-383.6 713.64,-369.69 690.26,-359.59"/>
<polygon fill="midnightblue" stroke="midnightblue" points="691.41,-356.27 680.84,-355.52 688.63,-362.7 691.41,-356.27"/>
</g>
<!-- Node23 -->
<g id="node23" class="node">
<title>Node23</title>
<g id="a_node23"><a xlink:href="bits_2socket_8h.html" target="_top" xlink:title=" ">
<polygon fill="white" stroke="black" points="747.13,-336.5 747.13,-355.5 825.13,-355.5 825.13,-336.5 747.13,-336.5"/>
<text text-anchor="middle" x="786.13" y="-343.5" font-family="Helvetica,sans-Serif" font-size="10.00">bits/socket.h</text>
</a>
</g>
</g>
<!-- Node21&#45;&gt;Node23 -->
<g id="edge35" class="edge">
<title>Node21&#45;&gt;Node23</title>
<path fill="none" stroke="midnightblue" d="M786.13,-392.08C786.13,-385.01 786.13,-374.86 786.13,-365.99"/>
<polygon fill="midnightblue" stroke="midnightblue" points="789.63,-365.75 786.13,-355.75 782.63,-365.75 789.63,-365.75"/>
</g>
<!-- Node22&#45;&gt;Node17 -->
<g id="edge33" class="edge">
<title>Node22&#45;&gt;Node17</title>
<path fill="none" stroke="midnightblue" d="M650.74,-336.48C636.22,-323.53 613.13,-298.48 627.13,-280 634.6,-270.13 703.97,-253.27 748.88,-243.23"/>
<polygon fill="midnightblue" stroke="midnightblue" points="749.88,-246.59 758.89,-241.01 748.37,-239.75 749.88,-246.59"/>
</g>
<!-- Node23&#45;&gt;Node9 -->
<g id="edge37" class="edge">
<title>Node23&#45;&gt;Node9</title>
<path fill="none" stroke="midnightblue" d="M747.09,-337.6C695,-327.73 602.87,-310.28 547.36,-299.76"/>
<polygon fill="midnightblue" stroke="midnightblue" points="547.91,-296.3 537.43,-297.88 546.61,-303.18 547.91,-296.3"/>
</g>
<!-- Node23&#45;&gt;Node17 -->
<g id="edge36" class="edge">
<title>Node23&#45;&gt;Node17</title>
<path fill="none" stroke="midnightblue" d="M786.2,-336.37C786.37,-318.62 786.74,-277.67 786.96,-253.6"/>
<polygon fill="midnightblue" stroke="midnightblue" points="790.46,-253.62 787.05,-243.59 783.46,-253.56 790.46,-253.62"/>
</g>
<!-- Node24 -->
<g id="node24" class="node">
<title>Node24</title>
<g id="a_node24"><a xlink:href="socket__type_8h.html" target="_top" xlink:title=" ">
<polygon fill="white" stroke="black" points="815.63,-280.5 815.63,-299.5 920.63,-299.5 920.63,-280.5 815.63,-280.5"/>
<text text-anchor="middle" x="868.13" y="-287.5" font-family="Helvetica,sans-Serif" font-size="10.00">bits/socket_type.h</text>
</a>
</g>
</g>
<!-- Node23&#45;&gt;Node24 -->
<g id="edge38" class="edge">
<title>Node23&#45;&gt;Node24</title>
<path fill="none" stroke="midnightblue" d="M799.3,-336.32C811.97,-327.98 831.36,-315.21 846.33,-305.35"/>
<polygon fill="midnightblue" stroke="midnightblue" points="848.56,-308.08 854.98,-299.65 844.71,-302.23 848.56,-308.08"/>
</g>
<!-- Node25 -->
<g id="node25" class="node">
<title>Node25</title>
<g id="a_node25"><a xlink:href="sockaddr_8h.html" target="_top" xlink:title=" ">
<polygon fill="white" stroke="black" points="669.63,-280.5 669.63,-299.5 758.63,-299.5 758.63,-280.5 669.63,-280.5"/>
<text text-anchor="middle" x="714.13" y="-287.5" font-family="Helvetica,sans-Serif" font-size="10.00">bits/sockaddr.h</text>
</a>
</g>
</g>
<!-- Node23&#45;&gt;Node25 -->
<g id="edge39" class="edge">
<title>Node23&#45;&gt;Node25</title>
<path fill="none" stroke="midnightblue" d="M774.56,-336.32C763.71,-328.18 747.24,-315.84 734.24,-306.09"/>
<polygon fill="midnightblue" stroke="midnightblue" points="736,-303.03 725.9,-299.83 731.8,-308.63 736,-303.03"/>
</g>
<!-- Node26 -->
<g id="node26" class="node">
<title>Node26</title>
<g id="a_node26"><a xlink:href="socket-constants_8h.html" target="_top" xlink:title=" ">
<polygon fill="white" stroke="black" points="759.63,-168.5 759.63,-187.5 888.63,-187.5 888.63,-168.5 759.63,-168.5"/>
<text text-anchor="middle" x="824.13" y="-175.5" font-family="Helvetica,sans-Serif" font-size="10.00">bits/socket&#45;constants.h</text>
</a>
</g>
</g>
<!-- Node23&#45;&gt;Node26 -->
<g id="edge40" class="edge">
<title>Node23&#45;&gt;Node26</title>
<path fill="none" stroke="midnightblue" d="M748.22,-336.42C715.34,-328.12 671.44,-314.67 661.13,-300 656.01,-292.73 655.56,-286.93 661.13,-280 707.59,-222.16 777.66,-301.84 824.13,-244 834.49,-231.1 832.98,-211.65 829.8,-197.39"/>
<polygon fill="midnightblue" stroke="midnightblue" points="833.17,-196.45 827.21,-187.69 826.41,-198.26 833.17,-196.45"/>
</g>
<!-- Node26&#45;&gt;Node11 -->
<g id="edge41" class="edge">
<title>Node26&#45;&gt;Node11</title>
<path fill="none" stroke="midnightblue" d="M817.02,-168.08C810.89,-160.38 801.86,-149.03 794.39,-139.65"/>
<polygon fill="midnightblue" stroke="midnightblue" points="797.06,-137.39 788.09,-131.75 791.59,-141.75 797.06,-137.39"/>
</g>
<!-- Node29&#45;&gt;Node2 -->
<g id="edge46" class="edge">
<title>Node29&#45;&gt;Node2</title>
<path fill="none" stroke="midnightblue" d="M986.24,-224.37C973.86,-206.22 944.94,-163.8 928.71,-139.99"/>
<polygon fill="midnightblue" stroke="midnightblue" points="931.51,-137.88 922.98,-131.59 925.72,-141.83 931.51,-137.88"/>
</g>
<!-- Node29&#45;&gt;Node10 -->
<g id="edge47" class="edge">
<title>Node29&#45;&gt;Node10</title>
<path fill="none" stroke="midnightblue" d="M944.71,-227.32C858,-216.94 674.83,-195.01 588.3,-184.65"/>
<polygon fill="midnightblue" stroke="midnightblue" points="588.58,-181.16 578.24,-183.44 587.75,-188.11 588.58,-181.16"/>
</g>
<!-- Node30&#45;&gt;Node10 -->
<g id="edge49" class="edge">
<title>Node30&#45;&gt;Node10</title>
<path fill="none" stroke="midnightblue" d="M67.78,-336.35C64.83,-313.94 60.47,-253.67 93.13,-224 122.37,-197.42 384.97,-184.75 494,-180.6"/>
<polygon fill="midnightblue" stroke="midnightblue" points="494.2,-184.1 504.06,-180.23 493.94,-177.1 494.2,-184.1"/>
</g>
</g>
</svg>
        <g id="navigator" transform="translate(0 0)" fill="#404254">
                <rect fill="#f2f5e9" fill-opacity="0.5" stroke="#606060" stroke-width=".5" x="0" y="0" width="60" height="60"/>
                <use id="zoomplus" xlink:href="#zoomPlus" x="17" y="9" onmousedown="handleZoom(evt,'in')"/>
                <use id="zoomminus" xlink:href="#zoomMin" x="42" y="9" onmousedown="handleZoom(evt,'out')"/>
                <use id="reset" xlink:href="#resetDef" x="30" y="36" onmousedown="handleReset()"/>
                <g id="arrowUp" xlink:href="#dirArrow" transform="translate(30 24)" onmousedown="handlePan(0,-1)">
                  <use xlink:href="#rim" fill="#404040">
                        <set attributeName="fill" to="#808080" begin="arrowUp.mouseover" end="arrowUp.mouseout"/>
                  </use>
                  <path fill="none" stroke="white" stroke-width="1.5" d="M0,-3.0v7 M-2.5,-0.5L0,-3.0L2.5,-0.5"/>
                </g>
                <g id="arrowRight" xlink:href="#dirArrow" transform="rotate(90) translate(36 -43)" onmousedown="handlePan(1,0)">
                  <use xlink:href="#rim" fill="#404040">
                        <set attributeName="fill" to="#808080" begin="arrowRight.mouseover" end="arrowRight.mouseout"/>
                  </use>
                  <path fill="none" stroke="white" stroke-width="1.5" d="M0,-3.0v7 M-2.5,-0.5L0,-3.0L2.5,-0.5"/>
                </g>
                <g id="arrowDown" xlink:href="#dirArrow" transform="rotate(180) translate(-30 -48)" onmousedown="handlePan(0,1)">
                  <use xlink:href="#rim" fill="#404040">
                        <set attributeName="fill" to="#808080" begin="arrowDown.mouseover" end="arrowDown.mouseout"/>
                  </use>
                  <path fill="none" stroke="white" stroke-width="1.5" d="M0,-3.0v7 M-2.5,-0.5L0,-3.0L2.5,-0.5"/>
                </g>
                <g id="arrowLeft" xlink:href="#dirArrow" transform="rotate(270) translate(-36 17)" onmousedown="handlePan(-1,0)">
                  <use xlink:href="#rim" fill="#404040">
                        <set attributeName="fill" to="#808080" begin="arrowLeft.mouseover" end="arrowLeft.mouseout"/>
                  </use>
                  <path fill="none" stroke="white" stroke-width="1.5" d="M0,-3.0v7 M-2.5,-0.5L0,-3.0L2.5,-0.5"/>
                </g>
        </g>
        <svg viewBox="0 0 15 15" width="100%" height="30px" preserveAspectRatio="xMaxYMin meet">
         <g id="arrow_out" transform="scale(0.3 0.3)">
          <a xlink:href="ip_8h__incl_org.svg" target="_base">
           <rect id="button" ry="5" rx="5" y="6" x="6" height="38" width="38"
                fill="#f2f5e9" fill-opacity="0.5" stroke="#606060" stroke-width="1.0"/>
           <path id="arrow"
             d="M 11.500037,31.436501 C 11.940474,20.09759 22.043105,11.32322 32.158766,21.979434 L 37.068811,17.246167 C 37.068811,17.246167 37.088388,32 37.088388,32 L 22.160133,31.978069 C 22.160133,31.978069 26.997745,27.140456 26.997745,27.140456 C 18.528582,18.264221 13.291696,25.230495 11.500037,31.436501 z"
             style="fill:#404040;"/>
          </a>
         </g>
        </svg>
</svg>
