<?xml version="1.0" encoding="UTF-8" standalone="no"?>
<!DOCTYPE svg PUBLIC "-//W3C//DTD SVG 1.1//EN"
 "http://www.w3.org/Graphics/SVG/1.1/DTD/svg11.dtd">
<!-- Generated by graphviz version 2.44.1 (0)
 -->
<!-- Title: bits/libc&#45;header&#45;start.h Pages: 1 -->
<!--zoomable 252 -->
<svg id="main" version="1.1" xmlns="http://www.w3.org/2000/svg" xmlns:xlink="http://www.w3.org/1999/xlink" xml:space="preserve" onload="init(evt)">
<style type="text/css"><![CDATA[
.edge:hover path { stroke: red; }
.edge:hover polygon { stroke: red; fill: red; }
]]></style>
<script type="text/javascript"><![CDATA[
var edges = document.getElementsByTagName('g');
if (edges && edges.length) {
  for (var i=0;i<edges.length;i++) {
    if (edges[i].id.substr(0,4)=='edge') {
      edges[i].setAttribute('class','edge');
    }
  }
}
]]></script>
        <defs>
                <circle id="rim" cx="0" cy="0" r="7"/>
                <circle id="rim2" cx="0" cy="0" r="3.5"/>
                <g id="zoomPlus">
                        <use xlink:href="#rim" fill="#404040">
                                <set attributeName="fill" to="#808080" begin="zoomplus.mouseover" end="zoomplus.mouseout"/>
                        </use>
                        <path d="M-4,0h8M0,-4v8" fill="none" stroke="white" stroke-width="1.5" pointer-events="none"/>
                </g>
                <g id="zoomMin">
                        <use xlink:href="#rim" fill="#404040">
                                <set attributeName="fill" to="#808080" begin="zoomminus.mouseover" end="zoomminus.mouseout"/>
                        </use>
                        <path d="M-4,0h8" fill="none" stroke="white" stroke-width="1.5" pointer-events="none"/>
                </g>
                <g id="dirArrow">
                        <path fill="none" stroke="white" stroke-width="1.5" d="M0,-3.0v7 M-2.5,-0.5L0,-3.0L2.5,-0.5"/>
                </g>
               <g id="resetDef">
                       <use xlink:href="#rim2" fill="#404040">
                               <set attributeName="fill" to="#808080" begin="reset.mouseover" end="reset.mouseout"/>
                       </use>
               </g>
        </defs>

<script type="text/javascript">
var viewWidth = 2915;
var viewHeight = 252;
var sectionId = 'dynsection-1';
</script>
<script xlink:href="svgpan.js"/>
<svg id="graph" class="graph">
<g id="viewport">
<title>bits/libc&#45;header&#45;start.h</title>
<polygon fill="white" stroke="transparent" points="-4,4 -4,-248 2910.5,-248 2910.5,4 -4,4"/>
<!-- Node1 -->
<g id="node1" class="node">
<title>Node1</title>
<g id="a_node1"><a xlink:title=" ">
<polygon fill="#bfbfbf" stroke="black" points="1258.5,-224.5 1258.5,-243.5 1386.5,-243.5 1386.5,-224.5 1258.5,-224.5"/>
<text text-anchor="middle" x="1322.5" y="-231.5" font-family="Helvetica,sans-Serif" font-size="10.00">bits/libc&#45;header&#45;start.h</text>
</a>
</g>
</g>
<!-- Node2 -->
<g id="node2" class="node">
<title>Node2</title>
<g id="a_node2"><a xlink:href="complex_8h.html" target="_top" xlink:title=" ">
<polygon fill="white" stroke="black" points="666.5,-168.5 666.5,-187.5 734.5,-187.5 734.5,-168.5 666.5,-168.5"/>
<text text-anchor="middle" x="700.5" y="-175.5" font-family="Helvetica,sans-Serif" font-size="10.00">complex.h</text>
</a>
</g>
</g>
<!-- Node1&#45;&gt;Node2 -->
<g id="edge1" class="edge">
<title>Node1&#45;&gt;Node2</title>
<path fill="none" stroke="midnightblue" d="M1248.02,-226.53C1112.85,-214.8 832.16,-190.43 734.71,-181.97"/>
<polygon fill="midnightblue" stroke="midnightblue" points="1248.01,-230.05 1258.28,-227.42 1248.62,-223.07 1248.01,-230.05"/>
</g>
<!-- Node3 -->
<g id="node3" class="node">
<title>Node3</title>
<g id="a_node3"><a xlink:href="tgmath_8h.html" target="_top" xlink:title=" ">
<polygon fill="white" stroke="black" points="0,-112.5 0,-131.5 61,-131.5 61,-112.5 0,-112.5"/>
<text text-anchor="middle" x="30.5" y="-119.5" font-family="Helvetica,sans-Serif" font-size="10.00">tgmath.h</text>
</a>
</g>
</g>
<!-- Node1&#45;&gt;Node3 -->
<g id="edge52" class="edge">
<title>Node1&#45;&gt;Node3</title>
<path fill="none" stroke="midnightblue" d="M1248.13,-231.03C1053.52,-225.01 513.71,-202.71 70.5,-132 67.55,-131.53 64.49,-130.97 61.43,-130.37"/>
<polygon fill="midnightblue" stroke="midnightblue" points="1248.14,-234.53 1258.24,-231.34 1248.35,-227.54 1248.14,-234.53"/>
</g>
<!-- Node4 -->
<g id="node4" class="node">
<title>Node4</title>
<g id="a_node4"><a xlink:href="fenv_8h.html" target="_top" xlink:title=" ">
<polygon fill="white" stroke="black" points="1186,-168.5 1186,-187.5 1233,-187.5 1233,-168.5 1186,-168.5"/>
<text text-anchor="middle" x="1209.5" y="-175.5" font-family="Helvetica,sans-Serif" font-size="10.00">fenv.h</text>
</a>
</g>
</g>
<!-- Node1&#45;&gt;Node4 -->
<g id="edge3" class="edge">
<title>Node1&#45;&gt;Node4</title>
<path fill="none" stroke="midnightblue" d="M1295.5,-220.1C1274.39,-210.01 1245.64,-196.27 1227.32,-187.52"/>
<polygon fill="midnightblue" stroke="midnightblue" points="1294.06,-223.29 1304.59,-224.44 1297.08,-216.97 1294.06,-223.29"/>
</g>
<!-- Node5 -->
<g id="node5" class="node">
<title>Node5</title>
<g id="a_node5"><a xlink:href="limits_8h.html" target="_top" xlink:title=" ">
<polygon fill="white" stroke="black" points="1251,-168.5 1251,-187.5 1304,-187.5 1304,-168.5 1251,-168.5"/>
<text text-anchor="middle" x="1277.5" y="-175.5" font-family="Helvetica,sans-Serif" font-size="10.00">limits.h</text>
</a>
</g>
</g>
<!-- Node1&#45;&gt;Node5 -->
<g id="edge4" class="edge">
<title>Node1&#45;&gt;Node5</title>
<path fill="none" stroke="midnightblue" d="M1308.45,-216.14C1300.61,-206.74 1291.17,-195.4 1284.79,-187.75"/>
<polygon fill="midnightblue" stroke="midnightblue" points="1305.98,-218.64 1315.07,-224.08 1311.36,-214.16 1305.98,-218.64"/>
</g>
<!-- Node11 -->
<g id="node11" class="node">
<title>Node11</title>
<g id="a_node11"><a xlink:href="math_8h.html" target="_top" xlink:title=" ">
<polygon fill="white" stroke="black" points="996,-168.5 996,-187.5 1047,-187.5 1047,-168.5 996,-168.5"/>
<text text-anchor="middle" x="1021.5" y="-175.5" font-family="Helvetica,sans-Serif" font-size="10.00">math.h</text>
</a>
</g>
</g>
<!-- Node1&#45;&gt;Node11 -->
<g id="edge11" class="edge">
<title>Node1&#45;&gt;Node11</title>
<path fill="none" stroke="midnightblue" d="M1264.62,-222.62C1199.03,-210.85 1095.04,-192.19 1047.17,-183.6"/>
<polygon fill="midnightblue" stroke="midnightblue" points="1264.34,-226.12 1274.81,-224.44 1265.58,-219.23 1264.34,-226.12"/>
</g>
<!-- Node12 -->
<g id="node12" class="node">
<title>Node12</title>
<g id="a_node12"><a xlink:href="stdint_8h.html" target="_top" xlink:title=" ">
<polygon fill="white" stroke="black" points="1332,-168.5 1332,-187.5 1385,-187.5 1385,-168.5 1332,-168.5"/>
<text text-anchor="middle" x="1358.5" y="-175.5" font-family="Helvetica,sans-Serif" font-size="10.00">stdint.h</text>
</a>
</g>
</g>
<!-- Node1&#45;&gt;Node12 -->
<g id="edge13" class="edge">
<title>Node1&#45;&gt;Node12</title>
<path fill="none" stroke="midnightblue" d="M1334.12,-215.57C1340.32,-206.27 1347.67,-195.25 1352.67,-187.75"/>
<polygon fill="midnightblue" stroke="midnightblue" points="1331.08,-213.82 1328.44,-224.08 1336.9,-217.7 1331.08,-213.82"/>
</g>
<!-- Node38 -->
<g id="node38" class="node">
<title>Node38</title>
<g id="a_node38"><a xlink:href="stdio_8h.html" target="_top" xlink:title=" ">
<polygon fill="white" stroke="black" points="2455.5,-168.5 2455.5,-187.5 2505.5,-187.5 2505.5,-168.5 2455.5,-168.5"/>
<text text-anchor="middle" x="2480.5" y="-175.5" font-family="Helvetica,sans-Serif" font-size="10.00">stdio.h</text>
</a>
</g>
</g>
<!-- Node1&#45;&gt;Node38 -->
<g id="edge40" class="edge">
<title>Node1&#45;&gt;Node38</title>
<path fill="none" stroke="midnightblue" d="M1397.07,-229.52C1626.47,-218.83 2314.65,-186.73 2455.25,-180.18"/>
<polygon fill="midnightblue" stroke="midnightblue" points="1396.65,-226.04 1386.82,-230 1396.98,-233.03 1396.65,-226.04"/>
</g>
<!-- Node41 -->
<g id="node41" class="node">
<title>Node41</title>
<g id="a_node41"><a xlink:href="string_8h.html" target="_top" xlink:title=" ">
<polygon fill="white" stroke="black" points="2639,-168.5 2639,-187.5 2692,-187.5 2692,-168.5 2639,-168.5"/>
<text text-anchor="middle" x="2665.5" y="-175.5" font-family="Helvetica,sans-Serif" font-size="10.00">string.h</text>
</a>
</g>
</g>
<!-- Node1&#45;&gt;Node41 -->
<g id="edge45" class="edge">
<title>Node1&#45;&gt;Node41</title>
<path fill="none" stroke="midnightblue" d="M1396.83,-230.76C1584.33,-224.98 2091.78,-208.57 2514.5,-188 2558.04,-185.88 2608.61,-182.73 2638.78,-180.77"/>
<polygon fill="midnightblue" stroke="midnightblue" points="1396.69,-227.26 1386.8,-231.07 1396.91,-234.26 1396.69,-227.26"/>
</g>
<!-- Node46 -->
<g id="node46" class="node">
<title>Node46</title>
<g id="a_node46"><a xlink:href="stdlib_8h.html" target="_top" xlink:title=" ">
<polygon fill="white" stroke="black" points="2710,-168.5 2710,-187.5 2763,-187.5 2763,-168.5 2710,-168.5"/>
<text text-anchor="middle" x="2736.5" y="-175.5" font-family="Helvetica,sans-Serif" font-size="10.00">stdlib.h</text>
</a>
</g>
</g>
<!-- Node1&#45;&gt;Node46 -->
<g id="edge51" class="edge">
<title>Node1&#45;&gt;Node46</title>
<path fill="none" stroke="midnightblue" d="M1396.75,-232.72C1645.21,-231.44 2446.28,-224.53 2701.5,-188 2704.23,-187.61 2707.06,-187.09 2709.87,-186.49"/>
<polygon fill="midnightblue" stroke="midnightblue" points="1396.72,-229.22 1386.73,-232.77 1396.75,-236.22 1396.72,-229.22"/>
</g>
<!-- Node47 -->
<g id="node47" class="node">
<title>Node47</title>
<g id="a_node47"><a xlink:href="wchar_8h.html" target="_top" xlink:title=" ">
<polygon fill="white" stroke="black" points="2781.5,-168.5 2781.5,-187.5 2835.5,-187.5 2835.5,-168.5 2781.5,-168.5"/>
<text text-anchor="middle" x="2808.5" y="-175.5" font-family="Helvetica,sans-Serif" font-size="10.00">wchar.h</text>
</a>
</g>
</g>
<!-- Node1&#45;&gt;Node47 -->
<g id="edge53" class="edge">
<title>Node1&#45;&gt;Node47</title>
<path fill="none" stroke="midnightblue" d="M1397,-232.79C1654.05,-231.74 2502.77,-225.46 2772.5,-188 2775.44,-187.59 2778.48,-187.04 2781.49,-186.41"/>
<polygon fill="midnightblue" stroke="midnightblue" points="1396.64,-229.29 1386.66,-232.83 1396.67,-236.29 1396.64,-229.29"/>
</g>
<!-- Node2&#45;&gt;Node3 -->
<g id="edge2" class="edge">
<title>Node2&#45;&gt;Node3</title>
<path fill="none" stroke="midnightblue" d="M656.1,-176.11C552.82,-173.56 288.65,-164.15 70.5,-132 67.54,-131.56 64.48,-131.03 61.42,-130.44"/>
<polygon fill="midnightblue" stroke="midnightblue" points="656.08,-179.61 666.16,-176.35 656.24,-172.62 656.08,-179.61"/>
</g>
<!-- Node6 -->
<g id="node6" class="node">
<title>Node6</title>
<g id="a_node6"><a xlink:href="argp_8h.html" target="_top" xlink:title=" ">
<polygon fill="white" stroke="black" points="1254,-112.5 1254,-131.5 1301,-131.5 1301,-112.5 1254,-112.5"/>
<text text-anchor="middle" x="1277.5" y="-119.5" font-family="Helvetica,sans-Serif" font-size="10.00">argp.h</text>
</a>
</g>
</g>
<!-- Node5&#45;&gt;Node6 -->
<g id="edge5" class="edge">
<title>Node5&#45;&gt;Node6</title>
<path fill="none" stroke="midnightblue" d="M1277.5,-157.8C1277.5,-148.91 1277.5,-138.78 1277.5,-131.75"/>
<polygon fill="midnightblue" stroke="midnightblue" points="1274,-158.08 1277.5,-168.08 1281,-158.08 1274,-158.08"/>
</g>
<!-- Node7 -->
<g id="node7" class="node">
<title>Node7</title>
<g id="a_node7"><a xlink:href="sys_2param_8h.html" target="_top" xlink:title=" ">
<polygon fill="white" stroke="black" points="156,-112.5 156,-131.5 233,-131.5 233,-112.5 156,-112.5"/>
<text text-anchor="middle" x="194.5" y="-119.5" font-family="Helvetica,sans-Serif" font-size="10.00">sys/param.h</text>
</a>
</g>
</g>
<!-- Node5&#45;&gt;Node7 -->
<g id="edge6" class="edge">
<title>Node5&#45;&gt;Node7</title>
<path fill="none" stroke="midnightblue" d="M1240.79,-168.27C802.01,-107.12 683.93,-176.76 247.5,-132 242.86,-131.52 238.01,-130.89 233.21,-130.18"/>
<polygon fill="midnightblue" stroke="midnightblue" points="1240.5,-171.76 1250.89,-169.69 1241.47,-164.83 1240.5,-171.76"/>
</g>
<!-- Node10 -->
<g id="node10" class="node">
<title>Node10</title>
<g id="a_node10"><a xlink:href="values_8h.html" target="_top" xlink:title=" ">
<polygon fill="white" stroke="black" points="79.5,-112.5 79.5,-131.5 137.5,-131.5 137.5,-112.5 79.5,-112.5"/>
<text text-anchor="middle" x="108.5" y="-119.5" font-family="Helvetica,sans-Serif" font-size="10.00">values.h</text>
</a>
</g>
</g>
<!-- Node5&#45;&gt;Node10 -->
<g id="edge10" class="edge">
<title>Node5&#45;&gt;Node10</title>
<path fill="none" stroke="midnightblue" d="M1240.86,-168.28C757.47,-101.88 625.85,-195.99 146.5,-132 143.68,-131.62 140.76,-131.13 137.85,-130.56"/>
<polygon fill="midnightblue" stroke="midnightblue" points="1240.5,-171.77 1250.89,-169.68 1241.46,-164.84 1240.5,-171.77"/>
</g>
<!-- Node8 -->
<g id="node8" class="node">
<title>Node8</title>
<g id="a_node8"><a xlink:href="nameser_8h.html" target="_top" xlink:title=" ">
<polygon fill="white" stroke="black" points="219.5,-56.5 219.5,-75.5 311.5,-75.5 311.5,-56.5 219.5,-56.5"/>
<text text-anchor="middle" x="265.5" y="-63.5" font-family="Helvetica,sans-Serif" font-size="10.00">arpa/nameser.h</text>
</a>
</g>
</g>
<!-- Node7&#45;&gt;Node8 -->
<g id="edge7" class="edge">
<title>Node7&#45;&gt;Node8</title>
<path fill="none" stroke="midnightblue" d="M214.09,-106.1C226.87,-96.38 243.11,-84.03 253.89,-75.83"/>
<polygon fill="midnightblue" stroke="midnightblue" points="211.75,-103.48 205.91,-112.32 215.99,-109.06 211.75,-103.48"/>
</g>
<!-- Node9 -->
<g id="node9" class="node">
<title>Node9</title>
<g id="a_node9"><a xlink:href="resolv_8h.html" target="_top" xlink:title=" ">
<polygon fill="white" stroke="black" points="238,-0.5 238,-19.5 293,-19.5 293,-0.5 238,-0.5"/>
<text text-anchor="middle" x="265.5" y="-7.5" font-family="Helvetica,sans-Serif" font-size="10.00">resolv.h</text>
</a>
</g>
</g>
<!-- Node7&#45;&gt;Node9 -->
<g id="edge9" class="edge">
<title>Node7&#45;&gt;Node9</title>
<path fill="none" stroke="midnightblue" d="M195.94,-102.17C197.72,-88.48 201.68,-69.97 210.5,-56 220.45,-40.25 237.79,-27.42 250.35,-19.55"/>
<polygon fill="midnightblue" stroke="midnightblue" points="192.44,-102.03 194.91,-112.33 199.4,-102.74 192.44,-102.03"/>
</g>
<!-- Node8&#45;&gt;Node9 -->
<g id="edge8" class="edge">
<title>Node8&#45;&gt;Node9</title>
<path fill="none" stroke="midnightblue" d="M265.5,-45.8C265.5,-36.91 265.5,-26.78 265.5,-19.75"/>
<polygon fill="midnightblue" stroke="midnightblue" points="262,-46.08 265.5,-56.08 269,-46.08 262,-46.08"/>
</g>
<!-- Node11&#45;&gt;Node3 -->
<g id="edge12" class="edge">
<title>Node11&#45;&gt;Node3</title>
<path fill="none" stroke="midnightblue" d="M985.16,-175.66C822.14,-169.57 162.27,-144.4 70.5,-132 67.54,-131.6 64.47,-131.09 61.41,-130.51"/>
<polygon fill="midnightblue" stroke="midnightblue" points="985.47,-179.17 995.59,-176.04 985.73,-172.17 985.47,-179.17"/>
</g>
<!-- Node12&#45;&gt;Node8 -->
<g id="edge14" class="edge">
<title>Node12&#45;&gt;Node8</title>
<path fill="none" stroke="midnightblue" d="M1321.87,-169.29C1318.71,-168.79 1315.55,-168.35 1312.5,-168 1255.5,-161.47 324.77,-168.49 280.5,-132 263.88,-118.3 263.49,-90.19 264.52,-75.85"/>
<polygon fill="midnightblue" stroke="midnightblue" points="1321.4,-172.76 1331.86,-171.04 1322.61,-165.87 1321.4,-172.76"/>
</g>
<!-- Node13 -->
<g id="node13" class="node">
<title>Node13</title>
<g id="a_node13"><a xlink:href="elf_8h.html" target="_top" xlink:title=" ">
<polygon fill="white" stroke="black" points="601.5,-112.5 601.5,-131.5 639.5,-131.5 639.5,-112.5 601.5,-112.5"/>
<text text-anchor="middle" x="620.5" y="-119.5" font-family="Helvetica,sans-Serif" font-size="10.00">elf.h</text>
</a>
</g>
</g>
<!-- Node12&#45;&gt;Node13 -->
<g id="edge15" class="edge">
<title>Node12&#45;&gt;Node13</title>
<path fill="none" stroke="midnightblue" d="M1321.86,-169.36C1318.7,-168.84 1315.55,-168.38 1312.5,-168 1019.21,-131.54 939.13,-185.66 648.5,-132 645.59,-131.46 642.56,-130.71 639.61,-129.86"/>
<polygon fill="midnightblue" stroke="midnightblue" points="1321.39,-172.83 1331.84,-171.13 1322.61,-165.94 1321.39,-172.83"/>
</g>
<!-- Node15 -->
<g id="node15" class="node">
<title>Node15</title>
<g id="a_node15"><a xlink:href="inttypes_8h.html" target="_top" xlink:title=" ">
<polygon fill="white" stroke="black" points="2368,-112.5 2368,-131.5 2433,-131.5 2433,-112.5 2368,-112.5"/>
<text text-anchor="middle" x="2400.5" y="-119.5" font-family="Helvetica,sans-Serif" font-size="10.00">inttypes.h</text>
</a>
</g>
</g>
<!-- Node12&#45;&gt;Node15 -->
<g id="edge17" class="edge">
<title>Node12&#45;&gt;Node15</title>
<path fill="none" stroke="midnightblue" d="M1395.25,-176.16C1552.17,-172.47 2166.63,-156.7 2358.5,-132 2361.46,-131.62 2364.52,-131.14 2367.57,-130.6"/>
<polygon fill="midnightblue" stroke="midnightblue" points="1395.09,-172.67 1385.17,-176.4 1395.25,-179.67 1395.09,-172.67"/>
</g>
<!-- Node18 -->
<g id="node18" class="node">
<title>Node18</title>
<g id="a_node18"><a xlink:href="if__arp_8h.html" target="_top" xlink:title=" ">
<polygon fill="white" stroke="black" points="2173.5,-112.5 2173.5,-131.5 2245.5,-131.5 2245.5,-112.5 2173.5,-112.5"/>
<text text-anchor="middle" x="2209.5" y="-119.5" font-family="Helvetica,sans-Serif" font-size="10.00">net/if_arp.h</text>
</a>
</g>
</g>
<!-- Node12&#45;&gt;Node18 -->
<g id="edge20" class="edge">
<title>Node12&#45;&gt;Node18</title>
<path fill="none" stroke="midnightblue" d="M1395.37,-176.8C1509.91,-175.76 1869.55,-169.54 2164.5,-132 2167.35,-131.64 2170.28,-131.2 2173.22,-130.71"/>
<polygon fill="midnightblue" stroke="midnightblue" points="1395.03,-173.3 1385.06,-176.88 1395.09,-180.3 1395.03,-173.3"/>
</g>
<!-- Node19 -->
<g id="node19" class="node">
<title>Node19</title>
<g id="a_node19"><a xlink:href="ethernet_8h.html" target="_top" xlink:title=" ">
<polygon fill="white" stroke="black" points="2263.5,-112.5 2263.5,-131.5 2349.5,-131.5 2349.5,-112.5 2263.5,-112.5"/>
<text text-anchor="middle" x="2306.5" y="-119.5" font-family="Helvetica,sans-Serif" font-size="10.00">net/ethernet.h</text>
</a>
</g>
</g>
<!-- Node12&#45;&gt;Node19 -->
<g id="edge21" class="edge">
<title>Node12&#45;&gt;Node19</title>
<path fill="none" stroke="midnightblue" d="M1395.7,-176.74C1518.62,-175.55 1922.8,-168.9 2254.5,-132 2257.41,-131.68 2260.41,-131.29 2263.43,-130.87"/>
<polygon fill="midnightblue" stroke="midnightblue" points="1395.32,-173.25 1385.35,-176.84 1395.38,-180.25 1395.32,-173.25"/>
</g>
<!-- Node20 -->
<g id="node20" class="node">
<title>Node20</title>
<g id="a_node20"><a xlink:href="if__shaper_8h.html" target="_top" xlink:title=" ">
<polygon fill="white" stroke="black" points="290,-112.5 290,-131.5 379,-131.5 379,-112.5 290,-112.5"/>
<text text-anchor="middle" x="334.5" y="-119.5" font-family="Helvetica,sans-Serif" font-size="10.00">net/if_shaper.h</text>
</a>
</g>
</g>
<!-- Node12&#45;&gt;Node20 -->
<g id="edge22" class="edge">
<title>Node12&#45;&gt;Node20</title>
<path fill="none" stroke="midnightblue" d="M1321.87,-169.31C1318.71,-168.8 1315.55,-168.36 1312.5,-168 904.29,-120.4 797.34,-173.87 388.5,-132 385.47,-131.69 382.36,-131.32 379.23,-130.9"/>
<polygon fill="midnightblue" stroke="midnightblue" points="1321.4,-172.78 1331.85,-171.06 1322.61,-165.88 1321.4,-172.78"/>
</g>
<!-- Node21 -->
<g id="node21" class="node">
<title>Node21</title>
<g id="a_node21"><a xlink:href="if__ppp_8h.html" target="_top" xlink:title=" ">
<polygon fill="white" stroke="black" points="397.5,-112.5 397.5,-131.5 471.5,-131.5 471.5,-112.5 397.5,-112.5"/>
<text text-anchor="middle" x="434.5" y="-119.5" font-family="Helvetica,sans-Serif" font-size="10.00">net/if_ppp.h</text>
</a>
</g>
</g>
<!-- Node12&#45;&gt;Node21 -->
<g id="edge23" class="edge">
<title>Node12&#45;&gt;Node21</title>
<path fill="none" stroke="midnightblue" d="M1321.87,-169.32C1318.71,-168.81 1315.55,-168.36 1312.5,-168 944.96,-124.34 848.04,-175.66 480.5,-132 477.59,-131.65 474.59,-131.23 471.58,-130.75"/>
<polygon fill="midnightblue" stroke="midnightblue" points="1321.39,-172.79 1331.85,-171.08 1322.61,-165.9 1321.39,-172.79"/>
</g>
<!-- Node22 -->
<g id="node22" class="node">
<title>Node22</title>
<g id="a_node22"><a xlink:href="if__fddi_8h.html" target="_top" xlink:title=" ">
<polygon fill="white" stroke="black" points="489.5,-112.5 489.5,-131.5 583.5,-131.5 583.5,-112.5 489.5,-112.5"/>
<text text-anchor="middle" x="536.5" y="-119.5" font-family="Helvetica,sans-Serif" font-size="10.00">netinet/if_fddi.h</text>
</a>
</g>
</g>
<!-- Node12&#45;&gt;Node22 -->
<g id="edge24" class="edge">
<title>Node12&#45;&gt;Node22</title>
<path fill="none" stroke="midnightblue" d="M1321.86,-169.34C1318.7,-168.83 1315.55,-168.37 1312.5,-168 994.47,-129.14 911.15,-165.47 592.5,-132 589.56,-131.69 586.54,-131.33 583.5,-130.94"/>
<polygon fill="midnightblue" stroke="midnightblue" points="1321.39,-172.81 1331.85,-171.11 1322.61,-165.92 1321.39,-172.81"/>
</g>
<!-- Node23 -->
<g id="node23" class="node">
<title>Node23</title>
<g id="a_node23"><a xlink:href="if__tr_8h.html" target="_top" xlink:title=" ">
<polygon fill="white" stroke="black" points="657.5,-112.5 657.5,-131.5 739.5,-131.5 739.5,-112.5 657.5,-112.5"/>
<text text-anchor="middle" x="698.5" y="-119.5" font-family="Helvetica,sans-Serif" font-size="10.00">netinet/if_tr.h</text>
</a>
</g>
</g>
<!-- Node12&#45;&gt;Node23 -->
<g id="edge25" class="edge">
<title>Node12&#45;&gt;Node23</title>
<path fill="none" stroke="midnightblue" d="M1321.86,-169.39C1318.7,-168.87 1315.55,-168.39 1312.5,-168 1063.39,-135.82 997.84,-162.3 748.5,-132 745.61,-131.65 742.64,-131.24 739.64,-130.79"/>
<polygon fill="midnightblue" stroke="midnightblue" points="1321.38,-172.86 1331.84,-171.18 1322.61,-165.97 1321.38,-172.86"/>
</g>
<!-- Node24 -->
<g id="node24" class="node">
<title>Node24</title>
<g id="a_node24"><a xlink:href="in__systm_8h.html" target="_top" xlink:title=" ">
<polygon fill="white" stroke="black" points="758,-112.5 758,-131.5 865,-131.5 865,-112.5 758,-112.5"/>
<text text-anchor="middle" x="811.5" y="-119.5" font-family="Helvetica,sans-Serif" font-size="10.00">netinet/in_systm.h</text>
</a>
</g>
</g>
<!-- Node12&#45;&gt;Node24 -->
<g id="edge26" class="edge">
<title>Node12&#45;&gt;Node24</title>
<path fill="none" stroke="midnightblue" d="M1321.85,-169.45C1318.69,-168.91 1315.55,-168.42 1312.5,-168 1118.58,-141.16 1068.02,-154.07 873.5,-132 870.8,-131.69 868.03,-131.36 865.24,-131.01"/>
<polygon fill="midnightblue" stroke="midnightblue" points="1321.36,-172.92 1331.83,-171.26 1322.61,-166.03 1321.36,-172.92"/>
</g>
<!-- Node25 -->
<g id="node25" class="node">
<title>Node25</title>
<g id="a_node25"><a xlink:href="udp_8h.html" target="_top" xlink:title=" ">
<polygon fill="white" stroke="black" points="883,-112.5 883,-131.5 964,-131.5 964,-112.5 883,-112.5"/>
<text text-anchor="middle" x="923.5" y="-119.5" font-family="Helvetica,sans-Serif" font-size="10.00">netinet/udp.h</text>
</a>
</g>
</g>
<!-- Node12&#45;&gt;Node25 -->
<g id="edge27" class="edge">
<title>Node12&#45;&gt;Node25</title>
<path fill="none" stroke="midnightblue" d="M1321.84,-169.53C1318.69,-168.98 1315.54,-168.46 1312.5,-168 1162.24,-145.39 1122.89,-153.74 972.5,-132 969.76,-131.6 966.94,-131.17 964.1,-130.7"/>
<polygon fill="midnightblue" stroke="midnightblue" points="1321.34,-173 1331.81,-171.37 1322.61,-166.11 1321.34,-173"/>
</g>
<!-- Node26 -->
<g id="node26" class="node">
<title>Node26</title>
<g id="a_node26"><a xlink:href="ip__icmp_8h.html" target="_top" xlink:title=" ">
<polygon fill="white" stroke="black" points="982,-112.5 982,-131.5 1083,-131.5 1083,-112.5 982,-112.5"/>
<text text-anchor="middle" x="1032.5" y="-119.5" font-family="Helvetica,sans-Serif" font-size="10.00">netinet/ip_icmp.h</text>
</a>
</g>
</g>
<!-- Node12&#45;&gt;Node26 -->
<g id="edge28" class="edge">
<title>Node12&#45;&gt;Node26</title>
<path fill="none" stroke="midnightblue" d="M1321.81,-169.71C1318.66,-169.12 1315.53,-168.54 1312.5,-168 1232.52,-153.75 1139.32,-139.18 1083.17,-130.62"/>
<polygon fill="midnightblue" stroke="midnightblue" points="1321.29,-173.17 1331.77,-171.61 1322.61,-166.3 1321.29,-173.17"/>
</g>
<!-- Node27 -->
<g id="node27" class="node">
<title>Node27</title>
<g id="a_node27"><a xlink:href="ipx_8h.html" target="_top" xlink:title=" ">
<polygon fill="white" stroke="black" points="1101.5,-112.5 1101.5,-131.5 1175.5,-131.5 1175.5,-112.5 1101.5,-112.5"/>
<text text-anchor="middle" x="1138.5" y="-119.5" font-family="Helvetica,sans-Serif" font-size="10.00">netipx/ipx.h</text>
</a>
</g>
</g>
<!-- Node12&#45;&gt;Node27 -->
<g id="edge29" class="edge">
<title>Node12&#45;&gt;Node27</title>
<path fill="none" stroke="midnightblue" d="M1322.06,-168.05C1280.81,-157.93 1214.1,-141.56 1173.47,-131.58"/>
<polygon fill="midnightblue" stroke="midnightblue" points="1321.42,-171.5 1331.96,-170.49 1323.09,-164.7 1321.42,-171.5"/>
</g>
<!-- Node28 -->
<g id="node28" class="node">
<title>Node28</title>
<g id="a_node28"><a xlink:href="nss_8h.html" target="_top" xlink:title=" ">
<polygon fill="white" stroke="black" points="1193.5,-112.5 1193.5,-131.5 1235.5,-131.5 1235.5,-112.5 1193.5,-112.5"/>
<text text-anchor="middle" x="1214.5" y="-119.5" font-family="Helvetica,sans-Serif" font-size="10.00">nss.h</text>
</a>
</g>
</g>
<!-- Node12&#45;&gt;Node28 -->
<g id="edge30" class="edge">
<title>Node12&#45;&gt;Node28</title>
<path fill="none" stroke="midnightblue" d="M1326.07,-164.84C1298.47,-154.49 1259.62,-139.92 1235.8,-130.99"/>
<polygon fill="midnightblue" stroke="midnightblue" points="1325.09,-168.21 1335.68,-168.44 1327.55,-161.66 1325.09,-168.21"/>
</g>
<!-- Node29 -->
<g id="node29" class="node">
<title>Node29</title>
<g id="a_node29"><a xlink:href="talkd_8h.html" target="_top" xlink:title=" ">
<polygon fill="white" stroke="black" points="1319.5,-112.5 1319.5,-131.5 1417.5,-131.5 1417.5,-112.5 1319.5,-112.5"/>
<text text-anchor="middle" x="1368.5" y="-119.5" font-family="Helvetica,sans-Serif" font-size="10.00">protocols/talkd.h</text>
</a>
</g>
</g>
<!-- Node12&#45;&gt;Node29 -->
<g id="edge31" class="edge">
<title>Node12&#45;&gt;Node29</title>
<path fill="none" stroke="midnightblue" d="M1362,-158.1C1363.66,-149.14 1365.56,-138.86 1366.88,-131.75"/>
<polygon fill="midnightblue" stroke="midnightblue" points="1358.53,-157.61 1360.15,-168.08 1365.41,-158.89 1358.53,-157.61"/>
</g>
<!-- Node30 -->
<g id="node30" class="node">
<title>Node30</title>
<g id="a_node30"><a xlink:href="acct_8h.html" target="_top" xlink:title=" ">
<polygon fill="white" stroke="black" points="1436,-112.5 1436,-131.5 1501,-131.5 1501,-112.5 1436,-112.5"/>
<text text-anchor="middle" x="1468.5" y="-119.5" font-family="Helvetica,sans-Serif" font-size="10.00">sys/acct.h</text>
</a>
</g>
</g>
<!-- Node12&#45;&gt;Node30 -->
<g id="edge32" class="edge">
<title>Node12&#45;&gt;Node30</title>
<path fill="none" stroke="midnightblue" d="M1385.26,-163.86C1405.66,-153.85 1433.17,-140.35 1450.87,-131.65"/>
<polygon fill="midnightblue" stroke="midnightblue" points="1383.61,-160.78 1376.17,-168.32 1386.69,-167.06 1383.61,-160.78"/>
</g>
<!-- Node31 -->
<g id="node31" class="node">
<title>Node31</title>
<g id="a_node31"><a xlink:href="sys_2eventfd_8h.html" target="_top" xlink:title=" ">
<polygon fill="white" stroke="black" points="1519,-112.5 1519,-131.5 1602,-131.5 1602,-112.5 1519,-112.5"/>
<text text-anchor="middle" x="1560.5" y="-119.5" font-family="Helvetica,sans-Serif" font-size="10.00">sys/eventfd.h</text>
</a>
</g>
</g>
<!-- Node12&#45;&gt;Node31 -->
<g id="edge33" class="edge">
<title>Node12&#45;&gt;Node31</title>
<path fill="none" stroke="midnightblue" d="M1395,-167.24C1433.1,-157.06 1492.26,-141.24 1528.56,-131.54"/>
<polygon fill="midnightblue" stroke="midnightblue" points="1394.08,-163.87 1385.32,-169.83 1395.89,-170.63 1394.08,-163.87"/>
</g>
<!-- Node32 -->
<g id="node32" class="node">
<title>Node32</title>
<g id="a_node32"><a xlink:href="sys_2epoll_8h.html" target="_top" xlink:title=" ">
<polygon fill="white" stroke="black" points="1620,-112.5 1620,-131.5 1689,-131.5 1689,-112.5 1620,-112.5"/>
<text text-anchor="middle" x="1654.5" y="-119.5" font-family="Helvetica,sans-Serif" font-size="10.00">sys/epoll.h</text>
</a>
</g>
</g>
<!-- Node12&#45;&gt;Node32 -->
<g id="edge34" class="edge">
<title>Node12&#45;&gt;Node32</title>
<path fill="none" stroke="midnightblue" d="M1395.15,-170.75C1444.25,-162.31 1534.05,-146.64 1610.5,-132 1613.56,-131.41 1616.74,-130.79 1619.93,-130.16"/>
<polygon fill="midnightblue" stroke="midnightblue" points="1394.29,-167.35 1385.03,-172.49 1395.47,-174.25 1394.29,-167.35"/>
</g>
<!-- Node33 -->
<g id="node33" class="node">
<title>Node33</title>
<g id="a_node33"><a xlink:href="sys_2inotify_8h.html" target="_top" xlink:title=" ">
<polygon fill="white" stroke="black" points="1707.5,-112.5 1707.5,-131.5 1781.5,-131.5 1781.5,-112.5 1707.5,-112.5"/>
<text text-anchor="middle" x="1744.5" y="-119.5" font-family="Helvetica,sans-Serif" font-size="10.00">sys/inotify.h</text>
</a>
</g>
</g>
<!-- Node12&#45;&gt;Node33 -->
<g id="edge35" class="edge">
<title>Node12&#45;&gt;Node33</title>
<path fill="none" stroke="midnightblue" d="M1395.52,-172.79C1457.96,-165.53 1588.08,-149.72 1697.5,-132 1700.7,-131.48 1704.01,-130.91 1707.33,-130.32"/>
<polygon fill="midnightblue" stroke="midnightblue" points="1394.92,-169.34 1385.38,-173.96 1395.72,-176.29 1394.92,-169.34"/>
</g>
<!-- Node34 -->
<g id="node34" class="node">
<title>Node34</title>
<g id="a_node34"><a xlink:href="fanotify_8h.html" target="_top" xlink:title=" ">
<polygon fill="white" stroke="black" points="1800,-112.5 1800,-131.5 1881,-131.5 1881,-112.5 1800,-112.5"/>
<text text-anchor="middle" x="1840.5" y="-119.5" font-family="Helvetica,sans-Serif" font-size="10.00">sys/fanotify.h</text>
</a>
</g>
</g>
<!-- Node12&#45;&gt;Node34 -->
<g id="edge36" class="edge">
<title>Node12&#45;&gt;Node34</title>
<path fill="none" stroke="midnightblue" d="M1395.7,-174.06C1470.62,-167.94 1644.98,-152.65 1790.5,-132 1793.56,-131.57 1796.71,-131.08 1799.88,-130.57"/>
<polygon fill="midnightblue" stroke="midnightblue" points="1395.06,-170.6 1385.38,-174.9 1395.63,-177.58 1395.06,-170.6"/>
</g>
<!-- Node35 -->
<g id="node35" class="node">
<title>Node35</title>
<g id="a_node35"><a xlink:href="raw_8h.html" target="_top" xlink:title=" ">
<polygon fill="white" stroke="black" points="1899.5,-112.5 1899.5,-131.5 1961.5,-131.5 1961.5,-112.5 1899.5,-112.5"/>
<text text-anchor="middle" x="1930.5" y="-119.5" font-family="Helvetica,sans-Serif" font-size="10.00">sys/raw.h</text>
</a>
</g>
</g>
<!-- Node12&#45;&gt;Node35 -->
<g id="edge37" class="edge">
<title>Node12&#45;&gt;Node35</title>
<path fill="none" stroke="midnightblue" d="M1395.27,-175.55C1481.84,-171.78 1705.09,-159.93 1889.5,-132 1892.67,-131.52 1895.96,-130.94 1899.24,-130.31"/>
<polygon fill="midnightblue" stroke="midnightblue" points="1395.01,-172.06 1385.17,-175.98 1395.31,-179.05 1395.01,-172.06"/>
</g>
<!-- Node36 -->
<g id="node36" class="node">
<title>Node36</title>
<g id="a_node36"><a xlink:href="sys_2signalfd_8h.html" target="_top" xlink:title=" ">
<polygon fill="white" stroke="black" points="1979.5,-112.5 1979.5,-131.5 2063.5,-131.5 2063.5,-112.5 1979.5,-112.5"/>
<text text-anchor="middle" x="2021.5" y="-119.5" font-family="Helvetica,sans-Serif" font-size="10.00">sys/signalfd.h</text>
</a>
</g>
</g>
<!-- Node12&#45;&gt;Node36 -->
<g id="edge38" class="edge">
<title>Node12&#45;&gt;Node36</title>
<path fill="none" stroke="midnightblue" d="M1395.42,-175.59C1490.84,-171.66 1753.42,-159.06 1970.5,-132 1973.36,-131.64 1976.29,-131.24 1979.25,-130.8"/>
<polygon fill="midnightblue" stroke="midnightblue" points="1394.99,-172.1 1385.14,-176.01 1395.27,-179.1 1394.99,-172.1"/>
</g>
<!-- Node37 -->
<g id="node37" class="node">
<title>Node37</title>
<g id="a_node37"><a xlink:href="thread__db_8h.html" target="_top" xlink:title=" ">
<polygon fill="white" stroke="black" points="2081.5,-112.5 2081.5,-131.5 2155.5,-131.5 2155.5,-112.5 2081.5,-112.5"/>
<text text-anchor="middle" x="2118.5" y="-119.5" font-family="Helvetica,sans-Serif" font-size="10.00">thread_db.h</text>
</a>
</g>
</g>
<!-- Node12&#45;&gt;Node37 -->
<g id="edge39" class="edge">
<title>Node12&#45;&gt;Node37</title>
<path fill="none" stroke="midnightblue" d="M1395.35,-176.37C1501.14,-174.19 1814.66,-165.21 2072.5,-132 2075.41,-131.63 2078.4,-131.18 2081.41,-130.69"/>
<polygon fill="midnightblue" stroke="midnightblue" points="1395.13,-172.87 1385.2,-176.57 1395.27,-179.87 1395.13,-172.87"/>
</g>
<!-- Node14 -->
<g id="node14" class="node">
<title>Node14</title>
<g id="a_node14"><a xlink:href="link_8h.html" target="_top" xlink:title=" ">
<polygon fill="white" stroke="black" points="598.5,-56.5 598.5,-75.5 642.5,-75.5 642.5,-56.5 598.5,-56.5"/>
<text text-anchor="middle" x="620.5" y="-63.5" font-family="Helvetica,sans-Serif" font-size="10.00">link.h</text>
</a>
</g>
</g>
<!-- Node13&#45;&gt;Node14 -->
<g id="edge16" class="edge">
<title>Node13&#45;&gt;Node14</title>
<path fill="none" stroke="midnightblue" d="M620.5,-101.8C620.5,-92.91 620.5,-82.78 620.5,-75.75"/>
<polygon fill="midnightblue" stroke="midnightblue" points="617,-102.08 620.5,-112.08 624,-102.08 617,-102.08"/>
</g>
<!-- Node16 -->
<g id="node16" class="node">
<title>Node16</title>
<g id="a_node16"><a xlink:href="icmp6_8h.html" target="_top" xlink:title=" ">
<polygon fill="white" stroke="black" points="2482,-56.5 2482,-75.5 2575,-75.5 2575,-56.5 2482,-56.5"/>
<text text-anchor="middle" x="2528.5" y="-63.5" font-family="Helvetica,sans-Serif" font-size="10.00">netinet/icmp6.h</text>
</a>
</g>
</g>
<!-- Node15&#45;&gt;Node16 -->
<g id="edge18" class="edge">
<title>Node15&#45;&gt;Node16</title>
<path fill="none" stroke="midnightblue" d="M2430.12,-108.5C2454.12,-98.38 2487.28,-84.39 2508.31,-75.52"/>
<polygon fill="midnightblue" stroke="midnightblue" points="2428.64,-105.33 2420.78,-112.44 2431.36,-111.78 2428.64,-105.33"/>
</g>
<!-- Node17 -->
<g id="node17" class="node">
<title>Node17</title>
<g id="a_node17"><a xlink:href="ip6_8h.html" target="_top" xlink:title=" ">
<polygon fill="white" stroke="black" points="2361.5,-56.5 2361.5,-75.5 2439.5,-75.5 2439.5,-56.5 2361.5,-56.5"/>
<text text-anchor="middle" x="2400.5" y="-63.5" font-family="Helvetica,sans-Serif" font-size="10.00">netinet/ip6.h</text>
</a>
</g>
</g>
<!-- Node15&#45;&gt;Node17 -->
<g id="edge19" class="edge">
<title>Node15&#45;&gt;Node17</title>
<path fill="none" stroke="midnightblue" d="M2400.5,-101.8C2400.5,-92.91 2400.5,-82.78 2400.5,-75.75"/>
<polygon fill="midnightblue" stroke="midnightblue" points="2397,-102.08 2400.5,-112.08 2404,-102.08 2397,-102.08"/>
</g>
<!-- Node38&#45;&gt;Node6 -->
<g id="edge41" class="edge">
<title>Node38&#45;&gt;Node6</title>
<path fill="none" stroke="midnightblue" d="M2445.2,-176.73C2274.94,-175.23 1537.45,-166.84 1310.5,-132 1307.45,-131.53 1304.27,-130.88 1301.15,-130.14"/>
<polygon fill="midnightblue" stroke="midnightblue" points="2445.33,-180.23 2455.36,-176.81 2445.39,-173.23 2445.33,-180.23"/>
</g>
<!-- Node38&#45;&gt;Node9 -->
<g id="edge43" class="edge">
<title>Node38&#45;&gt;Node9</title>
<path fill="none" stroke="midnightblue" d="M2515.62,-175.2C2545.54,-171.59 2586.85,-161.22 2607.5,-132 2623.97,-108.69 2598.17,-65.88 2583.5,-56 2533.58,-22.38 552.38,-12.3 293.33,-11.12"/>
<polygon fill="midnightblue" stroke="midnightblue" points="2515.17,-171.73 2505.57,-176.22 2515.87,-178.69 2515.17,-171.73"/>
</g>
<!-- Node39 -->
<g id="node39" class="node">
<title>Node39</title>
<g id="a_node39"><a xlink:href="malloc_8h.html" target="_top" xlink:title=" ">
<polygon fill="white" stroke="black" points="2451,-112.5 2451,-131.5 2510,-131.5 2510,-112.5 2451,-112.5"/>
<text text-anchor="middle" x="2480.5" y="-119.5" font-family="Helvetica,sans-Serif" font-size="10.00">malloc.h</text>
</a>
</g>
</g>
<!-- Node38&#45;&gt;Node39 -->
<g id="edge42" class="edge">
<title>Node38&#45;&gt;Node39</title>
<path fill="none" stroke="midnightblue" d="M2480.5,-157.8C2480.5,-148.91 2480.5,-138.78 2480.5,-131.75"/>
<polygon fill="midnightblue" stroke="midnightblue" points="2477,-158.08 2480.5,-168.08 2484,-158.08 2477,-158.08"/>
</g>
<!-- Node40 -->
<g id="node40" class="node">
<title>Node40</title>
<g id="a_node40"><a xlink:href="stdio__ext_8h.html" target="_top" xlink:title=" ">
<polygon fill="white" stroke="black" points="2528,-112.5 2528,-131.5 2599,-131.5 2599,-112.5 2528,-112.5"/>
<text text-anchor="middle" x="2563.5" y="-119.5" font-family="Helvetica,sans-Serif" font-size="10.00">stdio_ext.h</text>
</a>
</g>
</g>
<!-- Node38&#45;&gt;Node40 -->
<g id="edge44" class="edge">
<title>Node38&#45;&gt;Node40</title>
<path fill="none" stroke="midnightblue" d="M2502.6,-162.62C2517.76,-152.76 2537.38,-139.99 2550.2,-131.65"/>
<polygon fill="midnightblue" stroke="midnightblue" points="2500.31,-159.94 2493.84,-168.32 2504.13,-165.8 2500.31,-159.94"/>
</g>
<!-- Node41&#45;&gt;Node16 -->
<g id="edge49" class="edge">
<title>Node41&#45;&gt;Node16</title>
<path fill="none" stroke="midnightblue" d="M2652.82,-159.94C2641.86,-145.94 2625.06,-126.2 2607.5,-112 2588.72,-96.81 2564.17,-83.71 2547.46,-75.62"/>
<polygon fill="midnightblue" stroke="midnightblue" points="2650.27,-162.37 2659.13,-168.18 2655.83,-158.11 2650.27,-162.37"/>
</g>
<!-- Node42 -->
<g id="node42" class="node">
<title>Node42</title>
<g id="a_node42"><a xlink:href="argz_8h.html" target="_top" xlink:title=" ">
<polygon fill="white" stroke="black" points="2777,-112.5 2777,-131.5 2824,-131.5 2824,-112.5 2777,-112.5"/>
<text text-anchor="middle" x="2800.5" y="-119.5" font-family="Helvetica,sans-Serif" font-size="10.00">argz.h</text>
</a>
</g>
</g>
<!-- Node41&#45;&gt;Node42 -->
<g id="edge46" class="edge">
<title>Node41&#45;&gt;Node42</title>
<path fill="none" stroke="midnightblue" d="M2696.41,-164.64C2721.74,-154.5 2756.93,-140.43 2779.21,-131.52"/>
<polygon fill="midnightblue" stroke="midnightblue" points="2694.88,-161.48 2686.89,-168.44 2697.48,-167.98 2694.88,-161.48"/>
</g>
<!-- Node44 -->
<g id="node44" class="node">
<title>Node44</title>
<g id="a_node44"><a xlink:href="memory_8h.html" target="_top" xlink:title=" ">
<polygon fill="white" stroke="black" points="2694,-112.5 2694,-131.5 2759,-131.5 2759,-112.5 2694,-112.5"/>
<text text-anchor="middle" x="2726.5" y="-119.5" font-family="Helvetica,sans-Serif" font-size="10.00">memory.h</text>
</a>
</g>
</g>
<!-- Node41&#45;&gt;Node44 -->
<g id="edge48" class="edge">
<title>Node41&#45;&gt;Node44</title>
<path fill="none" stroke="midnightblue" d="M2682.97,-161.54C2693.84,-151.91 2707.44,-139.87 2716.52,-131.83"/>
<polygon fill="midnightblue" stroke="midnightblue" points="2680.47,-159.07 2675.3,-168.32 2685.11,-164.32 2680.47,-159.07"/>
</g>
<!-- Node45 -->
<g id="node45" class="node">
<title>Node45</title>
<g id="a_node45"><a xlink:href="obstack_8h.html" target="_top" xlink:title=" ">
<polygon fill="white" stroke="black" points="2842.5,-112.5 2842.5,-131.5 2906.5,-131.5 2906.5,-112.5 2842.5,-112.5"/>
<text text-anchor="middle" x="2874.5" y="-119.5" font-family="Helvetica,sans-Serif" font-size="10.00">obstack.h</text>
</a>
</g>
</g>
<!-- Node41&#45;&gt;Node45 -->
<g id="edge50" class="edge">
<title>Node41&#45;&gt;Node45</title>
<path fill="none" stroke="midnightblue" d="M2702.2,-167.52C2741.84,-157.28 2804.39,-141.11 2842.23,-131.34"/>
<polygon fill="midnightblue" stroke="midnightblue" points="2701.2,-164.16 2692.4,-170.05 2702.95,-170.94 2701.2,-164.16"/>
</g>
<!-- Node43 -->
<g id="node43" class="node">
<title>Node43</title>
<g id="a_node43"><a xlink:href="envz_8h.html" target="_top" xlink:title=" ">
<polygon fill="white" stroke="black" points="2776,-56.5 2776,-75.5 2825,-75.5 2825,-56.5 2776,-56.5"/>
<text text-anchor="middle" x="2800.5" y="-63.5" font-family="Helvetica,sans-Serif" font-size="10.00">envz.h</text>
</a>
</g>
</g>
<!-- Node42&#45;&gt;Node43 -->
<g id="edge47" class="edge">
<title>Node42&#45;&gt;Node43</title>
<path fill="none" stroke="midnightblue" d="M2800.5,-101.8C2800.5,-92.91 2800.5,-82.78 2800.5,-75.75"/>
<polygon fill="midnightblue" stroke="midnightblue" points="2797,-102.08 2800.5,-112.08 2804,-102.08 2797,-102.08"/>
</g>
</g>
</svg>
        <g id="navigator" transform="translate(0 0)" fill="#404254">
                <rect fill="#f2f5e9" fill-opacity="0.5" stroke="#606060" stroke-width=".5" x="0" y="0" width="60" height="60"/>
                <use id="zoomplus" xlink:href="#zoomPlus" x="17" y="9" onmousedown="handleZoom(evt,'in')"/>
                <use id="zoomminus" xlink:href="#zoomMin" x="42" y="9" onmousedown="handleZoom(evt,'out')"/>
                <use id="reset" xlink:href="#resetDef" x="30" y="36" onmousedown="handleReset()"/>
                <g id="arrowUp" xlink:href="#dirArrow" transform="translate(30 24)" onmousedown="handlePan(0,-1)">
                  <use xlink:href="#rim" fill="#404040">
                        <set attributeName="fill" to="#808080" begin="arrowUp.mouseover" end="arrowUp.mouseout"/>
                  </use>
                  <path fill="none" stroke="white" stroke-width="1.5" d="M0,-3.0v7 M-2.5,-0.5L0,-3.0L2.5,-0.5"/>
                </g>
                <g id="arrowRight" xlink:href="#dirArrow" transform="rotate(90) translate(36 -43)" onmousedown="handlePan(1,0)">
                  <use xlink:href="#rim" fill="#404040">
                        <set attributeName="fill" to="#808080" begin="arrowRight.mouseover" end="arrowRight.mouseout"/>
                  </use>
                  <path fill="none" stroke="white" stroke-width="1.5" d="M0,-3.0v7 M-2.5,-0.5L0,-3.0L2.5,-0.5"/>
                </g>
                <g id="arrowDown" xlink:href="#dirArrow" transform="rotate(180) translate(-30 -48)" onmousedown="handlePan(0,1)">
                  <use xlink:href="#rim" fill="#404040">
                        <set attributeName="fill" to="#808080" begin="arrowDown.mouseover" end="arrowDown.mouseout"/>
                  </use>
                  <path fill="none" stroke="white" stroke-width="1.5" d="M0,-3.0v7 M-2.5,-0.5L0,-3.0L2.5,-0.5"/>
                </g>
                <g id="arrowLeft" xlink:href="#dirArrow" transform="rotate(270) translate(-36 17)" onmousedown="handlePan(-1,0)">
                  <use xlink:href="#rim" fill="#404040">
                        <set attributeName="fill" to="#808080" begin="arrowLeft.mouseover" end="arrowLeft.mouseout"/>
                  </use>
                  <path fill="none" stroke="white" stroke-width="1.5" d="M0,-3.0v7 M-2.5,-0.5L0,-3.0L2.5,-0.5"/>
                </g>
        </g>
        <svg viewBox="0 0 15 15" width="100%" height="30px" preserveAspectRatio="xMaxYMin meet">
         <g id="arrow_out" transform="scale(0.3 0.3)">
          <a xlink:href="libc-header-start_8h__dep__incl_org.svg" target="_base">
           <rect id="button" ry="5" rx="5" y="6" x="6" height="38" width="38"
                fill="#f2f5e9" fill-opacity="0.5" stroke="#606060" stroke-width="1.0"/>
           <path id="arrow"
             d="M 11.500037,31.436501 C 11.940474,20.09759 22.043105,11.32322 32.158766,21.979434 L 37.068811,17.246167 C 37.068811,17.246167 37.088388,32 37.088388,32 L 22.160133,31.978069 C 22.160133,31.978069 26.997745,27.140456 26.997745,27.140456 C 18.528582,18.264221 13.291696,25.230495 11.500037,31.436501 z"
             style="fill:#404040;"/>
          </a>
         </g>
        </svg>
</svg>
