<?xml version="1.0" encoding="UTF-8" standalone="no"?>
<!DOCTYPE svg PUBLIC "-//W3C//DTD SVG 1.1//EN"
 "http://www.w3.org/Graphics/SVG/1.1/DTD/svg11.dtd">
<!-- Generated by graphviz version 2.44.1 (0)
 -->
<!-- Title: mqueue.h Pages: 1 -->
<svg width="1279pt" height="364pt"
 viewBox="0.00 0.00 1278.76 364.00" xmlns="http://www.w3.org/2000/svg" xmlns:xlink="http://www.w3.org/1999/xlink">
<g id="graph0" class="graph" transform="scale(1 1) rotate(0) translate(4 360)">
<title>mqueue.h</title>
<polygon fill="white" stroke="transparent" points="-4,4 -4,-360 1274.76,-360 1274.76,4 -4,4"/>
<!-- Node1 -->
<g id="node1" class="node">
<title>Node1</title>
<g id="a_node1"><a xlink:title=" ">
<polygon fill="#bfbfbf" stroke="black" points="845.5,-336.5 845.5,-355.5 910.5,-355.5 910.5,-336.5 845.5,-336.5"/>
<text text-anchor="middle" x="878" y="-343.5" font-family="Helvetica,sans-Serif" font-size="10.00">mqueue.h</text>
</a>
</g>
</g>
<!-- Node2 -->
<g id="node2" class="node">
<title>Node2</title>
<g id="a_node2"><a xlink:href="features_8h.html" target="_top" xlink:title=" ">
<polygon fill="white" stroke="black" points="1003,-112.5 1003,-131.5 1069,-131.5 1069,-112.5 1003,-112.5"/>
<text text-anchor="middle" x="1036" y="-119.5" font-family="Helvetica,sans-Serif" font-size="10.00">features.h</text>
</a>
</g>
</g>
<!-- Node1&#45;&gt;Node2 -->
<g id="edge1" class="edge">
<title>Node1&#45;&gt;Node2</title>
<path fill="none" stroke="midnightblue" d="M910.66,-341.28C994.29,-331.03 1212.51,-299.37 1255,-244 1275.56,-217.2 1276.35,-194.18 1255,-168 1233.29,-141.38 1136.93,-130.06 1079.51,-125.61"/>
<polygon fill="midnightblue" stroke="midnightblue" points="1079.5,-122.1 1069.27,-124.85 1078.98,-129.08 1079.5,-122.1"/>
</g>
<!-- Node9 -->
<g id="node9" class="node">
<title>Node9</title>
<g id="a_node9"><a xlink:href="sys_2types_8h.html" target="_top" xlink:title=" ">
<polygon fill="white" stroke="black" points="528,-280.5 528,-299.5 600,-299.5 600,-280.5 528,-280.5"/>
<text text-anchor="middle" x="564" y="-287.5" font-family="Helvetica,sans-Serif" font-size="10.00">sys/types.h</text>
</a>
</g>
</g>
<!-- Node1&#45;&gt;Node9 -->
<g id="edge9" class="edge">
<title>Node1&#45;&gt;Node9</title>
<path fill="none" stroke="midnightblue" d="M845.29,-339.37C789.19,-329.73 674.5,-310 610.25,-298.95"/>
<polygon fill="midnightblue" stroke="midnightblue" points="610.45,-295.44 600,-297.19 609.27,-302.34 610.45,-295.44"/>
</g>
<!-- Node19 -->
<g id="node19" class="node">
<title>Node19</title>
<g id="a_node19"><a xlink:href="fcntl_8h.html" target="_top" xlink:title=" ">
<polygon fill="white" stroke="black" points="976.5,-280.5 976.5,-299.5 1023.5,-299.5 1023.5,-280.5 976.5,-280.5"/>
<text text-anchor="middle" x="1000" y="-287.5" font-family="Helvetica,sans-Serif" font-size="10.00">fcntl.h</text>
</a>
</g>
</g>
<!-- Node1&#45;&gt;Node19 -->
<g id="edge26" class="edge">
<title>Node1&#45;&gt;Node19</title>
<path fill="none" stroke="midnightblue" d="M897.33,-336.44C917.32,-327.6 948.74,-313.69 971.56,-303.59"/>
<polygon fill="midnightblue" stroke="midnightblue" points="973.03,-306.76 980.76,-299.52 970.2,-300.36 973.03,-306.76"/>
</g>
<!-- Node22 -->
<g id="node22" class="node">
<title>Node22</title>
<g id="a_node22"><a xlink:href="struct__timespec_8h.html" target="_top" xlink:title=" ">
<polygon fill="white" stroke="black" points="882.5,-224.5 882.5,-243.5 1037.5,-243.5 1037.5,-224.5 882.5,-224.5"/>
<text text-anchor="middle" x="960" y="-231.5" font-family="Helvetica,sans-Serif" font-size="10.00">bits/types/struct_timespec.h</text>
</a>
</g>
</g>
<!-- Node1&#45;&gt;Node22 -->
<g id="edge40" class="edge">
<title>Node1&#45;&gt;Node22</title>
<path fill="none" stroke="midnightblue" d="M884.43,-336.37C898.03,-318.14 929.86,-275.43 947.57,-251.68"/>
<polygon fill="midnightblue" stroke="midnightblue" points="950.42,-253.7 953.6,-243.59 944.81,-249.52 950.42,-253.7"/>
</g>
<!-- Node26 -->
<g id="node26" class="node">
<title>Node26</title>
<g id="a_node26"><a xlink:href="sigevent__t_8h.html" target="_top" xlink:title=" ">
<polygon fill="white" stroke="black" points="0,-224.5 0,-243.5 128,-243.5 128,-224.5 0,-224.5"/>
<text text-anchor="middle" x="64" y="-231.5" font-family="Helvetica,sans-Serif" font-size="10.00">bits/types/sigevent_t.h</text>
</a>
</g>
</g>
<!-- Node1&#45;&gt;Node26 -->
<g id="edge36" class="edge">
<title>Node1&#45;&gt;Node26</title>
<path fill="none" stroke="midnightblue" d="M845.31,-341.09C782.19,-333.51 639.16,-316.11 519,-300 381.16,-281.52 220.12,-258.07 131.35,-244.99"/>
<polygon fill="midnightblue" stroke="midnightblue" points="131.82,-241.52 121.42,-243.53 130.8,-248.45 131.82,-241.52"/>
</g>
<!-- Node28 -->
<g id="node28" class="node">
<title>Node28</title>
<g id="a_node28"><a xlink:href="bits_2mqueue_8h.html" target="_top" xlink:title=" ">
<polygon fill="white" stroke="black" points="770,-280.5 770,-299.5 856,-299.5 856,-280.5 770,-280.5"/>
<text text-anchor="middle" x="813" y="-287.5" font-family="Helvetica,sans-Serif" font-size="10.00">bits/mqueue.h</text>
</a>
</g>
</g>
<!-- Node1&#45;&gt;Node28 -->
<g id="edge41" class="edge">
<title>Node1&#45;&gt;Node28</title>
<path fill="none" stroke="midnightblue" d="M867.56,-336.32C857.85,-328.26 843.18,-316.08 831.5,-306.37"/>
<polygon fill="midnightblue" stroke="midnightblue" points="833.56,-303.53 823.63,-299.83 829.09,-308.92 833.56,-303.53"/>
</g>
<!-- Node3 -->
<g id="node3" class="node">
<title>Node3</title>
<g id="a_node3"><a xlink:href="stdc-predef_8h.html" target="_top" xlink:title=" ">
<polygon fill="white" stroke="black" points="902,-56.5 902,-75.5 982,-75.5 982,-56.5 902,-56.5"/>
<text text-anchor="middle" x="942" y="-63.5" font-family="Helvetica,sans-Serif" font-size="10.00">stdc&#45;predef.h</text>
</a>
</g>
</g>
<!-- Node2&#45;&gt;Node3 -->
<g id="edge2" class="edge">
<title>Node2&#45;&gt;Node3</title>
<path fill="none" stroke="midnightblue" d="M1020.9,-112.32C1006.1,-103.82 983.31,-90.73 966.02,-80.8"/>
<polygon fill="midnightblue" stroke="midnightblue" points="967.48,-77.6 957.07,-75.65 963.99,-83.67 967.48,-77.6"/>
</g>
<!-- Node4 -->
<g id="node4" class="node">
<title>Node4</title>
<g id="a_node4"><a xlink:href="cdefs_8h.html" target="_top" xlink:title=" ">
<polygon fill="white" stroke="black" points="1000.5,-56.5 1000.5,-75.5 1071.5,-75.5 1071.5,-56.5 1000.5,-56.5"/>
<text text-anchor="middle" x="1036" y="-63.5" font-family="Helvetica,sans-Serif" font-size="10.00">sys/cdefs.h</text>
</a>
</g>
</g>
<!-- Node2&#45;&gt;Node4 -->
<g id="edge3" class="edge">
<title>Node2&#45;&gt;Node4</title>
<path fill="none" stroke="midnightblue" d="M1030.83,-112.08C1029.32,-104.93 1028.89,-94.64 1029.54,-85.69"/>
<polygon fill="midnightblue" stroke="midnightblue" points="1033.02,-86.13 1030.87,-75.75 1026.08,-85.2 1033.02,-86.13"/>
</g>
<!-- Node7 -->
<g id="node7" class="node">
<title>Node7</title>
<g id="a_node7"><a xlink:href="stubs_8h.html" target="_top" xlink:title=" ">
<polygon fill="white" stroke="black" points="1101.5,-56.5 1101.5,-75.5 1174.5,-75.5 1174.5,-56.5 1101.5,-56.5"/>
<text text-anchor="middle" x="1138" y="-63.5" font-family="Helvetica,sans-Serif" font-size="10.00">gnu/stubs.h</text>
</a>
</g>
</g>
<!-- Node2&#45;&gt;Node7 -->
<g id="edge7" class="edge">
<title>Node2&#45;&gt;Node7</title>
<path fill="none" stroke="midnightblue" d="M1052.39,-112.32C1068.67,-103.7 1093.87,-90.36 1112.72,-80.39"/>
<polygon fill="midnightblue" stroke="midnightblue" points="1114.45,-83.43 1121.65,-75.65 1111.18,-77.24 1114.45,-83.43"/>
</g>
<!-- Node4&#45;&gt;Node2 -->
<g id="edge4" class="edge">
<title>Node4&#45;&gt;Node2</title>
<path fill="none" stroke="midnightblue" d="M1041.13,-75.75C1042.66,-82.86 1043.1,-93.14 1042.47,-102.1"/>
<polygon fill="midnightblue" stroke="midnightblue" points="1038.99,-101.71 1041.17,-112.08 1045.93,-102.62 1038.99,-101.71"/>
</g>
<!-- Node5 -->
<g id="node5" class="node">
<title>Node5</title>
<g id="a_node5"><a xlink:href="wordsize_8h.html" target="_top" xlink:title=" ">
<polygon fill="white" stroke="black" points="426,-0.5 426,-19.5 516,-19.5 516,-0.5 426,-0.5"/>
<text text-anchor="middle" x="471" y="-7.5" font-family="Helvetica,sans-Serif" font-size="10.00">bits/wordsize.h</text>
</a>
</g>
</g>
<!-- Node4&#45;&gt;Node5 -->
<g id="edge5" class="edge">
<title>Node4&#45;&gt;Node5</title>
<path fill="none" stroke="midnightblue" d="M1000.2,-57.47C997.1,-56.93 994,-56.43 991,-56 822.61,-31.95 621.58,-18.98 526.32,-13.76"/>
<polygon fill="midnightblue" stroke="midnightblue" points="526.23,-10.25 516.06,-13.21 525.85,-17.24 526.23,-10.25"/>
</g>
<!-- Node6 -->
<g id="node6" class="node">
<title>Node6</title>
<g id="a_node6"><a xlink:href="long-double_8h.html" target="_top" xlink:title=" ">
<polygon fill="white" stroke="black" points="977,-0.5 977,-19.5 1081,-19.5 1081,-0.5 977,-0.5"/>
<text text-anchor="middle" x="1029" y="-7.5" font-family="Helvetica,sans-Serif" font-size="10.00">bits/long&#45;double.h</text>
</a>
</g>
</g>
<!-- Node4&#45;&gt;Node6 -->
<g id="edge6" class="edge">
<title>Node4&#45;&gt;Node6</title>
<path fill="none" stroke="midnightblue" d="M1034.84,-56.08C1033.92,-48.93 1032.58,-38.64 1031.42,-29.69"/>
<polygon fill="midnightblue" stroke="midnightblue" points="1034.89,-29.22 1030.13,-19.75 1027.95,-30.12 1034.89,-29.22"/>
</g>
<!-- Node8 -->
<g id="node8" class="node">
<title>Node8</title>
<g id="a_node8"><a xlink:title=" ">
<polygon fill="white" stroke="#bfbfbf" points="1099.5,-0.5 1099.5,-19.5 1188.5,-19.5 1188.5,-0.5 1099.5,-0.5"/>
<text text-anchor="middle" x="1144" y="-7.5" font-family="Helvetica,sans-Serif" font-size="10.00">gnu/stubs&#45;32.h</text>
</a>
</g>
</g>
<!-- Node7&#45;&gt;Node8 -->
<g id="edge8" class="edge">
<title>Node7&#45;&gt;Node8</title>
<path fill="none" stroke="midnightblue" d="M1138.99,-56.08C1139.79,-48.93 1140.93,-38.64 1141.92,-29.69"/>
<polygon fill="midnightblue" stroke="midnightblue" points="1145.4,-30.08 1143.03,-19.75 1138.44,-29.3 1145.4,-30.08"/>
</g>
<!-- Node9&#45;&gt;Node2 -->
<g id="edge10" class="edge">
<title>Node9&#45;&gt;Node2</title>
<path fill="none" stroke="midnightblue" d="M600.14,-283.84C639.99,-277.42 705.55,-264.72 759,-244 823.2,-219.12 830.85,-195.43 894,-168 926.36,-153.94 964.55,-142.09 993.17,-134.08"/>
<polygon fill="midnightblue" stroke="midnightblue" points="994.16,-137.44 1002.87,-131.41 992.3,-130.69 994.16,-137.44"/>
</g>
<!-- Node10 -->
<g id="node10" class="node">
<title>Node10</title>
<g id="a_node10"><a xlink:href="bits_2types_8h.html" target="_top" xlink:title=" ">
<polygon fill="white" stroke="black" points="573,-168.5 573,-187.5 647,-187.5 647,-168.5 573,-168.5"/>
<text text-anchor="middle" x="610" y="-175.5" font-family="Helvetica,sans-Serif" font-size="10.00">bits/types.h</text>
</a>
</g>
</g>
<!-- Node9&#45;&gt;Node10 -->
<g id="edge11" class="edge">
<title>Node9&#45;&gt;Node10</title>
<path fill="none" stroke="midnightblue" d="M567.61,-280.37C575.1,-262.46 592.47,-220.92 602.49,-196.95"/>
<polygon fill="midnightblue" stroke="midnightblue" points="605.78,-198.17 606.41,-187.59 599.32,-195.47 605.78,-198.17"/>
</g>
<!-- Node14 -->
<g id="node14" class="node">
<title>Node14</title>
<g id="a_node14"><a xlink:href="clockid__t_8h.html" target="_top" xlink:title=" ">
<polygon fill="white" stroke="black" points="630,-224.5 630,-243.5 750,-243.5 750,-224.5 630,-224.5"/>
<text text-anchor="middle" x="690" y="-231.5" font-family="Helvetica,sans-Serif" font-size="10.00">bits/types/clockid_t.h</text>
</a>
</g>
</g>
<!-- Node9&#45;&gt;Node14 -->
<g id="edge17" class="edge">
<title>Node9&#45;&gt;Node14</title>
<path fill="none" stroke="midnightblue" d="M583.97,-280.44C604.61,-271.6 637.06,-257.69 660.63,-247.59"/>
<polygon fill="midnightblue" stroke="midnightblue" points="662.32,-250.67 670.13,-243.52 659.56,-244.24 662.32,-250.67"/>
</g>
<!-- Node15 -->
<g id="node15" class="node">
<title>Node15</title>
<g id="a_node15"><a xlink:href="time__t_8h.html" target="_top" xlink:title=" ">
<polygon fill="white" stroke="black" points="146,-224.5 146,-243.5 254,-243.5 254,-224.5 146,-224.5"/>
<text text-anchor="middle" x="200" y="-231.5" font-family="Helvetica,sans-Serif" font-size="10.00">bits/types/time_t.h</text>
</a>
</g>
</g>
<!-- Node9&#45;&gt;Node15 -->
<g id="edge19" class="edge">
<title>Node9&#45;&gt;Node15</title>
<path fill="none" stroke="midnightblue" d="M527.77,-283.62C466.33,-274.51 340.93,-255.91 264.3,-244.54"/>
<polygon fill="midnightblue" stroke="midnightblue" points="264.68,-241.06 254.28,-243.05 263.66,-247.98 264.68,-241.06"/>
</g>
<!-- Node16 -->
<g id="node16" class="node">
<title>Node16</title>
<g id="a_node16"><a xlink:href="timer__t_8h.html" target="_top" xlink:title=" ">
<polygon fill="white" stroke="black" points="272,-224.5 272,-243.5 384,-243.5 384,-224.5 272,-224.5"/>
<text text-anchor="middle" x="328" y="-231.5" font-family="Helvetica,sans-Serif" font-size="10.00">bits/types/timer_t.h</text>
</a>
</g>
</g>
<!-- Node9&#45;&gt;Node16 -->
<g id="edge21" class="edge">
<title>Node9&#45;&gt;Node16</title>
<path fill="none" stroke="midnightblue" d="M527.9,-280.74C486.96,-271.37 420.08,-256.07 375.08,-245.77"/>
<polygon fill="midnightblue" stroke="midnightblue" points="375.79,-242.35 365.27,-243.53 374.23,-249.17 375.79,-242.35"/>
</g>
<!-- Node17 -->
<g id="node17" class="node">
<title>Node17</title>
<g id="a_node17"><a xlink:title=" ">
<polygon fill="white" stroke="#bfbfbf" points="402,-224.5 402,-243.5 458,-243.5 458,-224.5 402,-224.5"/>
<text text-anchor="middle" x="430" y="-231.5" font-family="Helvetica,sans-Serif" font-size="10.00">stddef.h</text>
</a>
</g>
</g>
<!-- Node9&#45;&gt;Node17 -->
<g id="edge23" class="edge">
<title>Node9&#45;&gt;Node17</title>
<path fill="none" stroke="midnightblue" d="M542.77,-280.44C520.62,-271.52 485.68,-257.44 460.56,-247.32"/>
<polygon fill="midnightblue" stroke="midnightblue" points="461.72,-244.01 451.13,-243.52 459.1,-250.5 461.72,-244.01"/>
</g>
<!-- Node18 -->
<g id="node18" class="node">
<title>Node18</title>
<g id="a_node18"><a xlink:href="stdint-intn_8h.html" target="_top" xlink:title=" ">
<polygon fill="white" stroke="black" points="476.5,-224.5 476.5,-243.5 573.5,-243.5 573.5,-224.5 476.5,-224.5"/>
<text text-anchor="middle" x="525" y="-231.5" font-family="Helvetica,sans-Serif" font-size="10.00">bits/stdint&#45;intn.h</text>
</a>
</g>
</g>
<!-- Node9&#45;&gt;Node18 -->
<g id="edge24" class="edge">
<title>Node9&#45;&gt;Node18</title>
<path fill="none" stroke="midnightblue" d="M557.56,-280.08C552.05,-272.46 543.97,-261.26 537.24,-251.94"/>
<polygon fill="midnightblue" stroke="midnightblue" points="540.01,-249.81 531.32,-243.75 534.34,-253.91 540.01,-249.81"/>
</g>
<!-- Node10&#45;&gt;Node2 -->
<g id="edge12" class="edge">
<title>Node10&#45;&gt;Node2</title>
<path fill="none" stroke="midnightblue" d="M647.23,-173.82C714.33,-167.82 860.16,-153.63 992.66,-132.09"/>
<polygon fill="midnightblue" stroke="midnightblue" points="993.28,-135.53 1002.58,-130.46 992.15,-128.63 993.28,-135.53"/>
</g>
<!-- Node10&#45;&gt;Node5 -->
<g id="edge13" class="edge">
<title>Node10&#45;&gt;Node5</title>
<path fill="none" stroke="midnightblue" d="M572.82,-172.96C545.68,-167.97 510.24,-156.83 490,-132 466.13,-102.71 466.24,-55.78 468.54,-29.81"/>
<polygon fill="midnightblue" stroke="midnightblue" points="472.03,-30.11 469.64,-19.79 465.07,-29.35 472.03,-30.11"/>
</g>
<!-- Node11 -->
<g id="node11" class="node">
<title>Node11</title>
<g id="a_node11"><a xlink:href="timesize_8h.html" target="_top" xlink:title=" ">
<polygon fill="white" stroke="black" points="598.5,-112.5 598.5,-131.5 687.5,-131.5 687.5,-112.5 598.5,-112.5"/>
<text text-anchor="middle" x="643" y="-119.5" font-family="Helvetica,sans-Serif" font-size="10.00">bits/timesize.h</text>
</a>
</g>
</g>
<!-- Node10&#45;&gt;Node11 -->
<g id="edge14" class="edge">
<title>Node10&#45;&gt;Node11</title>
<path fill="none" stroke="midnightblue" d="M615.45,-168.08C620.01,-160.61 626.67,-149.72 632.29,-140.52"/>
<polygon fill="midnightblue" stroke="midnightblue" points="635.42,-142.11 637.65,-131.75 629.45,-138.46 635.42,-142.11"/>
</g>
<!-- Node12 -->
<g id="node12" class="node">
<title>Node12</title>
<g id="a_node12"><a xlink:href="typesizes_8h.html" target="_top" xlink:title=" ">
<polygon fill="white" stroke="black" points="705.5,-112.5 705.5,-131.5 798.5,-131.5 798.5,-112.5 705.5,-112.5"/>
<text text-anchor="middle" x="752" y="-119.5" font-family="Helvetica,sans-Serif" font-size="10.00">bits/typesizes.h</text>
</a>
</g>
</g>
<!-- Node10&#45;&gt;Node12 -->
<g id="edge15" class="edge">
<title>Node10&#45;&gt;Node12</title>
<path fill="none" stroke="midnightblue" d="M632.5,-168.44C656.08,-159.48 693.32,-145.31 719.96,-135.18"/>
<polygon fill="midnightblue" stroke="midnightblue" points="721.5,-138.34 729.6,-131.52 719.01,-131.8 721.5,-138.34"/>
</g>
<!-- Node13 -->
<g id="node13" class="node">
<title>Node13</title>
<g id="a_node13"><a xlink:href="time64_8h.html" target="_top" xlink:title=" ">
<polygon fill="white" stroke="black" points="499.5,-112.5 499.5,-131.5 580.5,-131.5 580.5,-112.5 499.5,-112.5"/>
<text text-anchor="middle" x="540" y="-119.5" font-family="Helvetica,sans-Serif" font-size="10.00">bits/time64.h</text>
</a>
</g>
</g>
<!-- Node10&#45;&gt;Node13 -->
<g id="edge16" class="edge">
<title>Node10&#45;&gt;Node13</title>
<path fill="none" stroke="midnightblue" d="M598.75,-168.32C588.2,-160.18 572.2,-147.84 559.56,-138.09"/>
<polygon fill="midnightblue" stroke="midnightblue" points="561.51,-135.17 551.45,-131.83 557.23,-140.71 561.51,-135.17"/>
</g>
<!-- Node14&#45;&gt;Node10 -->
<g id="edge18" class="edge">
<title>Node14&#45;&gt;Node10</title>
<path fill="none" stroke="midnightblue" d="M677.15,-224.32C664.78,-215.98 645.87,-203.21 631.26,-193.35"/>
<polygon fill="midnightblue" stroke="midnightblue" points="633.07,-190.35 622.82,-187.65 629.15,-196.15 633.07,-190.35"/>
</g>
<!-- Node15&#45;&gt;Node10 -->
<g id="edge20" class="edge">
<title>Node15&#45;&gt;Node10</title>
<path fill="none" stroke="midnightblue" d="M254.29,-225.2C257.24,-224.79 260.15,-224.39 263,-224 369.98,-209.42 495.68,-193.39 562.54,-184.96"/>
<polygon fill="midnightblue" stroke="midnightblue" points="563.27,-188.39 572.75,-183.67 562.39,-181.45 563.27,-188.39"/>
</g>
<!-- Node16&#45;&gt;Node10 -->
<g id="edge22" class="edge">
<title>Node16&#45;&gt;Node10</title>
<path fill="none" stroke="midnightblue" d="M372.68,-224.44C424.52,-214.52 509.61,-198.22 562.58,-188.08"/>
<polygon fill="midnightblue" stroke="midnightblue" points="563.57,-191.46 572.73,-186.14 562.25,-184.58 563.57,-191.46"/>
</g>
<!-- Node18&#45;&gt;Node10 -->
<g id="edge25" class="edge">
<title>Node18&#45;&gt;Node10</title>
<path fill="none" stroke="midnightblue" d="M538.66,-224.32C551.92,-215.9 572.27,-202.97 587.85,-193.07"/>
<polygon fill="midnightblue" stroke="midnightblue" points="589.81,-195.97 596.38,-187.65 586.06,-190.06 589.81,-195.97"/>
</g>
<!-- Node19&#45;&gt;Node2 -->
<g id="edge27" class="edge">
<title>Node19&#45;&gt;Node2</title>
<path fill="none" stroke="midnightblue" d="M1013.79,-280.19C1024.83,-272.24 1039.5,-259.45 1046,-244 1060.32,-209.97 1050.36,-165.85 1042.64,-141.39"/>
<polygon fill="midnightblue" stroke="midnightblue" points="1045.87,-140 1039.35,-131.64 1039.23,-142.24 1045.87,-140"/>
</g>
<!-- Node19&#45;&gt;Node10 -->
<g id="edge28" class="edge">
<title>Node19&#45;&gt;Node10</title>
<path fill="none" stroke="midnightblue" d="M976.23,-281.46C936.7,-268.99 854.85,-243.53 785,-224 741,-211.7 690.43,-198.83 655.01,-190.02"/>
<polygon fill="midnightblue" stroke="midnightblue" points="655.53,-186.55 644.98,-187.54 653.84,-193.34 655.53,-186.55"/>
</g>
<!-- Node20 -->
<g id="node20" class="node">
<title>Node20</title>
<g id="a_node20"><a xlink:href="bits_2fcntl_8h.html" target="_top" xlink:title=" ">
<polygon fill="white" stroke="black" points="1178,-224.5 1178,-243.5 1246,-243.5 1246,-224.5 1178,-224.5"/>
<text text-anchor="middle" x="1212" y="-231.5" font-family="Helvetica,sans-Serif" font-size="10.00">bits/fcntl.h</text>
</a>
</g>
</g>
<!-- Node19&#45;&gt;Node20 -->
<g id="edge29" class="edge">
<title>Node19&#45;&gt;Node20</title>
<path fill="none" stroke="midnightblue" d="M1023.91,-282.91C1058.97,-273.98 1124.9,-257.18 1168.65,-246.04"/>
<polygon fill="midnightblue" stroke="midnightblue" points="1169.61,-249.41 1178.44,-243.55 1167.88,-242.63 1169.61,-249.41"/>
</g>
<!-- Node19&#45;&gt;Node22 -->
<g id="edge31" class="edge">
<title>Node19&#45;&gt;Node22</title>
<path fill="none" stroke="midnightblue" d="M993.39,-280.08C987.74,-272.46 979.46,-261.26 972.55,-251.94"/>
<polygon fill="midnightblue" stroke="midnightblue" points="975.25,-249.7 966.48,-243.75 969.62,-253.87 975.25,-249.7"/>
</g>
<!-- Node25 -->
<g id="node25" class="node">
<title>Node25</title>
<g id="a_node25"><a xlink:href="bits_2stat_8h.html" target="_top" xlink:title=" ">
<polygon fill="white" stroke="black" points="1094.5,-224.5 1094.5,-243.5 1159.5,-243.5 1159.5,-224.5 1094.5,-224.5"/>
<text text-anchor="middle" x="1127" y="-231.5" font-family="Helvetica,sans-Serif" font-size="10.00">bits/stat.h</text>
</a>
</g>
</g>
<!-- Node19&#45;&gt;Node25 -->
<g id="edge35" class="edge">
<title>Node19&#45;&gt;Node25</title>
<path fill="none" stroke="midnightblue" d="M1020.12,-280.44C1041.02,-271.56 1073.93,-257.56 1097.72,-247.45"/>
<polygon fill="midnightblue" stroke="midnightblue" points="1099.14,-250.65 1106.97,-243.52 1096.4,-244.21 1099.14,-250.65"/>
</g>
<!-- Node21 -->
<g id="node21" class="node">
<title>Node21</title>
<g id="a_node21"><a xlink:href="fcntl-linux_8h.html" target="_top" xlink:title=" ">
<polygon fill="white" stroke="black" points="1150,-168.5 1150,-187.5 1246,-187.5 1246,-168.5 1150,-168.5"/>
<text text-anchor="middle" x="1198" y="-175.5" font-family="Helvetica,sans-Serif" font-size="10.00">bits/fcntl&#45;linux.h</text>
</a>
</g>
</g>
<!-- Node20&#45;&gt;Node21 -->
<g id="edge30" class="edge">
<title>Node20&#45;&gt;Node21</title>
<path fill="none" stroke="midnightblue" d="M1209.69,-224.08C1207.83,-216.93 1205.16,-206.64 1202.85,-197.69"/>
<polygon fill="midnightblue" stroke="midnightblue" points="1206.17,-196.55 1200.27,-187.75 1199.39,-198.31 1206.17,-196.55"/>
</g>
<!-- Node22&#45;&gt;Node10 -->
<g id="edge32" class="edge">
<title>Node22&#45;&gt;Node10</title>
<path fill="none" stroke="midnightblue" d="M904.54,-224.44C836.44,-213.94 722.06,-196.29 657.71,-186.36"/>
<polygon fill="midnightblue" stroke="midnightblue" points="657.86,-182.84 647.44,-184.78 656.79,-189.76 657.86,-182.84"/>
</g>
<!-- Node23 -->
<g id="node23" class="node">
<title>Node23</title>
<g id="a_node23"><a xlink:href="bits_2endian_8h.html" target="_top" xlink:title=" ">
<polygon fill="white" stroke="black" points="903,-168.5 903,-187.5 983,-187.5 983,-168.5 903,-168.5"/>
<text text-anchor="middle" x="943" y="-175.5" font-family="Helvetica,sans-Serif" font-size="10.00">bits/endian.h</text>
</a>
</g>
</g>
<!-- Node22&#45;&gt;Node23 -->
<g id="edge33" class="edge">
<title>Node22&#45;&gt;Node23</title>
<path fill="none" stroke="midnightblue" d="M957.19,-224.08C954.92,-216.85 951.63,-206.41 948.79,-197.4"/>
<polygon fill="midnightblue" stroke="midnightblue" points="952.1,-196.24 945.75,-187.75 945.42,-198.34 952.1,-196.24"/>
</g>
<!-- Node24 -->
<g id="node24" class="node">
<title>Node24</title>
<g id="a_node24"><a xlink:href="endianness_8h.html" target="_top" xlink:title=" ">
<polygon fill="white" stroke="black" points="883,-112.5 883,-131.5 985,-131.5 985,-112.5 883,-112.5"/>
<text text-anchor="middle" x="934" y="-119.5" font-family="Helvetica,sans-Serif" font-size="10.00">bits/endianness.h</text>
</a>
</g>
</g>
<!-- Node23&#45;&gt;Node24 -->
<g id="edge34" class="edge">
<title>Node23&#45;&gt;Node24</title>
<path fill="none" stroke="midnightblue" d="M941.51,-168.08C940.32,-160.93 938.61,-150.64 937.12,-141.69"/>
<polygon fill="midnightblue" stroke="midnightblue" points="940.55,-141.04 935.46,-131.75 933.65,-142.19 940.55,-141.04"/>
</g>
<!-- Node26&#45;&gt;Node5 -->
<g id="edge37" class="edge">
<title>Node26&#45;&gt;Node5</title>
<path fill="none" stroke="midnightblue" d="M64.22,-224.27C65.02,-210.6 68.49,-184.04 83,-168 172.03,-69.58 331.5,-31.68 415.6,-18.04"/>
<polygon fill="midnightblue" stroke="midnightblue" points="416.38,-21.46 425.72,-16.46 415.3,-14.55 416.38,-21.46"/>
</g>
<!-- Node26&#45;&gt;Node10 -->
<g id="edge38" class="edge">
<title>Node26&#45;&gt;Node10</title>
<path fill="none" stroke="midnightblue" d="M128.08,-225C131.1,-224.65 134.08,-224.32 137,-224 292.67,-207 477.56,-190.47 562.74,-183.06"/>
<polygon fill="midnightblue" stroke="midnightblue" points="563.2,-186.53 572.86,-182.18 562.6,-179.56 563.2,-186.53"/>
</g>
<!-- Node27 -->
<g id="node27" class="node">
<title>Node27</title>
<g id="a_node27"><a xlink:href="____sigval__t_8h.html" target="_top" xlink:title=" ">
<polygon fill="white" stroke="black" points="92.5,-168.5 92.5,-187.5 217.5,-187.5 217.5,-168.5 92.5,-168.5"/>
<text text-anchor="middle" x="155" y="-175.5" font-family="Helvetica,sans-Serif" font-size="10.00">bits/types/__sigval_t.h</text>
</a>
</g>
</g>
<!-- Node26&#45;&gt;Node27 -->
<g id="edge39" class="edge">
<title>Node26&#45;&gt;Node27</title>
<path fill="none" stroke="midnightblue" d="M78.62,-224.32C92.95,-215.82 115.01,-202.73 131.75,-192.8"/>
<polygon fill="midnightblue" stroke="midnightblue" points="133.6,-195.77 140.42,-187.65 130.03,-189.75 133.6,-195.77"/>
</g>
<!-- Node28&#45;&gt;Node10 -->
<g id="edge42" class="edge">
<title>Node28&#45;&gt;Node10</title>
<path fill="none" stroke="midnightblue" d="M808.2,-280.46C799.94,-266.56 781.74,-239.08 759,-224 728.34,-203.68 688.17,-192.24 657.26,-185.99"/>
<polygon fill="midnightblue" stroke="midnightblue" points="657.64,-182.5 647.16,-184.07 656.32,-189.38 657.64,-182.5"/>
</g>
</g>
</svg>
