<?xml version="1.0" encoding="UTF-8" standalone="no"?>
<!DOCTYPE svg PUBLIC "-//W3C//DTD SVG 1.1//EN"
 "http://www.w3.org/Graphics/SVG/1.1/DTD/svg11.dtd">
<!-- Generated by graphviz version 2.44.1 (0)
 -->
<!-- Title: pthread.h Pages: 1 -->
<!--zoomable 442 -->
<svg id="main" version="1.1" xmlns="http://www.w3.org/2000/svg" xmlns:xlink="http://www.w3.org/1999/xlink" xml:space="preserve" onload="init(evt)">
<style type="text/css"><![CDATA[
.edge:hover path { stroke: red; }
.edge:hover polygon { stroke: red; fill: red; }
]]></style>
<script type="text/javascript"><![CDATA[
var edges = document.getElementsByTagName('g');
if (edges && edges.length) {
  for (var i=0;i<edges.length;i++) {
    if (edges[i].id.substr(0,4)=='edge') {
      edges[i].setAttribute('class','edge');
    }
  }
}
]]></script>
        <defs>
                <circle id="rim" cx="0" cy="0" r="7"/>
                <circle id="rim2" cx="0" cy="0" r="3.5"/>
                <g id="zoomPlus">
                        <use xlink:href="#rim" fill="#404040">
                                <set attributeName="fill" to="#808080" begin="zoomplus.mouseover" end="zoomplus.mouseout"/>
                        </use>
                        <path d="M-4,0h8M0,-4v8" fill="none" stroke="white" stroke-width="1.5" pointer-events="none"/>
                </g>
                <g id="zoomMin">
                        <use xlink:href="#rim" fill="#404040">
                                <set attributeName="fill" to="#808080" begin="zoomminus.mouseover" end="zoomminus.mouseout"/>
                        </use>
                        <path d="M-4,0h8" fill="none" stroke="white" stroke-width="1.5" pointer-events="none"/>
                </g>
                <g id="dirArrow">
                        <path fill="none" stroke="white" stroke-width="1.5" d="M0,-3.0v7 M-2.5,-0.5L0,-3.0L2.5,-0.5"/>
                </g>
               <g id="resetDef">
                       <use xlink:href="#rim2" fill="#404040">
                               <set attributeName="fill" to="#808080" begin="reset.mouseover" end="reset.mouseout"/>
                       </use>
               </g>
        </defs>

<script type="text/javascript">
var viewWidth = 1733;
var viewHeight = 442;
var sectionId = 'dynsection-0';
</script>
<script xlink:href="svgpan.js"/>
<svg id="graph" class="graph">
<g id="viewport">
<title>pthread.h</title>
<polygon fill="white" stroke="transparent" points="-4,4 -4,-438 1729,-438 1729,4 -4,4"/>
<!-- Node1 -->
<g id="node1" class="node">
<title>Node1</title>
<g id="a_node1"><a xlink:title=" ">
<polygon fill="#bfbfbf" stroke="black" points="1315.5,-414.5 1315.5,-433.5 1378.5,-433.5 1378.5,-414.5 1315.5,-414.5"/>
<text text-anchor="middle" x="1347" y="-421.5" font-family="Helvetica,sans-Serif" font-size="10.00">pthread.h</text>
</a>
</g>
</g>
<!-- Node2 -->
<g id="node2" class="node">
<title>Node2</title>
<g id="a_node2"><a xlink:href="features_8h.html" target="_top" xlink:title=" ">
<polygon fill="white" stroke="black" points="102,-112.5 102,-131.5 168,-131.5 168,-112.5 102,-112.5"/>
<text text-anchor="middle" x="135" y="-119.5" font-family="Helvetica,sans-Serif" font-size="10.00">features.h</text>
</a>
</g>
</g>
<!-- Node1&#45;&gt;Node2 -->
<g id="edge1" class="edge">
<title>Node1&#45;&gt;Node2</title>
<path fill="none" stroke="midnightblue" d="M1315.48,-421.87C1117.96,-414.61 59,-372.64 59,-307.5 59,-307.5 59,-307.5 59,-244 59,-200.48 94.7,-159.77 117.16,-138.47"/>
<polygon fill="midnightblue" stroke="midnightblue" points="119.73,-140.86 124.75,-131.53 115.01,-135.7 119.73,-140.86"/>
</g>
<!-- Node5 -->
<g id="node5" class="node">
<title>Node5</title>
<g id="a_node5"><a xlink:href="wordsize_8h.html" target="_top" xlink:title=" ">
<polygon fill="white" stroke="black" points="1279,-0.5 1279,-19.5 1369,-19.5 1369,-0.5 1279,-0.5"/>
<text text-anchor="middle" x="1324" y="-7.5" font-family="Helvetica,sans-Serif" font-size="10.00">bits/wordsize.h</text>
</a>
</g>
</g>
<!-- Node1&#45;&gt;Node5 -->
<g id="edge56" class="edge">
<title>Node1&#45;&gt;Node5</title>
<path fill="none" stroke="midnightblue" d="M1346.52,-414.39C1343.68,-363.6 1329.12,-102.73 1325.06,-29.9"/>
<polygon fill="midnightblue" stroke="midnightblue" points="1328.53,-29.35 1324.48,-19.56 1321.54,-29.74 1328.53,-29.35"/>
</g>
<!-- Node9 -->
<g id="node9" class="node">
<title>Node9</title>
<g id="a_node9"><a xlink:href="sched_8h.html" target="_top" xlink:title=" ">
<polygon fill="white" stroke="black" points="174,-297 174,-316 228,-316 228,-297 174,-297"/>
<text text-anchor="middle" x="201" y="-304" font-family="Helvetica,sans-Serif" font-size="10.00">sched.h</text>
</a>
</g>
</g>
<!-- Node1&#45;&gt;Node9 -->
<g id="edge9" class="edge">
<title>Node1&#45;&gt;Node9</title>
<path fill="none" stroke="midnightblue" d="M1315.28,-421.73C1219.24,-417.68 923.18,-403.85 679,-378 506.17,-359.7 463.82,-348.12 292,-322 274.36,-319.32 254.81,-316.22 238.37,-313.58"/>
<polygon fill="midnightblue" stroke="midnightblue" points="238.49,-310.05 228.06,-311.92 237.38,-316.96 238.49,-310.05"/>
</g>
<!-- Node16 -->
<g id="node16" class="node">
<title>Node16</title>
<g id="a_node16"><a xlink:href="struct__timespec_8h.html" target="_top" xlink:title=" ">
<polygon fill="white" stroke="black" points="1142.5,-235.5 1142.5,-254.5 1297.5,-254.5 1297.5,-235.5 1142.5,-235.5"/>
<text text-anchor="middle" x="1220" y="-242.5" font-family="Helvetica,sans-Serif" font-size="10.00">bits/types/struct_timespec.h</text>
</a>
</g>
</g>
<!-- Node1&#45;&gt;Node16 -->
<g id="edge57" class="edge">
<title>Node1&#45;&gt;Node16</title>
<path fill="none" stroke="midnightblue" d="M1343.04,-414.42C1332.7,-392.54 1303.35,-333.4 1269,-291 1260.12,-280.03 1248.55,-269.28 1238.88,-261.04"/>
<polygon fill="midnightblue" stroke="midnightblue" points="1240.93,-258.19 1230.99,-254.5 1236.46,-263.58 1240.93,-258.19"/>
</g>
<!-- Node17 -->
<g id="node17" class="node">
<title>Node17</title>
<g id="a_node17"><a xlink:href="bits_2endian_8h.html" target="_top" xlink:title=" ">
<polygon fill="white" stroke="black" points="1352,-174 1352,-193 1432,-193 1432,-174 1352,-174"/>
<text text-anchor="middle" x="1392" y="-181" font-family="Helvetica,sans-Serif" font-size="10.00">bits/endian.h</text>
</a>
</g>
</g>
<!-- Node1&#45;&gt;Node17 -->
<g id="edge47" class="edge">
<title>Node1&#45;&gt;Node17</title>
<path fill="none" stroke="midnightblue" d="M1350.05,-414.47C1353.17,-405.5 1357.98,-390.9 1361,-378 1375.86,-314.61 1385.83,-237.86 1389.91,-203.15"/>
<polygon fill="midnightblue" stroke="midnightblue" points="1393.4,-203.41 1391.07,-193.07 1386.45,-202.61 1393.4,-203.41"/>
</g>
<!-- Node22 -->
<g id="node22" class="node">
<title>Node22</title>
<g id="a_node22"><a xlink:href="time_8h.html" target="_top" xlink:title=" ">
<polygon fill="white" stroke="black" points="688,-358.5 688,-377.5 736,-377.5 736,-358.5 688,-358.5"/>
<text text-anchor="middle" x="712" y="-365.5" font-family="Helvetica,sans-Serif" font-size="10.00">time.h</text>
</a>
</g>
</g>
<!-- Node1&#45;&gt;Node22 -->
<g id="edge27" class="edge">
<title>Node1&#45;&gt;Node22</title>
<path fill="none" stroke="midnightblue" d="M1315.08,-420.29C1207.26,-411.12 857.23,-381.35 746.16,-371.9"/>
<polygon fill="midnightblue" stroke="midnightblue" points="746.43,-368.42 736.17,-371.06 745.84,-375.39 746.43,-368.42"/>
</g>
<!-- Node31 -->
<g id="node31" class="node">
<title>Node31</title>
<g id="a_node31"><a xlink:href="pthreadtypes_8h.html" target="_top" xlink:title=" ">
<polygon fill="white" stroke="black" points="1451.5,-358.5 1451.5,-377.5 1562.5,-377.5 1562.5,-358.5 1451.5,-358.5"/>
<text text-anchor="middle" x="1507" y="-365.5" font-family="Helvetica,sans-Serif" font-size="10.00">bits/pthreadtypes.h</text>
</a>
</g>
</g>
<!-- Node1&#45;&gt;Node31 -->
<g id="edge48" class="edge">
<title>Node1&#45;&gt;Node31</title>
<path fill="none" stroke="midnightblue" d="M1372.35,-414.44C1399.27,-405.36 1442,-390.94 1472.09,-380.78"/>
<polygon fill="midnightblue" stroke="midnightblue" points="1473.41,-384.03 1481.77,-377.52 1471.17,-377.4 1473.41,-384.03"/>
</g>
<!-- Node36 -->
<g id="node36" class="node">
<title>Node36</title>
<g id="a_node36"><a xlink:href="bits_2setjmp_8h.html" target="_top" xlink:title=" ">
<polygon fill="white" stroke="black" points="1450,-174 1450,-193 1530,-193 1530,-174 1450,-174"/>
<text text-anchor="middle" x="1490" y="-181" font-family="Helvetica,sans-Serif" font-size="10.00">bits/setjmp.h</text>
</a>
</g>
</g>
<!-- Node1&#45;&gt;Node36 -->
<g id="edge54" class="edge">
<title>Node1&#45;&gt;Node36</title>
<path fill="none" stroke="midnightblue" d="M1353.14,-414.25C1359.27,-405.34 1368.8,-391.01 1376,-378 1409.98,-316.59 1403.73,-293.17 1443,-235 1451.59,-222.28 1463.35,-209.64 1472.96,-200.19"/>
<polygon fill="midnightblue" stroke="midnightblue" points="1475.6,-202.51 1480.41,-193.07 1470.76,-197.45 1475.6,-202.51"/>
</g>
<!-- Node37 -->
<g id="node37" class="node">
<title>Node37</title>
<g id="a_node37"><a xlink:href="____sigset__t_8h.html" target="_top" xlink:title=" ">
<polygon fill="white" stroke="black" points="1580.5,-358.5 1580.5,-377.5 1705.5,-377.5 1705.5,-358.5 1580.5,-358.5"/>
<text text-anchor="middle" x="1643" y="-365.5" font-family="Helvetica,sans-Serif" font-size="10.00">bits/types/__sigset_t.h</text>
</a>
</g>
</g>
<!-- Node1&#45;&gt;Node37 -->
<g id="edge58" class="edge">
<title>Node1&#45;&gt;Node37</title>
<path fill="none" stroke="midnightblue" d="M1378.68,-417.22C1428.19,-408.19 1524.64,-390.59 1586.33,-379.34"/>
<polygon fill="midnightblue" stroke="midnightblue" points="1587.09,-382.76 1596.3,-377.52 1585.83,-375.87 1587.09,-382.76"/>
</g>
<!-- Node3 -->
<g id="node3" class="node">
<title>Node3</title>
<g id="a_node3"><a xlink:href="stdc-predef_8h.html" target="_top" xlink:title=" ">
<polygon fill="white" stroke="black" points="0,-56.5 0,-75.5 80,-75.5 80,-56.5 0,-56.5"/>
<text text-anchor="middle" x="40" y="-63.5" font-family="Helvetica,sans-Serif" font-size="10.00">stdc&#45;predef.h</text>
</a>
</g>
</g>
<!-- Node2&#45;&gt;Node3 -->
<g id="edge2" class="edge">
<title>Node2&#45;&gt;Node3</title>
<path fill="none" stroke="midnightblue" d="M119.74,-112.32C104.78,-103.82 81.75,-90.73 64.27,-80.8"/>
<polygon fill="midnightblue" stroke="midnightblue" points="65.65,-77.55 55.23,-75.65 62.19,-83.64 65.65,-77.55"/>
</g>
<!-- Node4 -->
<g id="node4" class="node">
<title>Node4</title>
<g id="a_node4"><a xlink:href="cdefs_8h.html" target="_top" xlink:title=" ">
<polygon fill="white" stroke="black" points="196.5,-56.5 196.5,-75.5 267.5,-75.5 267.5,-56.5 196.5,-56.5"/>
<text text-anchor="middle" x="232" y="-63.5" font-family="Helvetica,sans-Serif" font-size="10.00">sys/cdefs.h</text>
</a>
</g>
</g>
<!-- Node2&#45;&gt;Node4 -->
<g id="edge3" class="edge">
<title>Node2&#45;&gt;Node4</title>
<path fill="none" stroke="midnightblue" d="M145.47,-112.32C159.15,-103.66 183,-90.24 202.3,-80.25"/>
<polygon fill="midnightblue" stroke="midnightblue" points="204.01,-83.3 211.34,-75.65 200.84,-77.06 204.01,-83.3"/>
</g>
<!-- Node7 -->
<g id="node7" class="node">
<title>Node7</title>
<g id="a_node7"><a xlink:href="stubs_8h.html" target="_top" xlink:title=" ">
<polygon fill="white" stroke="black" points="98.5,-56.5 98.5,-75.5 171.5,-75.5 171.5,-56.5 98.5,-56.5"/>
<text text-anchor="middle" x="135" y="-63.5" font-family="Helvetica,sans-Serif" font-size="10.00">gnu/stubs.h</text>
</a>
</g>
</g>
<!-- Node2&#45;&gt;Node7 -->
<g id="edge7" class="edge">
<title>Node2&#45;&gt;Node7</title>
<path fill="none" stroke="midnightblue" d="M135,-112.08C135,-105.01 135,-94.86 135,-85.99"/>
<polygon fill="midnightblue" stroke="midnightblue" points="138.5,-85.75 135,-75.75 131.5,-85.75 138.5,-85.75"/>
</g>
<!-- Node4&#45;&gt;Node2 -->
<g id="edge4" class="edge">
<title>Node4&#45;&gt;Node2</title>
<path fill="none" stroke="midnightblue" d="M221.56,-75.65C207.9,-84.31 184.06,-97.73 164.75,-107.73"/>
<polygon fill="midnightblue" stroke="midnightblue" points="163.03,-104.67 155.7,-112.32 166.2,-110.91 163.03,-104.67"/>
</g>
<!-- Node4&#45;&gt;Node5 -->
<g id="edge5" class="edge">
<title>Node4&#45;&gt;Node5</title>
<path fill="none" stroke="midnightblue" d="M267.71,-63.23C427.16,-55.35 1074.59,-23.33 1268.72,-13.73"/>
<polygon fill="midnightblue" stroke="midnightblue" points="1269.16,-17.22 1278.97,-13.23 1268.81,-10.22 1269.16,-17.22"/>
</g>
<!-- Node6 -->
<g id="node6" class="node">
<title>Node6</title>
<g id="a_node6"><a xlink:href="long-double_8h.html" target="_top" xlink:title=" ">
<polygon fill="white" stroke="black" points="186,-0.5 186,-19.5 290,-19.5 290,-0.5 186,-0.5"/>
<text text-anchor="middle" x="238" y="-7.5" font-family="Helvetica,sans-Serif" font-size="10.00">bits/long&#45;double.h</text>
</a>
</g>
</g>
<!-- Node4&#45;&gt;Node6 -->
<g id="edge6" class="edge">
<title>Node4&#45;&gt;Node6</title>
<path fill="none" stroke="midnightblue" d="M232.99,-56.08C233.79,-48.93 234.93,-38.64 235.92,-29.69"/>
<polygon fill="midnightblue" stroke="midnightblue" points="239.4,-30.08 237.03,-19.75 232.44,-29.3 239.4,-30.08"/>
</g>
<!-- Node8 -->
<g id="node8" class="node">
<title>Node8</title>
<g id="a_node8"><a xlink:title=" ">
<polygon fill="white" stroke="#bfbfbf" points="78.5,-0.5 78.5,-19.5 167.5,-19.5 167.5,-0.5 78.5,-0.5"/>
<text text-anchor="middle" x="123" y="-7.5" font-family="Helvetica,sans-Serif" font-size="10.00">gnu/stubs&#45;32.h</text>
</a>
</g>
</g>
<!-- Node7&#45;&gt;Node8 -->
<g id="edge8" class="edge">
<title>Node7&#45;&gt;Node8</title>
<path fill="none" stroke="midnightblue" d="M133.02,-56.08C131.43,-48.93 129.14,-38.64 127.15,-29.69"/>
<polygon fill="midnightblue" stroke="midnightblue" points="130.53,-28.75 124.94,-19.75 123.7,-30.27 130.53,-28.75"/>
</g>
<!-- Node9&#45;&gt;Node2 -->
<g id="edge10" class="edge">
<title>Node9&#45;&gt;Node2</title>
<path fill="none" stroke="midnightblue" d="M189.62,-296.81C178.56,-287.69 162.27,-272.29 154,-255 136.16,-217.7 133.96,-168.21 134.27,-141.68"/>
<polygon fill="midnightblue" stroke="midnightblue" points="137.77,-141.62 134.52,-131.53 130.77,-141.44 137.77,-141.62"/>
</g>
<!-- Node10 -->
<g id="node10" class="node">
<title>Node10</title>
<g id="a_node10"><a xlink:href="bits_2types_8h.html" target="_top" xlink:title=" ">
<polygon fill="white" stroke="black" points="645,-174 645,-193 719,-193 719,-174 645,-174"/>
<text text-anchor="middle" x="682" y="-181" font-family="Helvetica,sans-Serif" font-size="10.00">bits/types.h</text>
</a>
</g>
</g>
<!-- Node9&#45;&gt;Node10 -->
<g id="edge11" class="edge">
<title>Node9&#45;&gt;Node10</title>
<path fill="none" stroke="midnightblue" d="M228.21,-297.61C258.27,-288.58 307.86,-272.72 349,-255 366.53,-247.45 368.93,-241.13 387,-235 471.48,-206.34 575.34,-193.41 634.58,-188"/>
<polygon fill="midnightblue" stroke="midnightblue" points="635.1,-191.47 644.75,-187.1 634.48,-184.49 635.1,-191.47"/>
</g>
<!-- Node14 -->
<g id="node14" class="node">
<title>Node14</title>
<g id="a_node14"><a xlink:title=" ">
<polygon fill="white" stroke="#bfbfbf" points="396,-235.5 396,-254.5 452,-254.5 452,-235.5 396,-235.5"/>
<text text-anchor="middle" x="424" y="-242.5" font-family="Helvetica,sans-Serif" font-size="10.00">stddef.h</text>
</a>
</g>
</g>
<!-- Node9&#45;&gt;Node14 -->
<g id="edge17" class="edge">
<title>Node9&#45;&gt;Node14</title>
<path fill="none" stroke="midnightblue" d="M223.86,-296.97C229.73,-294.9 236.07,-292.78 242,-291 291.16,-276.27 348.81,-262.61 385.84,-254.3"/>
<polygon fill="midnightblue" stroke="midnightblue" points="386.71,-257.69 395.71,-252.1 385.19,-250.85 386.71,-257.69"/>
</g>
<!-- Node15 -->
<g id="node15" class="node">
<title>Node15</title>
<g id="a_node15"><a xlink:href="time__t_8h.html" target="_top" xlink:title=" ">
<polygon fill="white" stroke="black" points="470,-235.5 470,-254.5 578,-254.5 578,-235.5 470,-235.5"/>
<text text-anchor="middle" x="524" y="-242.5" font-family="Helvetica,sans-Serif" font-size="10.00">bits/types/time_t.h</text>
</a>
</g>
</g>
<!-- Node9&#45;&gt;Node15 -->
<g id="edge18" class="edge">
<title>Node9&#45;&gt;Node15</title>
<path fill="none" stroke="midnightblue" d="M228.26,-300.48C280.95,-290.77 397.75,-269.26 467.77,-256.36"/>
<polygon fill="midnightblue" stroke="midnightblue" points="468.55,-259.77 477.75,-254.52 467.28,-252.89 468.55,-259.77"/>
</g>
<!-- Node9&#45;&gt;Node16 -->
<g id="edge20" class="edge">
<title>Node9&#45;&gt;Node16</title>
<path fill="none" stroke="midnightblue" d="M228.33,-301.37C251.18,-298.06 284.64,-293.57 314,-291 652.64,-261.34 738.59,-273.75 1078,-255 1095.5,-254.03 1114.22,-252.91 1132.12,-251.79"/>
<polygon fill="midnightblue" stroke="midnightblue" points="1132.5,-255.28 1142.26,-251.16 1132.06,-248.29 1132.5,-255.28"/>
</g>
<!-- Node19 -->
<g id="node19" class="node">
<title>Node19</title>
<g id="a_node19"><a xlink:href="bits_2sched_8h.html" target="_top" xlink:title=" ">
<polygon fill="white" stroke="black" points="163.5,-235.5 163.5,-254.5 238.5,-254.5 238.5,-235.5 163.5,-235.5"/>
<text text-anchor="middle" x="201" y="-242.5" font-family="Helvetica,sans-Serif" font-size="10.00">bits/sched.h</text>
</a>
</g>
</g>
<!-- Node9&#45;&gt;Node19 -->
<g id="edge24" class="edge">
<title>Node9&#45;&gt;Node19</title>
<path fill="none" stroke="midnightblue" d="M201,-296.98C201,-288.58 201,-275.48 201,-264.66"/>
<polygon fill="midnightblue" stroke="midnightblue" points="204.5,-264.51 201,-254.51 197.5,-264.51 204.5,-264.51"/>
</g>
<!-- Node21 -->
<g id="node21" class="node">
<title>Node21</title>
<g id="a_node21"><a xlink:href="cpu-set_8h.html" target="_top" xlink:title=" ">
<polygon fill="white" stroke="black" points="256.5,-235.5 256.5,-254.5 339.5,-254.5 339.5,-235.5 256.5,-235.5"/>
<text text-anchor="middle" x="298" y="-242.5" font-family="Helvetica,sans-Serif" font-size="10.00">bits/cpu&#45;set.h</text>
</a>
</g>
</g>
<!-- Node9&#45;&gt;Node21 -->
<g id="edge26" class="edge">
<title>Node9&#45;&gt;Node21</title>
<path fill="none" stroke="midnightblue" d="M214.9,-296.98C230.67,-287.3 256.64,-271.37 275.35,-259.89"/>
<polygon fill="midnightblue" stroke="midnightblue" points="277.43,-262.72 284.13,-254.51 273.77,-256.75 277.43,-262.72"/>
</g>
<!-- Node10&#45;&gt;Node2 -->
<g id="edge12" class="edge">
<title>Node10&#45;&gt;Node2</title>
<path fill="none" stroke="midnightblue" d="M644.83,-178.46C547.08,-167.82 283.13,-139.11 178.54,-127.74"/>
<polygon fill="midnightblue" stroke="midnightblue" points="178.66,-124.23 168.34,-126.63 177.9,-131.19 178.66,-124.23"/>
</g>
<!-- Node10&#45;&gt;Node5 -->
<g id="edge13" class="edge">
<title>Node10&#45;&gt;Node5</title>
<path fill="none" stroke="midnightblue" d="M713.84,-174C820.04,-145.62 1162.23,-54.21 1282.07,-22.2"/>
<polygon fill="midnightblue" stroke="midnightblue" points="1283.21,-25.52 1291.97,-19.56 1281.41,-18.76 1283.21,-25.52"/>
</g>
<!-- Node11 -->
<g id="node11" class="node">
<title>Node11</title>
<g id="a_node11"><a xlink:href="timesize_8h.html" target="_top" xlink:title=" ">
<polygon fill="white" stroke="black" points="740.5,-112.5 740.5,-131.5 829.5,-131.5 829.5,-112.5 740.5,-112.5"/>
<text text-anchor="middle" x="785" y="-119.5" font-family="Helvetica,sans-Serif" font-size="10.00">bits/timesize.h</text>
</a>
</g>
</g>
<!-- Node10&#45;&gt;Node11 -->
<g id="edge14" class="edge">
<title>Node10&#45;&gt;Node11</title>
<path fill="none" stroke="midnightblue" d="M696.76,-173.98C713.66,-164.21 741.58,-148.08 761.49,-136.58"/>
<polygon fill="midnightblue" stroke="midnightblue" points="763.36,-139.54 770.27,-131.51 759.86,-133.48 763.36,-139.54"/>
</g>
<!-- Node12 -->
<g id="node12" class="node">
<title>Node12</title>
<g id="a_node12"><a xlink:href="typesizes_8h.html" target="_top" xlink:title=" ">
<polygon fill="white" stroke="black" points="530.5,-112.5 530.5,-131.5 623.5,-131.5 623.5,-112.5 530.5,-112.5"/>
<text text-anchor="middle" x="577" y="-119.5" font-family="Helvetica,sans-Serif" font-size="10.00">bits/typesizes.h</text>
</a>
</g>
</g>
<!-- Node10&#45;&gt;Node12 -->
<g id="edge15" class="edge">
<title>Node10&#45;&gt;Node12</title>
<path fill="none" stroke="midnightblue" d="M666.96,-173.98C649.72,-164.21 621.26,-148.08 600.97,-136.58"/>
<polygon fill="midnightblue" stroke="midnightblue" points="602.44,-133.39 592.02,-131.51 598.99,-139.48 602.44,-133.39"/>
</g>
<!-- Node13 -->
<g id="node13" class="node">
<title>Node13</title>
<g id="a_node13"><a xlink:href="time64_8h.html" target="_top" xlink:title=" ">
<polygon fill="white" stroke="black" points="641.5,-112.5 641.5,-131.5 722.5,-131.5 722.5,-112.5 641.5,-112.5"/>
<text text-anchor="middle" x="682" y="-119.5" font-family="Helvetica,sans-Serif" font-size="10.00">bits/time64.h</text>
</a>
</g>
</g>
<!-- Node10&#45;&gt;Node13 -->
<g id="edge16" class="edge">
<title>Node10&#45;&gt;Node13</title>
<path fill="none" stroke="midnightblue" d="M682,-173.98C682,-165.58 682,-152.48 682,-141.66"/>
<polygon fill="midnightblue" stroke="midnightblue" points="685.5,-141.51 682,-131.51 678.5,-141.51 685.5,-141.51"/>
</g>
<!-- Node15&#45;&gt;Node10 -->
<g id="edge19" class="edge">
<title>Node15&#45;&gt;Node10</title>
<path fill="none" stroke="midnightblue" d="M546.64,-235.48C573.74,-225.27 619.31,-208.11 650,-196.55"/>
<polygon fill="midnightblue" stroke="midnightblue" points="651.28,-199.81 659.4,-193.01 648.81,-193.26 651.28,-199.81"/>
</g>
<!-- Node16&#45;&gt;Node10 -->
<g id="edge21" class="edge">
<title>Node16&#45;&gt;Node10</title>
<path fill="none" stroke="midnightblue" d="M1142.92,-235.48C1029.78,-222.96 822.12,-200 729.16,-189.72"/>
<polygon fill="midnightblue" stroke="midnightblue" points="729.53,-186.24 719.2,-188.61 728.76,-193.19 729.53,-186.24"/>
</g>
<!-- Node16&#45;&gt;Node17 -->
<g id="edge22" class="edge">
<title>Node16&#45;&gt;Node17</title>
<path fill="none" stroke="midnightblue" d="M1244.64,-235.48C1274.28,-225.22 1324.18,-207.96 1357.6,-196.4"/>
<polygon fill="midnightblue" stroke="midnightblue" points="1359.1,-199.59 1367.4,-193.01 1356.81,-192.97 1359.1,-199.59"/>
</g>
<!-- Node18 -->
<g id="node18" class="node">
<title>Node18</title>
<g id="a_node18"><a xlink:href="endianness_8h.html" target="_top" xlink:title=" ">
<polygon fill="white" stroke="black" points="1352,-112.5 1352,-131.5 1454,-131.5 1454,-112.5 1352,-112.5"/>
<text text-anchor="middle" x="1403" y="-119.5" font-family="Helvetica,sans-Serif" font-size="10.00">bits/endianness.h</text>
</a>
</g>
</g>
<!-- Node17&#45;&gt;Node18 -->
<g id="edge23" class="edge">
<title>Node17&#45;&gt;Node18</title>
<path fill="none" stroke="midnightblue" d="M1393.58,-173.98C1395.13,-165.58 1397.55,-152.48 1399.55,-141.66"/>
<polygon fill="midnightblue" stroke="midnightblue" points="1403.05,-141.98 1401.43,-131.51 1396.17,-140.71 1403.05,-141.98"/>
</g>
<!-- Node20 -->
<g id="node20" class="node">
<title>Node20</title>
<g id="a_node20"><a xlink:href="struct__sched__param_8h.html" target="_top" xlink:title=" ">
<polygon fill="white" stroke="black" points="163.5,-168.5 163.5,-198.5 292.5,-198.5 292.5,-168.5 163.5,-168.5"/>
<text text-anchor="start" x="171.5" y="-186.5" font-family="Helvetica,sans-Serif" font-size="10.00">bits/types/struct_sched</text>
<text text-anchor="middle" x="228" y="-175.5" font-family="Helvetica,sans-Serif" font-size="10.00">_param.h</text>
</a>
</g>
</g>
<!-- Node19&#45;&gt;Node20 -->
<g id="edge25" class="edge">
<title>Node19&#45;&gt;Node20</title>
<path fill="none" stroke="midnightblue" d="M204.87,-235.48C208.15,-228.25 213.01,-217.53 217.44,-207.78"/>
<polygon fill="midnightblue" stroke="midnightblue" points="220.69,-209.08 221.64,-198.52 214.32,-206.18 220.69,-209.08"/>
</g>
<!-- Node22&#45;&gt;Node2 -->
<g id="edge28" class="edge">
<title>Node22&#45;&gt;Node2</title>
<path fill="none" stroke="midnightblue" d="M687.81,-366.56C587.38,-364.54 206.52,-354.75 165,-322 110.33,-278.89 122.59,-182.32 130.71,-141.64"/>
<polygon fill="midnightblue" stroke="midnightblue" points="134.16,-142.25 132.83,-131.73 127.32,-140.78 134.16,-142.25"/>
</g>
<!-- Node22&#45;&gt;Node14 -->
<g id="edge29" class="edge">
<title>Node22&#45;&gt;Node14</title>
<path fill="none" stroke="midnightblue" d="M687.93,-366.18C604.12,-363.1 328.83,-350.83 303,-322 293.81,-311.74 295.14,-302.31 303,-291 312.81,-276.88 354.31,-263.53 386,-255.09"/>
<polygon fill="midnightblue" stroke="midnightblue" points="387.09,-258.42 395.89,-252.53 385.33,-251.65 387.09,-258.42"/>
</g>
<!-- Node22&#45;&gt;Node15 -->
<g id="edge34" class="edge">
<title>Node22&#45;&gt;Node15</title>
<path fill="none" stroke="midnightblue" d="M687.72,-366.1C605.16,-362.79 339.02,-350 314,-322 304.82,-311.72 305.34,-301.71 314,-291 323.29,-279.5 401.65,-264.98 459.95,-255.6"/>
<polygon fill="midnightblue" stroke="midnightblue" points="460.52,-259.05 469.84,-254.02 459.42,-252.14 460.52,-259.05"/>
</g>
<!-- Node22&#45;&gt;Node16 -->
<g id="edge37" class="edge">
<title>Node22&#45;&gt;Node16</title>
<path fill="none" stroke="midnightblue" d="M736.17,-366.86C836.52,-366.05 1216.65,-360.42 1252,-322 1267.83,-304.8 1250.45,-278.62 1235.78,-261.92"/>
<polygon fill="midnightblue" stroke="midnightblue" points="1238.32,-259.51 1228.96,-254.56 1233.19,-264.27 1238.32,-259.51"/>
</g>
<!-- Node23 -->
<g id="node23" class="node">
<title>Node23</title>
<g id="a_node23"><a xlink:href="bits_2time_8h.html" target="_top" xlink:title=" ">
<polygon fill="white" stroke="black" points="732.5,-297 732.5,-316 801.5,-316 801.5,-297 732.5,-297"/>
<text text-anchor="middle" x="767" y="-304" font-family="Helvetica,sans-Serif" font-size="10.00">bits/time.h</text>
</a>
</g>
</g>
<!-- Node22&#45;&gt;Node23 -->
<g id="edge30" class="edge">
<title>Node22&#45;&gt;Node23</title>
<path fill="none" stroke="midnightblue" d="M719.88,-358.48C728.29,-349.37 741.82,-334.74 752.23,-323.48"/>
<polygon fill="midnightblue" stroke="midnightblue" points="754.92,-325.73 759.13,-316.01 749.78,-320.98 754.92,-325.73"/>
</g>
<!-- Node24 -->
<g id="node24" class="node">
<title>Node24</title>
<g id="a_node24"><a xlink:href="clock__t_8h.html" target="_top" xlink:title=" ">
<polygon fill="white" stroke="black" points="819.5,-297 819.5,-316 930.5,-316 930.5,-297 819.5,-297"/>
<text text-anchor="middle" x="875" y="-304" font-family="Helvetica,sans-Serif" font-size="10.00">bits/types/clock_t.h</text>
</a>
</g>
</g>
<!-- Node22&#45;&gt;Node24 -->
<g id="edge32" class="edge">
<title>Node22&#45;&gt;Node24</title>
<path fill="none" stroke="midnightblue" d="M735.35,-358.48C763.31,-348.27 810.33,-331.11 841.99,-319.55"/>
<polygon fill="midnightblue" stroke="midnightblue" points="843.5,-322.73 851.69,-316.01 841.1,-316.15 843.5,-322.73"/>
</g>
<!-- Node25 -->
<g id="node25" class="node">
<title>Node25</title>
<g id="a_node25"><a xlink:href="struct__tm_8h.html" target="_top" xlink:title=" ">
<polygon fill="white" stroke="black" points="322.5,-297 322.5,-316 445.5,-316 445.5,-297 322.5,-297"/>
<text text-anchor="middle" x="384" y="-304" font-family="Helvetica,sans-Serif" font-size="10.00">bits/types/struct_tm.h</text>
</a>
</g>
</g>
<!-- Node22&#45;&gt;Node25 -->
<g id="edge35" class="edge">
<title>Node22&#45;&gt;Node25</title>
<path fill="none" stroke="midnightblue" d="M687.87,-363.01C642.29,-355.41 540.45,-338.2 455,-322 448.44,-320.76 441.55,-319.4 434.74,-318.04"/>
<polygon fill="midnightblue" stroke="midnightblue" points="435.38,-314.6 424.88,-316.05 434,-321.46 435.38,-314.6"/>
</g>
<!-- Node26 -->
<g id="node26" class="node">
<title>Node26</title>
<g id="a_node26"><a xlink:href="clockid__t_8h.html" target="_top" xlink:title=" ">
<polygon fill="white" stroke="black" points="464,-297 464,-316 584,-316 584,-297 464,-297"/>
<text text-anchor="middle" x="524" y="-304" font-family="Helvetica,sans-Serif" font-size="10.00">bits/types/clockid_t.h</text>
</a>
</g>
</g>
<!-- Node22&#45;&gt;Node26 -->
<g id="edge38" class="edge">
<title>Node22&#45;&gt;Node26</title>
<path fill="none" stroke="midnightblue" d="M687.81,-359.34C655.58,-349.14 598.28,-331.01 560.71,-319.12"/>
<polygon fill="midnightblue" stroke="midnightblue" points="561.73,-315.77 551.14,-316.09 559.62,-322.44 561.73,-315.77"/>
</g>
<!-- Node27 -->
<g id="node27" class="node">
<title>Node27</title>
<g id="a_node27"><a xlink:href="timer__t_8h.html" target="_top" xlink:title=" ">
<polygon fill="white" stroke="black" points="602,-297 602,-316 714,-316 714,-297 602,-297"/>
<text text-anchor="middle" x="658" y="-304" font-family="Helvetica,sans-Serif" font-size="10.00">bits/types/timer_t.h</text>
</a>
</g>
</g>
<!-- Node22&#45;&gt;Node27 -->
<g id="edge40" class="edge">
<title>Node22&#45;&gt;Node27</title>
<path fill="none" stroke="midnightblue" d="M704.26,-358.48C696,-349.37 682.72,-334.74 672.51,-323.48"/>
<polygon fill="midnightblue" stroke="midnightblue" points="675.03,-321.06 665.72,-316.01 669.85,-325.77 675.03,-321.06"/>
</g>
<!-- Node28 -->
<g id="node28" class="node">
<title>Node28</title>
<g id="a_node28"><a xlink:href="struct__itimerspec_8h.html" target="_top" xlink:title=" ">
<polygon fill="white" stroke="black" points="1081.5,-297 1081.5,-316 1242.5,-316 1242.5,-297 1081.5,-297"/>
<text text-anchor="middle" x="1162" y="-304" font-family="Helvetica,sans-Serif" font-size="10.00">bits/types/struct_itimerspec.h</text>
</a>
</g>
</g>
<!-- Node22&#45;&gt;Node28 -->
<g id="edge42" class="edge">
<title>Node22&#45;&gt;Node28</title>
<path fill="none" stroke="midnightblue" d="M736.12,-364.31C794.21,-357.76 946.4,-340.2 1073,-322 1082.32,-320.66 1092.16,-319.15 1101.78,-317.62"/>
<polygon fill="midnightblue" stroke="midnightblue" points="1102.37,-321.08 1111.69,-316.03 1101.26,-314.16 1102.37,-321.08"/>
</g>
<!-- Node29 -->
<g id="node29" class="node">
<title>Node29</title>
<g id="a_node29"><a xlink:href="locale__t_8h.html" target="_top" xlink:title=" ">
<polygon fill="white" stroke="black" points="948.5,-297 948.5,-316 1063.5,-316 1063.5,-297 948.5,-297"/>
<text text-anchor="middle" x="1006" y="-304" font-family="Helvetica,sans-Serif" font-size="10.00">bits/types/locale_t.h</text>
</a>
</g>
</g>
<!-- Node22&#45;&gt;Node29 -->
<g id="edge45" class="edge">
<title>Node22&#45;&gt;Node29</title>
<path fill="none" stroke="midnightblue" d="M736.33,-362.38C778.06,-354.4 865.94,-337.44 940,-322 945.74,-320.8 951.75,-319.52 957.71,-318.23"/>
<polygon fill="midnightblue" stroke="midnightblue" points="958.61,-321.62 967.64,-316.07 957.12,-314.78 958.61,-321.62"/>
</g>
<!-- Node23&#45;&gt;Node10 -->
<g id="edge31" class="edge">
<title>Node23&#45;&gt;Node10</title>
<path fill="none" stroke="midnightblue" d="M760.89,-296.8C746.92,-276.91 712.45,-227.85 694.05,-201.65"/>
<polygon fill="midnightblue" stroke="midnightblue" points="696.67,-199.29 688.06,-193.12 690.94,-203.32 696.67,-199.29"/>
</g>
<!-- Node24&#45;&gt;Node10 -->
<g id="edge33" class="edge">
<title>Node24&#45;&gt;Node10</title>
<path fill="none" stroke="midnightblue" d="M861.43,-296.99C828.63,-276.43 744.8,-223.88 704.42,-198.55"/>
<polygon fill="midnightblue" stroke="midnightblue" points="706.15,-195.51 695.81,-193.16 702.43,-201.44 706.15,-195.51"/>
</g>
<!-- Node25&#45;&gt;Node10 -->
<g id="edge36" class="edge">
<title>Node25&#45;&gt;Node10</title>
<path fill="none" stroke="midnightblue" d="M426.55,-296.97C477.3,-286.44 558.84,-268.3 587,-255 603.06,-247.42 640.76,-217.92 663.55,-199.56"/>
<polygon fill="midnightblue" stroke="midnightblue" points="665.9,-202.16 671.47,-193.14 661.5,-196.72 665.9,-202.16"/>
</g>
<!-- Node26&#45;&gt;Node10 -->
<g id="edge39" class="edge">
<title>Node26&#45;&gt;Node10</title>
<path fill="none" stroke="midnightblue" d="M545.54,-296.89C565.92,-288.14 596.77,-273.29 620,-255 639.91,-239.32 658.51,-216.68 670.04,-201.32"/>
<polygon fill="midnightblue" stroke="midnightblue" points="672.89,-203.36 675.97,-193.22 667.24,-199.22 672.89,-203.36"/>
</g>
<!-- Node27&#45;&gt;Node10 -->
<g id="edge41" class="edge">
<title>Node27&#45;&gt;Node10</title>
<path fill="none" stroke="midnightblue" d="M659.73,-296.8C663.6,-277.26 673.06,-229.56 678.32,-203.05"/>
<polygon fill="midnightblue" stroke="midnightblue" points="681.78,-203.61 680.29,-193.12 674.91,-202.25 681.78,-203.61"/>
</g>
<!-- Node28&#45;&gt;Node10 -->
<g id="edge43" class="edge">
<title>Node28&#45;&gt;Node10</title>
<path fill="none" stroke="midnightblue" d="M1154.74,-296.75C1141.36,-281.31 1111.14,-249.5 1078,-235 1016.33,-208.01 820.22,-192.9 729.22,-187.19"/>
<polygon fill="midnightblue" stroke="midnightblue" points="729.38,-183.69 719.18,-186.57 728.95,-190.68 729.38,-183.69"/>
</g>
<!-- Node28&#45;&gt;Node16 -->
<g id="edge44" class="edge">
<title>Node28&#45;&gt;Node16</title>
<path fill="none" stroke="midnightblue" d="M1170.31,-296.98C1179.18,-287.87 1193.45,-273.24 1204.42,-261.98"/>
<polygon fill="midnightblue" stroke="midnightblue" points="1207.23,-264.11 1211.71,-254.51 1202.22,-259.23 1207.23,-264.11"/>
</g>
<!-- Node30 -->
<g id="node30" class="node">
<title>Node30</title>
<g id="a_node30"><a xlink:href="____locale__t_8h.html" target="_top" xlink:title=" ">
<polygon fill="white" stroke="black" points="943.5,-235.5 943.5,-254.5 1068.5,-254.5 1068.5,-235.5 943.5,-235.5"/>
<text text-anchor="middle" x="1006" y="-242.5" font-family="Helvetica,sans-Serif" font-size="10.00">bits/types/__locale_t.h</text>
</a>
</g>
</g>
<!-- Node29&#45;&gt;Node30 -->
<g id="edge46" class="edge">
<title>Node29&#45;&gt;Node30</title>
<path fill="none" stroke="midnightblue" d="M1006,-296.98C1006,-288.58 1006,-275.48 1006,-264.66"/>
<polygon fill="midnightblue" stroke="midnightblue" points="1009.5,-264.51 1006,-254.51 1002.5,-264.51 1009.5,-264.51"/>
</g>
<!-- Node32 -->
<g id="node32" class="node">
<title>Node32</title>
<g id="a_node32"><a xlink:href="thread-shared-types_8h.html" target="_top" xlink:title=" ">
<polygon fill="white" stroke="black" points="1519,-291.5 1519,-321.5 1625,-321.5 1625,-291.5 1519,-291.5"/>
<text text-anchor="start" x="1527" y="-309.5" font-family="Helvetica,sans-Serif" font-size="10.00">bits/thread&#45;shared</text>
<text text-anchor="middle" x="1572" y="-298.5" font-family="Helvetica,sans-Serif" font-size="10.00">&#45;types.h</text>
</a>
</g>
</g>
<!-- Node31&#45;&gt;Node32 -->
<g id="edge49" class="edge">
<title>Node31&#45;&gt;Node32</title>
<path fill="none" stroke="midnightblue" d="M1516.31,-358.48C1524.87,-350.64 1537.9,-338.71 1549.21,-328.37"/>
<polygon fill="midnightblue" stroke="midnightblue" points="1551.67,-330.86 1556.68,-321.52 1546.94,-325.69 1551.67,-330.86"/>
</g>
<!-- Node33 -->
<g id="node33" class="node">
<title>Node33</title>
<g id="a_node33"><a xlink:href="pthreadtypes-arch_8h.html" target="_top" xlink:title=" ">
<polygon fill="white" stroke="black" points="1589,-56.5 1589,-75.5 1725,-75.5 1725,-56.5 1589,-56.5"/>
<text text-anchor="middle" x="1657" y="-63.5" font-family="Helvetica,sans-Serif" font-size="10.00">bits/pthreadtypes&#45;arch.h</text>
</a>
</g>
</g>
<!-- Node32&#45;&gt;Node33 -->
<g id="edge50" class="edge">
<title>Node32&#45;&gt;Node33</title>
<path fill="none" stroke="midnightblue" d="M1625.19,-299.14C1653.01,-292.8 1684.77,-280.18 1702,-255 1739.23,-200.59 1692.83,-118.98 1669.22,-83.96"/>
<polygon fill="midnightblue" stroke="midnightblue" points="1672.09,-81.95 1663.51,-75.73 1666.34,-85.95 1672.09,-81.95"/>
</g>
<!-- Node34 -->
<g id="node34" class="node">
<title>Node34</title>
<g id="a_node34"><a xlink:href="struct__mutex_8h.html" target="_top" xlink:title=" ">
<polygon fill="white" stroke="black" points="1451.5,-235.5 1451.5,-254.5 1562.5,-254.5 1562.5,-235.5 1451.5,-235.5"/>
<text text-anchor="middle" x="1507" y="-242.5" font-family="Helvetica,sans-Serif" font-size="10.00">bits/struct_mutex.h</text>
</a>
</g>
</g>
<!-- Node32&#45;&gt;Node34 -->
<g id="edge52" class="edge">
<title>Node32&#45;&gt;Node34</title>
<path fill="none" stroke="midnightblue" d="M1556.6,-291.4C1546.76,-282.4 1534.01,-270.72 1523.89,-261.47"/>
<polygon fill="midnightblue" stroke="midnightblue" points="1526.2,-258.83 1516.46,-254.66 1521.47,-263.99 1526.2,-258.83"/>
</g>
<!-- Node35 -->
<g id="node35" class="node">
<title>Node35</title>
<g id="a_node35"><a xlink:href="struct__rwlock_8h.html" target="_top" xlink:title=" ">
<polygon fill="white" stroke="black" points="1581,-235.5 1581,-254.5 1693,-254.5 1693,-235.5 1581,-235.5"/>
<text text-anchor="middle" x="1637" y="-242.5" font-family="Helvetica,sans-Serif" font-size="10.00">bits/struct_rwlock.h</text>
</a>
</g>
</g>
<!-- Node32&#45;&gt;Node35 -->
<g id="edge53" class="edge">
<title>Node32&#45;&gt;Node35</title>
<path fill="none" stroke="midnightblue" d="M1587.4,-291.4C1597.24,-282.4 1609.99,-270.72 1620.11,-261.47"/>
<polygon fill="midnightblue" stroke="midnightblue" points="1622.53,-263.99 1627.54,-254.66 1617.8,-258.83 1622.53,-263.99"/>
</g>
<!-- Node33&#45;&gt;Node5 -->
<g id="edge51" class="edge">
<title>Node33&#45;&gt;Node5</title>
<path fill="none" stroke="midnightblue" d="M1604.24,-56.44C1542.74,-46.47 1441.59,-30.07 1379.1,-19.94"/>
<polygon fill="midnightblue" stroke="midnightblue" points="1379.47,-16.45 1369.04,-18.3 1378.35,-23.36 1379.47,-16.45"/>
</g>
<!-- Node36&#45;&gt;Node5 -->
<g id="edge55" class="edge">
<title>Node36&#45;&gt;Node5</title>
<path fill="none" stroke="midnightblue" d="M1488.37,-173.91C1485.36,-159.8 1477.83,-131.35 1463,-112 1432.41,-72.1 1381.84,-40.95 1350.86,-24.33"/>
<polygon fill="midnightblue" stroke="midnightblue" points="1352.4,-21.19 1341.92,-19.65 1349.16,-27.39 1352.4,-21.19"/>
</g>
</g>
</svg>
        <g id="navigator" transform="translate(0 0)" fill="#404254">
                <rect fill="#f2f5e9" fill-opacity="0.5" stroke="#606060" stroke-width=".5" x="0" y="0" width="60" height="60"/>
                <use id="zoomplus" xlink:href="#zoomPlus" x="17" y="9" onmousedown="handleZoom(evt,'in')"/>
                <use id="zoomminus" xlink:href="#zoomMin" x="42" y="9" onmousedown="handleZoom(evt,'out')"/>
                <use id="reset" xlink:href="#resetDef" x="30" y="36" onmousedown="handleReset()"/>
                <g id="arrowUp" xlink:href="#dirArrow" transform="translate(30 24)" onmousedown="handlePan(0,-1)">
                  <use xlink:href="#rim" fill="#404040">
                        <set attributeName="fill" to="#808080" begin="arrowUp.mouseover" end="arrowUp.mouseout"/>
                  </use>
                  <path fill="none" stroke="white" stroke-width="1.5" d="M0,-3.0v7 M-2.5,-0.5L0,-3.0L2.5,-0.5"/>
                </g>
                <g id="arrowRight" xlink:href="#dirArrow" transform="rotate(90) translate(36 -43)" onmousedown="handlePan(1,0)">
                  <use xlink:href="#rim" fill="#404040">
                        <set attributeName="fill" to="#808080" begin="arrowRight.mouseover" end="arrowRight.mouseout"/>
                  </use>
                  <path fill="none" stroke="white" stroke-width="1.5" d="M0,-3.0v7 M-2.5,-0.5L0,-3.0L2.5,-0.5"/>
                </g>
                <g id="arrowDown" xlink:href="#dirArrow" transform="rotate(180) translate(-30 -48)" onmousedown="handlePan(0,1)">
                  <use xlink:href="#rim" fill="#404040">
                        <set attributeName="fill" to="#808080" begin="arrowDown.mouseover" end="arrowDown.mouseout"/>
                  </use>
                  <path fill="none" stroke="white" stroke-width="1.5" d="M0,-3.0v7 M-2.5,-0.5L0,-3.0L2.5,-0.5"/>
                </g>
                <g id="arrowLeft" xlink:href="#dirArrow" transform="rotate(270) translate(-36 17)" onmousedown="handlePan(-1,0)">
                  <use xlink:href="#rim" fill="#404040">
                        <set attributeName="fill" to="#808080" begin="arrowLeft.mouseover" end="arrowLeft.mouseout"/>
                  </use>
                  <path fill="none" stroke="white" stroke-width="1.5" d="M0,-3.0v7 M-2.5,-0.5L0,-3.0L2.5,-0.5"/>
                </g>
        </g>
        <svg viewBox="0 0 15 15" width="100%" height="30px" preserveAspectRatio="xMaxYMin meet">
         <g id="arrow_out" transform="scale(0.3 0.3)">
          <a xlink:href="pthread_8h__incl_org.svg" target="_base">
           <rect id="button" ry="5" rx="5" y="6" x="6" height="38" width="38"
                fill="#f2f5e9" fill-opacity="0.5" stroke="#606060" stroke-width="1.0"/>
           <path id="arrow"
             d="M 11.500037,31.436501 C 11.940474,20.09759 22.043105,11.32322 32.158766,21.979434 L 37.068811,17.246167 C 37.068811,17.246167 37.088388,32 37.088388,32 L 22.160133,31.978069 C 22.160133,31.978069 26.997745,27.140456 26.997745,27.140456 C 18.528582,18.264221 13.291696,25.230495 11.500037,31.436501 z"
             style="fill:#404040;"/>
          </a>
         </g>
        </svg>
</svg>
