<?xml version="1.0" encoding="UTF-8" standalone="no"?>
<!DOCTYPE svg PUBLIC "-//W3C//DTD SVG 1.1//EN"
 "http://www.w3.org/Graphics/SVG/1.1/DTD/svg11.dtd">
<!-- Generated by graphviz version 2.44.1 (0)
 -->
<!-- Title: pty.h Pages: 1 -->
<!--zoomable 308 -->
<svg id="main" version="1.1" xmlns="http://www.w3.org/2000/svg" xmlns:xlink="http://www.w3.org/1999/xlink" xml:space="preserve" onload="init(evt)">
<style type="text/css"><![CDATA[
.edge:hover path { stroke: red; }
.edge:hover polygon { stroke: red; fill: red; }
]]></style>
<script type="text/javascript"><![CDATA[
var edges = document.getElementsByTagName('g');
if (edges && edges.length) {
  for (var i=0;i<edges.length;i++) {
    if (edges[i].id.substr(0,4)=='edge') {
      edges[i].setAttribute('class','edge');
    }
  }
}
]]></script>
        <defs>
                <circle id="rim" cx="0" cy="0" r="7"/>
                <circle id="rim2" cx="0" cy="0" r="3.5"/>
                <g id="zoomPlus">
                        <use xlink:href="#rim" fill="#404040">
                                <set attributeName="fill" to="#808080" begin="zoomplus.mouseover" end="zoomplus.mouseout"/>
                        </use>
                        <path d="M-4,0h8M0,-4v8" fill="none" stroke="white" stroke-width="1.5" pointer-events="none"/>
                </g>
                <g id="zoomMin">
                        <use xlink:href="#rim" fill="#404040">
                                <set attributeName="fill" to="#808080" begin="zoomminus.mouseover" end="zoomminus.mouseout"/>
                        </use>
                        <path d="M-4,0h8" fill="none" stroke="white" stroke-width="1.5" pointer-events="none"/>
                </g>
                <g id="dirArrow">
                        <path fill="none" stroke="white" stroke-width="1.5" d="M0,-3.0v7 M-2.5,-0.5L0,-3.0L2.5,-0.5"/>
                </g>
               <g id="resetDef">
                       <use xlink:href="#rim2" fill="#404040">
                               <set attributeName="fill" to="#808080" begin="reset.mouseover" end="reset.mouseout"/>
                       </use>
               </g>
        </defs>

<script type="text/javascript">
var viewWidth = 1715;
var viewHeight = 308;
var sectionId = 'dynsection-0';
</script>
<script xlink:href="svgpan.js"/>
<svg id="graph" class="graph">
<g id="viewport">
<title>pty.h</title>
<polygon fill="white" stroke="transparent" points="-4,4 -4,-304 1711.02,-304 1711.02,4 -4,4"/>
<!-- Node1 -->
<g id="node1" class="node">
<title>Node1</title>
<g id="a_node1"><a xlink:title=" ">
<polygon fill="#bfbfbf" stroke="black" points="434.02,-280.5 434.02,-299.5 474.02,-299.5 474.02,-280.5 434.02,-280.5"/>
<text text-anchor="middle" x="454.02" y="-287.5" font-family="Helvetica,sans-Serif" font-size="10.00">pty.h</text>
</a>
</g>
</g>
<!-- Node2 -->
<g id="node2" class="node">
<title>Node2</title>
<g id="a_node2"><a xlink:href="features_8h.html" target="_top" xlink:title=" ">
<polygon fill="white" stroke="black" points="336.02,-112.5 336.02,-131.5 402.02,-131.5 402.02,-112.5 336.02,-112.5"/>
<text text-anchor="middle" x="369.02" y="-119.5" font-family="Helvetica,sans-Serif" font-size="10.00">features.h</text>
</a>
</g>
</g>
<!-- Node1&#45;&gt;Node2 -->
<g id="edge1" class="edge">
<title>Node1&#45;&gt;Node2</title>
<path fill="none" stroke="midnightblue" d="M444.05,-280.22C434.91,-271.73 421.55,-258.11 413.02,-244 392.76,-210.49 379.63,-166.19 373.35,-141.55"/>
<polygon fill="midnightblue" stroke="midnightblue" points="376.73,-140.61 370.95,-131.72 369.93,-142.27 376.73,-140.61"/>
</g>
<!-- Node9 -->
<g id="node9" class="node">
<title>Node9</title>
<g id="a_node9"><a xlink:href="termios_8h.html" target="_top" xlink:title=" ">
<polygon fill="white" stroke="black" points="422.52,-224.5 422.52,-243.5 485.52,-243.5 485.52,-224.5 422.52,-224.5"/>
<text text-anchor="middle" x="454.02" y="-231.5" font-family="Helvetica,sans-Serif" font-size="10.00">termios.h</text>
</a>
</g>
</g>
<!-- Node1&#45;&gt;Node9 -->
<g id="edge9" class="edge">
<title>Node1&#45;&gt;Node9</title>
<path fill="none" stroke="midnightblue" d="M454.02,-280.08C454.02,-273.01 454.02,-262.86 454.02,-253.99"/>
<polygon fill="midnightblue" stroke="midnightblue" points="457.52,-253.75 454.02,-243.75 450.52,-253.75 457.52,-253.75"/>
</g>
<!-- Node25 -->
<g id="node25" class="node">
<title>Node25</title>
<g id="a_node25"><a xlink:href="ioctl_8h.html" target="_top" xlink:title=" ">
<polygon fill="white" stroke="black" points="528.02,-224.5 528.02,-243.5 594.02,-243.5 594.02,-224.5 528.02,-224.5"/>
<text text-anchor="middle" x="561.02" y="-231.5" font-family="Helvetica,sans-Serif" font-size="10.00">sys/ioctl.h</text>
</a>
</g>
</g>
<!-- Node1&#45;&gt;Node25 -->
<g id="edge28" class="edge">
<title>Node1&#45;&gt;Node25</title>
<path fill="none" stroke="midnightblue" d="M471.21,-280.32C488.37,-271.66 514.97,-258.24 534.77,-248.25"/>
<polygon fill="midnightblue" stroke="midnightblue" points="536.52,-251.28 543.87,-243.65 533.37,-245.04 536.52,-251.28"/>
</g>
<!-- Node3 -->
<g id="node3" class="node">
<title>Node3</title>
<g id="a_node3"><a xlink:href="stdc-predef_8h.html" target="_top" xlink:title=" ">
<polygon fill="white" stroke="black" points="235.02,-56.5 235.02,-75.5 315.02,-75.5 315.02,-56.5 235.02,-56.5"/>
<text text-anchor="middle" x="275.02" y="-63.5" font-family="Helvetica,sans-Serif" font-size="10.00">stdc&#45;predef.h</text>
</a>
</g>
</g>
<!-- Node2&#45;&gt;Node3 -->
<g id="edge2" class="edge">
<title>Node2&#45;&gt;Node3</title>
<path fill="none" stroke="midnightblue" d="M353.92,-112.32C339.12,-103.82 316.33,-90.73 299.04,-80.8"/>
<polygon fill="midnightblue" stroke="midnightblue" points="300.5,-77.6 290.09,-75.65 297.02,-83.67 300.5,-77.6"/>
</g>
<!-- Node4 -->
<g id="node4" class="node">
<title>Node4</title>
<g id="a_node4"><a xlink:href="cdefs_8h.html" target="_top" xlink:title=" ">
<polygon fill="white" stroke="black" points="333.52,-56.5 333.52,-75.5 404.52,-75.5 404.52,-56.5 333.52,-56.5"/>
<text text-anchor="middle" x="369.02" y="-63.5" font-family="Helvetica,sans-Serif" font-size="10.00">sys/cdefs.h</text>
</a>
</g>
</g>
<!-- Node2&#45;&gt;Node4 -->
<g id="edge3" class="edge">
<title>Node2&#45;&gt;Node4</title>
<path fill="none" stroke="midnightblue" d="M363.86,-112.08C362.35,-104.93 361.92,-94.64 362.57,-85.69"/>
<polygon fill="midnightblue" stroke="midnightblue" points="366.04,-86.13 363.89,-75.75 359.1,-85.2 366.04,-86.13"/>
</g>
<!-- Node7 -->
<g id="node7" class="node">
<title>Node7</title>
<g id="a_node7"><a xlink:href="stubs_8h.html" target="_top" xlink:title=" ">
<polygon fill="white" stroke="black" points="434.52,-56.5 434.52,-75.5 507.52,-75.5 507.52,-56.5 434.52,-56.5"/>
<text text-anchor="middle" x="471.02" y="-63.5" font-family="Helvetica,sans-Serif" font-size="10.00">gnu/stubs.h</text>
</a>
</g>
</g>
<!-- Node2&#45;&gt;Node7 -->
<g id="edge7" class="edge">
<title>Node2&#45;&gt;Node7</title>
<path fill="none" stroke="midnightblue" d="M385.41,-112.32C401.69,-103.7 426.89,-90.36 445.74,-80.39"/>
<polygon fill="midnightblue" stroke="midnightblue" points="447.48,-83.43 454.68,-75.65 444.2,-77.24 447.48,-83.43"/>
</g>
<!-- Node4&#45;&gt;Node2 -->
<g id="edge4" class="edge">
<title>Node4&#45;&gt;Node2</title>
<path fill="none" stroke="midnightblue" d="M374.15,-75.75C375.68,-82.86 376.13,-93.14 375.5,-102.1"/>
<polygon fill="midnightblue" stroke="midnightblue" points="372.02,-101.71 374.19,-112.08 378.96,-102.62 372.02,-101.71"/>
</g>
<!-- Node5 -->
<g id="node5" class="node">
<title>Node5</title>
<g id="a_node5"><a xlink:href="wordsize_8h.html" target="_top" xlink:title=" ">
<polygon fill="white" stroke="black" points="83.02,-0.5 83.02,-19.5 173.02,-19.5 173.02,-0.5 83.02,-0.5"/>
<text text-anchor="middle" x="128.02" y="-7.5" font-family="Helvetica,sans-Serif" font-size="10.00">bits/wordsize.h</text>
</a>
</g>
</g>
<!-- Node4&#45;&gt;Node5 -->
<g id="edge5" class="edge">
<title>Node4&#45;&gt;Node5</title>
<path fill="none" stroke="midnightblue" d="M333.46,-57.03C291.74,-47.68 222.39,-32.14 175.95,-21.74"/>
<polygon fill="midnightblue" stroke="midnightblue" points="176.64,-18.31 166.12,-19.54 175.11,-25.14 176.64,-18.31"/>
</g>
<!-- Node6 -->
<g id="node6" class="node">
<title>Node6</title>
<g id="a_node6"><a xlink:href="long-double_8h.html" target="_top" xlink:title=" ">
<polygon fill="white" stroke="black" points="310.02,-0.5 310.02,-19.5 414.02,-19.5 414.02,-0.5 310.02,-0.5"/>
<text text-anchor="middle" x="362.02" y="-7.5" font-family="Helvetica,sans-Serif" font-size="10.00">bits/long&#45;double.h</text>
</a>
</g>
</g>
<!-- Node4&#45;&gt;Node6 -->
<g id="edge6" class="edge">
<title>Node4&#45;&gt;Node6</title>
<path fill="none" stroke="midnightblue" d="M367.87,-56.08C366.94,-48.93 365.61,-38.64 364.45,-29.69"/>
<polygon fill="midnightblue" stroke="midnightblue" points="367.91,-29.22 363.16,-19.75 360.97,-30.12 367.91,-29.22"/>
</g>
<!-- Node8 -->
<g id="node8" class="node">
<title>Node8</title>
<g id="a_node8"><a xlink:title=" ">
<polygon fill="white" stroke="#bfbfbf" points="432.52,-0.5 432.52,-19.5 521.52,-19.5 521.52,-0.5 432.52,-0.5"/>
<text text-anchor="middle" x="477.02" y="-7.5" font-family="Helvetica,sans-Serif" font-size="10.00">gnu/stubs&#45;32.h</text>
</a>
</g>
</g>
<!-- Node7&#45;&gt;Node8 -->
<g id="edge8" class="edge">
<title>Node7&#45;&gt;Node8</title>
<path fill="none" stroke="midnightblue" d="M472.01,-56.08C472.81,-48.93 473.95,-38.64 474.95,-29.69"/>
<polygon fill="midnightblue" stroke="midnightblue" points="478.43,-30.08 476.05,-19.75 471.47,-29.3 478.43,-30.08"/>
</g>
<!-- Node9&#45;&gt;Node2 -->
<g id="edge10" class="edge">
<title>Node9&#45;&gt;Node2</title>
<path fill="none" stroke="midnightblue" d="M447.35,-224.37C433.26,-206.14 400.26,-163.43 381.91,-139.68"/>
<polygon fill="midnightblue" stroke="midnightblue" points="384.55,-137.36 375.66,-131.59 379.01,-141.64 384.55,-137.36"/>
</g>
<!-- Node10 -->
<g id="node10" class="node">
<title>Node10</title>
<g id="a_node10"><a xlink:href="bits_2types_8h.html" target="_top" xlink:title=" ">
<polygon fill="white" stroke="black" points="188.02,-168.5 188.02,-187.5 262.02,-187.5 262.02,-168.5 188.02,-168.5"/>
<text text-anchor="middle" x="225.02" y="-175.5" font-family="Helvetica,sans-Serif" font-size="10.00">bits/types.h</text>
</a>
</g>
</g>
<!-- Node9&#45;&gt;Node10 -->
<g id="edge11" class="edge">
<title>Node9&#45;&gt;Node10</title>
<path fill="none" stroke="midnightblue" d="M422.18,-225.49C382.88,-216.22 315.75,-200.39 270.89,-189.82"/>
<polygon fill="midnightblue" stroke="midnightblue" points="271.66,-186.4 261.12,-187.51 270.05,-193.21 271.66,-186.4"/>
</g>
<!-- Node14 -->
<g id="node14" class="node">
<title>Node14</title>
<g id="a_node14"><a xlink:href="bits_2termios_8h.html" target="_top" xlink:title=" ">
<polygon fill="white" stroke="black" points="905.02,-168.5 905.02,-187.5 989.02,-187.5 989.02,-168.5 905.02,-168.5"/>
<text text-anchor="middle" x="947.02" y="-175.5" font-family="Helvetica,sans-Serif" font-size="10.00">bits/termios.h</text>
</a>
</g>
</g>
<!-- Node9&#45;&gt;Node14 -->
<g id="edge17" class="edge">
<title>Node9&#45;&gt;Node14</title>
<path fill="none" stroke="midnightblue" d="M485.73,-228.4C496.31,-226.92 508.17,-225.32 519.02,-224 654.06,-207.56 813.52,-191.74 894.35,-183.98"/>
<polygon fill="midnightblue" stroke="midnightblue" points="895.13,-187.42 904.75,-182.98 894.46,-180.45 895.13,-187.42"/>
</g>
<!-- Node24 -->
<g id="node24" class="node">
<title>Node24</title>
<g id="a_node24"><a xlink:href="ttydefaults_8h.html" target="_top" xlink:title=" ">
<polygon fill="white" stroke="black" points="435.02,-168.5 435.02,-187.5 533.02,-187.5 533.02,-168.5 435.02,-168.5"/>
<text text-anchor="middle" x="484.02" y="-175.5" font-family="Helvetica,sans-Serif" font-size="10.00">sys/ttydefaults.h</text>
</a>
</g>
</g>
<!-- Node9&#45;&gt;Node24 -->
<g id="edge27" class="edge">
<title>Node9&#45;&gt;Node24</title>
<path fill="none" stroke="midnightblue" d="M458.98,-224.08C463.13,-216.61 469.18,-205.72 474.29,-196.52"/>
<polygon fill="midnightblue" stroke="midnightblue" points="477.36,-198.19 479.16,-187.75 471.25,-194.79 477.36,-198.19"/>
</g>
<!-- Node10&#45;&gt;Node2 -->
<g id="edge12" class="edge">
<title>Node10&#45;&gt;Node2</title>
<path fill="none" stroke="midnightblue" d="M247.84,-168.44C271.86,-159.44 309.85,-145.19 336.89,-135.05"/>
<polygon fill="midnightblue" stroke="midnightblue" points="338.18,-138.3 346.31,-131.52 335.72,-131.75 338.18,-138.3"/>
</g>
<!-- Node10&#45;&gt;Node5 -->
<g id="edge13" class="edge">
<title>Node10&#45;&gt;Node5</title>
<path fill="none" stroke="midnightblue" d="M187.74,-174.74C132.01,-170.5 31.14,-159.19 9.02,-132 -25.51,-89.53 52.75,-44.97 98.28,-23.73"/>
<polygon fill="midnightblue" stroke="midnightblue" points="99.8,-26.89 107.45,-19.56 96.9,-20.51 99.8,-26.89"/>
</g>
<!-- Node11 -->
<g id="node11" class="node">
<title>Node11</title>
<g id="a_node11"><a xlink:href="timesize_8h.html" target="_top" xlink:title=" ">
<polygon fill="white" stroke="black" points="18.52,-112.5 18.52,-131.5 107.52,-131.5 107.52,-112.5 18.52,-112.5"/>
<text text-anchor="middle" x="63.02" y="-119.5" font-family="Helvetica,sans-Serif" font-size="10.00">bits/timesize.h</text>
</a>
</g>
</g>
<!-- Node10&#45;&gt;Node11 -->
<g id="edge14" class="edge">
<title>Node10&#45;&gt;Node11</title>
<path fill="none" stroke="midnightblue" d="M199.35,-168.44C172.1,-159.36 128.84,-144.94 98.37,-134.78"/>
<polygon fill="midnightblue" stroke="midnightblue" points="99.17,-131.36 88.57,-131.52 96.95,-138 99.17,-131.36"/>
</g>
<!-- Node12 -->
<g id="node12" class="node">
<title>Node12</title>
<g id="a_node12"><a xlink:href="typesizes_8h.html" target="_top" xlink:title=" ">
<polygon fill="white" stroke="black" points="125.52,-112.5 125.52,-131.5 218.52,-131.5 218.52,-112.5 125.52,-112.5"/>
<text text-anchor="middle" x="172.02" y="-119.5" font-family="Helvetica,sans-Serif" font-size="10.00">bits/typesizes.h</text>
</a>
</g>
</g>
<!-- Node10&#45;&gt;Node12 -->
<g id="edge15" class="edge">
<title>Node10&#45;&gt;Node12</title>
<path fill="none" stroke="midnightblue" d="M216.27,-168.08C208.55,-160.22 197.12,-148.57 187.81,-139.08"/>
<polygon fill="midnightblue" stroke="midnightblue" points="190.11,-136.44 180.61,-131.75 185.12,-141.34 190.11,-136.44"/>
</g>
<!-- Node13 -->
<g id="node13" class="node">
<title>Node13</title>
<g id="a_node13"><a xlink:href="time64_8h.html" target="_top" xlink:title=" ">
<polygon fill="white" stroke="black" points="236.52,-112.5 236.52,-131.5 317.52,-131.5 317.52,-112.5 236.52,-112.5"/>
<text text-anchor="middle" x="277.02" y="-119.5" font-family="Helvetica,sans-Serif" font-size="10.00">bits/time64.h</text>
</a>
</g>
</g>
<!-- Node10&#45;&gt;Node13 -->
<g id="edge16" class="edge">
<title>Node10&#45;&gt;Node13</title>
<path fill="none" stroke="midnightblue" d="M233.61,-168.08C241.18,-160.22 252.4,-148.57 261.54,-139.08"/>
<polygon fill="midnightblue" stroke="midnightblue" points="264.18,-141.38 268.6,-131.75 259.14,-136.53 264.18,-141.38"/>
</g>
<!-- Node15 -->
<g id="node15" class="node">
<title>Node15</title>
<g id="a_node15"><a xlink:href="termios-struct_8h.html" target="_top" xlink:title=" ">
<polygon fill="white" stroke="black" points="420.02,-112.5 420.02,-131.5 536.02,-131.5 536.02,-112.5 420.02,-112.5"/>
<text text-anchor="middle" x="478.02" y="-119.5" font-family="Helvetica,sans-Serif" font-size="10.00">bits/termios&#45;struct.h</text>
</a>
</g>
</g>
<!-- Node14&#45;&gt;Node15 -->
<g id="edge18" class="edge">
<title>Node14&#45;&gt;Node15</title>
<path fill="none" stroke="midnightblue" d="M904.74,-172.58C833.23,-165.03 683.6,-148.94 546.39,-132.15"/>
<polygon fill="midnightblue" stroke="midnightblue" points="546.47,-128.63 536.12,-130.88 545.62,-135.58 546.47,-128.63"/>
</g>
<!-- Node16 -->
<g id="node16" class="node">
<title>Node16</title>
<g id="a_node16"><a xlink:href="termios-c__cc_8h.html" target="_top" xlink:title=" ">
<polygon fill="white" stroke="black" points="554.52,-112.5 554.52,-131.5 663.52,-131.5 663.52,-112.5 554.52,-112.5"/>
<text text-anchor="middle" x="609.02" y="-119.5" font-family="Helvetica,sans-Serif" font-size="10.00">bits/termios&#45;c_cc.h</text>
</a>
</g>
</g>
<!-- Node14&#45;&gt;Node16 -->
<g id="edge19" class="edge">
<title>Node14&#45;&gt;Node16</title>
<path fill="none" stroke="midnightblue" d="M904.9,-170.27C846.49,-160.94 740.43,-143.99 672.43,-133.13"/>
<polygon fill="midnightblue" stroke="midnightblue" points="672.7,-129.63 662.27,-131.51 671.59,-136.54 672.7,-129.63"/>
</g>
<!-- Node17 -->
<g id="node17" class="node">
<title>Node17</title>
<g id="a_node17"><a xlink:href="termios-c__iflag_8h.html" target="_top" xlink:title=" ">
<polygon fill="white" stroke="black" points="681.52,-112.5 681.52,-131.5 800.52,-131.5 800.52,-112.5 681.52,-112.5"/>
<text text-anchor="middle" x="741.02" y="-119.5" font-family="Helvetica,sans-Serif" font-size="10.00">bits/termios&#45;c_iflag.h</text>
</a>
</g>
</g>
<!-- Node14&#45;&gt;Node17 -->
<g id="edge20" class="edge">
<title>Node14&#45;&gt;Node17</title>
<path fill="none" stroke="midnightblue" d="M914.38,-168.44C878.97,-159.16 822.31,-144.31 783.47,-134.13"/>
<polygon fill="midnightblue" stroke="midnightblue" points="784.07,-130.67 773.51,-131.52 782.3,-137.44 784.07,-130.67"/>
</g>
<!-- Node18 -->
<g id="node18" class="node">
<title>Node18</title>
<g id="a_node18"><a xlink:href="termios-c__oflag_8h.html" target="_top" xlink:title=" ">
<polygon fill="white" stroke="black" points="819.02,-112.5 819.02,-131.5 941.02,-131.5 941.02,-112.5 819.02,-112.5"/>
<text text-anchor="middle" x="880.02" y="-119.5" font-family="Helvetica,sans-Serif" font-size="10.00">bits/termios&#45;c_oflag.h</text>
</a>
</g>
</g>
<!-- Node14&#45;&gt;Node18 -->
<g id="edge21" class="edge">
<title>Node14&#45;&gt;Node18</title>
<path fill="none" stroke="midnightblue" d="M936.26,-168.32C926.26,-160.26 911.14,-148.08 899.09,-138.37"/>
<polygon fill="midnightblue" stroke="midnightblue" points="900.97,-135.38 890.98,-131.83 896.57,-140.83 900.97,-135.38"/>
</g>
<!-- Node19 -->
<g id="node19" class="node">
<title>Node19</title>
<g id="a_node19"><a xlink:href="termios-baud_8h.html" target="_top" xlink:title=" ">
<polygon fill="white" stroke="black" points="959.02,-112.5 959.02,-131.5 1071.02,-131.5 1071.02,-112.5 959.02,-112.5"/>
<text text-anchor="middle" x="1015.02" y="-119.5" font-family="Helvetica,sans-Serif" font-size="10.00">bits/termios&#45;baud.h</text>
</a>
</g>
</g>
<!-- Node14&#45;&gt;Node19 -->
<g id="edge22" class="edge">
<title>Node14&#45;&gt;Node19</title>
<path fill="none" stroke="midnightblue" d="M957.95,-168.32C968.2,-160.18 983.74,-147.84 996.02,-138.09"/>
<polygon fill="midnightblue" stroke="midnightblue" points="998.24,-140.79 1003.9,-131.83 993.89,-135.31 998.24,-140.79"/>
</g>
<!-- Node20 -->
<g id="node20" class="node">
<title>Node20</title>
<g id="a_node20"><a xlink:href="termios-c__cflag_8h.html" target="_top" xlink:title=" ">
<polygon fill="white" stroke="black" points="1089.02,-112.5 1089.02,-131.5 1211.02,-131.5 1211.02,-112.5 1089.02,-112.5"/>
<text text-anchor="middle" x="1150.02" y="-119.5" font-family="Helvetica,sans-Serif" font-size="10.00">bits/termios&#45;c_cflag.h</text>
</a>
</g>
</g>
<!-- Node14&#45;&gt;Node20 -->
<g id="edge23" class="edge">
<title>Node14&#45;&gt;Node20</title>
<path fill="none" stroke="midnightblue" d="M979.19,-168.44C1014.08,-159.16 1069.92,-144.31 1108.19,-134.13"/>
<polygon fill="midnightblue" stroke="midnightblue" points="1109.24,-137.47 1118.01,-131.52 1107.44,-130.7 1109.24,-137.47"/>
</g>
<!-- Node21 -->
<g id="node21" class="node">
<title>Node21</title>
<g id="a_node21"><a xlink:href="termios-c__lflag_8h.html" target="_top" xlink:title=" ">
<polygon fill="white" stroke="black" points="1229.52,-112.5 1229.52,-131.5 1348.52,-131.5 1348.52,-112.5 1229.52,-112.5"/>
<text text-anchor="middle" x="1289.02" y="-119.5" font-family="Helvetica,sans-Serif" font-size="10.00">bits/termios&#45;c_lflag.h</text>
</a>
</g>
</g>
<!-- Node14&#45;&gt;Node21 -->
<g id="edge24" class="edge">
<title>Node14&#45;&gt;Node21</title>
<path fill="none" stroke="midnightblue" d="M989.3,-170.32C1048.29,-161.01 1155.78,-144.04 1224.72,-133.15"/>
<polygon fill="midnightblue" stroke="midnightblue" points="1225.69,-136.54 1235.02,-131.53 1224.6,-129.63 1225.69,-136.54"/>
</g>
<!-- Node22 -->
<g id="node22" class="node">
<title>Node22</title>
<g id="a_node22"><a xlink:href="termios-tcflow_8h.html" target="_top" xlink:title=" ">
<polygon fill="white" stroke="black" points="1367.02,-112.5 1367.02,-131.5 1483.02,-131.5 1483.02,-112.5 1367.02,-112.5"/>
<text text-anchor="middle" x="1425.02" y="-119.5" font-family="Helvetica,sans-Serif" font-size="10.00">bits/termios&#45;tcflow.h</text>
</a>
</g>
</g>
<!-- Node14&#45;&gt;Node22 -->
<g id="edge25" class="edge">
<title>Node14&#45;&gt;Node22</title>
<path fill="none" stroke="midnightblue" d="M989.07,-172.74C1061.77,-165.3 1215.91,-149.19 1356.81,-132.12"/>
<polygon fill="midnightblue" stroke="midnightblue" points="1357.43,-135.57 1366.93,-130.89 1356.58,-128.62 1357.43,-135.57"/>
</g>
<!-- Node23 -->
<g id="node23" class="node">
<title>Node23</title>
<g id="a_node23"><a xlink:href="termios-misc_8h.html" target="_top" xlink:title=" ">
<polygon fill="white" stroke="black" points="1501.52,-112.5 1501.52,-131.5 1612.52,-131.5 1612.52,-112.5 1501.52,-112.5"/>
<text text-anchor="middle" x="1557.02" y="-119.5" font-family="Helvetica,sans-Serif" font-size="10.00">bits/termios&#45;misc.h</text>
</a>
</g>
</g>
<!-- Node14&#45;&gt;Node23 -->
<g id="edge26" class="edge">
<title>Node14&#45;&gt;Node23</title>
<path fill="none" stroke="midnightblue" d="M989.15,-174.32C1079.21,-168.41 1297.32,-153.19 1491.28,-132.02"/>
<polygon fill="midnightblue" stroke="midnightblue" points="1491.82,-135.48 1501.38,-130.91 1491.06,-128.52 1491.82,-135.48"/>
</g>
<!-- Node25&#45;&gt;Node2 -->
<g id="edge29" class="edge">
<title>Node25&#45;&gt;Node2</title>
<path fill="none" stroke="midnightblue" d="M561.06,-224.49C560.64,-210.64 557.72,-183.23 542.02,-168 537.27,-163.39 461.9,-144.91 412.23,-133.12"/>
<polygon fill="midnightblue" stroke="midnightblue" points="412.9,-129.68 402.36,-130.78 411.29,-136.49 412.9,-129.68"/>
</g>
<!-- Node25&#45;&gt;Node24 -->
<g id="edge34" class="edge">
<title>Node25&#45;&gt;Node24</title>
<path fill="none" stroke="midnightblue" d="M548.65,-224.32C536.86,-216.06 518.89,-203.45 504.89,-193.63"/>
<polygon fill="midnightblue" stroke="midnightblue" points="506.56,-190.53 496.36,-187.65 502.54,-196.26 506.56,-190.53"/>
</g>
<!-- Node26 -->
<g id="node26" class="node">
<title>Node26</title>
<g id="a_node26"><a xlink:href="ioctls_8h.html" target="_top" xlink:title=" ">
<polygon fill="white" stroke="black" points="1555.52,-168.5 1555.52,-187.5 1628.52,-187.5 1628.52,-168.5 1555.52,-168.5"/>
<text text-anchor="middle" x="1592.02" y="-175.5" font-family="Helvetica,sans-Serif" font-size="10.00">bits/ioctls.h</text>
</a>
</g>
</g>
<!-- Node25&#45;&gt;Node26 -->
<g id="edge30" class="edge">
<title>Node25&#45;&gt;Node26</title>
<path fill="none" stroke="midnightblue" d="M594.16,-231.26C745.22,-223.35 1368.83,-190.69 1545.3,-181.45"/>
<polygon fill="midnightblue" stroke="midnightblue" points="1545.5,-184.94 1555.31,-180.92 1545.14,-177.95 1545.5,-184.94"/>
</g>
<!-- Node28 -->
<g id="node28" class="node">
<title>Node28</title>
<g id="a_node28"><a xlink:href="ioctl-types_8h.html" target="_top" xlink:title=" ">
<polygon fill="white" stroke="black" points="1295.02,-168.5 1295.02,-187.5 1393.02,-187.5 1393.02,-168.5 1295.02,-168.5"/>
<text text-anchor="middle" x="1344.02" y="-175.5" font-family="Helvetica,sans-Serif" font-size="10.00">bits/ioctl&#45;types.h</text>
</a>
</g>
</g>
<!-- Node25&#45;&gt;Node28 -->
<g id="edge32" class="edge">
<title>Node25&#45;&gt;Node28</title>
<path fill="none" stroke="midnightblue" d="M594.17,-230.71C714.46,-222.42 1129.08,-193.82 1284.53,-183.1"/>
<polygon fill="midnightblue" stroke="midnightblue" points="1285.09,-186.57 1294.83,-182.39 1284.61,-179.59 1285.09,-186.57"/>
</g>
<!-- Node27 -->
<g id="node27" class="node">
<title>Node27</title>
<g id="a_node27"><a xlink:title=" ">
<polygon fill="white" stroke="#bfbfbf" points="1631.02,-112.5 1631.02,-131.5 1707.02,-131.5 1707.02,-112.5 1631.02,-112.5"/>
<text text-anchor="middle" x="1669.02" y="-119.5" font-family="Helvetica,sans-Serif" font-size="10.00">asm/ioctls.h</text>
</a>
</g>
</g>
<!-- Node26&#45;&gt;Node27 -->
<g id="edge31" class="edge">
<title>Node26&#45;&gt;Node27</title>
<path fill="none" stroke="midnightblue" d="M1604.39,-168.32C1616.18,-160.06 1634.16,-147.45 1648.16,-137.63"/>
<polygon fill="midnightblue" stroke="midnightblue" points="1650.5,-140.26 1656.68,-131.65 1646.49,-134.53 1650.5,-140.26"/>
</g>
<!-- Node28&#45;&gt;Node27 -->
<g id="edge33" class="edge">
<title>Node28&#45;&gt;Node27</title>
<path fill="none" stroke="midnightblue" d="M1393.31,-169.46C1446.87,-161.17 1535.24,-147.2 1620.93,-132.15"/>
<polygon fill="midnightblue" stroke="midnightblue" points="1621.58,-135.59 1630.82,-130.41 1620.36,-128.7 1621.58,-135.59"/>
</g>
</g>
</svg>
        <g id="navigator" transform="translate(0 0)" fill="#404254">
                <rect fill="#f2f5e9" fill-opacity="0.5" stroke="#606060" stroke-width=".5" x="0" y="0" width="60" height="60"/>
                <use id="zoomplus" xlink:href="#zoomPlus" x="17" y="9" onmousedown="handleZoom(evt,'in')"/>
                <use id="zoomminus" xlink:href="#zoomMin" x="42" y="9" onmousedown="handleZoom(evt,'out')"/>
                <use id="reset" xlink:href="#resetDef" x="30" y="36" onmousedown="handleReset()"/>
                <g id="arrowUp" xlink:href="#dirArrow" transform="translate(30 24)" onmousedown="handlePan(0,-1)">
                  <use xlink:href="#rim" fill="#404040">
                        <set attributeName="fill" to="#808080" begin="arrowUp.mouseover" end="arrowUp.mouseout"/>
                  </use>
                  <path fill="none" stroke="white" stroke-width="1.5" d="M0,-3.0v7 M-2.5,-0.5L0,-3.0L2.5,-0.5"/>
                </g>
                <g id="arrowRight" xlink:href="#dirArrow" transform="rotate(90) translate(36 -43)" onmousedown="handlePan(1,0)">
                  <use xlink:href="#rim" fill="#404040">
                        <set attributeName="fill" to="#808080" begin="arrowRight.mouseover" end="arrowRight.mouseout"/>
                  </use>
                  <path fill="none" stroke="white" stroke-width="1.5" d="M0,-3.0v7 M-2.5,-0.5L0,-3.0L2.5,-0.5"/>
                </g>
                <g id="arrowDown" xlink:href="#dirArrow" transform="rotate(180) translate(-30 -48)" onmousedown="handlePan(0,1)">
                  <use xlink:href="#rim" fill="#404040">
                        <set attributeName="fill" to="#808080" begin="arrowDown.mouseover" end="arrowDown.mouseout"/>
                  </use>
                  <path fill="none" stroke="white" stroke-width="1.5" d="M0,-3.0v7 M-2.5,-0.5L0,-3.0L2.5,-0.5"/>
                </g>
                <g id="arrowLeft" xlink:href="#dirArrow" transform="rotate(270) translate(-36 17)" onmousedown="handlePan(-1,0)">
                  <use xlink:href="#rim" fill="#404040">
                        <set attributeName="fill" to="#808080" begin="arrowLeft.mouseover" end="arrowLeft.mouseout"/>
                  </use>
                  <path fill="none" stroke="white" stroke-width="1.5" d="M0,-3.0v7 M-2.5,-0.5L0,-3.0L2.5,-0.5"/>
                </g>
        </g>
        <svg viewBox="0 0 15 15" width="100%" height="30px" preserveAspectRatio="xMaxYMin meet">
         <g id="arrow_out" transform="scale(0.3 0.3)">
          <a xlink:href="pty_8h__incl_org.svg" target="_base">
           <rect id="button" ry="5" rx="5" y="6" x="6" height="38" width="38"
                fill="#f2f5e9" fill-opacity="0.5" stroke="#606060" stroke-width="1.0"/>
           <path id="arrow"
             d="M 11.500037,31.436501 C 11.940474,20.09759 22.043105,11.32322 32.158766,21.979434 L 37.068811,17.246167 C 37.068811,17.246167 37.088388,32 37.088388,32 L 22.160133,31.978069 C 22.160133,31.978069 26.997745,27.140456 26.997745,27.140456 C 18.528582,18.264221 13.291696,25.230495 11.500037,31.436501 z"
             style="fill:#404040;"/>
          </a>
         </g>
        </svg>
</svg>
