<?xml version="1.0" encoding="UTF-8" standalone="no"?>
<!DOCTYPE svg PUBLIC "-//W3C//DTD SVG 1.1//EN"
 "http://www.w3.org/Graphics/SVG/1.1/DTD/svg11.dtd">
<!-- Generated by graphviz version 2.44.1 (0)
 -->
<!-- Title: resolv.h Pages: 1 -->
<svg width="2613pt" height="588pt"
 viewBox="0.00 0.00 2612.50 588.00" xmlns="http://www.w3.org/2000/svg" xmlns:xlink="http://www.w3.org/1999/xlink">
<g id="graph0" class="graph" transform="scale(1 1) rotate(0) translate(4 584)">
<title>resolv.h</title>
<polygon fill="white" stroke="transparent" points="-4,4 -4,-584 2608.5,-584 2608.5,4 -4,4"/>
<!-- Node1 -->
<g id="node1" class="node">
<title>Node1</title>
<g id="a_node1"><a xlink:title=" ">
<polygon fill="#bfbfbf" stroke="black" points="1019,-560.5 1019,-579.5 1074,-579.5 1074,-560.5 1019,-560.5"/>
<text text-anchor="middle" x="1046.5" y="-567.5" font-family="Helvetica,sans-Serif" font-size="10.00">resolv.h</text>
</a>
</g>
</g>
<!-- Node2 -->
<g id="node2" class="node">
<title>Node2</title>
<g id="a_node2"><a xlink:href="cdefs_8h.html" target="_top" xlink:title=" ">
<polygon fill="white" stroke="black" points="1842,-168.5 1842,-187.5 1913,-187.5 1913,-168.5 1842,-168.5"/>
<text text-anchor="middle" x="1877.5" y="-175.5" font-family="Helvetica,sans-Serif" font-size="10.00">sys/cdefs.h</text>
</a>
</g>
</g>
<!-- Node1&#45;&gt;Node2 -->
<g id="edge1" class="edge">
<title>Node1&#45;&gt;Node2</title>
<path fill="none" stroke="midnightblue" d="M1074.29,-568.4C1275.58,-563.91 2502.5,-533.47 2502.5,-459 2502.5,-459 2502.5,-459 2502.5,-289 2502.5,-258.9 2507,-242.81 2483.5,-224 2436.4,-186.3 2017.32,-195.86 1923.43,-188.25"/>
<polygon fill="midnightblue" stroke="midnightblue" points="1923.53,-184.74 1913.22,-187.18 1922.8,-191.71 1923.53,-184.74"/>
</g>
<!-- Node9 -->
<g id="node9" class="node">
<title>Node9</title>
<g id="a_node9"><a xlink:href="sys_2param_8h.html" target="_top" xlink:title=" ">
<polygon fill="white" stroke="black" points="628,-336.5 628,-355.5 705,-355.5 705,-336.5 628,-336.5"/>
<text text-anchor="middle" x="666.5" y="-343.5" font-family="Helvetica,sans-Serif" font-size="10.00">sys/param.h</text>
</a>
</g>
</g>
<!-- Node1&#45;&gt;Node9 -->
<g id="edge9" class="edge">
<title>Node1&#45;&gt;Node9</title>
<path fill="none" stroke="midnightblue" d="M1018.87,-564.93C984.93,-559.17 926.22,-546.72 880.5,-524 794.56,-481.29 712.89,-398 680.8,-363.04"/>
<polygon fill="midnightblue" stroke="midnightblue" points="683.38,-360.67 674.07,-355.62 678.19,-365.37 683.38,-360.67"/>
</g>
<!-- Node11 -->
<g id="node11" class="node">
<title>Node11</title>
<g id="a_node11"><a xlink:href="sys_2types_8h.html" target="_top" xlink:title=" ">
<polygon fill="white" stroke="black" points="881.5,-280.5 881.5,-299.5 953.5,-299.5 953.5,-280.5 881.5,-280.5"/>
<text text-anchor="middle" x="917.5" y="-287.5" font-family="Helvetica,sans-Serif" font-size="10.00">sys/types.h</text>
</a>
</g>
</g>
<!-- Node1&#45;&gt;Node11 -->
<g id="edge38" class="edge">
<title>Node1&#45;&gt;Node11</title>
<path fill="none" stroke="midnightblue" d="M1023.55,-560.48C988.21,-545.71 924.5,-511.76 924.5,-459 924.5,-459 924.5,-459 924.5,-401 924.5,-368.88 921.49,-331.6 919.42,-309.73"/>
<polygon fill="midnightblue" stroke="midnightblue" points="922.88,-309.15 918.42,-299.55 915.91,-309.84 922.88,-309.15"/>
</g>
<!-- Node27 -->
<g id="node27" class="node">
<title>Node27</title>
<g id="a_node27"><a xlink:href="stdio_8h.html" target="_top" xlink:title=" ">
<polygon fill="white" stroke="black" points="1889.5,-280.5 1889.5,-299.5 1939.5,-299.5 1939.5,-280.5 1889.5,-280.5"/>
<text text-anchor="middle" x="1914.5" y="-287.5" font-family="Helvetica,sans-Serif" font-size="10.00">stdio.h</text>
</a>
</g>
</g>
<!-- Node1&#45;&gt;Node27 -->
<g id="edge39" class="edge">
<title>Node1&#45;&gt;Node27</title>
<path fill="none" stroke="midnightblue" d="M1074.08,-567.92C1209.39,-562.28 1796.5,-533.52 1796.5,-459 1796.5,-459 1796.5,-459 1796.5,-401 1796.5,-353.51 1848.27,-320.67 1883.22,-303.91"/>
<polygon fill="midnightblue" stroke="midnightblue" points="1884.96,-306.97 1892.58,-299.61 1882.03,-300.61 1884.96,-306.97"/>
</g>
<!-- Node38 -->
<g id="node38" class="node">
<title>Node38</title>
<g id="a_node38"><a xlink:href="netinet_2in_8h.html" target="_top" xlink:title=" ">
<polygon fill="white" stroke="black" points="1124.5,-448.5 1124.5,-467.5 1196.5,-467.5 1196.5,-448.5 1124.5,-448.5"/>
<text text-anchor="middle" x="1160.5" y="-455.5" font-family="Helvetica,sans-Serif" font-size="10.00">netinet/in.h</text>
</a>
</g>
</g>
<!-- Node1&#45;&gt;Node38 -->
<g id="edge60" class="edge">
<title>Node1&#45;&gt;Node38</title>
<path fill="none" stroke="midnightblue" d="M1063.99,-560.35C1079.06,-552.33 1100.79,-539.34 1116.5,-524 1130.78,-510.06 1143.12,-490.79 1151.07,-476.86"/>
<polygon fill="midnightblue" stroke="midnightblue" points="1154.29,-478.26 1156.04,-467.81 1148.16,-474.89 1154.29,-478.26"/>
</g>
<!-- Node49 -->
<g id="node46" class="node">
<title>Node49</title>
<g id="a_node46"><a xlink:href="nameser_8h.html" target="_top" xlink:title=" ">
<polygon fill="white" stroke="black" points="744.5,-392.5 744.5,-411.5 836.5,-411.5 836.5,-392.5 744.5,-392.5"/>
<text text-anchor="middle" x="790.5" y="-399.5" font-family="Helvetica,sans-Serif" font-size="10.00">arpa/nameser.h</text>
</a>
</g>
</g>
<!-- Node1&#45;&gt;Node49 -->
<g id="edge80" class="edge">
<title>Node1&#45;&gt;Node49</title>
<path fill="none" stroke="midnightblue" d="M1018.81,-563.83C990.12,-557.6 944.75,-545.21 910.5,-524 864.38,-495.43 822.76,-445.7 802.86,-419.79"/>
<polygon fill="midnightblue" stroke="midnightblue" points="805.57,-417.57 796.75,-411.69 799.98,-421.78 805.57,-417.57"/>
</g>
<!-- Node53 -->
<g id="node50" class="node">
<title>Node53</title>
<g id="a_node50"><a xlink:href="res__state_8h.html" target="_top" xlink:title=" ">
<polygon fill="white" stroke="black" points="985.5,-504.5 985.5,-523.5 1107.5,-523.5 1107.5,-504.5 985.5,-504.5"/>
<text text-anchor="middle" x="1046.5" y="-511.5" font-family="Helvetica,sans-Serif" font-size="10.00">bits/types/res_state.h</text>
</a>
</g>
</g>
<!-- Node1&#45;&gt;Node53 -->
<g id="edge92" class="edge">
<title>Node1&#45;&gt;Node53</title>
<path fill="none" stroke="midnightblue" d="M1046.5,-560.08C1046.5,-553.01 1046.5,-542.86 1046.5,-533.99"/>
<polygon fill="midnightblue" stroke="midnightblue" points="1050,-533.75 1046.5,-523.75 1043,-533.75 1050,-533.75"/>
</g>
<!-- Node3 -->
<g id="node3" class="node">
<title>Node3</title>
<g id="a_node3"><a xlink:href="features_8h.html" target="_top" xlink:title=" ">
<polygon fill="white" stroke="black" points="1518.5,-112.5 1518.5,-131.5 1584.5,-131.5 1584.5,-112.5 1518.5,-112.5"/>
<text text-anchor="middle" x="1551.5" y="-119.5" font-family="Helvetica,sans-Serif" font-size="10.00">features.h</text>
</a>
</g>
</g>
<!-- Node2&#45;&gt;Node3 -->
<g id="edge2" class="edge">
<title>Node2&#45;&gt;Node3</title>
<path fill="none" stroke="midnightblue" d="M1841.74,-171.29C1835.92,-170.16 1830.02,-169.01 1824.5,-168 1743.39,-153.24 1648.67,-138.67 1594.71,-130.27"/>
<polygon fill="midnightblue" stroke="midnightblue" points="1595.22,-126.81 1584.8,-128.72 1594.14,-133.72 1595.22,-126.81"/>
</g>
<!-- Node7 -->
<g id="node7" class="node">
<title>Node7</title>
<g id="a_node7"><a xlink:href="wordsize_8h.html" target="_top" xlink:title=" ">
<polygon fill="white" stroke="black" points="678.5,-112.5 678.5,-131.5 768.5,-131.5 768.5,-112.5 678.5,-112.5"/>
<text text-anchor="middle" x="723.5" y="-119.5" font-family="Helvetica,sans-Serif" font-size="10.00">bits/wordsize.h</text>
</a>
</g>
</g>
<!-- Node2&#45;&gt;Node7 -->
<g id="edge7" class="edge">
<title>Node2&#45;&gt;Node7</title>
<path fill="none" stroke="midnightblue" d="M1841.56,-169.16C1838.84,-168.71 1836.13,-168.32 1833.5,-168 1780.76,-161.58 996.15,-132.86 778.89,-125"/>
<polygon fill="midnightblue" stroke="midnightblue" points="778.8,-121.49 768.68,-124.63 778.55,-128.49 778.8,-121.49"/>
</g>
<!-- Node8 -->
<g id="node8" class="node">
<title>Node8</title>
<g id="a_node8"><a xlink:href="long-double_8h.html" target="_top" xlink:title=" ">
<polygon fill="white" stroke="black" points="1901.5,-112.5 1901.5,-131.5 2005.5,-131.5 2005.5,-112.5 1901.5,-112.5"/>
<text text-anchor="middle" x="1953.5" y="-119.5" font-family="Helvetica,sans-Serif" font-size="10.00">bits/long&#45;double.h</text>
</a>
</g>
</g>
<!-- Node2&#45;&gt;Node8 -->
<g id="edge8" class="edge">
<title>Node2&#45;&gt;Node8</title>
<path fill="none" stroke="midnightblue" d="M1889.71,-168.32C1901.28,-160.11 1918.88,-147.6 1932.66,-137.81"/>
<polygon fill="midnightblue" stroke="midnightblue" points="1934.94,-140.48 1941.07,-131.83 1930.89,-134.77 1934.94,-140.48"/>
</g>
<!-- Node3&#45;&gt;Node2 -->
<g id="edge4" class="edge">
<title>Node3&#45;&gt;Node2</title>
<path fill="none" stroke="midnightblue" d="M1584.91,-127.07C1637.46,-134.25 1742.13,-149.98 1834.75,-166.61"/>
<polygon fill="midnightblue" stroke="midnightblue" points="1834.36,-170.09 1844.82,-168.43 1835.6,-163.2 1834.36,-170.09"/>
</g>
<!-- Node4 -->
<g id="node4" class="node">
<title>Node4</title>
<g id="a_node4"><a xlink:href="stdc-predef_8h.html" target="_top" xlink:title=" ">
<polygon fill="white" stroke="black" points="1463.5,-56.5 1463.5,-75.5 1543.5,-75.5 1543.5,-56.5 1463.5,-56.5"/>
<text text-anchor="middle" x="1503.5" y="-63.5" font-family="Helvetica,sans-Serif" font-size="10.00">stdc&#45;predef.h</text>
</a>
</g>
</g>
<!-- Node3&#45;&gt;Node4 -->
<g id="edge3" class="edge">
<title>Node3&#45;&gt;Node4</title>
<path fill="none" stroke="midnightblue" d="M1543.57,-112.08C1536.65,-104.3 1526.43,-92.8 1518.05,-83.37"/>
<polygon fill="midnightblue" stroke="midnightblue" points="1520.54,-80.9 1511.28,-75.75 1515.31,-85.55 1520.54,-80.9"/>
</g>
<!-- Node5 -->
<g id="node5" class="node">
<title>Node5</title>
<g id="a_node5"><a xlink:href="stubs_8h.html" target="_top" xlink:title=" ">
<polygon fill="white" stroke="black" points="1562,-56.5 1562,-75.5 1635,-75.5 1635,-56.5 1562,-56.5"/>
<text text-anchor="middle" x="1598.5" y="-63.5" font-family="Helvetica,sans-Serif" font-size="10.00">gnu/stubs.h</text>
</a>
</g>
</g>
<!-- Node3&#45;&gt;Node5 -->
<g id="edge5" class="edge">
<title>Node3&#45;&gt;Node5</title>
<path fill="none" stroke="midnightblue" d="M1559.26,-112.08C1566.04,-104.3 1576.04,-92.8 1584.26,-83.37"/>
<polygon fill="midnightblue" stroke="midnightblue" points="1586.96,-85.59 1590.88,-75.75 1581.68,-81 1586.96,-85.59"/>
</g>
<!-- Node6 -->
<g id="node6" class="node">
<title>Node6</title>
<g id="a_node6"><a xlink:title=" ">
<polygon fill="white" stroke="#bfbfbf" points="1554,-0.5 1554,-19.5 1643,-19.5 1643,-0.5 1554,-0.5"/>
<text text-anchor="middle" x="1598.5" y="-7.5" font-family="Helvetica,sans-Serif" font-size="10.00">gnu/stubs&#45;32.h</text>
</a>
</g>
</g>
<!-- Node5&#45;&gt;Node6 -->
<g id="edge6" class="edge">
<title>Node5&#45;&gt;Node6</title>
<path fill="none" stroke="midnightblue" d="M1598.5,-56.08C1598.5,-49.01 1598.5,-38.86 1598.5,-29.99"/>
<polygon fill="midnightblue" stroke="midnightblue" points="1602,-29.75 1598.5,-19.75 1595,-29.75 1602,-29.75"/>
</g>
<!-- Node10 -->
<g id="node10" class="node">
<title>Node10</title>
<g id="a_node10"><a xlink:title=" ">
<polygon fill="white" stroke="#bfbfbf" points="1336.5,-224.5 1336.5,-243.5 1392.5,-243.5 1392.5,-224.5 1336.5,-224.5"/>
<text text-anchor="middle" x="1364.5" y="-231.5" font-family="Helvetica,sans-Serif" font-size="10.00">stddef.h</text>
</a>
</g>
</g>
<!-- Node9&#45;&gt;Node10 -->
<g id="edge10" class="edge">
<title>Node9&#45;&gt;Node10</title>
<path fill="none" stroke="midnightblue" d="M674.4,-336.3C688.31,-321.64 718.85,-292.4 751.5,-280 765.01,-274.87 1194.62,-246.2 1326.43,-237.5"/>
<polygon fill="midnightblue" stroke="midnightblue" points="1326.72,-240.99 1336.47,-236.84 1326.26,-234 1326.72,-240.99"/>
</g>
<!-- Node9&#45;&gt;Node11 -->
<g id="edge11" class="edge">
<title>Node9&#45;&gt;Node11</title>
<path fill="none" stroke="midnightblue" d="M705.17,-336.68C749.88,-327.06 823.43,-311.24 871.17,-300.97"/>
<polygon fill="midnightblue" stroke="midnightblue" points="872.19,-304.33 881.23,-298.8 870.72,-297.48 872.19,-304.33"/>
</g>
<!-- Node20 -->
<g id="node20" class="node">
<title>Node20</title>
<g id="a_node20"><a xlink:href="limits_8h.html" target="_top" xlink:title=" ">
<polygon fill="white" stroke="black" points="640,-280.5 640,-299.5 693,-299.5 693,-280.5 640,-280.5"/>
<text text-anchor="middle" x="666.5" y="-287.5" font-family="Helvetica,sans-Serif" font-size="10.00">limits.h</text>
</a>
</g>
</g>
<!-- Node9&#45;&gt;Node20 -->
<g id="edge28" class="edge">
<title>Node9&#45;&gt;Node20</title>
<path fill="none" stroke="midnightblue" d="M666.5,-336.08C666.5,-329.01 666.5,-318.86 666.5,-309.99"/>
<polygon fill="midnightblue" stroke="midnightblue" points="670,-309.75 666.5,-299.75 663,-309.75 670,-309.75"/>
</g>
<!-- Node22 -->
<g id="node22" class="node">
<title>Node22</title>
<g id="a_node22"><a xlink:title=" ">
<polygon fill="white" stroke="#bfbfbf" points="761,-280.5 761,-299.5 820,-299.5 820,-280.5 761,-280.5"/>
<text text-anchor="middle" x="790.5" y="-287.5" font-family="Helvetica,sans-Serif" font-size="10.00">endian.h</text>
</a>
</g>
</g>
<!-- Node9&#45;&gt;Node22 -->
<g id="edge32" class="edge">
<title>Node9&#45;&gt;Node22</title>
<path fill="none" stroke="midnightblue" d="M686.15,-336.44C706.46,-327.6 738.4,-313.69 761.6,-303.59"/>
<polygon fill="midnightblue" stroke="midnightblue" points="763.17,-306.72 770.94,-299.52 760.38,-300.3 763.17,-306.72"/>
</g>
<!-- Node23 -->
<g id="node23" class="node">
<title>Node23</title>
<g id="a_node23"><a xlink:href="sys_2signal_8h.html" target="_top" xlink:title=" ">
<polygon fill="white" stroke="black" points="380,-280.5 380,-299.5 435,-299.5 435,-280.5 380,-280.5"/>
<text text-anchor="middle" x="407.5" y="-287.5" font-family="Helvetica,sans-Serif" font-size="10.00">signal.h</text>
</a>
</g>
</g>
<!-- Node9&#45;&gt;Node23 -->
<g id="edge33" class="edge">
<title>Node9&#45;&gt;Node23</title>
<path fill="none" stroke="midnightblue" d="M627.73,-336.92C578.45,-326.64 493.96,-309.03 445.21,-298.86"/>
<polygon fill="midnightblue" stroke="midnightblue" points="445.87,-295.43 435.37,-296.81 444.44,-302.28 445.87,-295.43"/>
</g>
<!-- Node24 -->
<g id="node24" class="node">
<title>Node24</title>
<g id="a_node24"><a xlink:href="bits_2param_8h.html" target="_top" xlink:title=" ">
<polygon fill="white" stroke="black" points="471.5,-280.5 471.5,-299.5 549.5,-299.5 549.5,-280.5 471.5,-280.5"/>
<text text-anchor="middle" x="510.5" y="-287.5" font-family="Helvetica,sans-Serif" font-size="10.00">bits/param.h</text>
</a>
</g>
</g>
<!-- Node9&#45;&gt;Node24 -->
<g id="edge35" class="edge">
<title>Node9&#45;&gt;Node24</title>
<path fill="none" stroke="midnightblue" d="M641.78,-336.44C615.65,-327.4 574.24,-313.06 544.92,-302.92"/>
<polygon fill="midnightblue" stroke="midnightblue" points="545.7,-299.48 535.1,-299.52 543.41,-306.1 545.7,-299.48"/>
</g>
<!-- Node11&#45;&gt;Node3 -->
<g id="edge12" class="edge">
<title>Node11&#45;&gt;Node3</title>
<path fill="none" stroke="midnightblue" d="M953.94,-285.74C1010.25,-280.2 1121.52,-267.22 1213.5,-244 1330.89,-214.36 1464.75,-160.03 1522.49,-135.55"/>
<polygon fill="midnightblue" stroke="midnightblue" points="1523.9,-138.75 1531.73,-131.61 1521.16,-132.31 1523.9,-138.75"/>
</g>
<!-- Node11&#45;&gt;Node10 -->
<g id="edge25" class="edge">
<title>Node11&#45;&gt;Node10</title>
<path fill="none" stroke="midnightblue" d="M953.7,-286.21C1024.72,-280.45 1187.2,-265.96 1322.5,-244 1323.74,-243.8 1325,-243.58 1326.27,-243.36"/>
<polygon fill="midnightblue" stroke="midnightblue" points="1326.94,-246.8 1336.11,-241.49 1325.63,-239.92 1326.94,-246.8"/>
</g>
<!-- Node12 -->
<g id="node12" class="node">
<title>Node12</title>
<g id="a_node12"><a xlink:href="bits_2types_8h.html" target="_top" xlink:title=" ">
<polygon fill="white" stroke="black" points="1123.5,-168.5 1123.5,-187.5 1197.5,-187.5 1197.5,-168.5 1123.5,-168.5"/>
<text text-anchor="middle" x="1160.5" y="-175.5" font-family="Helvetica,sans-Serif" font-size="10.00">bits/types.h</text>
</a>
</g>
</g>
<!-- Node11&#45;&gt;Node12 -->
<g id="edge13" class="edge">
<title>Node11&#45;&gt;Node12</title>
<path fill="none" stroke="midnightblue" d="M916.33,-280.48C914.95,-266.61 914.48,-239.17 929.5,-224 954.64,-198.61 1053.23,-186.91 1113.19,-182.04"/>
<polygon fill="midnightblue" stroke="midnightblue" points="1113.49,-185.53 1123.19,-181.27 1112.95,-178.55 1113.49,-185.53"/>
</g>
<!-- Node16 -->
<g id="node16" class="node">
<title>Node16</title>
<g id="a_node16"><a xlink:href="clockid__t_8h.html" target="_top" xlink:title=" ">
<polygon fill="white" stroke="black" points="1084.5,-224.5 1084.5,-243.5 1204.5,-243.5 1204.5,-224.5 1084.5,-224.5"/>
<text text-anchor="middle" x="1144.5" y="-231.5" font-family="Helvetica,sans-Serif" font-size="10.00">bits/types/clockid_t.h</text>
</a>
</g>
</g>
<!-- Node11&#45;&gt;Node16 -->
<g id="edge19" class="edge">
<title>Node11&#45;&gt;Node16</title>
<path fill="none" stroke="midnightblue" d="M953.47,-280.44C992.82,-271.08 1055.99,-256.06 1098.81,-245.87"/>
<polygon fill="midnightblue" stroke="midnightblue" points="1099.78,-249.24 1108.7,-243.52 1098.16,-242.43 1099.78,-249.24"/>
</g>
<!-- Node17 -->
<g id="node17" class="node">
<title>Node17</title>
<g id="a_node17"><a xlink:href="time__t_8h.html" target="_top" xlink:title=" ">
<polygon fill="white" stroke="black" points="644.5,-224.5 644.5,-243.5 752.5,-243.5 752.5,-224.5 644.5,-224.5"/>
<text text-anchor="middle" x="698.5" y="-231.5" font-family="Helvetica,sans-Serif" font-size="10.00">bits/types/time_t.h</text>
</a>
</g>
</g>
<!-- Node11&#45;&gt;Node17 -->
<g id="edge21" class="edge">
<title>Node11&#45;&gt;Node17</title>
<path fill="none" stroke="midnightblue" d="M882.8,-280.44C844.92,-271.1 784.15,-256.12 742.84,-245.93"/>
<polygon fill="midnightblue" stroke="midnightblue" points="743.59,-242.51 733.04,-243.52 741.91,-249.31 743.59,-242.51"/>
</g>
<!-- Node18 -->
<g id="node18" class="node">
<title>Node18</title>
<g id="a_node18"><a xlink:href="timer__t_8h.html" target="_top" xlink:title=" ">
<polygon fill="white" stroke="black" points="770.5,-224.5 770.5,-243.5 882.5,-243.5 882.5,-224.5 770.5,-224.5"/>
<text text-anchor="middle" x="826.5" y="-231.5" font-family="Helvetica,sans-Serif" font-size="10.00">bits/types/timer_t.h</text>
</a>
</g>
</g>
<!-- Node11&#45;&gt;Node18 -->
<g id="edge23" class="edge">
<title>Node11&#45;&gt;Node18</title>
<path fill="none" stroke="midnightblue" d="M902.88,-280.32C888.55,-271.82 866.49,-258.73 849.75,-248.8"/>
<polygon fill="midnightblue" stroke="midnightblue" points="851.47,-245.75 841.08,-243.65 847.9,-251.77 851.47,-245.75"/>
</g>
<!-- Node19 -->
<g id="node19" class="node">
<title>Node19</title>
<g id="a_node19"><a xlink:href="stdint-intn_8h.html" target="_top" xlink:title=" ">
<polygon fill="white" stroke="black" points="529,-224.5 529,-243.5 626,-243.5 626,-224.5 529,-224.5"/>
<text text-anchor="middle" x="577.5" y="-231.5" font-family="Helvetica,sans-Serif" font-size="10.00">bits/stdint&#45;intn.h</text>
</a>
</g>
</g>
<!-- Node11&#45;&gt;Node19 -->
<g id="edge26" class="edge">
<title>Node11&#45;&gt;Node19</title>
<path fill="none" stroke="midnightblue" d="M881.44,-283.27C822.96,-273.98 706.89,-255.55 636.33,-244.34"/>
<polygon fill="midnightblue" stroke="midnightblue" points="636.69,-240.86 626.27,-242.75 635.59,-247.77 636.69,-240.86"/>
</g>
<!-- Node12&#45;&gt;Node3 -->
<g id="edge14" class="edge">
<title>Node12&#45;&gt;Node3</title>
<path fill="none" stroke="midnightblue" d="M1197.64,-171.87C1270.19,-161.85 1430.41,-139.72 1507.88,-129.02"/>
<polygon fill="midnightblue" stroke="midnightblue" points="1508.81,-132.43 1518.24,-127.59 1507.86,-125.49 1508.81,-132.43"/>
</g>
<!-- Node12&#45;&gt;Node7 -->
<g id="edge15" class="edge">
<title>Node12&#45;&gt;Node7</title>
<path fill="none" stroke="midnightblue" d="M1123.24,-172.4C1046.23,-162.88 869.17,-141 778.78,-129.83"/>
<polygon fill="midnightblue" stroke="midnightblue" points="779.08,-126.34 768.73,-128.59 778.22,-133.29 779.08,-126.34"/>
</g>
<!-- Node13 -->
<g id="node13" class="node">
<title>Node13</title>
<g id="a_node13"><a xlink:href="timesize_8h.html" target="_top" xlink:title=" ">
<polygon fill="white" stroke="black" points="1219,-112.5 1219,-131.5 1308,-131.5 1308,-112.5 1219,-112.5"/>
<text text-anchor="middle" x="1263.5" y="-119.5" font-family="Helvetica,sans-Serif" font-size="10.00">bits/timesize.h</text>
</a>
</g>
</g>
<!-- Node12&#45;&gt;Node13 -->
<g id="edge16" class="edge">
<title>Node12&#45;&gt;Node13</title>
<path fill="none" stroke="midnightblue" d="M1177.05,-168.32C1193.49,-159.7 1218.93,-146.36 1237.97,-136.39"/>
<polygon fill="midnightblue" stroke="midnightblue" points="1239.76,-139.4 1246.99,-131.65 1236.51,-133.2 1239.76,-139.4"/>
</g>
<!-- Node14 -->
<g id="node14" class="node">
<title>Node14</title>
<g id="a_node14"><a xlink:href="typesizes_8h.html" target="_top" xlink:title=" ">
<polygon fill="white" stroke="black" points="1009,-112.5 1009,-131.5 1102,-131.5 1102,-112.5 1009,-112.5"/>
<text text-anchor="middle" x="1055.5" y="-119.5" font-family="Helvetica,sans-Serif" font-size="10.00">bits/typesizes.h</text>
</a>
</g>
</g>
<!-- Node12&#45;&gt;Node14 -->
<g id="edge17" class="edge">
<title>Node12&#45;&gt;Node14</title>
<path fill="none" stroke="midnightblue" d="M1143.63,-168.32C1126.79,-159.66 1100.69,-146.24 1081.26,-136.25"/>
<polygon fill="midnightblue" stroke="midnightblue" points="1082.82,-133.12 1072.33,-131.65 1079.62,-139.34 1082.82,-133.12"/>
</g>
<!-- Node15 -->
<g id="node15" class="node">
<title>Node15</title>
<g id="a_node15"><a xlink:href="time64_8h.html" target="_top" xlink:title=" ">
<polygon fill="white" stroke="black" points="1120,-112.5 1120,-131.5 1201,-131.5 1201,-112.5 1120,-112.5"/>
<text text-anchor="middle" x="1160.5" y="-119.5" font-family="Helvetica,sans-Serif" font-size="10.00">bits/time64.h</text>
</a>
</g>
</g>
<!-- Node12&#45;&gt;Node15 -->
<g id="edge18" class="edge">
<title>Node12&#45;&gt;Node15</title>
<path fill="none" stroke="midnightblue" d="M1160.5,-168.08C1160.5,-161.01 1160.5,-150.86 1160.5,-141.99"/>
<polygon fill="midnightblue" stroke="midnightblue" points="1164,-141.75 1160.5,-131.75 1157,-141.75 1164,-141.75"/>
</g>
<!-- Node16&#45;&gt;Node12 -->
<g id="edge20" class="edge">
<title>Node16&#45;&gt;Node12</title>
<path fill="none" stroke="midnightblue" d="M1147.14,-224.08C1149.29,-216.85 1152.38,-206.41 1155.05,-197.4"/>
<polygon fill="midnightblue" stroke="midnightblue" points="1158.42,-198.33 1157.91,-187.75 1151.71,-196.34 1158.42,-198.33"/>
</g>
<!-- Node17&#45;&gt;Node12 -->
<g id="edge22" class="edge">
<title>Node17&#45;&gt;Node12</title>
<path fill="none" stroke="midnightblue" d="M752.78,-225.14C755.73,-224.75 758.65,-224.36 761.5,-224 888.46,-207.78 1038.56,-191.67 1113.29,-183.87"/>
<polygon fill="midnightblue" stroke="midnightblue" points="1113.74,-187.34 1123.33,-182.82 1113.02,-180.38 1113.74,-187.34"/>
</g>
<!-- Node18&#45;&gt;Node12 -->
<g id="edge24" class="edge">
<title>Node18&#45;&gt;Node12</title>
<path fill="none" stroke="midnightblue" d="M879.42,-224.44C943.76,-214.04 1051.37,-196.64 1113.1,-186.66"/>
<polygon fill="midnightblue" stroke="midnightblue" points="1114.02,-190.06 1123.34,-185.01 1112.91,-183.15 1114.02,-190.06"/>
</g>
<!-- Node19&#45;&gt;Node12 -->
<g id="edge27" class="edge">
<title>Node19&#45;&gt;Node12</title>
<path fill="none" stroke="midnightblue" d="M626.2,-225.2C629.34,-224.77 632.46,-224.37 635.5,-224 811.28,-202.85 1021.35,-187.96 1113.39,-181.95"/>
<polygon fill="midnightblue" stroke="midnightblue" points="1113.74,-185.44 1123.49,-181.3 1113.29,-178.45 1113.74,-185.44"/>
</g>
<!-- Node20&#45;&gt;Node7 -->
<g id="edge31" class="edge">
<title>Node20&#45;&gt;Node7</title>
<path fill="none" stroke="midnightblue" d="M639.79,-287.5C590.09,-283.61 490.95,-269.99 519.5,-224 551.87,-171.86 620.04,-145.81 668.66,-133.38"/>
<polygon fill="midnightblue" stroke="midnightblue" points="669.53,-136.77 678.42,-131.01 667.87,-129.97 669.53,-136.77"/>
</g>
<!-- Node21 -->
<g id="node21" class="node">
<title>Node21</title>
<g id="a_node21"><a xlink:href="libc-header-start_8h.html" target="_top" xlink:title=" ">
<polygon fill="white" stroke="black" points="938.5,-224.5 938.5,-243.5 1066.5,-243.5 1066.5,-224.5 938.5,-224.5"/>
<text text-anchor="middle" x="1002.5" y="-231.5" font-family="Helvetica,sans-Serif" font-size="10.00">bits/libc&#45;header&#45;start.h</text>
</a>
</g>
</g>
<!-- Node20&#45;&gt;Node21 -->
<g id="edge29" class="edge">
<title>Node20&#45;&gt;Node21</title>
<path fill="none" stroke="midnightblue" d="M693.31,-283.7C699.91,-282.44 706.95,-281.14 713.5,-280 788.54,-266.98 874.86,-253.77 933.48,-245.06"/>
<polygon fill="midnightblue" stroke="midnightblue" points="934.35,-248.47 943.73,-243.54 933.33,-241.54 934.35,-248.47"/>
</g>
<!-- Node21&#45;&gt;Node3 -->
<g id="edge30" class="edge">
<title>Node21&#45;&gt;Node3</title>
<path fill="none" stroke="midnightblue" d="M1041.62,-224.45C1082.7,-215.45 1149.17,-200.84 1206.5,-188 1245.64,-179.24 1255.18,-175.91 1294.5,-168 1369.28,-152.96 1456.89,-138.24 1508.08,-129.92"/>
<polygon fill="midnightblue" stroke="midnightblue" points="1508.82,-133.35 1518.13,-128.29 1507.7,-126.44 1508.82,-133.35"/>
</g>
<!-- Node23&#45;&gt;Node23 -->
<g id="edge34" class="edge">
<title>Node23&#45;&gt;Node23</title>
<path fill="none" stroke="midnightblue" d="M427.14,-299.57C440.25,-302.27 453,-299.08 453,-290 453,-283.33 446.12,-279.84 437.28,-279.52"/>
<polygon fill="midnightblue" stroke="midnightblue" points="436.79,-276.05 427.14,-280.43 437.41,-283.03 436.79,-276.05"/>
</g>
<!-- Node25 -->
<g id="node25" class="node">
<title>Node25</title>
<g id="a_node25"><a xlink:title=" ">
<polygon fill="white" stroke="#bfbfbf" points="290.5,-224.5 290.5,-243.5 370.5,-243.5 370.5,-224.5 290.5,-224.5"/>
<text text-anchor="middle" x="330.5" y="-231.5" font-family="Helvetica,sans-Serif" font-size="10.00">linux/limits.h</text>
</a>
</g>
</g>
<!-- Node24&#45;&gt;Node25 -->
<g id="edge36" class="edge">
<title>Node24&#45;&gt;Node25</title>
<path fill="none" stroke="midnightblue" d="M481.98,-280.44C451.43,-271.28 402.79,-256.69 368.9,-246.52"/>
<polygon fill="midnightblue" stroke="midnightblue" points="369.47,-243.04 358.89,-243.52 367.46,-249.74 369.47,-243.04"/>
</g>
<!-- Node26 -->
<g id="node26" class="node">
<title>Node26</title>
<g id="a_node26"><a xlink:title=" ">
<polygon fill="white" stroke="#bfbfbf" points="388.5,-224.5 388.5,-243.5 472.5,-243.5 472.5,-224.5 388.5,-224.5"/>
<text text-anchor="middle" x="430.5" y="-231.5" font-family="Helvetica,sans-Serif" font-size="10.00">linux/param.h</text>
</a>
</g>
</g>
<!-- Node24&#45;&gt;Node26 -->
<g id="edge37" class="edge">
<title>Node24&#45;&gt;Node26</title>
<path fill="none" stroke="midnightblue" d="M497.65,-280.32C485.28,-271.98 466.37,-259.21 451.76,-249.35"/>
<polygon fill="midnightblue" stroke="midnightblue" points="453.57,-246.35 443.32,-243.65 449.65,-252.15 453.57,-246.35"/>
</g>
<!-- Node27&#45;&gt;Node10 -->
<g id="edge41" class="edge">
<title>Node27&#45;&gt;Node10</title>
<path fill="none" stroke="midnightblue" d="M1889.24,-288.14C1815.64,-285.33 1594.92,-274.91 1402.69,-243.96"/>
<polygon fill="midnightblue" stroke="midnightblue" points="1403.13,-240.48 1392.69,-242.32 1402,-247.39 1403.13,-240.48"/>
</g>
<!-- Node27&#45;&gt;Node12 -->
<g id="edge43" class="edge">
<title>Node27&#45;&gt;Node12</title>
<path fill="none" stroke="midnightblue" d="M1889.14,-285.18C1839.07,-277.61 1724.02,-260.03 1627.5,-244 1576.75,-235.57 1564.36,-231.7 1513.5,-224 1404.27,-207.47 1275.4,-192.07 1207.62,-184.3"/>
<polygon fill="midnightblue" stroke="midnightblue" points="1208.01,-180.82 1197.68,-183.16 1207.22,-187.77 1208.01,-180.82"/>
</g>
<!-- Node27&#45;&gt;Node21 -->
<g id="edge40" class="edge">
<title>Node27&#45;&gt;Node21</title>
<path fill="none" stroke="midnightblue" d="M1889.4,-288.29C1788.73,-285.3 1404.25,-272.6 1076.73,-244.05"/>
<polygon fill="midnightblue" stroke="midnightblue" points="1076.84,-240.54 1066.57,-243.15 1076.22,-247.51 1076.84,-240.54"/>
</g>
<!-- Node28 -->
<g id="node28" class="node">
<title>Node28</title>
<g id="a_node28"><a xlink:title=" ">
<polygon fill="white" stroke="#bfbfbf" points="2067.5,-224.5 2067.5,-243.5 2123.5,-243.5 2123.5,-224.5 2067.5,-224.5"/>
<text text-anchor="middle" x="2095.5" y="-231.5" font-family="Helvetica,sans-Serif" font-size="10.00">stdarg.h</text>
</a>
</g>
</g>
<!-- Node27&#45;&gt;Node28 -->
<g id="edge42" class="edge">
<title>Node27&#45;&gt;Node28</title>
<path fill="none" stroke="midnightblue" d="M1939.67,-281.49C1970.17,-272.39 2021.87,-256.97 2057.3,-246.4"/>
<polygon fill="midnightblue" stroke="midnightblue" points="2058.69,-249.63 2067.27,-243.42 2056.69,-242.93 2058.69,-249.63"/>
</g>
<!-- Node29 -->
<g id="node29" class="node">
<title>Node29</title>
<g id="a_node29"><a xlink:href="____fpos__t_8h.html" target="_top" xlink:title=" ">
<polygon fill="white" stroke="black" points="1785,-224.5 1785,-243.5 1902,-243.5 1902,-224.5 1785,-224.5"/>
<text text-anchor="middle" x="1843.5" y="-231.5" font-family="Helvetica,sans-Serif" font-size="10.00">bits/types/__fpos_t.h</text>
</a>
</g>
</g>
<!-- Node27&#45;&gt;Node29 -->
<g id="edge44" class="edge">
<title>Node27&#45;&gt;Node29</title>
<path fill="none" stroke="midnightblue" d="M1903.09,-280.32C1892.39,-272.18 1876.16,-259.84 1863.34,-250.09"/>
<polygon fill="midnightblue" stroke="midnightblue" points="1865.19,-247.1 1855.11,-243.83 1860.96,-252.67 1865.19,-247.1"/>
</g>
<!-- Node31 -->
<g id="node31" class="node">
<title>Node31</title>
<g id="a_node31"><a xlink:href="____fpos64__t_8h.html" target="_top" xlink:title=" ">
<polygon fill="white" stroke="black" points="1920,-224.5 1920,-243.5 2049,-243.5 2049,-224.5 1920,-224.5"/>
<text text-anchor="middle" x="1984.5" y="-231.5" font-family="Helvetica,sans-Serif" font-size="10.00">bits/types/__fpos64_t.h</text>
</a>
</g>
</g>
<!-- Node27&#45;&gt;Node31 -->
<g id="edge47" class="edge">
<title>Node27&#45;&gt;Node31</title>
<path fill="none" stroke="midnightblue" d="M1925.75,-280.32C1936.3,-272.18 1952.3,-259.84 1964.94,-250.09"/>
<polygon fill="midnightblue" stroke="midnightblue" points="1967.27,-252.71 1973.05,-243.83 1962.99,-247.17 1967.27,-252.71"/>
</g>
<!-- Node32 -->
<g id="node32" class="node">
<title>Node32</title>
<g id="a_node32"><a xlink:href="____FILE_8h.html" target="_top" xlink:title=" ">
<polygon fill="white" stroke="black" points="2142,-224.5 2142,-243.5 2249,-243.5 2249,-224.5 2142,-224.5"/>
<text text-anchor="middle" x="2195.5" y="-231.5" font-family="Helvetica,sans-Serif" font-size="10.00">bits/types/__FILE.h</text>
</a>
</g>
</g>
<!-- Node27&#45;&gt;Node32 -->
<g id="edge50" class="edge">
<title>Node27&#45;&gt;Node32</title>
<path fill="none" stroke="midnightblue" d="M1939.93,-284.11C1985.14,-275.42 2080.43,-257.11 2141.02,-245.47"/>
<polygon fill="midnightblue" stroke="midnightblue" points="2142.01,-248.84 2151.17,-243.52 2140.69,-241.97 2142.01,-248.84"/>
</g>
<!-- Node33 -->
<g id="node33" class="node">
<title>Node33</title>
<g id="a_node33"><a xlink:href="FILE_8h.html" target="_top" xlink:title=" ">
<polygon fill="white" stroke="black" points="2267,-224.5 2267,-243.5 2364,-243.5 2364,-224.5 2267,-224.5"/>
<text text-anchor="middle" x="2315.5" y="-231.5" font-family="Helvetica,sans-Serif" font-size="10.00">bits/types/FILE.h</text>
</a>
</g>
</g>
<!-- Node27&#45;&gt;Node33 -->
<g id="edge51" class="edge">
<title>Node27&#45;&gt;Node33</title>
<path fill="none" stroke="midnightblue" d="M1939.57,-285.95C1994.88,-279.18 2131.8,-262.14 2256.59,-244.25"/>
<polygon fill="midnightblue" stroke="midnightblue" points="2257.3,-247.68 2266.7,-242.79 2256.3,-240.75 2257.3,-247.68"/>
</g>
<!-- Node34 -->
<g id="node34" class="node">
<title>Node34</title>
<g id="a_node34"><a xlink:href="struct__FILE_8h.html" target="_top" xlink:title=" ">
<polygon fill="white" stroke="black" points="1636.5,-224.5 1636.5,-243.5 1766.5,-243.5 1766.5,-224.5 1636.5,-224.5"/>
<text text-anchor="middle" x="1701.5" y="-231.5" font-family="Helvetica,sans-Serif" font-size="10.00">bits/types/struct_FILE.h</text>
</a>
</g>
</g>
<!-- Node27&#45;&gt;Node34 -->
<g id="edge52" class="edge">
<title>Node27&#45;&gt;Node34</title>
<path fill="none" stroke="midnightblue" d="M1889.23,-282.59C1853.65,-273.57 1788.3,-257.01 1744.87,-245.99"/>
<polygon fill="midnightblue" stroke="midnightblue" points="1745.69,-242.59 1735.14,-243.53 1743.97,-249.38 1745.69,-242.59"/>
</g>
<!-- Node35 -->
<g id="node35" class="node">
<title>Node35</title>
<g id="a_node35"><a xlink:href="stdio__lim_8h.html" target="_top" xlink:title=" ">
<polygon fill="white" stroke="black" points="2382.5,-224.5 2382.5,-243.5 2474.5,-243.5 2474.5,-224.5 2382.5,-224.5"/>
<text text-anchor="middle" x="2428.5" y="-231.5" font-family="Helvetica,sans-Serif" font-size="10.00">bits/stdio_lim.h</text>
</a>
</g>
</g>
<!-- Node27&#45;&gt;Node35 -->
<g id="edge54" class="edge">
<title>Node27&#45;&gt;Node35</title>
<path fill="none" stroke="midnightblue" d="M1939.69,-287.1C2007.72,-281.86 2201.01,-266.17 2372.36,-244.07"/>
<polygon fill="midnightblue" stroke="midnightblue" points="2372.85,-247.54 2382.32,-242.78 2371.95,-240.6 2372.85,-247.54"/>
</g>
<!-- Node36 -->
<g id="node36" class="node">
<title>Node36</title>
<g id="a_node36"><a xlink:href="floatn_8h.html" target="_top" xlink:title=" ">
<polygon fill="white" stroke="black" points="2530.5,-224.5 2530.5,-243.5 2604.5,-243.5 2604.5,-224.5 2530.5,-224.5"/>
<text text-anchor="middle" x="2567.5" y="-231.5" font-family="Helvetica,sans-Serif" font-size="10.00">bits/floatn.h</text>
</a>
</g>
</g>
<!-- Node27&#45;&gt;Node36 -->
<g id="edge55" class="edge">
<title>Node27&#45;&gt;Node36</title>
<path fill="none" stroke="midnightblue" d="M1939.76,-287.25C2019.59,-281.68 2273.59,-263.54 2483.5,-244 2495.36,-242.9 2508.15,-241.59 2520.08,-240.31"/>
<polygon fill="midnightblue" stroke="midnightblue" points="2520.74,-243.76 2530.31,-239.21 2519.99,-236.8 2520.74,-243.76"/>
</g>
<!-- Node29&#45;&gt;Node12 -->
<g id="edge45" class="edge">
<title>Node29&#45;&gt;Node12</title>
<path fill="none" stroke="midnightblue" d="M1784.92,-225.03C1781.74,-224.66 1778.58,-224.32 1775.5,-224 1564.17,-202.3 1310.95,-187.2 1207.75,-181.51"/>
<polygon fill="midnightblue" stroke="midnightblue" points="1207.83,-178.01 1197.65,-180.96 1207.45,-185 1207.83,-178.01"/>
</g>
<!-- Node30 -->
<g id="node30" class="node">
<title>Node30</title>
<g id="a_node30"><a xlink:href="____mbstate__t_8h.html" target="_top" xlink:title=" ">
<polygon fill="white" stroke="black" points="1687,-168.5 1687,-187.5 1824,-187.5 1824,-168.5 1687,-168.5"/>
<text text-anchor="middle" x="1755.5" y="-175.5" font-family="Helvetica,sans-Serif" font-size="10.00">bits/types/__mbstate_t.h</text>
</a>
</g>
</g>
<!-- Node29&#45;&gt;Node30 -->
<g id="edge46" class="edge">
<title>Node29&#45;&gt;Node30</title>
<path fill="none" stroke="midnightblue" d="M1829.36,-224.32C1815.63,-215.9 1794.56,-202.97 1778.44,-193.07"/>
<polygon fill="midnightblue" stroke="midnightblue" points="1779.96,-189.9 1769.6,-187.65 1776.3,-195.87 1779.96,-189.9"/>
</g>
<!-- Node31&#45;&gt;Node12 -->
<g id="edge48" class="edge">
<title>Node31&#45;&gt;Node12</title>
<path fill="none" stroke="midnightblue" d="M1919.64,-224.79C1916.89,-224.51 1914.17,-224.24 1911.5,-224 1646.04,-199.71 1326.53,-185.55 1207.87,-180.8"/>
<polygon fill="midnightblue" stroke="midnightblue" points="1207.81,-177.3 1197.68,-180.4 1207.53,-184.29 1207.81,-177.3"/>
</g>
<!-- Node31&#45;&gt;Node30 -->
<g id="edge49" class="edge">
<title>Node31&#45;&gt;Node30</title>
<path fill="none" stroke="midnightblue" d="M1948.21,-224.44C1908.52,-215.08 1844.79,-200.06 1801.59,-189.87"/>
<polygon fill="midnightblue" stroke="midnightblue" points="1802.15,-186.41 1791.62,-187.52 1800.55,-193.22 1802.15,-186.41"/>
</g>
<!-- Node34&#45;&gt;Node12 -->
<g id="edge53" class="edge">
<title>Node34&#45;&gt;Node12</title>
<path fill="none" stroke="midnightblue" d="M1636.41,-225.5C1631.71,-224.98 1627.03,-224.48 1622.5,-224 1471.1,-208 1291.55,-191.11 1207.85,-183.35"/>
<polygon fill="midnightblue" stroke="midnightblue" points="1207.93,-179.85 1197.65,-182.41 1207.28,-186.82 1207.93,-179.85"/>
</g>
<!-- Node36&#45;&gt;Node3 -->
<g id="edge56" class="edge">
<title>Node36&#45;&gt;Node3</title>
<path fill="none" stroke="midnightblue" d="M2530.25,-225.94C2525.63,-225.21 2520.96,-224.54 2516.5,-224 2271.08,-194.48 2199.78,-253.77 1961.5,-188 1942.72,-182.82 1941.13,-173.71 1922.5,-168 1807.73,-132.84 1665.09,-125 1594.8,-123.35"/>
<polygon fill="midnightblue" stroke="midnightblue" points="1594.62,-119.85 1584.56,-123.14 1594.48,-126.85 1594.62,-119.85"/>
</g>
<!-- Node37 -->
<g id="node37" class="node">
<title>Node37</title>
<g id="a_node37"><a xlink:href="floatn-common_8h.html" target="_top" xlink:title=" ">
<polygon fill="white" stroke="black" points="1970,-168.5 1970,-187.5 2091,-187.5 2091,-168.5 1970,-168.5"/>
<text text-anchor="middle" x="2030.5" y="-175.5" font-family="Helvetica,sans-Serif" font-size="10.00">bits/floatn&#45;common.h</text>
</a>
</g>
</g>
<!-- Node36&#45;&gt;Node37 -->
<g id="edge57" class="edge">
<title>Node36&#45;&gt;Node37</title>
<path fill="none" stroke="midnightblue" d="M2530.23,-226.06C2525.62,-225.31 2520.96,-224.6 2516.5,-224 2369.43,-204.25 2196.15,-190.46 2101.34,-183.72"/>
<polygon fill="midnightblue" stroke="midnightblue" points="2101.52,-180.23 2091.29,-183.01 2101.02,-187.21 2101.52,-180.23"/>
</g>
<!-- Node37&#45;&gt;Node3 -->
<g id="edge58" class="edge">
<title>Node37&#45;&gt;Node3</title>
<path fill="none" stroke="midnightblue" d="M1969.92,-169.69C1965.04,-169.11 1960.19,-168.54 1955.5,-168 1824.2,-152.81 1668.78,-135.76 1594.81,-127.7"/>
<polygon fill="midnightblue" stroke="midnightblue" points="1594.82,-124.18 1584.5,-126.58 1594.07,-131.14 1594.82,-124.18"/>
</g>
<!-- Node37&#45;&gt;Node8 -->
<g id="edge59" class="edge">
<title>Node37&#45;&gt;Node8</title>
<path fill="none" stroke="midnightblue" d="M2018.13,-168.32C2006.34,-160.06 1988.37,-147.45 1974.36,-137.63"/>
<polygon fill="midnightblue" stroke="midnightblue" points="1976.04,-134.53 1965.84,-131.65 1972.02,-140.26 1976.04,-134.53"/>
</g>
<!-- Node38&#45;&gt;Node3 -->
<g id="edge61" class="edge">
<title>Node38&#45;&gt;Node3</title>
<path fill="none" stroke="midnightblue" d="M1196.53,-455.05C1296.57,-448.65 1570.5,-424.11 1570.5,-347 1570.5,-347 1570.5,-347 1570.5,-233 1570.5,-200.49 1562.34,-163.35 1556.72,-141.61"/>
<polygon fill="midnightblue" stroke="midnightblue" points="1560.04,-140.5 1554.06,-131.75 1553.28,-142.32 1560.04,-140.5"/>
</g>
<!-- Node38&#45;&gt;Node12 -->
<g id="edge72" class="edge">
<title>Node38&#45;&gt;Node12</title>
<path fill="none" stroke="midnightblue" d="M1161.82,-448.33C1165.02,-428.24 1173.92,-377.07 1187.5,-336 1204.14,-285.67 1253.59,-270.69 1228.5,-224 1220.88,-209.82 1206.6,-199.35 1193.09,-192.1"/>
<polygon fill="midnightblue" stroke="midnightblue" points="1194.47,-188.88 1183.95,-187.59 1191.37,-195.16 1194.47,-188.88"/>
</g>
<!-- Node38&#45;&gt;Node22 -->
<g id="edge74" class="edge">
<title>Node38&#45;&gt;Node22</title>
<path fill="none" stroke="midnightblue" d="M1128.52,-448.43C1099.77,-440.33 1056.63,-427.18 1020.5,-412 941.94,-379 854.11,-328.84 813.45,-304.79"/>
<polygon fill="midnightblue" stroke="midnightblue" points="814.99,-301.64 804.61,-299.54 811.42,-307.66 814.99,-301.64"/>
</g>
<!-- Node39 -->
<g id="node39" class="node">
<title>Node39</title>
<g id="a_node39"><a xlink:href="stdint-uintn_8h.html" target="_top" xlink:title=" ">
<polygon fill="white" stroke="black" points="0,-224.5 0,-243.5 103,-243.5 103,-224.5 0,-224.5"/>
<text text-anchor="middle" x="51.5" y="-231.5" font-family="Helvetica,sans-Serif" font-size="10.00">bits/stdint&#45;uintn.h</text>
</a>
</g>
</g>
<!-- Node38&#45;&gt;Node39 -->
<g id="edge62" class="edge">
<title>Node38&#45;&gt;Node39</title>
<path fill="none" stroke="midnightblue" d="M1124.23,-454.47C1050.62,-449.05 878.55,-434.91 735.5,-412 506.78,-375.37 448.57,-365.89 226.5,-300 174.47,-284.56 115.62,-261.51 81.14,-247.41"/>
<polygon fill="midnightblue" stroke="midnightblue" points="82.25,-244.08 71.67,-243.51 79.59,-250.55 82.25,-244.08"/>
</g>
<!-- Node40 -->
<g id="node40" class="node">
<title>Node40</title>
<g id="a_node40"><a xlink:href="sys_2socket_8h.html" target="_top" xlink:title=" ">
<polygon fill="white" stroke="black" points="1271,-392.5 1271,-411.5 1348,-411.5 1348,-392.5 1271,-392.5"/>
<text text-anchor="middle" x="1309.5" y="-399.5" font-family="Helvetica,sans-Serif" font-size="10.00">sys/socket.h</text>
</a>
</g>
</g>
<!-- Node38&#45;&gt;Node40 -->
<g id="edge64" class="edge">
<title>Node38&#45;&gt;Node40</title>
<path fill="none" stroke="midnightblue" d="M1184.11,-448.44C1208.96,-439.44 1248.27,-425.19 1276.25,-415.05"/>
<polygon fill="midnightblue" stroke="midnightblue" points="1277.79,-418.21 1286,-411.52 1275.41,-411.63 1277.79,-418.21"/>
</g>
<!-- Node46 -->
<g id="node43" class="node">
<title>Node46</title>
<g id="a_node43"><a xlink:href="bits_2in_8h.html" target="_top" xlink:title=" ">
<polygon fill="white" stroke="black" points="1196.5,-392.5 1196.5,-411.5 1252.5,-411.5 1252.5,-392.5 1196.5,-392.5"/>
<text text-anchor="middle" x="1224.5" y="-399.5" font-family="Helvetica,sans-Serif" font-size="10.00">bits/in.h</text>
</a>
</g>
</g>
<!-- Node38&#45;&gt;Node46 -->
<g id="edge73" class="edge">
<title>Node38&#45;&gt;Node46</title>
<path fill="none" stroke="midnightblue" d="M1170.78,-448.32C1180.34,-440.26 1194.78,-428.08 1206.28,-418.37"/>
<polygon fill="midnightblue" stroke="midnightblue" points="1208.64,-420.96 1214.03,-411.83 1204.13,-415.61 1208.64,-420.96"/>
</g>
<!-- Node47 -->
<g id="node44" class="node">
<title>Node47</title>
<g id="a_node44"><a xlink:href="bits_2byteswap_8h.html" target="_top" xlink:title=" ">
<polygon fill="white" stroke="black" points="1410.5,-224.5 1410.5,-243.5 1504.5,-243.5 1504.5,-224.5 1410.5,-224.5"/>
<text text-anchor="middle" x="1457.5" y="-231.5" font-family="Helvetica,sans-Serif" font-size="10.00">bits/byteswap.h</text>
</a>
</g>
</g>
<!-- Node38&#45;&gt;Node47 -->
<g id="edge75" class="edge">
<title>Node38&#45;&gt;Node47</title>
<path fill="none" stroke="midnightblue" d="M1196.71,-451.25C1272.86,-438.28 1445.08,-404.12 1475.5,-356 1495.75,-323.97 1479.03,-277.81 1467.04,-252.78"/>
<polygon fill="midnightblue" stroke="midnightblue" points="1470.09,-251.07 1462.46,-243.73 1463.85,-254.23 1470.09,-251.07"/>
</g>
<!-- Node48 -->
<g id="node45" class="node">
<title>Node48</title>
<g id="a_node45"><a xlink:href="uintn-identity_8h.html" target="_top" xlink:title=" ">
<polygon fill="white" stroke="black" points="1029,-392.5 1029,-411.5 1140,-411.5 1140,-392.5 1029,-392.5"/>
<text text-anchor="middle" x="1084.5" y="-399.5" font-family="Helvetica,sans-Serif" font-size="10.00">bits/uintn&#45;identity.h</text>
</a>
</g>
</g>
<!-- Node38&#45;&gt;Node48 -->
<g id="edge78" class="edge">
<title>Node38&#45;&gt;Node48</title>
<path fill="none" stroke="midnightblue" d="M1148.29,-448.32C1136.72,-440.11 1119.12,-427.6 1105.34,-417.81"/>
<polygon fill="midnightblue" stroke="midnightblue" points="1107.11,-414.77 1096.93,-411.83 1103.06,-420.48 1107.11,-414.77"/>
</g>
<!-- Node39&#45;&gt;Node12 -->
<g id="edge63" class="edge">
<title>Node39&#45;&gt;Node12</title>
<path fill="none" stroke="midnightblue" d="M103.17,-224.89C105.98,-224.56 108.77,-224.26 111.5,-224 496.9,-186.93 964.9,-180.4 1113.12,-179.25"/>
<polygon fill="midnightblue" stroke="midnightblue" points="1113.26,-182.74 1123.24,-179.17 1113.21,-175.75 1113.26,-182.74"/>
</g>
<!-- Node40&#45;&gt;Node3 -->
<g id="edge65" class="edge">
<title>Node40&#45;&gt;Node3</title>
<path fill="none" stroke="midnightblue" d="M1348.09,-399.04C1411.91,-393.5 1532.5,-372.27 1532.5,-291 1532.5,-291 1532.5,-291 1532.5,-233 1532.5,-200.49 1540.66,-163.35 1546.28,-141.61"/>
<polygon fill="midnightblue" stroke="midnightblue" points="1549.72,-142.32 1548.94,-131.75 1542.96,-140.5 1549.72,-142.32"/>
</g>
<!-- Node40&#45;&gt;Node10 -->
<g id="edge68" class="edge">
<title>Node40&#45;&gt;Node10</title>
<path fill="none" stroke="midnightblue" d="M1310.47,-392.44C1312.03,-379.88 1315.54,-355.78 1321.5,-336 1330.58,-305.85 1345.85,-272.55 1355.54,-252.73"/>
<polygon fill="midnightblue" stroke="midnightblue" points="1358.72,-254.19 1360.03,-243.67 1352.45,-251.07 1358.72,-254.19"/>
</g>
<!-- Node41 -->
<g id="node41" class="node">
<title>Node41</title>
<g id="a_node41"><a xlink:href="struct__iovec_8h.html" target="_top" xlink:title=" ">
<polygon fill="white" stroke="black" points="1330.5,-336.5 1330.5,-355.5 1466.5,-355.5 1466.5,-336.5 1330.5,-336.5"/>
<text text-anchor="middle" x="1398.5" y="-343.5" font-family="Helvetica,sans-Serif" font-size="10.00">bits/types/struct_iovec.h</text>
</a>
</g>
</g>
<!-- Node40&#45;&gt;Node41 -->
<g id="edge66" class="edge">
<title>Node40&#45;&gt;Node41</title>
<path fill="none" stroke="midnightblue" d="M1323.8,-392.32C1337.68,-383.9 1358.99,-370.97 1375.3,-361.07"/>
<polygon fill="midnightblue" stroke="midnightblue" points="1377.5,-363.83 1384.24,-355.65 1373.87,-357.85 1377.5,-363.83"/>
</g>
<!-- Node42 -->
<g id="node42" class="node">
<title>Node42</title>
<g id="a_node42"><a xlink:href="bits_2socket_8h.html" target="_top" xlink:title=" ">
<polygon fill="white" stroke="red" points="1196.5,-336.5 1196.5,-355.5 1274.5,-355.5 1274.5,-336.5 1196.5,-336.5"/>
<text text-anchor="middle" x="1235.5" y="-343.5" font-family="Helvetica,sans-Serif" font-size="10.00">bits/socket.h</text>
</a>
</g>
</g>
<!-- Node40&#45;&gt;Node42 -->
<g id="edge69" class="edge">
<title>Node40&#45;&gt;Node42</title>
<path fill="none" stroke="midnightblue" d="M1297.61,-392.32C1286.35,-384.11 1269.21,-371.6 1255.79,-361.81"/>
<polygon fill="midnightblue" stroke="midnightblue" points="1257.75,-358.9 1247.61,-355.83 1253.62,-364.56 1257.75,-358.9"/>
</g>
<!-- Node41&#45;&gt;Node10 -->
<g id="edge67" class="edge">
<title>Node41&#45;&gt;Node10</title>
<path fill="none" stroke="midnightblue" d="M1395.83,-336.37C1390.32,-318.54 1377.57,-277.3 1370.15,-253.27"/>
<polygon fill="midnightblue" stroke="midnightblue" points="1373.45,-252.11 1367.16,-243.59 1366.76,-254.18 1373.45,-252.11"/>
</g>
<!-- Node42&#45;&gt;Node10 -->
<g id="edge70" class="edge">
<title>Node42&#45;&gt;Node10</title>
<path fill="none" stroke="midnightblue" d="M1241.19,-336.18C1250.1,-322.85 1268.41,-297.29 1288.5,-280 1303.23,-267.33 1321.99,-256.17 1337.19,-248.14"/>
<polygon fill="midnightblue" stroke="midnightblue" points="1338.83,-251.24 1346.13,-243.56 1335.63,-245.01 1338.83,-251.24"/>
</g>
<!-- Node42&#45;&gt;Node11 -->
<g id="edge71" class="edge">
<title>Node42&#45;&gt;Node11</title>
<path fill="none" stroke="midnightblue" d="M1196.19,-338.32C1137.32,-328.33 1026.48,-309.51 963.79,-298.86"/>
<polygon fill="midnightblue" stroke="midnightblue" points="964.22,-295.38 953.78,-297.16 963.05,-302.29 964.22,-295.38"/>
</g>
<!-- Node47&#45;&gt;Node3 -->
<g id="edge76" class="edge">
<title>Node47&#45;&gt;Node3</title>
<path fill="none" stroke="midnightblue" d="M1464.88,-224.37C1480.53,-206.05 1517.28,-163.05 1537.52,-139.36"/>
<polygon fill="midnightblue" stroke="midnightblue" points="1540.32,-141.47 1544.16,-131.59 1535,-136.92 1540.32,-141.47"/>
</g>
<!-- Node47&#45;&gt;Node12 -->
<g id="edge77" class="edge">
<title>Node47&#45;&gt;Node12</title>
<path fill="none" stroke="midnightblue" d="M1410.44,-224.44C1355.01,-214.36 1263.45,-197.72 1207.88,-187.61"/>
<polygon fill="midnightblue" stroke="midnightblue" points="1208.4,-184.15 1197.94,-185.81 1207.15,-191.04 1208.4,-184.15"/>
</g>
<!-- Node48&#45;&gt;Node12 -->
<g id="edge79" class="edge">
<title>Node48&#45;&gt;Node12</title>
<path fill="none" stroke="midnightblue" d="M1092.12,-392.43C1118.84,-362.3 1207.05,-262.02 1213.5,-244 1216.5,-235.63 1217.23,-232.07 1213.5,-224 1207.58,-211.21 1196.03,-200.72 1185.22,-193.1"/>
<polygon fill="midnightblue" stroke="midnightblue" points="1187.12,-190.16 1176.83,-187.61 1183.29,-196.02 1187.12,-190.16"/>
</g>
<!-- Node49&#45;&gt;Node9 -->
<g id="edge81" class="edge">
<title>Node49&#45;&gt;Node9</title>
<path fill="none" stroke="midnightblue" d="M770.85,-392.44C750.54,-383.6 718.6,-369.69 695.4,-359.59"/>
<polygon fill="midnightblue" stroke="midnightblue" points="696.62,-356.3 686.06,-355.52 693.83,-362.72 696.62,-356.3"/>
</g>
<!-- Node49&#45;&gt;Node11 -->
<g id="edge82" class="edge">
<title>Node49&#45;&gt;Node11</title>
<path fill="none" stroke="midnightblue" d="M809.26,-392.36C825.47,-384.35 848.98,-371.37 866.5,-356 882.45,-342.01 896.99,-322.5 906.43,-308.51"/>
<polygon fill="midnightblue" stroke="midnightblue" points="909.55,-310.12 912.1,-299.84 903.69,-306.29 909.55,-310.12"/>
</g>
<!-- Node50 -->
<g id="node47" class="node">
<title>Node50</title>
<g id="a_node47"><a xlink:href="stdint_8h.html" target="_top" xlink:title=" ">
<polygon fill="white" stroke="black" points="236,-280.5 236,-299.5 289,-299.5 289,-280.5 236,-280.5"/>
<text text-anchor="middle" x="262.5" y="-287.5" font-family="Helvetica,sans-Serif" font-size="10.00">stdint.h</text>
</a>
</g>
</g>
<!-- Node49&#45;&gt;Node50 -->
<g id="edge83" class="edge">
<title>Node49&#45;&gt;Node50</title>
<path fill="none" stroke="midnightblue" d="M749.51,-392.46C649.55,-371.64 394.5,-318.5 299.18,-298.64"/>
<polygon fill="midnightblue" stroke="midnightblue" points="299.65,-295.17 289.15,-296.55 298.23,-302.02 299.65,-295.17"/>
</g>
<!-- Node52 -->
<g id="node49" class="node">
<title>Node52</title>
<g id="a_node49"><a xlink:href="nameser__compat_8h.html" target="_top" xlink:title=" ">
<polygon fill="white" stroke="black" points="723,-336.5 723,-355.5 858,-355.5 858,-336.5 723,-336.5"/>
<text text-anchor="middle" x="790.5" y="-343.5" font-family="Helvetica,sans-Serif" font-size="10.00">arpa/nameser_compat.h</text>
</a>
</g>
</g>
<!-- Node49&#45;&gt;Node52 -->
<g id="edge90" class="edge">
<title>Node49&#45;&gt;Node52</title>
<path fill="none" stroke="midnightblue" d="M790.5,-392.08C790.5,-385.01 790.5,-374.86 790.5,-365.99"/>
<polygon fill="midnightblue" stroke="midnightblue" points="794,-365.75 790.5,-355.75 787,-365.75 794,-365.75"/>
</g>
<!-- Node50&#45;&gt;Node7 -->
<g id="edge87" class="edge">
<title>Node50&#45;&gt;Node7</title>
<path fill="none" stroke="midnightblue" d="M259.74,-280.26C256.01,-266.57 251.24,-239.99 264.5,-224 315.53,-162.48 557.31,-135.97 667.97,-126.91"/>
<polygon fill="midnightblue" stroke="midnightblue" points="668.57,-130.37 678.26,-126.09 668.01,-123.4 668.57,-130.37"/>
</g>
<!-- Node50&#45;&gt;Node12 -->
<g id="edge85" class="edge">
<title>Node50&#45;&gt;Node12</title>
<path fill="none" stroke="midnightblue" d="M262.14,-280.12C262.09,-265.73 264.34,-237.56 281.5,-224 314.36,-198.03 935.72,-183.54 1113.41,-179.91"/>
<polygon fill="midnightblue" stroke="midnightblue" points="1113.56,-183.41 1123.49,-179.71 1113.42,-176.41 1113.56,-183.41"/>
</g>
<!-- Node50&#45;&gt;Node19 -->
<g id="edge88" class="edge">
<title>Node50&#45;&gt;Node19</title>
<path fill="none" stroke="midnightblue" d="M289.09,-284.44C339.45,-275.81 449.87,-256.88 518.53,-245.11"/>
<polygon fill="midnightblue" stroke="midnightblue" points="519.5,-248.49 528.76,-243.35 518.32,-241.59 519.5,-248.49"/>
</g>
<!-- Node50&#45;&gt;Node21 -->
<g id="edge84" class="edge">
<title>Node50&#45;&gt;Node21</title>
<path fill="none" stroke="midnightblue" d="M289.12,-286.68C310.98,-284.79 342.73,-282.12 370.5,-280 601.94,-262.36 660.04,-261.38 891.5,-244 903.32,-243.11 915.85,-242.13 928.07,-241.16"/>
<polygon fill="midnightblue" stroke="midnightblue" points="928.55,-244.63 938.24,-240.34 927.99,-237.65 928.55,-244.63"/>
</g>
<!-- Node50&#45;&gt;Node39 -->
<g id="edge89" class="edge">
<title>Node50&#45;&gt;Node39</title>
<path fill="none" stroke="midnightblue" d="M235.78,-282.16C200.26,-273.07 137.05,-256.9 94.71,-246.06"/>
<polygon fill="midnightblue" stroke="midnightblue" points="95.51,-242.65 84.95,-243.56 93.77,-249.43 95.51,-242.65"/>
</g>
<!-- Node51 -->
<g id="node48" class="node">
<title>Node51</title>
<g id="a_node48"><a xlink:href="bits_2wchar_8h.html" target="_top" xlink:title=" ">
<polygon fill="white" stroke="black" points="121,-224.5 121,-243.5 196,-243.5 196,-224.5 121,-224.5"/>
<text text-anchor="middle" x="158.5" y="-231.5" font-family="Helvetica,sans-Serif" font-size="10.00">bits/wchar.h</text>
</a>
</g>
</g>
<!-- Node50&#45;&gt;Node51 -->
<g id="edge86" class="edge">
<title>Node50&#45;&gt;Node51</title>
<path fill="none" stroke="midnightblue" d="M245.79,-280.32C229.19,-271.7 203.5,-258.36 184.28,-248.39"/>
<polygon fill="midnightblue" stroke="midnightblue" points="185.66,-245.16 175.17,-243.65 182.43,-251.37 185.66,-245.16"/>
</g>
<!-- Node52&#45;&gt;Node22 -->
<g id="edge91" class="edge">
<title>Node52&#45;&gt;Node22</title>
<path fill="none" stroke="midnightblue" d="M790.5,-336.08C790.5,-329.01 790.5,-318.86 790.5,-309.99"/>
<polygon fill="midnightblue" stroke="midnightblue" points="794,-309.75 790.5,-299.75 787,-309.75 794,-309.75"/>
</g>
<!-- Node53&#45;&gt;Node11 -->
<g id="edge93" class="edge">
<title>Node53&#45;&gt;Node11</title>
<path fill="none" stroke="midnightblue" d="M1041.44,-504.3C1022.3,-471.36 954.05,-353.9 927.85,-308.81"/>
<polygon fill="midnightblue" stroke="midnightblue" points="930.71,-306.77 922.66,-299.88 924.66,-310.29 930.71,-306.77"/>
</g>
<!-- Node53&#45;&gt;Node38 -->
<g id="edge94" class="edge">
<title>Node53&#45;&gt;Node38</title>
<path fill="none" stroke="midnightblue" d="M1064.56,-504.44C1083.07,-495.68 1112.08,-481.94 1133.36,-471.86"/>
<polygon fill="midnightblue" stroke="midnightblue" points="1134.98,-474.96 1142.52,-467.52 1131.99,-468.63 1134.98,-474.96"/>
</g>
</g>
</svg>
