<?xml version="1.0" encoding="UTF-8" standalone="no"?>
<!DOCTYPE svg PUBLIC "-//W3C//DTD SVG 1.1//EN"
 "http://www.w3.org/Graphics/SVG/1.1/DTD/svg11.dtd">
<!-- Generated by graphviz version 2.44.1 (0)
 -->
<!-- Title: netrose/rose.h Pages: 1 -->
<!--zoomable 476 -->
<svg id="main" version="1.1" xmlns="http://www.w3.org/2000/svg" xmlns:xlink="http://www.w3.org/1999/xlink" xml:space="preserve" onload="init(evt)">
<style type="text/css"><![CDATA[
.edge:hover path { stroke: red; }
.edge:hover polygon { stroke: red; fill: red; }
]]></style>
<script type="text/javascript"><![CDATA[
var edges = document.getElementsByTagName('g');
if (edges && edges.length) {
  for (var i=0;i<edges.length;i++) {
    if (edges[i].id.substr(0,4)=='edge') {
      edges[i].setAttribute('class','edge');
    }
  }
}
]]></script>
        <defs>
                <circle id="rim" cx="0" cy="0" r="7"/>
                <circle id="rim2" cx="0" cy="0" r="3.5"/>
                <g id="zoomPlus">
                        <use xlink:href="#rim" fill="#404040">
                                <set attributeName="fill" to="#808080" begin="zoomplus.mouseover" end="zoomplus.mouseout"/>
                        </use>
                        <path d="M-4,0h8M0,-4v8" fill="none" stroke="white" stroke-width="1.5" pointer-events="none"/>
                </g>
                <g id="zoomMin">
                        <use xlink:href="#rim" fill="#404040">
                                <set attributeName="fill" to="#808080" begin="zoomminus.mouseover" end="zoomminus.mouseout"/>
                        </use>
                        <path d="M-4,0h8" fill="none" stroke="white" stroke-width="1.5" pointer-events="none"/>
                </g>
                <g id="dirArrow">
                        <path fill="none" stroke="white" stroke-width="1.5" d="M0,-3.0v7 M-2.5,-0.5L0,-3.0L2.5,-0.5"/>
                </g>
               <g id="resetDef">
                       <use xlink:href="#rim2" fill="#404040">
                               <set attributeName="fill" to="#808080" begin="reset.mouseover" end="reset.mouseout"/>
                       </use>
               </g>
        </defs>

<script type="text/javascript">
var viewWidth = 938;
var viewHeight = 476;
var sectionId = 'dynsection-0';
</script>
<script xlink:href="svgpan.js"/>
<svg id="graph" class="graph">
<g id="viewport">
<title>netrose/rose.h</title>
<polygon fill="white" stroke="transparent" points="-4,4 -4,-472 934,-472 934,4 -4,4"/>
<!-- Node1 -->
<g id="node1" class="node">
<title>Node1</title>
<g id="a_node1"><a xlink:title=" ">
<polygon fill="#bfbfbf" stroke="black" points="409,-448.5 409,-467.5 495,-467.5 495,-448.5 409,-448.5"/>
<text text-anchor="middle" x="452" y="-455.5" font-family="Helvetica,sans-Serif" font-size="10.00">netrose/rose.h</text>
</a>
</g>
</g>
<!-- Node2 -->
<g id="node2" class="node">
<title>Node2</title>
<g id="a_node2"><a xlink:href="sys_2socket_8h.html" target="_top" xlink:title=" ">
<polygon fill="white" stroke="black" points="380.5,-392.5 380.5,-411.5 457.5,-411.5 457.5,-392.5 380.5,-392.5"/>
<text text-anchor="middle" x="419" y="-399.5" font-family="Helvetica,sans-Serif" font-size="10.00">sys/socket.h</text>
</a>
</g>
</g>
<!-- Node1&#45;&gt;Node2 -->
<g id="edge1" class="edge">
<title>Node1&#45;&gt;Node2</title>
<path fill="none" stroke="midnightblue" d="M446.55,-448.08C441.99,-440.61 435.33,-429.72 429.71,-420.52"/>
<polygon fill="midnightblue" stroke="midnightblue" points="432.55,-418.46 424.35,-411.75 426.58,-422.11 432.55,-418.46"/>
</g>
<!-- Node25 -->
<g id="node25" class="node">
<title>Node25</title>
<g id="a_node25"><a xlink:href="ax25_8h.html" target="_top" xlink:title=" ">
<polygon fill="white" stroke="black" points="838,-336.5 838,-355.5 930,-355.5 930,-336.5 838,-336.5"/>
<text text-anchor="middle" x="884" y="-343.5" font-family="Helvetica,sans-Serif" font-size="10.00">netax25/ax25.h</text>
</a>
</g>
</g>
<!-- Node1&#45;&gt;Node25 -->
<g id="edge36" class="edge">
<title>Node1&#45;&gt;Node25</title>
<path fill="none" stroke="midnightblue" d="M485.54,-448.46C563.06,-428.72 754.57,-379.96 840.75,-358.01"/>
<polygon fill="midnightblue" stroke="midnightblue" points="841.66,-361.39 850.48,-355.53 839.93,-354.61 841.66,-361.39"/>
</g>
<!-- Node3 -->
<g id="node3" class="node">
<title>Node3</title>
<g id="a_node3"><a xlink:href="features_8h.html" target="_top" xlink:title=" ">
<polygon fill="white" stroke="black" points="668,-112.5 668,-131.5 734,-131.5 734,-112.5 668,-112.5"/>
<text text-anchor="middle" x="701" y="-119.5" font-family="Helvetica,sans-Serif" font-size="10.00">features.h</text>
</a>
</g>
</g>
<!-- Node2&#45;&gt;Node3 -->
<g id="edge2" class="edge">
<title>Node2&#45;&gt;Node3</title>
<path fill="none" stroke="midnightblue" d="M457.73,-396.65C546.05,-385.84 757.96,-354.64 800,-300 835.78,-253.5 831.76,-217.33 800,-168 787.61,-148.77 764.77,-137.66 744.15,-131.29"/>
<polygon fill="midnightblue" stroke="midnightblue" points="744.83,-127.85 734.26,-128.53 742.95,-134.59 744.83,-127.85"/>
</g>
<!-- Node10 -->
<g id="node10" class="node">
<title>Node10</title>
<g id="a_node10"><a xlink:href="struct__iovec_8h.html" target="_top" xlink:title=" ">
<polygon fill="white" stroke="black" points="0,-336.5 0,-355.5 136,-355.5 136,-336.5 0,-336.5"/>
<text text-anchor="middle" x="68" y="-343.5" font-family="Helvetica,sans-Serif" font-size="10.00">bits/types/struct_iovec.h</text>
</a>
</g>
</g>
<!-- Node2&#45;&gt;Node10 -->
<g id="edge10" class="edge">
<title>Node2&#45;&gt;Node10</title>
<path fill="none" stroke="midnightblue" d="M380.43,-395.07C320.9,-385.91 205.93,-368.22 133.28,-357.04"/>
<polygon fill="midnightblue" stroke="midnightblue" points="133.74,-353.57 123.32,-355.51 132.67,-360.49 133.74,-353.57"/>
</g>
<!-- Node11 -->
<g id="node11" class="node">
<title>Node11</title>
<g id="a_node11"><a xlink:title=" ">
<polygon fill="white" stroke="#bfbfbf" points="3,-224.5 3,-243.5 59,-243.5 59,-224.5 3,-224.5"/>
<text text-anchor="middle" x="31" y="-231.5" font-family="Helvetica,sans-Serif" font-size="10.00">stddef.h</text>
</a>
</g>
</g>
<!-- Node2&#45;&gt;Node11 -->
<g id="edge12" class="edge">
<title>Node2&#45;&gt;Node11</title>
<path fill="none" stroke="midnightblue" d="M398.96,-392.42C335.1,-365.1 136.18,-280 60.57,-247.65"/>
<polygon fill="midnightblue" stroke="midnightblue" points="61.73,-244.34 51.16,-243.62 58.97,-250.78 61.73,-244.34"/>
</g>
<!-- Node12 -->
<g id="node12" class="node">
<title>Node12</title>
<g id="a_node12"><a xlink:href="bits_2socket_8h.html" target="_top" xlink:title=" ">
<polygon fill="white" stroke="black" points="380,-336.5 380,-355.5 458,-355.5 458,-336.5 380,-336.5"/>
<text text-anchor="middle" x="419" y="-343.5" font-family="Helvetica,sans-Serif" font-size="10.00">bits/socket.h</text>
</a>
</g>
</g>
<!-- Node2&#45;&gt;Node12 -->
<g id="edge13" class="edge">
<title>Node2&#45;&gt;Node12</title>
<path fill="none" stroke="midnightblue" d="M419,-392.08C419,-385.01 419,-374.86 419,-365.99"/>
<polygon fill="midnightblue" stroke="midnightblue" points="422.5,-365.75 419,-355.75 415.5,-365.75 422.5,-365.75"/>
</g>
<!-- Node4 -->
<g id="node4" class="node">
<title>Node4</title>
<g id="a_node4"><a xlink:href="stdc-predef_8h.html" target="_top" xlink:title=" ">
<polygon fill="white" stroke="black" points="567,-56.5 567,-75.5 647,-75.5 647,-56.5 567,-56.5"/>
<text text-anchor="middle" x="607" y="-63.5" font-family="Helvetica,sans-Serif" font-size="10.00">stdc&#45;predef.h</text>
</a>
</g>
</g>
<!-- Node3&#45;&gt;Node4 -->
<g id="edge3" class="edge">
<title>Node3&#45;&gt;Node4</title>
<path fill="none" stroke="midnightblue" d="M685.9,-112.32C671.1,-103.82 648.31,-90.73 631.02,-80.8"/>
<polygon fill="midnightblue" stroke="midnightblue" points="632.48,-77.6 622.07,-75.65 628.99,-83.67 632.48,-77.6"/>
</g>
<!-- Node5 -->
<g id="node5" class="node">
<title>Node5</title>
<g id="a_node5"><a xlink:href="cdefs_8h.html" target="_top" xlink:title=" ">
<polygon fill="white" stroke="black" points="665.5,-56.5 665.5,-75.5 736.5,-75.5 736.5,-56.5 665.5,-56.5"/>
<text text-anchor="middle" x="701" y="-63.5" font-family="Helvetica,sans-Serif" font-size="10.00">sys/cdefs.h</text>
</a>
</g>
</g>
<!-- Node3&#45;&gt;Node5 -->
<g id="edge4" class="edge">
<title>Node3&#45;&gt;Node5</title>
<path fill="none" stroke="midnightblue" d="M695.83,-112.08C694.32,-104.93 693.89,-94.64 694.54,-85.69"/>
<polygon fill="midnightblue" stroke="midnightblue" points="698.02,-86.13 695.87,-75.75 691.08,-85.2 698.02,-86.13"/>
</g>
<!-- Node8 -->
<g id="node8" class="node">
<title>Node8</title>
<g id="a_node8"><a xlink:href="stubs_8h.html" target="_top" xlink:title=" ">
<polygon fill="white" stroke="black" points="766.5,-56.5 766.5,-75.5 839.5,-75.5 839.5,-56.5 766.5,-56.5"/>
<text text-anchor="middle" x="803" y="-63.5" font-family="Helvetica,sans-Serif" font-size="10.00">gnu/stubs.h</text>
</a>
</g>
</g>
<!-- Node3&#45;&gt;Node8 -->
<g id="edge8" class="edge">
<title>Node3&#45;&gt;Node8</title>
<path fill="none" stroke="midnightblue" d="M717.39,-112.32C733.67,-103.7 758.87,-90.36 777.72,-80.39"/>
<polygon fill="midnightblue" stroke="midnightblue" points="779.45,-83.43 786.65,-75.65 776.18,-77.24 779.45,-83.43"/>
</g>
<!-- Node5&#45;&gt;Node3 -->
<g id="edge5" class="edge">
<title>Node5&#45;&gt;Node3</title>
<path fill="none" stroke="midnightblue" d="M706.13,-75.75C707.66,-82.86 708.1,-93.14 707.47,-102.1"/>
<polygon fill="midnightblue" stroke="midnightblue" points="703.99,-101.71 706.17,-112.08 710.93,-102.62 703.99,-101.71"/>
</g>
<!-- Node6 -->
<g id="node6" class="node">
<title>Node6</title>
<g id="a_node6"><a xlink:href="wordsize_8h.html" target="_top" xlink:title=" ">
<polygon fill="white" stroke="black" points="464,-0.5 464,-19.5 554,-19.5 554,-0.5 464,-0.5"/>
<text text-anchor="middle" x="509" y="-7.5" font-family="Helvetica,sans-Serif" font-size="10.00">bits/wordsize.h</text>
</a>
</g>
</g>
<!-- Node5&#45;&gt;Node6 -->
<g id="edge6" class="edge">
<title>Node5&#45;&gt;Node6</title>
<path fill="none" stroke="midnightblue" d="M670.58,-56.44C637.72,-47.2 585.22,-32.44 549.03,-22.26"/>
<polygon fill="midnightblue" stroke="midnightblue" points="549.85,-18.85 539.28,-19.52 547.96,-25.59 549.85,-18.85"/>
</g>
<!-- Node7 -->
<g id="node7" class="node">
<title>Node7</title>
<g id="a_node7"><a xlink:href="long-double_8h.html" target="_top" xlink:title=" ">
<polygon fill="white" stroke="black" points="642,-0.5 642,-19.5 746,-19.5 746,-0.5 642,-0.5"/>
<text text-anchor="middle" x="694" y="-7.5" font-family="Helvetica,sans-Serif" font-size="10.00">bits/long&#45;double.h</text>
</a>
</g>
</g>
<!-- Node5&#45;&gt;Node7 -->
<g id="edge7" class="edge">
<title>Node5&#45;&gt;Node7</title>
<path fill="none" stroke="midnightblue" d="M699.84,-56.08C698.92,-48.93 697.58,-38.64 696.42,-29.69"/>
<polygon fill="midnightblue" stroke="midnightblue" points="699.89,-29.22 695.13,-19.75 692.95,-30.12 699.89,-29.22"/>
</g>
<!-- Node9 -->
<g id="node9" class="node">
<title>Node9</title>
<g id="a_node9"><a xlink:title=" ">
<polygon fill="white" stroke="#bfbfbf" points="764.5,-0.5 764.5,-19.5 853.5,-19.5 853.5,-0.5 764.5,-0.5"/>
<text text-anchor="middle" x="809" y="-7.5" font-family="Helvetica,sans-Serif" font-size="10.00">gnu/stubs&#45;32.h</text>
</a>
</g>
</g>
<!-- Node8&#45;&gt;Node9 -->
<g id="edge9" class="edge">
<title>Node8&#45;&gt;Node9</title>
<path fill="none" stroke="midnightblue" d="M803.99,-56.08C804.79,-48.93 805.93,-38.64 806.92,-29.69"/>
<polygon fill="midnightblue" stroke="midnightblue" points="810.4,-30.08 808.03,-19.75 803.44,-29.3 810.4,-30.08"/>
</g>
<!-- Node10&#45;&gt;Node11 -->
<g id="edge11" class="edge">
<title>Node10&#45;&gt;Node11</title>
<path fill="none" stroke="midnightblue" d="M65.1,-336.37C59.1,-318.54 45.23,-277.3 37.15,-253.27"/>
<polygon fill="midnightblue" stroke="midnightblue" points="40.4,-251.95 33.89,-243.59 33.76,-254.19 40.4,-251.95"/>
</g>
<!-- Node12&#45;&gt;Node11 -->
<g id="edge14" class="edge">
<title>Node12&#45;&gt;Node11</title>
<path fill="none" stroke="midnightblue" d="M383.13,-336.43C348.74,-327.98 295.48,-314.29 250,-300 225.19,-292.2 219.78,-287.89 195,-280 152.17,-266.36 102.28,-253.03 68.87,-244.46"/>
<polygon fill="midnightblue" stroke="midnightblue" points="69.61,-241.04 59.06,-241.96 67.89,-247.82 69.61,-241.04"/>
</g>
<!-- Node13 -->
<g id="node13" class="node">
<title>Node13</title>
<g id="a_node13"><a xlink:href="sys_2types_8h.html" target="_top" xlink:title=" ">
<polygon fill="white" stroke="black" points="383,-280.5 383,-299.5 455,-299.5 455,-280.5 383,-280.5"/>
<text text-anchor="middle" x="419" y="-287.5" font-family="Helvetica,sans-Serif" font-size="10.00">sys/types.h</text>
</a>
</g>
</g>
<!-- Node12&#45;&gt;Node13 -->
<g id="edge15" class="edge">
<title>Node12&#45;&gt;Node13</title>
<path fill="none" stroke="midnightblue" d="M419,-336.08C419,-329.01 419,-318.86 419,-309.99"/>
<polygon fill="midnightblue" stroke="midnightblue" points="422.5,-309.75 419,-299.75 415.5,-309.75 422.5,-309.75"/>
</g>
<!-- Node22 -->
<g id="node22" class="node">
<title>Node22</title>
<g id="a_node22"><a xlink:href="socket__type_8h.html" target="_top" xlink:title=" ">
<polygon fill="white" stroke="black" points="259.5,-280.5 259.5,-299.5 364.5,-299.5 364.5,-280.5 259.5,-280.5"/>
<text text-anchor="middle" x="312" y="-287.5" font-family="Helvetica,sans-Serif" font-size="10.00">bits/socket_type.h</text>
</a>
</g>
</g>
<!-- Node12&#45;&gt;Node22 -->
<g id="edge32" class="edge">
<title>Node12&#45;&gt;Node22</title>
<path fill="none" stroke="midnightblue" d="M401.81,-336.32C384.65,-327.66 358.05,-314.24 338.25,-304.25"/>
<polygon fill="midnightblue" stroke="midnightblue" points="339.65,-301.04 329.15,-299.65 336.5,-307.28 339.65,-301.04"/>
</g>
<!-- Node23 -->
<g id="node23" class="node">
<title>Node23</title>
<g id="a_node23"><a xlink:href="sockaddr_8h.html" target="_top" xlink:title=" ">
<polygon fill="white" stroke="black" points="701.5,-280.5 701.5,-299.5 790.5,-299.5 790.5,-280.5 701.5,-280.5"/>
<text text-anchor="middle" x="746" y="-287.5" font-family="Helvetica,sans-Serif" font-size="10.00">bits/sockaddr.h</text>
</a>
</g>
</g>
<!-- Node12&#45;&gt;Node23 -->
<g id="edge33" class="edge">
<title>Node12&#45;&gt;Node23</title>
<path fill="none" stroke="midnightblue" d="M458.12,-338.54C516.13,-328.96 625.19,-310.95 691.15,-300.06"/>
<polygon fill="midnightblue" stroke="midnightblue" points="692.06,-303.46 701.35,-298.37 690.92,-296.55 692.06,-303.46"/>
</g>
<!-- Node24 -->
<g id="node24" class="node">
<title>Node24</title>
<g id="a_node24"><a xlink:href="socket-constants_8h.html" target="_top" xlink:title=" ">
<polygon fill="white" stroke="black" points="661.5,-168.5 661.5,-187.5 790.5,-187.5 790.5,-168.5 661.5,-168.5"/>
<text text-anchor="middle" x="726" y="-175.5" font-family="Helvetica,sans-Serif" font-size="10.00">bits/socket&#45;constants.h</text>
</a>
</g>
</g>
<!-- Node12&#45;&gt;Node24 -->
<g id="edge34" class="edge">
<title>Node12&#45;&gt;Node24</title>
<path fill="none" stroke="midnightblue" d="M441.51,-336.4C482.06,-320.52 569.53,-284.5 638,-244 663.48,-228.93 690.54,-208.12 707.83,-194.14"/>
<polygon fill="midnightblue" stroke="midnightblue" points="710.39,-196.57 715.91,-187.53 705.96,-191.15 710.39,-196.57"/>
</g>
<!-- Node13&#45;&gt;Node3 -->
<g id="edge16" class="edge">
<title>Node13&#45;&gt;Node3</title>
<path fill="none" stroke="midnightblue" d="M455.33,-289.73C498.17,-288.72 569.43,-280.98 616,-244 645.42,-220.64 630.7,-198.24 653,-168 661.18,-156.91 672.31,-146.27 681.8,-138.13"/>
<polygon fill="midnightblue" stroke="midnightblue" points="684.13,-140.75 689.59,-131.67 679.66,-135.36 684.13,-140.75"/>
</g>
<!-- Node13&#45;&gt;Node11 -->
<g id="edge29" class="edge">
<title>Node13&#45;&gt;Node11</title>
<path fill="none" stroke="midnightblue" d="M382.89,-281.67C379.55,-281.07 376.22,-280.5 373,-280 241.31,-259.38 204.07,-267.76 69.1,-244"/>
<polygon fill="midnightblue" stroke="midnightblue" points="69.67,-240.55 59.21,-242.23 68.44,-247.44 69.67,-240.55"/>
</g>
<!-- Node14 -->
<g id="node14" class="node">
<title>Node14</title>
<g id="a_node14"><a xlink:href="bits_2types_8h.html" target="_top" xlink:title=" ">
<polygon fill="white" stroke="black" points="384,-168.5 384,-187.5 458,-187.5 458,-168.5 384,-168.5"/>
<text text-anchor="middle" x="421" y="-175.5" font-family="Helvetica,sans-Serif" font-size="10.00">bits/types.h</text>
</a>
</g>
</g>
<!-- Node13&#45;&gt;Node14 -->
<g id="edge17" class="edge">
<title>Node13&#45;&gt;Node14</title>
<path fill="none" stroke="midnightblue" d="M397.38,-280.32C373.13,-269.18 338.8,-248.37 352,-224 359.75,-209.7 374.23,-199.22 387.94,-191.99"/>
<polygon fill="midnightblue" stroke="midnightblue" points="389.74,-195.01 397.21,-187.5 386.69,-188.71 389.74,-195.01"/>
</g>
<!-- Node18 -->
<g id="node18" class="node">
<title>Node18</title>
<g id="a_node18"><a xlink:href="clockid__t_8h.html" target="_top" xlink:title=" ">
<polygon fill="white" stroke="black" points="361,-224.5 361,-243.5 481,-243.5 481,-224.5 361,-224.5"/>
<text text-anchor="middle" x="421" y="-231.5" font-family="Helvetica,sans-Serif" font-size="10.00">bits/types/clockid_t.h</text>
</a>
</g>
</g>
<!-- Node13&#45;&gt;Node18 -->
<g id="edge23" class="edge">
<title>Node13&#45;&gt;Node18</title>
<path fill="none" stroke="midnightblue" d="M419.33,-280.08C419.59,-273.01 419.97,-262.86 420.3,-253.99"/>
<polygon fill="midnightblue" stroke="midnightblue" points="423.8,-253.87 420.68,-243.75 416.81,-253.61 423.8,-253.87"/>
</g>
<!-- Node19 -->
<g id="node19" class="node">
<title>Node19</title>
<g id="a_node19"><a xlink:href="time__t_8h.html" target="_top" xlink:title=" ">
<polygon fill="white" stroke="black" points="499,-224.5 499,-243.5 607,-243.5 607,-224.5 499,-224.5"/>
<text text-anchor="middle" x="553" y="-231.5" font-family="Helvetica,sans-Serif" font-size="10.00">bits/types/time_t.h</text>
</a>
</g>
</g>
<!-- Node13&#45;&gt;Node19 -->
<g id="edge25" class="edge">
<title>Node13&#45;&gt;Node19</title>
<path fill="none" stroke="midnightblue" d="M440.23,-280.44C462.38,-271.52 497.32,-257.44 522.44,-247.32"/>
<polygon fill="midnightblue" stroke="midnightblue" points="523.9,-250.5 531.87,-243.52 521.28,-244.01 523.9,-250.5"/>
</g>
<!-- Node20 -->
<g id="node20" class="node">
<title>Node20</title>
<g id="a_node20"><a xlink:href="timer__t_8h.html" target="_top" xlink:title=" ">
<polygon fill="white" stroke="black" points="77,-224.5 77,-243.5 189,-243.5 189,-224.5 77,-224.5"/>
<text text-anchor="middle" x="133" y="-231.5" font-family="Helvetica,sans-Serif" font-size="10.00">bits/types/timer_t.h</text>
</a>
</g>
</g>
<!-- Node13&#45;&gt;Node20 -->
<g id="edge27" class="edge">
<title>Node13&#45;&gt;Node20</title>
<path fill="none" stroke="midnightblue" d="M382.85,-281.9C379.52,-281.25 376.2,-280.61 373,-280 310.03,-267.94 237.7,-254.42 189.04,-245.38"/>
<polygon fill="midnightblue" stroke="midnightblue" points="189.5,-241.9 179.03,-243.52 188.22,-248.79 189.5,-241.9"/>
</g>
<!-- Node21 -->
<g id="node21" class="node">
<title>Node21</title>
<g id="a_node21"><a xlink:href="stdint-intn_8h.html" target="_top" xlink:title=" ">
<polygon fill="white" stroke="black" points="207.5,-224.5 207.5,-243.5 304.5,-243.5 304.5,-224.5 207.5,-224.5"/>
<text text-anchor="middle" x="256" y="-231.5" font-family="Helvetica,sans-Serif" font-size="10.00">bits/stdint&#45;intn.h</text>
</a>
</g>
</g>
<!-- Node13&#45;&gt;Node21 -->
<g id="edge30" class="edge">
<title>Node13&#45;&gt;Node21</title>
<path fill="none" stroke="midnightblue" d="M393.17,-280.44C365.75,-271.36 322.22,-256.94 291.57,-246.78"/>
<polygon fill="midnightblue" stroke="midnightblue" points="292.3,-243.34 281.71,-243.52 290.1,-249.98 292.3,-243.34"/>
</g>
<!-- Node14&#45;&gt;Node3 -->
<g id="edge18" class="edge">
<title>Node14&#45;&gt;Node3</title>
<path fill="none" stroke="midnightblue" d="M458.16,-170.26C503.02,-162.06 581.03,-147.61 657.29,-132.31"/>
<polygon fill="midnightblue" stroke="midnightblue" points="658.43,-135.65 667.54,-130.25 657.05,-128.79 658.43,-135.65"/>
</g>
<!-- Node14&#45;&gt;Node6 -->
<g id="edge19" class="edge">
<title>Node14&#45;&gt;Node6</title>
<path fill="none" stroke="midnightblue" d="M422.82,-168.29C425.67,-155.52 431.84,-131.18 441,-112 456.18,-80.22 480.4,-47.02 495.47,-27.72"/>
<polygon fill="midnightblue" stroke="midnightblue" points="498.4,-29.66 501.87,-19.65 492.91,-25.31 498.4,-29.66"/>
</g>
<!-- Node15 -->
<g id="node15" class="node">
<title>Node15</title>
<g id="a_node15"><a xlink:href="timesize_8h.html" target="_top" xlink:title=" ">
<polygon fill="white" stroke="black" points="560.5,-112.5 560.5,-131.5 649.5,-131.5 649.5,-112.5 560.5,-112.5"/>
<text text-anchor="middle" x="605" y="-119.5" font-family="Helvetica,sans-Serif" font-size="10.00">bits/timesize.h</text>
</a>
</g>
</g>
<!-- Node14&#45;&gt;Node15 -->
<g id="edge20" class="edge">
<title>Node14&#45;&gt;Node15</title>
<path fill="none" stroke="midnightblue" d="M450.16,-168.44C481.51,-159.24 531.53,-144.56 566.2,-134.39"/>
<polygon fill="midnightblue" stroke="midnightblue" points="567.37,-137.69 575.98,-131.52 565.4,-130.97 567.37,-137.69"/>
</g>
<!-- Node16 -->
<g id="node16" class="node">
<title>Node16</title>
<g id="a_node16"><a xlink:href="typesizes_8h.html" target="_top" xlink:title=" ">
<polygon fill="white" stroke="black" points="449.5,-112.5 449.5,-131.5 542.5,-131.5 542.5,-112.5 449.5,-112.5"/>
<text text-anchor="middle" x="496" y="-119.5" font-family="Helvetica,sans-Serif" font-size="10.00">bits/typesizes.h</text>
</a>
</g>
</g>
<!-- Node14&#45;&gt;Node16 -->
<g id="edge21" class="edge">
<title>Node14&#45;&gt;Node16</title>
<path fill="none" stroke="midnightblue" d="M433.05,-168.32C444.46,-160.11 461.83,-147.6 475.43,-137.81"/>
<polygon fill="midnightblue" stroke="midnightblue" points="477.66,-140.52 483.73,-131.83 473.57,-134.84 477.66,-140.52"/>
</g>
<!-- Node17 -->
<g id="node17" class="node">
<title>Node17</title>
<g id="a_node17"><a xlink:href="time64_8h.html" target="_top" xlink:title=" ">
<polygon fill="white" stroke="black" points="311.5,-112.5 311.5,-131.5 392.5,-131.5 392.5,-112.5 311.5,-112.5"/>
<text text-anchor="middle" x="352" y="-119.5" font-family="Helvetica,sans-Serif" font-size="10.00">bits/time64.h</text>
</a>
</g>
</g>
<!-- Node14&#45;&gt;Node17 -->
<g id="edge22" class="edge">
<title>Node14&#45;&gt;Node17</title>
<path fill="none" stroke="midnightblue" d="M409.91,-168.32C399.51,-160.18 383.74,-147.84 371.28,-138.09"/>
<polygon fill="midnightblue" stroke="midnightblue" points="373.32,-135.24 363.29,-131.83 369.01,-140.75 373.32,-135.24"/>
</g>
<!-- Node18&#45;&gt;Node14 -->
<g id="edge24" class="edge">
<title>Node18&#45;&gt;Node14</title>
<path fill="none" stroke="midnightblue" d="M421,-224.08C421,-217.01 421,-206.86 421,-197.99"/>
<polygon fill="midnightblue" stroke="midnightblue" points="424.5,-197.75 421,-187.75 417.5,-197.75 424.5,-197.75"/>
</g>
<!-- Node19&#45;&gt;Node14 -->
<g id="edge26" class="edge">
<title>Node19&#45;&gt;Node14</title>
<path fill="none" stroke="midnightblue" d="M532.08,-224.44C510.26,-215.52 475.85,-201.44 451.11,-191.32"/>
<polygon fill="midnightblue" stroke="midnightblue" points="452.4,-188.06 441.82,-187.52 449.75,-194.54 452.4,-188.06"/>
</g>
<!-- Node20&#45;&gt;Node14 -->
<g id="edge28" class="edge">
<title>Node20&#45;&gt;Node14</title>
<path fill="none" stroke="midnightblue" d="M178.63,-224.44C231.98,-214.44 319.82,-197.97 373.82,-187.85"/>
<polygon fill="midnightblue" stroke="midnightblue" points="374.64,-191.25 383.82,-185.97 373.35,-184.37 374.64,-191.25"/>
</g>
<!-- Node21&#45;&gt;Node14 -->
<g id="edge31" class="edge">
<title>Node21&#45;&gt;Node14</title>
<path fill="none" stroke="midnightblue" d="M282.14,-224.44C310.02,-215.32 354.35,-200.81 385.4,-190.65"/>
<polygon fill="midnightblue" stroke="midnightblue" points="386.56,-193.95 394.98,-187.52 384.38,-187.3 386.56,-193.95"/>
</g>
<!-- Node24&#45;&gt;Node15 -->
<g id="edge35" class="edge">
<title>Node24&#45;&gt;Node15</title>
<path fill="none" stroke="midnightblue" d="M706.83,-168.44C687.09,-159.64 656.11,-145.81 633.51,-135.72"/>
<polygon fill="midnightblue" stroke="midnightblue" points="634.64,-132.4 624.08,-131.52 631.79,-138.79 634.64,-132.4"/>
</g>
<!-- Node25&#45;&gt;Node3 -->
<g id="edge37" class="edge">
<title>Node25&#45;&gt;Node3</title>
<path fill="none" stroke="midnightblue" d="M884.14,-336.27C884.13,-307.94 880.22,-217.54 833,-168 809.87,-143.73 773.13,-132.55 744.28,-127.4"/>
<polygon fill="midnightblue" stroke="midnightblue" points="744.48,-123.88 734.05,-125.76 743.37,-130.8 744.48,-123.88"/>
</g>
<!-- Node25&#45;&gt;Node23 -->
<g id="edge38" class="edge">
<title>Node25&#45;&gt;Node23</title>
<path fill="none" stroke="midnightblue" d="M862.13,-336.44C839.22,-327.48 803.02,-313.31 777.13,-303.18"/>
<polygon fill="midnightblue" stroke="midnightblue" points="778.35,-299.9 767.76,-299.52 775.8,-306.42 778.35,-299.9"/>
</g>
</g>
</svg>
        <g id="navigator" transform="translate(0 0)" fill="#404254">
                <rect fill="#f2f5e9" fill-opacity="0.5" stroke="#606060" stroke-width=".5" x="0" y="0" width="60" height="60"/>
                <use id="zoomplus" xlink:href="#zoomPlus" x="17" y="9" onmousedown="handleZoom(evt,'in')"/>
                <use id="zoomminus" xlink:href="#zoomMin" x="42" y="9" onmousedown="handleZoom(evt,'out')"/>
                <use id="reset" xlink:href="#resetDef" x="30" y="36" onmousedown="handleReset()"/>
                <g id="arrowUp" xlink:href="#dirArrow" transform="translate(30 24)" onmousedown="handlePan(0,-1)">
                  <use xlink:href="#rim" fill="#404040">
                        <set attributeName="fill" to="#808080" begin="arrowUp.mouseover" end="arrowUp.mouseout"/>
                  </use>
                  <path fill="none" stroke="white" stroke-width="1.5" d="M0,-3.0v7 M-2.5,-0.5L0,-3.0L2.5,-0.5"/>
                </g>
                <g id="arrowRight" xlink:href="#dirArrow" transform="rotate(90) translate(36 -43)" onmousedown="handlePan(1,0)">
                  <use xlink:href="#rim" fill="#404040">
                        <set attributeName="fill" to="#808080" begin="arrowRight.mouseover" end="arrowRight.mouseout"/>
                  </use>
                  <path fill="none" stroke="white" stroke-width="1.5" d="M0,-3.0v7 M-2.5,-0.5L0,-3.0L2.5,-0.5"/>
                </g>
                <g id="arrowDown" xlink:href="#dirArrow" transform="rotate(180) translate(-30 -48)" onmousedown="handlePan(0,1)">
                  <use xlink:href="#rim" fill="#404040">
                        <set attributeName="fill" to="#808080" begin="arrowDown.mouseover" end="arrowDown.mouseout"/>
                  </use>
                  <path fill="none" stroke="white" stroke-width="1.5" d="M0,-3.0v7 M-2.5,-0.5L0,-3.0L2.5,-0.5"/>
                </g>
                <g id="arrowLeft" xlink:href="#dirArrow" transform="rotate(270) translate(-36 17)" onmousedown="handlePan(-1,0)">
                  <use xlink:href="#rim" fill="#404040">
                        <set attributeName="fill" to="#808080" begin="arrowLeft.mouseover" end="arrowLeft.mouseout"/>
                  </use>
                  <path fill="none" stroke="white" stroke-width="1.5" d="M0,-3.0v7 M-2.5,-0.5L0,-3.0L2.5,-0.5"/>
                </g>
        </g>
        <svg viewBox="0 0 15 15" width="100%" height="30px" preserveAspectRatio="xMaxYMin meet">
         <g id="arrow_out" transform="scale(0.3 0.3)">
          <a xlink:href="rose_8h__incl_org.svg" target="_base">
           <rect id="button" ry="5" rx="5" y="6" x="6" height="38" width="38"
                fill="#f2f5e9" fill-opacity="0.5" stroke="#606060" stroke-width="1.0"/>
           <path id="arrow"
             d="M 11.500037,31.436501 C 11.940474,20.09759 22.043105,11.32322 32.158766,21.979434 L 37.068811,17.246167 C 37.068811,17.246167 37.088388,32 37.088388,32 L 22.160133,31.978069 C 22.160133,31.978069 26.997745,27.140456 26.997745,27.140456 C 18.528582,18.264221 13.291696,25.230495 11.500037,31.436501 z"
             style="fill:#404040;"/>
          </a>
         </g>
        </svg>
</svg>
