<?xml version="1.0" encoding="UTF-8" standalone="no"?>
<!DOCTYPE svg PUBLIC "-//W3C//DTD SVG 1.1//EN"
 "http://www.w3.org/Graphics/SVG/1.1/DTD/svg11.dtd">
<!-- Generated by graphviz version 2.44.1 (0)
 -->
<!-- Title: semaphore.h Pages: 1 -->
<svg width="955pt" height="364pt"
 viewBox="0.00 0.00 955.00 364.00" xmlns="http://www.w3.org/2000/svg" xmlns:xlink="http://www.w3.org/1999/xlink">
<g id="graph0" class="graph" transform="scale(1 1) rotate(0) translate(4 360)">
<title>semaphore.h</title>
<polygon fill="white" stroke="transparent" points="-4,4 -4,-360 951,-360 951,4 -4,4"/>
<!-- Node1 -->
<g id="node1" class="node">
<title>Node1</title>
<g id="a_node1"><a xlink:title=" ">
<polygon fill="#bfbfbf" stroke="black" points="568.5,-336.5 568.5,-355.5 648.5,-355.5 648.5,-336.5 568.5,-336.5"/>
<text text-anchor="middle" x="608.5" y="-343.5" font-family="Helvetica,sans-Serif" font-size="10.00">semaphore.h</text>
</a>
</g>
</g>
<!-- Node2 -->
<g id="node2" class="node">
<title>Node2</title>
<g id="a_node2"><a xlink:href="features_8h.html" target="_top" xlink:title=" ">
<polygon fill="white" stroke="black" points="106.5,-112.5 106.5,-131.5 172.5,-131.5 172.5,-112.5 106.5,-112.5"/>
<text text-anchor="middle" x="139.5" y="-119.5" font-family="Helvetica,sans-Serif" font-size="10.00">features.h</text>
</a>
</g>
</g>
<!-- Node1&#45;&gt;Node2 -->
<g id="edge1" class="edge">
<title>Node1&#45;&gt;Node2</title>
<path fill="none" stroke="midnightblue" d="M568.24,-343.26C459.48,-337.63 163.95,-315.87 105.5,-244 99.54,-236.68 93.79,-208.42 107.5,-168 111.03,-157.6 117.81,-147.5 124.22,-139.51"/>
<polygon fill="midnightblue" stroke="midnightblue" points="127.01,-141.62 130.86,-131.75 121.7,-137.07 127.01,-141.62"/>
</g>
<!-- Node9 -->
<g id="node9" class="node">
<title>Node9</title>
<g id="a_node9"><a xlink:href="sys_2types_8h.html" target="_top" xlink:title=" ">
<polygon fill="white" stroke="black" points="383.5,-280.5 383.5,-299.5 455.5,-299.5 455.5,-280.5 383.5,-280.5"/>
<text text-anchor="middle" x="419.5" y="-287.5" font-family="Helvetica,sans-Serif" font-size="10.00">sys/types.h</text>
</a>
</g>
</g>
<!-- Node1&#45;&gt;Node9 -->
<g id="edge9" class="edge">
<title>Node1&#45;&gt;Node9</title>
<path fill="none" stroke="midnightblue" d="M578.55,-336.44C546.34,-327.24 494.97,-312.56 459.36,-302.39"/>
<polygon fill="midnightblue" stroke="midnightblue" points="459.88,-298.9 449.31,-299.52 457.96,-305.63 459.88,-298.9"/>
</g>
<!-- Node19 -->
<g id="node19" class="node">
<title>Node19</title>
<g id="a_node19"><a xlink:href="struct__timespec_8h.html" target="_top" xlink:title=" ">
<polygon fill="white" stroke="black" points="683,-280.5 683,-299.5 838,-299.5 838,-280.5 683,-280.5"/>
<text text-anchor="middle" x="760.5" y="-287.5" font-family="Helvetica,sans-Serif" font-size="10.00">bits/types/struct_timespec.h</text>
</a>
</g>
</g>
<!-- Node1&#45;&gt;Node19 -->
<g id="edge26" class="edge">
<title>Node1&#45;&gt;Node19</title>
<path fill="none" stroke="midnightblue" d="M632.58,-336.44C658.04,-327.4 698.39,-313.06 726.96,-302.92"/>
<polygon fill="midnightblue" stroke="midnightblue" points="728.28,-306.16 736.53,-299.52 725.93,-299.57 728.28,-306.16"/>
</g>
<!-- Node22 -->
<g id="node22" class="node">
<title>Node22</title>
<g id="a_node22"><a xlink:href="bits_2semaphore_8h.html" target="_top" xlink:title=" ">
<polygon fill="white" stroke="black" points="846,-168.5 846,-187.5 947,-187.5 947,-168.5 846,-168.5"/>
<text text-anchor="middle" x="896.5" y="-175.5" font-family="Helvetica,sans-Serif" font-size="10.00">bits/semaphore.h</text>
</a>
</g>
</g>
<!-- Node1&#45;&gt;Node22 -->
<g id="edge30" class="edge">
<title>Node1&#45;&gt;Node22</title>
<path fill="none" stroke="midnightblue" d="M648.61,-341.63C708.19,-335.95 816.43,-322.78 847.5,-300 880.61,-275.73 891.4,-225.23 894.87,-197.77"/>
<polygon fill="midnightblue" stroke="midnightblue" points="898.38,-197.87 895.96,-187.55 891.42,-197.13 898.38,-197.87"/>
</g>
<!-- Node3 -->
<g id="node3" class="node">
<title>Node3</title>
<g id="a_node3"><a xlink:href="stdc-predef_8h.html" target="_top" xlink:title=" ">
<polygon fill="white" stroke="black" points="99.5,-56.5 99.5,-75.5 179.5,-75.5 179.5,-56.5 99.5,-56.5"/>
<text text-anchor="middle" x="139.5" y="-63.5" font-family="Helvetica,sans-Serif" font-size="10.00">stdc&#45;predef.h</text>
</a>
</g>
</g>
<!-- Node2&#45;&gt;Node3 -->
<g id="edge2" class="edge">
<title>Node2&#45;&gt;Node3</title>
<path fill="none" stroke="midnightblue" d="M139.5,-112.08C139.5,-105.01 139.5,-94.86 139.5,-85.99"/>
<polygon fill="midnightblue" stroke="midnightblue" points="143,-85.75 139.5,-75.75 136,-85.75 143,-85.75"/>
</g>
<!-- Node4 -->
<g id="node4" class="node">
<title>Node4</title>
<g id="a_node4"><a xlink:href="cdefs_8h.html" target="_top" xlink:title=" ">
<polygon fill="white" stroke="black" points="198,-56.5 198,-75.5 269,-75.5 269,-56.5 198,-56.5"/>
<text text-anchor="middle" x="233.5" y="-63.5" font-family="Helvetica,sans-Serif" font-size="10.00">sys/cdefs.h</text>
</a>
</g>
</g>
<!-- Node2&#45;&gt;Node4 -->
<g id="edge3" class="edge">
<title>Node2&#45;&gt;Node4</title>
<path fill="none" stroke="midnightblue" d="M149.49,-112.32C162.63,-103.7 185.58,-90.36 204.28,-80.39"/>
<polygon fill="midnightblue" stroke="midnightblue" points="206.09,-83.39 213.32,-75.65 202.84,-77.19 206.09,-83.39"/>
</g>
<!-- Node7 -->
<g id="node7" class="node">
<title>Node7</title>
<g id="a_node7"><a xlink:href="stubs_8h.html" target="_top" xlink:title=" ">
<polygon fill="white" stroke="black" points="8,-56.5 8,-75.5 81,-75.5 81,-56.5 8,-56.5"/>
<text text-anchor="middle" x="44.5" y="-63.5" font-family="Helvetica,sans-Serif" font-size="10.00">gnu/stubs.h</text>
</a>
</g>
</g>
<!-- Node2&#45;&gt;Node7 -->
<g id="edge7" class="edge">
<title>Node2&#45;&gt;Node7</title>
<path fill="none" stroke="midnightblue" d="M124.24,-112.32C109.28,-103.82 86.25,-90.73 68.77,-80.8"/>
<polygon fill="midnightblue" stroke="midnightblue" points="70.15,-77.55 59.73,-75.65 66.69,-83.64 70.15,-77.55"/>
</g>
<!-- Node4&#45;&gt;Node2 -->
<g id="edge4" class="edge">
<title>Node4&#45;&gt;Node2</title>
<path fill="none" stroke="midnightblue" d="M223.54,-75.65C210.42,-84.27 187.47,-97.61 168.77,-107.59"/>
<polygon fill="midnightblue" stroke="midnightblue" points="166.96,-104.59 159.72,-112.32 170.2,-110.79 166.96,-104.59"/>
</g>
<!-- Node5 -->
<g id="node5" class="node">
<title>Node5</title>
<g id="a_node5"><a xlink:href="wordsize_8h.html" target="_top" xlink:title=" ">
<polygon fill="white" stroke="black" points="550.5,-0.5 550.5,-19.5 640.5,-19.5 640.5,-0.5 550.5,-0.5"/>
<text text-anchor="middle" x="595.5" y="-7.5" font-family="Helvetica,sans-Serif" font-size="10.00">bits/wordsize.h</text>
</a>
</g>
</g>
<!-- Node4&#45;&gt;Node5 -->
<g id="edge5" class="edge">
<title>Node4&#45;&gt;Node5</title>
<path fill="none" stroke="midnightblue" d="M269.2,-59.67C332.49,-50.23 464.76,-30.5 540.01,-19.28"/>
<polygon fill="midnightblue" stroke="midnightblue" points="540.87,-22.69 550.24,-17.75 539.83,-15.77 540.87,-22.69"/>
</g>
<!-- Node6 -->
<g id="node6" class="node">
<title>Node6</title>
<g id="a_node6"><a xlink:href="long-double_8h.html" target="_top" xlink:title=" ">
<polygon fill="white" stroke="black" points="181.5,-0.5 181.5,-19.5 285.5,-19.5 285.5,-0.5 181.5,-0.5"/>
<text text-anchor="middle" x="233.5" y="-7.5" font-family="Helvetica,sans-Serif" font-size="10.00">bits/long&#45;double.h</text>
</a>
</g>
</g>
<!-- Node4&#45;&gt;Node6 -->
<g id="edge6" class="edge">
<title>Node4&#45;&gt;Node6</title>
<path fill="none" stroke="midnightblue" d="M233.5,-56.08C233.5,-49.01 233.5,-38.86 233.5,-29.99"/>
<polygon fill="midnightblue" stroke="midnightblue" points="237,-29.75 233.5,-19.75 230,-29.75 237,-29.75"/>
</g>
<!-- Node8 -->
<g id="node8" class="node">
<title>Node8</title>
<g id="a_node8"><a xlink:title=" ">
<polygon fill="white" stroke="#bfbfbf" points="0,-0.5 0,-19.5 89,-19.5 89,-0.5 0,-0.5"/>
<text text-anchor="middle" x="44.5" y="-7.5" font-family="Helvetica,sans-Serif" font-size="10.00">gnu/stubs&#45;32.h</text>
</a>
</g>
</g>
<!-- Node7&#45;&gt;Node8 -->
<g id="edge8" class="edge">
<title>Node7&#45;&gt;Node8</title>
<path fill="none" stroke="midnightblue" d="M44.5,-56.08C44.5,-49.01 44.5,-38.86 44.5,-29.99"/>
<polygon fill="midnightblue" stroke="midnightblue" points="48,-29.75 44.5,-19.75 41,-29.75 48,-29.75"/>
</g>
<!-- Node9&#45;&gt;Node2 -->
<g id="edge10" class="edge">
<title>Node9&#45;&gt;Node2</title>
<path fill="none" stroke="midnightblue" d="M383.34,-289.19C311.14,-288.71 153.18,-283.11 119.5,-244 94.35,-214.8 114.76,-166.41 128.87,-140.56"/>
<polygon fill="midnightblue" stroke="midnightblue" points="132.1,-141.97 134.04,-131.56 126.03,-138.49 132.1,-141.97"/>
</g>
<!-- Node10 -->
<g id="node10" class="node">
<title>Node10</title>
<g id="a_node10"><a xlink:href="bits_2types_8h.html" target="_top" xlink:title=" ">
<polygon fill="white" stroke="black" points="421.5,-168.5 421.5,-187.5 495.5,-187.5 495.5,-168.5 421.5,-168.5"/>
<text text-anchor="middle" x="458.5" y="-175.5" font-family="Helvetica,sans-Serif" font-size="10.00">bits/types.h</text>
</a>
</g>
</g>
<!-- Node9&#45;&gt;Node10 -->
<g id="edge11" class="edge">
<title>Node9&#45;&gt;Node10</title>
<path fill="none" stroke="midnightblue" d="M423.84,-280.18C428.16,-271.21 434.79,-256.84 439.5,-244 445.19,-228.48 450.36,-210.39 453.87,-197.25"/>
<polygon fill="midnightblue" stroke="midnightblue" points="457.27,-198.09 456.4,-187.53 450.49,-196.33 457.27,-198.09"/>
</g>
<!-- Node14 -->
<g id="node14" class="node">
<title>Node14</title>
<g id="a_node14"><a xlink:href="clockid__t_8h.html" target="_top" xlink:title=" ">
<polygon fill="white" stroke="black" points="486.5,-224.5 486.5,-243.5 606.5,-243.5 606.5,-224.5 486.5,-224.5"/>
<text text-anchor="middle" x="546.5" y="-231.5" font-family="Helvetica,sans-Serif" font-size="10.00">bits/types/clockid_t.h</text>
</a>
</g>
</g>
<!-- Node9&#45;&gt;Node14 -->
<g id="edge17" class="edge">
<title>Node9&#45;&gt;Node14</title>
<path fill="none" stroke="midnightblue" d="M439.62,-280.44C460.52,-271.56 493.43,-257.56 517.22,-247.45"/>
<polygon fill="midnightblue" stroke="midnightblue" points="518.64,-250.65 526.47,-243.52 515.9,-244.21 518.64,-250.65"/>
</g>
<!-- Node15 -->
<g id="node15" class="node">
<title>Node15</title>
<g id="a_node15"><a xlink:href="time__t_8h.html" target="_top" xlink:title=" ">
<polygon fill="white" stroke="black" points="624.5,-224.5 624.5,-243.5 732.5,-243.5 732.5,-224.5 624.5,-224.5"/>
<text text-anchor="middle" x="678.5" y="-231.5" font-family="Helvetica,sans-Serif" font-size="10.00">bits/types/time_t.h</text>
</a>
</g>
</g>
<!-- Node9&#45;&gt;Node15 -->
<g id="edge19" class="edge">
<title>Node9&#45;&gt;Node15</title>
<path fill="none" stroke="midnightblue" d="M455.51,-281.49C500.25,-272.16 576.85,-256.19 627.58,-245.62"/>
<polygon fill="midnightblue" stroke="midnightblue" points="628.6,-248.98 637.67,-243.51 627.17,-242.13 628.6,-248.98"/>
</g>
<!-- Node16 -->
<g id="node16" class="node">
<title>Node16</title>
<g id="a_node16"><a xlink:href="timer__t_8h.html" target="_top" xlink:title=" ">
<polygon fill="white" stroke="black" points="202.5,-224.5 202.5,-243.5 314.5,-243.5 314.5,-224.5 202.5,-224.5"/>
<text text-anchor="middle" x="258.5" y="-231.5" font-family="Helvetica,sans-Serif" font-size="10.00">bits/types/timer_t.h</text>
</a>
</g>
</g>
<!-- Node9&#45;&gt;Node16 -->
<g id="edge21" class="edge">
<title>Node9&#45;&gt;Node16</title>
<path fill="none" stroke="midnightblue" d="M393.99,-280.44C366.9,-271.36 323.91,-256.94 293.63,-246.78"/>
<polygon fill="midnightblue" stroke="midnightblue" points="294.49,-243.38 283.89,-243.52 292.26,-250.01 294.49,-243.38"/>
</g>
<!-- Node17 -->
<g id="node17" class="node">
<title>Node17</title>
<g id="a_node17"><a xlink:title=" ">
<polygon fill="white" stroke="#bfbfbf" points="128.5,-224.5 128.5,-243.5 184.5,-243.5 184.5,-224.5 128.5,-224.5"/>
<text text-anchor="middle" x="156.5" y="-231.5" font-family="Helvetica,sans-Serif" font-size="10.00">stddef.h</text>
</a>
</g>
</g>
<!-- Node9&#45;&gt;Node17 -->
<g id="edge23" class="edge">
<title>Node9&#45;&gt;Node17</title>
<path fill="none" stroke="midnightblue" d="M383.39,-282.3C340.7,-274.26 267.27,-260.11 194.95,-244.25"/>
<polygon fill="midnightblue" stroke="midnightblue" points="195.27,-240.74 184.75,-242 193.76,-247.57 195.27,-240.74"/>
</g>
<!-- Node18 -->
<g id="node18" class="node">
<title>Node18</title>
<g id="a_node18"><a xlink:href="stdint-intn_8h.html" target="_top" xlink:title=" ">
<polygon fill="white" stroke="black" points="333,-224.5 333,-243.5 430,-243.5 430,-224.5 333,-224.5"/>
<text text-anchor="middle" x="381.5" y="-231.5" font-family="Helvetica,sans-Serif" font-size="10.00">bits/stdint&#45;intn.h</text>
</a>
</g>
</g>
<!-- Node9&#45;&gt;Node18 -->
<g id="edge24" class="edge">
<title>Node9&#45;&gt;Node18</title>
<path fill="none" stroke="midnightblue" d="M413.23,-280.08C407.86,-272.46 399.98,-261.26 393.42,-251.94"/>
<polygon fill="midnightblue" stroke="midnightblue" points="396.28,-249.91 387.66,-243.75 390.55,-253.94 396.28,-249.91"/>
</g>
<!-- Node10&#45;&gt;Node2 -->
<g id="edge12" class="edge">
<title>Node10&#45;&gt;Node2</title>
<path fill="none" stroke="midnightblue" d="M421.28,-170.7C361.81,-160.63 245.65,-140.97 182.64,-130.3"/>
<polygon fill="midnightblue" stroke="midnightblue" points="183.07,-126.83 172.63,-128.61 181.91,-133.73 183.07,-126.83"/>
</g>
<!-- Node10&#45;&gt;Node5 -->
<g id="edge13" class="edge">
<title>Node10&#45;&gt;Node5</title>
<path fill="none" stroke="midnightblue" d="M495.64,-172.67C522.25,-167.54 556.76,-156.36 576.5,-132 600.29,-102.64 600.21,-55.74 597.93,-29.79"/>
<polygon fill="midnightblue" stroke="midnightblue" points="601.4,-29.34 596.85,-19.78 594.44,-30.1 601.4,-29.34"/>
</g>
<!-- Node11 -->
<g id="node11" class="node">
<title>Node11</title>
<g id="a_node11"><a xlink:href="timesize_8h.html" target="_top" xlink:title=" ">
<polygon fill="white" stroke="black" points="478,-112.5 478,-131.5 567,-131.5 567,-112.5 478,-112.5"/>
<text text-anchor="middle" x="522.5" y="-119.5" font-family="Helvetica,sans-Serif" font-size="10.00">bits/timesize.h</text>
</a>
</g>
</g>
<!-- Node10&#45;&gt;Node11 -->
<g id="edge14" class="edge">
<title>Node10&#45;&gt;Node11</title>
<path fill="none" stroke="midnightblue" d="M468.78,-168.32C478.34,-160.26 492.78,-148.08 504.28,-138.37"/>
<polygon fill="midnightblue" stroke="midnightblue" points="506.64,-140.96 512.03,-131.83 502.13,-135.61 506.64,-140.96"/>
</g>
<!-- Node12 -->
<g id="node12" class="node">
<title>Node12</title>
<g id="a_node12"><a xlink:href="typesizes_8h.html" target="_top" xlink:title=" ">
<polygon fill="white" stroke="black" points="268,-112.5 268,-131.5 361,-131.5 361,-112.5 268,-112.5"/>
<text text-anchor="middle" x="314.5" y="-119.5" font-family="Helvetica,sans-Serif" font-size="10.00">bits/typesizes.h</text>
</a>
</g>
</g>
<!-- Node10&#45;&gt;Node12 -->
<g id="edge15" class="edge">
<title>Node10&#45;&gt;Node12</title>
<path fill="none" stroke="midnightblue" d="M435.68,-168.44C411.67,-159.44 373.67,-145.19 346.63,-135.05"/>
<polygon fill="midnightblue" stroke="midnightblue" points="347.8,-131.75 337.21,-131.52 345.34,-138.3 347.8,-131.75"/>
</g>
<!-- Node13 -->
<g id="node13" class="node">
<title>Node13</title>
<g id="a_node13"><a xlink:href="time64_8h.html" target="_top" xlink:title=" ">
<polygon fill="white" stroke="black" points="379,-112.5 379,-131.5 460,-131.5 460,-112.5 379,-112.5"/>
<text text-anchor="middle" x="419.5" y="-119.5" font-family="Helvetica,sans-Serif" font-size="10.00">bits/time64.h</text>
</a>
</g>
</g>
<!-- Node10&#45;&gt;Node13 -->
<g id="edge16" class="edge">
<title>Node10&#45;&gt;Node13</title>
<path fill="none" stroke="midnightblue" d="M452.06,-168.08C446.55,-160.46 438.47,-149.26 431.74,-139.94"/>
<polygon fill="midnightblue" stroke="midnightblue" points="434.51,-137.81 425.82,-131.75 428.84,-141.91 434.51,-137.81"/>
</g>
<!-- Node14&#45;&gt;Node10 -->
<g id="edge18" class="edge">
<title>Node14&#45;&gt;Node10</title>
<path fill="none" stroke="midnightblue" d="M532.36,-224.32C518.63,-215.9 497.56,-202.97 481.44,-193.07"/>
<polygon fill="midnightblue" stroke="midnightblue" points="482.96,-189.9 472.6,-187.65 479.3,-195.87 482.96,-189.9"/>
</g>
<!-- Node15&#45;&gt;Node10 -->
<g id="edge20" class="edge">
<title>Node15&#45;&gt;Node10</title>
<path fill="none" stroke="midnightblue" d="M643.64,-224.44C605.58,-215.1 544.54,-200.12 503.04,-189.93"/>
<polygon fill="midnightblue" stroke="midnightblue" points="503.74,-186.5 493.2,-187.52 502.07,-193.3 503.74,-186.5"/>
</g>
<!-- Node16&#45;&gt;Node10 -->
<g id="edge22" class="edge">
<title>Node16&#45;&gt;Node10</title>
<path fill="none" stroke="midnightblue" d="M290.19,-224.44C324.57,-215.16 379.58,-200.31 417.29,-190.13"/>
<polygon fill="midnightblue" stroke="midnightblue" points="418.22,-193.5 426.96,-187.52 416.39,-186.74 418.22,-193.5"/>
</g>
<!-- Node18&#45;&gt;Node10 -->
<g id="edge25" class="edge">
<title>Node18&#45;&gt;Node10</title>
<path fill="none" stroke="midnightblue" d="M393.87,-224.32C405.66,-216.06 423.63,-203.45 437.64,-193.63"/>
<polygon fill="midnightblue" stroke="midnightblue" points="439.98,-196.26 446.16,-187.65 435.96,-190.53 439.98,-196.26"/>
</g>
<!-- Node19&#45;&gt;Node10 -->
<g id="edge27" class="edge">
<title>Node19&#45;&gt;Node10</title>
<path fill="none" stroke="midnightblue" d="M760.7,-280.32C760.5,-266.22 757.91,-238.45 741.5,-224 707.29,-193.88 577.07,-183.82 505.8,-180.54"/>
<polygon fill="midnightblue" stroke="midnightblue" points="505.87,-177.04 495.73,-180.1 505.57,-184.03 505.87,-177.04"/>
</g>
<!-- Node20 -->
<g id="node20" class="node">
<title>Node20</title>
<g id="a_node20"><a xlink:href="bits_2endian_8h.html" target="_top" xlink:title=" ">
<polygon fill="white" stroke="black" points="788.5,-224.5 788.5,-243.5 868.5,-243.5 868.5,-224.5 788.5,-224.5"/>
<text text-anchor="middle" x="828.5" y="-231.5" font-family="Helvetica,sans-Serif" font-size="10.00">bits/endian.h</text>
</a>
</g>
</g>
<!-- Node19&#45;&gt;Node20 -->
<g id="edge28" class="edge">
<title>Node19&#45;&gt;Node20</title>
<path fill="none" stroke="midnightblue" d="M771.43,-280.32C781.67,-272.18 797.22,-259.84 809.5,-250.09"/>
<polygon fill="midnightblue" stroke="midnightblue" points="811.72,-252.79 817.38,-243.83 807.37,-247.31 811.72,-252.79"/>
</g>
<!-- Node21 -->
<g id="node21" class="node">
<title>Node21</title>
<g id="a_node21"><a xlink:href="endianness_8h.html" target="_top" xlink:title=" ">
<polygon fill="white" stroke="black" points="725.5,-168.5 725.5,-187.5 827.5,-187.5 827.5,-168.5 725.5,-168.5"/>
<text text-anchor="middle" x="776.5" y="-175.5" font-family="Helvetica,sans-Serif" font-size="10.00">bits/endianness.h</text>
</a>
</g>
</g>
<!-- Node20&#45;&gt;Node21 -->
<g id="edge29" class="edge">
<title>Node20&#45;&gt;Node21</title>
<path fill="none" stroke="midnightblue" d="M819.91,-224.08C812.34,-216.22 801.12,-204.57 791.99,-195.08"/>
<polygon fill="midnightblue" stroke="midnightblue" points="794.38,-192.53 784.93,-187.75 789.34,-197.38 794.38,-192.53"/>
</g>
<!-- Node22&#45;&gt;Node5 -->
<g id="edge31" class="edge">
<title>Node22&#45;&gt;Node5</title>
<path fill="none" stroke="midnightblue" d="M880.74,-168.31C831.47,-141.14 680.06,-57.64 620.21,-24.63"/>
<polygon fill="midnightblue" stroke="midnightblue" points="621.55,-21.37 611.1,-19.61 618.17,-27.5 621.55,-21.37"/>
</g>
</g>
</svg>
