<?xml version="1.0" encoding="UTF-8" standalone="no"?>
<!DOCTYPE svg PUBLIC "-//W3C//DTD SVG 1.1//EN"
 "http://www.w3.org/Graphics/SVG/1.1/DTD/svg11.dtd">
<!-- Generated by graphviz version 2.44.1 (0)
 -->
<!-- Title: signal.h Pages: 1 -->
<svg width="2336pt" height="319pt"
 viewBox="0.00 0.00 2335.50 319.00" xmlns="http://www.w3.org/2000/svg" xmlns:xlink="http://www.w3.org/1999/xlink">
<g id="graph0" class="graph" transform="scale(1 1) rotate(0) translate(4 315)">
<title>signal.h</title>
<polygon fill="white" stroke="transparent" points="-4,4 -4,-315 2331.5,-315 2331.5,4 -4,4"/>
<!-- Node1 -->
<g id="node1" class="node">
<title>Node1</title>
<g id="a_node1"><a xlink:title=" ">
<polygon fill="#bfbfbf" stroke="black" points="1283.5,-291.5 1283.5,-310.5 1338.5,-310.5 1338.5,-291.5 1283.5,-291.5"/>
<text text-anchor="middle" x="1311" y="-298.5" font-family="Helvetica,sans-Serif" font-size="10.00">signal.h</text>
</a>
</g>
</g>
<!-- Node2 -->
<g id="node2" class="node">
<title>Node2</title>
<g id="a_node2"><a xlink:href="features_8h.html" target="_top" xlink:title=" ">
<polygon fill="white" stroke="black" points="608,-112.5 608,-131.5 674,-131.5 674,-112.5 608,-112.5"/>
<text text-anchor="middle" x="641" y="-119.5" font-family="Helvetica,sans-Serif" font-size="10.00">features.h</text>
</a>
</g>
</g>
<!-- Node1&#45;&gt;Node2 -->
<g id="edge1" class="edge">
<title>Node1&#45;&gt;Node2</title>
<path fill="none" stroke="midnightblue" d="M1283.34,-300.16C1164.33,-300.59 699.74,-299.39 654,-255 623.66,-225.55 630.16,-170.43 636.25,-141.62"/>
<polygon fill="midnightblue" stroke="midnightblue" points="639.71,-142.2 638.57,-131.66 632.9,-140.61 639.71,-142.2"/>
</g>
<!-- Node9 -->
<g id="node9" class="node">
<title>Node9</title>
<g id="a_node9"><a xlink:href="bits_2types_8h.html" target="_top" xlink:title=" ">
<polygon fill="white" stroke="black" points="515,-174 515,-193 589,-193 589,-174 515,-174"/>
<text text-anchor="middle" x="552" y="-181" font-family="Helvetica,sans-Serif" font-size="10.00">bits/types.h</text>
</a>
</g>
</g>
<!-- Node1&#45;&gt;Node9 -->
<g id="edge9" class="edge">
<title>Node1&#45;&gt;Node9</title>
<path fill="none" stroke="midnightblue" d="M1283.19,-299.52C1143.9,-296.97 527.5,-284.07 500,-255 483.08,-237.12 508.35,-213.66 529.22,-198.83"/>
<polygon fill="midnightblue" stroke="midnightblue" points="531.44,-201.55 537.76,-193.04 527.52,-195.76 531.44,-201.55"/>
</g>
<!-- Node13 -->
<g id="node13" class="node">
<title>Node13</title>
<g id="a_node13"><a xlink:href="signum-generic_8h.html" target="_top" xlink:title=" ">
<polygon fill="white" stroke="black" points="0,-235.5 0,-254.5 122,-254.5 122,-235.5 0,-235.5"/>
<text text-anchor="middle" x="61" y="-242.5" font-family="Helvetica,sans-Serif" font-size="10.00">bits/signum&#45;generic.h</text>
</a>
</g>
</g>
<!-- Node1&#45;&gt;Node13 -->
<g id="edge15" class="edge">
<title>Node1&#45;&gt;Node13</title>
<path fill="none" stroke="midnightblue" d="M1283.07,-299.86C1153.56,-299.02 598.39,-293.28 132.35,-255.03"/>
<polygon fill="midnightblue" stroke="midnightblue" points="132.3,-251.51 122.05,-254.18 131.73,-258.49 132.3,-251.51"/>
</g>
<!-- Node15 -->
<g id="node15" class="node">
<title>Node15</title>
<g id="a_node15"><a xlink:href="sig__atomic__t_8h.html" target="_top" xlink:title=" ">
<polygon fill="white" stroke="black" points="313.5,-235.5 313.5,-254.5 452.5,-254.5 452.5,-235.5 313.5,-235.5"/>
<text text-anchor="middle" x="383" y="-242.5" font-family="Helvetica,sans-Serif" font-size="10.00">bits/types/sig_atomic_t.h</text>
</a>
</g>
</g>
<!-- Node1&#45;&gt;Node15 -->
<g id="edge17" class="edge">
<title>Node1&#45;&gt;Node15</title>
<path fill="none" stroke="midnightblue" d="M1283.28,-299.06C1177.26,-295.36 787.32,-280.68 467,-255 465.68,-254.89 464.36,-254.79 463.02,-254.67"/>
<polygon fill="midnightblue" stroke="midnightblue" points="462.92,-251.15 452.65,-253.75 462.3,-258.12 462.92,-251.15"/>
</g>
<!-- Node16 -->
<g id="node16" class="node">
<title>Node16</title>
<g id="a_node16"><a xlink:href="sigset__t_8h.html" target="_top" xlink:title=" ">
<polygon fill="white" stroke="black" points="1647.5,-174 1647.5,-193 1762.5,-193 1762.5,-174 1647.5,-174"/>
<text text-anchor="middle" x="1705" y="-181" font-family="Helvetica,sans-Serif" font-size="10.00">bits/types/sigset_t.h</text>
</a>
</g>
</g>
<!-- Node1&#45;&gt;Node16 -->
<g id="edge19" class="edge">
<title>Node1&#45;&gt;Node16</title>
<path fill="none" stroke="midnightblue" d="M1338.56,-298.36C1406.68,-293.96 1581.2,-280.46 1633,-255 1658.17,-242.63 1680.05,-218.1 1692.89,-201.5"/>
<polygon fill="midnightblue" stroke="midnightblue" points="1695.89,-203.33 1699.06,-193.22 1690.28,-199.15 1695.89,-203.33"/>
</g>
<!-- Node18 -->
<g id="node18" class="node">
<title>Node18</title>
<g id="a_node18"><a xlink:href="struct__timespec_8h.html" target="_top" xlink:title=" ">
<polygon fill="white" stroke="black" points="140.5,-235.5 140.5,-254.5 295.5,-254.5 295.5,-235.5 140.5,-235.5"/>
<text text-anchor="middle" x="218" y="-242.5" font-family="Helvetica,sans-Serif" font-size="10.00">bits/types/struct_timespec.h</text>
</a>
</g>
</g>
<!-- Node1&#45;&gt;Node18 -->
<g id="edge21" class="edge">
<title>Node1&#45;&gt;Node18</title>
<path fill="none" stroke="midnightblue" d="M1283.36,-299.36C1166.41,-296.5 700.55,-283.9 305.95,-255.02"/>
<polygon fill="midnightblue" stroke="midnightblue" points="306,-251.52 295.77,-254.27 305.48,-258.5 306,-251.52"/>
</g>
<!-- Node21 -->
<g id="node21" class="node">
<title>Node21</title>
<g id="a_node21"><a xlink:href="siginfo__t_8h.html" target="_top" xlink:title=" ">
<polygon fill="white" stroke="black" points="942.5,-235.5 942.5,-254.5 1061.5,-254.5 1061.5,-235.5 942.5,-235.5"/>
<text text-anchor="middle" x="1002" y="-242.5" font-family="Helvetica,sans-Serif" font-size="10.00">bits/types/siginfo_t.h</text>
</a>
</g>
</g>
<!-- Node1&#45;&gt;Node21 -->
<g id="edge25" class="edge">
<title>Node1&#45;&gt;Node21</title>
<path fill="none" stroke="midnightblue" d="M1283.31,-295.16C1233.43,-286.44 1127.49,-267.93 1060.8,-256.28"/>
<polygon fill="midnightblue" stroke="midnightblue" points="1061.3,-252.81 1050.85,-254.54 1060.1,-259.71 1061.3,-252.81"/>
</g>
<!-- Node24 -->
<g id="node24" class="node">
<title>Node24</title>
<g id="a_node24"><a xlink:href="siginfo-consts_8h.html" target="_top" xlink:title=" ">
<polygon fill="white" stroke="black" points="1437.5,-235.5 1437.5,-254.5 1552.5,-254.5 1552.5,-235.5 1437.5,-235.5"/>
<text text-anchor="middle" x="1495" y="-242.5" font-family="Helvetica,sans-Serif" font-size="10.00">bits/siginfo&#45;consts.h</text>
</a>
</g>
</g>
<!-- Node1&#45;&gt;Node24 -->
<g id="edge30" class="edge">
<title>Node1&#45;&gt;Node24</title>
<path fill="none" stroke="midnightblue" d="M1338.55,-291.92C1369.66,-282.78 1420.54,-267.85 1455.79,-257.51"/>
<polygon fill="midnightblue" stroke="midnightblue" points="1457.13,-260.76 1465.74,-254.59 1455.16,-254.04 1457.13,-260.76"/>
</g>
<!-- Node25 -->
<g id="node25" class="node">
<title>Node25</title>
<g id="a_node25"><a xlink:href="sigval__t_8h.html" target="_top" xlink:title=" ">
<polygon fill="white" stroke="black" points="809.5,-235.5 809.5,-254.5 924.5,-254.5 924.5,-235.5 809.5,-235.5"/>
<text text-anchor="middle" x="867" y="-242.5" font-family="Helvetica,sans-Serif" font-size="10.00">bits/types/sigval_t.h</text>
</a>
</g>
</g>
<!-- Node1&#45;&gt;Node25 -->
<g id="edge32" class="edge">
<title>Node1&#45;&gt;Node25</title>
<path fill="none" stroke="midnightblue" d="M1283.08,-296.81C1222.06,-289.81 1072.02,-272.42 935,-255.11"/>
<polygon fill="midnightblue" stroke="midnightblue" points="935.1,-251.59 924.74,-253.81 934.22,-258.54 935.1,-251.59"/>
</g>
<!-- Node26 -->
<g id="node26" class="node">
<title>Node26</title>
<g id="a_node26"><a xlink:href="sigevent__t_8h.html" target="_top" xlink:title=" ">
<polygon fill="white" stroke="black" points="663,-235.5 663,-254.5 791,-254.5 791,-235.5 663,-235.5"/>
<text text-anchor="middle" x="727" y="-242.5" font-family="Helvetica,sans-Serif" font-size="10.00">bits/types/sigevent_t.h</text>
</a>
</g>
</g>
<!-- Node1&#45;&gt;Node26 -->
<g id="edge34" class="edge">
<title>Node1&#45;&gt;Node26</title>
<path fill="none" stroke="midnightblue" d="M1283.33,-297.88C1207.94,-292.04 992.41,-274.89 801.12,-254.98"/>
<polygon fill="midnightblue" stroke="midnightblue" points="801.47,-251.49 791.16,-253.93 800.74,-258.46 801.47,-251.49"/>
</g>
<!-- Node27 -->
<g id="node27" class="node">
<title>Node27</title>
<g id="a_node27"><a xlink:href="sigevent-consts_8h.html" target="_top" xlink:title=" ">
<polygon fill="white" stroke="black" points="1186,-235.5 1186,-254.5 1310,-254.5 1310,-235.5 1186,-235.5"/>
<text text-anchor="middle" x="1248" y="-242.5" font-family="Helvetica,sans-Serif" font-size="10.00">bits/sigevent&#45;consts.h</text>
</a>
</g>
</g>
<!-- Node1&#45;&gt;Node27 -->
<g id="edge38" class="edge">
<title>Node1&#45;&gt;Node27</title>
<path fill="none" stroke="midnightblue" d="M1300.88,-291.32C1291.47,-283.26 1277.26,-271.08 1265.93,-261.37"/>
<polygon fill="midnightblue" stroke="midnightblue" points="1268.18,-258.68 1258.31,-254.83 1263.62,-264 1268.18,-258.68"/>
</g>
<!-- Node28 -->
<g id="node28" class="node">
<title>Node28</title>
<g id="a_node28"><a xlink:href="sigaction_8h.html" target="_top" xlink:title=" ">
<polygon fill="white" stroke="black" points="1328.5,-235.5 1328.5,-254.5 1419.5,-254.5 1419.5,-235.5 1328.5,-235.5"/>
<text text-anchor="middle" x="1374" y="-242.5" font-family="Helvetica,sans-Serif" font-size="10.00">bits/sigaction.h</text>
</a>
</g>
</g>
<!-- Node1&#45;&gt;Node28 -->
<g id="edge39" class="edge">
<title>Node1&#45;&gt;Node28</title>
<path fill="none" stroke="midnightblue" d="M1321.12,-291.32C1330.53,-283.26 1344.74,-271.08 1356.07,-261.37"/>
<polygon fill="midnightblue" stroke="midnightblue" points="1358.38,-264 1363.69,-254.83 1353.82,-258.68 1358.38,-264"/>
</g>
<!-- Node29 -->
<g id="node29" class="node">
<title>Node29</title>
<g id="a_node29"><a xlink:href="sigcontext_8h.html" target="_top" xlink:title=" ">
<polygon fill="white" stroke="black" points="509,-235.5 509,-254.5 607,-254.5 607,-235.5 509,-235.5"/>
<text text-anchor="middle" x="558" y="-242.5" font-family="Helvetica,sans-Serif" font-size="10.00">bits/sigcontext.h</text>
</a>
</g>
</g>
<!-- Node1&#45;&gt;Node29 -->
<g id="edge40" class="edge">
<title>Node1&#45;&gt;Node29</title>
<path fill="none" stroke="midnightblue" d="M1283.33,-298.96C1189.91,-295.28 877.72,-281.67 621,-255 619.73,-254.87 618.45,-254.73 617.16,-254.59"/>
<polygon fill="midnightblue" stroke="midnightblue" points="617.48,-251.1 607.14,-253.39 616.65,-258.05 617.48,-251.1"/>
</g>
<!-- Node30 -->
<g id="node30" class="node">
<title>Node30</title>
<g id="a_node30"><a xlink:title=" ">
<polygon fill="white" stroke="#bfbfbf" points="1546,-112.5 1546,-131.5 1602,-131.5 1602,-112.5 1546,-112.5"/>
<text text-anchor="middle" x="1574" y="-119.5" font-family="Helvetica,sans-Serif" font-size="10.00">stddef.h</text>
</a>
</g>
</g>
<!-- Node1&#45;&gt;Node30 -->
<g id="edge42" class="edge">
<title>Node1&#45;&gt;Node30</title>
<path fill="none" stroke="midnightblue" d="M1338.96,-298.71C1399.78,-295.37 1541.59,-284.55 1578,-255 1608.97,-229.87 1610.33,-206.52 1600,-168 1597.35,-158.1 1591.93,-148.13 1586.73,-140.1"/>
<polygon fill="midnightblue" stroke="midnightblue" points="1589.46,-137.91 1580.89,-131.68 1583.71,-141.89 1589.46,-137.91"/>
</g>
<!-- Node31 -->
<g id="node31" class="node">
<title>Node31</title>
<g id="a_node31"><a xlink:href="stack__t_8h.html" target="_top" xlink:title=" ">
<polygon fill="white" stroke="black" points="1479,-174 1479,-193 1591,-193 1591,-174 1479,-174"/>
<text text-anchor="middle" x="1535" y="-181" font-family="Helvetica,sans-Serif" font-size="10.00">bits/types/stack_t.h</text>
</a>
</g>
</g>
<!-- Node1&#45;&gt;Node31 -->
<g id="edge43" class="edge">
<title>Node1&#45;&gt;Node31</title>
<path fill="none" stroke="midnightblue" d="M1338.59,-299.33C1397.74,-297.24 1533.73,-288.78 1562,-255 1575.2,-239.22 1562.07,-216.3 1549.93,-200.91"/>
<polygon fill="midnightblue" stroke="midnightblue" points="1552.58,-198.63 1543.46,-193.24 1547.23,-203.14 1552.58,-198.63"/>
</g>
<!-- Node32 -->
<g id="node32" class="node">
<title>Node32</title>
<g id="a_node32"><a xlink:href="sys_2ucontext_8h.html" target="_top" xlink:title=" ">
<polygon fill="white" stroke="black" points="1080,-235.5 1080,-254.5 1168,-254.5 1168,-235.5 1080,-235.5"/>
<text text-anchor="middle" x="1124" y="-242.5" font-family="Helvetica,sans-Serif" font-size="10.00">sys/ucontext.h</text>
</a>
</g>
</g>
<!-- Node1&#45;&gt;Node32 -->
<g id="edge45" class="edge">
<title>Node1&#45;&gt;Node32</title>
<path fill="none" stroke="midnightblue" d="M1283.41,-292.03C1251.65,-282.86 1199.25,-267.73 1163.25,-257.33"/>
<polygon fill="midnightblue" stroke="midnightblue" points="1164.14,-253.95 1153.56,-254.54 1162.2,-260.67 1164.14,-253.95"/>
</g>
<!-- Node33 -->
<g id="node33" class="node">
<title>Node33</title>
<g id="a_node33"><a xlink:href="sigstack_8h.html" target="_top" xlink:title=" ">
<polygon fill="white" stroke="black" points="1685.5,-235.5 1685.5,-254.5 1772.5,-254.5 1772.5,-235.5 1685.5,-235.5"/>
<text text-anchor="middle" x="1729" y="-242.5" font-family="Helvetica,sans-Serif" font-size="10.00">bits/sigstack.h</text>
</a>
</g>
</g>
<!-- Node1&#45;&gt;Node33 -->
<g id="edge50" class="edge">
<title>Node1&#45;&gt;Node33</title>
<path fill="none" stroke="midnightblue" d="M1338.59,-296.83C1398.93,-289.85 1547.18,-272.34 1671,-255 1672.45,-254.8 1673.92,-254.59 1675.41,-254.38"/>
<polygon fill="midnightblue" stroke="midnightblue" points="1675.93,-257.84 1685.32,-252.92 1674.91,-250.91 1675.93,-257.84"/>
</g>
<!-- Node34 -->
<g id="node34" class="node">
<title>Node34</title>
<g id="a_node34"><a xlink:href="ss__flags_8h.html" target="_top" xlink:title=" ">
<polygon fill="white" stroke="black" points="1791,-235.5 1791,-254.5 1877,-254.5 1877,-235.5 1791,-235.5"/>
<text text-anchor="middle" x="1834" y="-242.5" font-family="Helvetica,sans-Serif" font-size="10.00">bits/ss_flags.h</text>
</a>
</g>
</g>
<!-- Node1&#45;&gt;Node34 -->
<g id="edge51" class="edge">
<title>Node1&#45;&gt;Node34</title>
<path fill="none" stroke="midnightblue" d="M1338.69,-298.09C1410.12,-293.02 1606.61,-278.08 1780.79,-255.07"/>
<polygon fill="midnightblue" stroke="midnightblue" points="1781.46,-258.51 1790.91,-253.72 1780.53,-251.57 1781.46,-258.51"/>
</g>
<!-- Node35 -->
<g id="node35" class="node">
<title>Node35</title>
<g id="a_node35"><a xlink:href="struct__sigstack_8h.html" target="_top" xlink:title=" ">
<polygon fill="white" stroke="black" points="1895,-235.5 1895,-254.5 2045,-254.5 2045,-235.5 1895,-235.5"/>
<text text-anchor="middle" x="1970" y="-242.5" font-family="Helvetica,sans-Serif" font-size="10.00">bits/types/struct_sigstack.h</text>
</a>
</g>
</g>
<!-- Node1&#45;&gt;Node35 -->
<g id="edge52" class="edge">
<title>Node1&#45;&gt;Node35</title>
<path fill="none" stroke="midnightblue" d="M1338.55,-298.12C1420.17,-292.51 1667.97,-275.04 1884.92,-255.08"/>
<polygon fill="midnightblue" stroke="midnightblue" points="1885.27,-258.56 1894.9,-254.15 1884.63,-251.59 1885.27,-258.56"/>
</g>
<!-- Node36 -->
<g id="node36" class="node">
<title>Node36</title>
<g id="a_node36"><a xlink:href="pthreadtypes_8h.html" target="_top" xlink:title=" ">
<polygon fill="white" stroke="black" points="2101.5,-235.5 2101.5,-254.5 2212.5,-254.5 2212.5,-235.5 2101.5,-235.5"/>
<text text-anchor="middle" x="2157" y="-242.5" font-family="Helvetica,sans-Serif" font-size="10.00">bits/pthreadtypes.h</text>
</a>
</g>
</g>
<!-- Node1&#45;&gt;Node36 -->
<g id="edge53" class="edge">
<title>Node1&#45;&gt;Node36</title>
<path fill="none" stroke="midnightblue" d="M1338.54,-299.1C1438.95,-295.67 1794.75,-282.23 2087,-255 2088.3,-254.88 2089.62,-254.75 2090.95,-254.62"/>
<polygon fill="midnightblue" stroke="midnightblue" points="2091.68,-258.06 2101.25,-253.52 2090.94,-251.1 2091.68,-258.06"/>
</g>
<!-- Node41 -->
<g id="node41" class="node">
<title>Node41</title>
<g id="a_node41"><a xlink:href="sigthread_8h.html" target="_top" xlink:title=" ">
<polygon fill="white" stroke="black" points="1877,-174 1877,-193 1969,-193 1969,-174 1877,-174"/>
<text text-anchor="middle" x="1923" y="-181" font-family="Helvetica,sans-Serif" font-size="10.00">bits/sigthread.h</text>
</a>
</g>
</g>
<!-- Node1&#45;&gt;Node41 -->
<g id="edge59" class="edge">
<title>Node1&#45;&gt;Node41</title>
<path fill="none" stroke="midnightblue" d="M1338.62,-299.38C1470.31,-296.27 2029.01,-281.55 2054,-255 2081.76,-225.5 2026.34,-205.69 1979.23,-194.76"/>
<polygon fill="midnightblue" stroke="midnightblue" points="1979.86,-191.32 1969.34,-192.56 1978.34,-198.15 1979.86,-191.32"/>
</g>
<!-- Node42 -->
<g id="node42" class="node">
<title>Node42</title>
<g id="a_node42"><a xlink:href="signal__ext_8h.html" target="_top" xlink:title=" ">
<polygon fill="white" stroke="black" points="2230.5,-235.5 2230.5,-254.5 2327.5,-254.5 2327.5,-235.5 2230.5,-235.5"/>
<text text-anchor="middle" x="2279" y="-242.5" font-family="Helvetica,sans-Serif" font-size="10.00">bits/signal_ext.h</text>
</a>
</g>
</g>
<!-- Node1&#45;&gt;Node42 -->
<g id="edge61" class="edge">
<title>Node1&#45;&gt;Node42</title>
<path fill="none" stroke="midnightblue" d="M1338.66,-299.71C1448.76,-298.35 1866.62,-291.03 2220.05,-255.1"/>
<polygon fill="midnightblue" stroke="midnightblue" points="2220.64,-258.56 2230.23,-254.05 2219.92,-251.59 2220.64,-258.56"/>
</g>
<!-- Node3 -->
<g id="node3" class="node">
<title>Node3</title>
<g id="a_node3"><a xlink:href="stdc-predef_8h.html" target="_top" xlink:title=" ">
<polygon fill="white" stroke="black" points="636,-56.5 636,-75.5 716,-75.5 716,-56.5 636,-56.5"/>
<text text-anchor="middle" x="676" y="-63.5" font-family="Helvetica,sans-Serif" font-size="10.00">stdc&#45;predef.h</text>
</a>
</g>
</g>
<!-- Node2&#45;&gt;Node3 -->
<g id="edge2" class="edge">
<title>Node2&#45;&gt;Node3</title>
<path fill="none" stroke="midnightblue" d="M646.78,-112.08C651.67,-104.53 658.83,-93.49 664.83,-84.23"/>
<polygon fill="midnightblue" stroke="midnightblue" points="667.83,-86.05 670.33,-75.75 661.95,-82.24 667.83,-86.05"/>
</g>
<!-- Node4 -->
<g id="node4" class="node">
<title>Node4</title>
<g id="a_node4"><a xlink:href="cdefs_8h.html" target="_top" xlink:title=" ">
<polygon fill="white" stroke="black" points="546.5,-56.5 546.5,-75.5 617.5,-75.5 617.5,-56.5 546.5,-56.5"/>
<text text-anchor="middle" x="582" y="-63.5" font-family="Helvetica,sans-Serif" font-size="10.00">sys/cdefs.h</text>
</a>
</g>
</g>
<!-- Node2&#45;&gt;Node4 -->
<g id="edge3" class="edge">
<title>Node2&#45;&gt;Node4</title>
<path fill="none" stroke="midnightblue" d="M626.41,-112.32C616.16,-104.5 602.98,-92.78 593.48,-83.22"/>
<polygon fill="midnightblue" stroke="midnightblue" points="595.91,-80.7 586.5,-75.83 590.82,-85.51 595.91,-80.7"/>
</g>
<!-- Node7 -->
<g id="node7" class="node">
<title>Node7</title>
<g id="a_node7"><a xlink:href="stubs_8h.html" target="_top" xlink:title=" ">
<polygon fill="white" stroke="black" points="449.5,-56.5 449.5,-75.5 522.5,-75.5 522.5,-56.5 449.5,-56.5"/>
<text text-anchor="middle" x="486" y="-63.5" font-family="Helvetica,sans-Serif" font-size="10.00">gnu/stubs.h</text>
</a>
</g>
</g>
<!-- Node2&#45;&gt;Node7 -->
<g id="edge7" class="edge">
<title>Node2&#45;&gt;Node7</title>
<path fill="none" stroke="midnightblue" d="M616.44,-112.44C590.48,-103.4 549.33,-89.06 520.2,-78.92"/>
<polygon fill="midnightblue" stroke="midnightblue" points="521.04,-75.5 510.45,-75.52 518.74,-82.11 521.04,-75.5"/>
</g>
<!-- Node4&#45;&gt;Node2 -->
<g id="edge4" class="edge">
<title>Node4&#45;&gt;Node2</title>
<path fill="none" stroke="midnightblue" d="M596.69,-75.75C606.9,-83.56 619.99,-95.2 629.46,-104.72"/>
<polygon fill="midnightblue" stroke="midnightblue" points="627.01,-107.22 636.42,-112.08 632.1,-102.41 627.01,-107.22"/>
</g>
<!-- Node5 -->
<g id="node5" class="node">
<title>Node5</title>
<g id="a_node5"><a xlink:href="wordsize_8h.html" target="_top" xlink:title=" ">
<polygon fill="white" stroke="black" points="737,-0.5 737,-19.5 827,-19.5 827,-0.5 737,-0.5"/>
<text text-anchor="middle" x="782" y="-7.5" font-family="Helvetica,sans-Serif" font-size="10.00">bits/wordsize.h</text>
</a>
</g>
</g>
<!-- Node4&#45;&gt;Node5 -->
<g id="edge5" class="edge">
<title>Node4&#45;&gt;Node5</title>
<path fill="none" stroke="midnightblue" d="M613.69,-56.44C648.07,-47.16 703.08,-32.31 740.79,-22.13"/>
<polygon fill="midnightblue" stroke="midnightblue" points="741.72,-25.5 750.46,-19.52 739.89,-18.74 741.72,-25.5"/>
</g>
<!-- Node6 -->
<g id="node6" class="node">
<title>Node6</title>
<g id="a_node6"><a xlink:href="long-double_8h.html" target="_top" xlink:title=" ">
<polygon fill="white" stroke="black" points="537,-0.5 537,-19.5 641,-19.5 641,-0.5 537,-0.5"/>
<text text-anchor="middle" x="589" y="-7.5" font-family="Helvetica,sans-Serif" font-size="10.00">bits/long&#45;double.h</text>
</a>
</g>
</g>
<!-- Node4&#45;&gt;Node6 -->
<g id="edge6" class="edge">
<title>Node4&#45;&gt;Node6</title>
<path fill="none" stroke="midnightblue" d="M583.16,-56.08C584.08,-48.93 585.42,-38.64 586.58,-29.69"/>
<polygon fill="midnightblue" stroke="midnightblue" points="590.05,-30.12 587.87,-19.75 583.11,-29.22 590.05,-30.12"/>
</g>
<!-- Node8 -->
<g id="node8" class="node">
<title>Node8</title>
<g id="a_node8"><a xlink:title=" ">
<polygon fill="white" stroke="#bfbfbf" points="429.5,-0.5 429.5,-19.5 518.5,-19.5 518.5,-0.5 429.5,-0.5"/>
<text text-anchor="middle" x="474" y="-7.5" font-family="Helvetica,sans-Serif" font-size="10.00">gnu/stubs&#45;32.h</text>
</a>
</g>
</g>
<!-- Node7&#45;&gt;Node8 -->
<g id="edge8" class="edge">
<title>Node7&#45;&gt;Node8</title>
<path fill="none" stroke="midnightblue" d="M484.02,-56.08C482.43,-48.93 480.14,-38.64 478.15,-29.69"/>
<polygon fill="midnightblue" stroke="midnightblue" points="481.53,-28.75 475.94,-19.75 474.7,-30.27 481.53,-28.75"/>
</g>
<!-- Node9&#45;&gt;Node2 -->
<g id="edge10" class="edge">
<title>Node9&#45;&gt;Node2</title>
<path fill="none" stroke="midnightblue" d="M564.75,-173.98C579.03,-164.43 602.4,-148.81 619.51,-137.37"/>
<polygon fill="midnightblue" stroke="midnightblue" points="621.9,-139.98 628.27,-131.51 618.01,-134.16 621.9,-139.98"/>
</g>
<!-- Node9&#45;&gt;Node5 -->
<g id="edge11" class="edge">
<title>Node9&#45;&gt;Node5</title>
<path fill="none" stroke="midnightblue" d="M588.38,-173.94C616.14,-166.17 654.37,-152.72 683,-132 722.97,-103.07 756.09,-54.22 771.94,-28.32"/>
<polygon fill="midnightblue" stroke="midnightblue" points="775.02,-29.99 777.14,-19.61 769.01,-26.4 775.02,-29.99"/>
</g>
<!-- Node10 -->
<g id="node10" class="node">
<title>Node10</title>
<g id="a_node10"><a xlink:href="timesize_8h.html" target="_top" xlink:title=" ">
<polygon fill="white" stroke="black" points="290.5,-112.5 290.5,-131.5 379.5,-131.5 379.5,-112.5 290.5,-112.5"/>
<text text-anchor="middle" x="335" y="-119.5" font-family="Helvetica,sans-Serif" font-size="10.00">bits/timesize.h</text>
</a>
</g>
</g>
<!-- Node9&#45;&gt;Node10 -->
<g id="edge12" class="edge">
<title>Node9&#45;&gt;Node10</title>
<path fill="none" stroke="midnightblue" d="M520.91,-173.98C482.72,-163.5 417.83,-145.71 375.7,-134.16"/>
<polygon fill="midnightblue" stroke="midnightblue" points="376.6,-130.78 366.03,-131.51 374.75,-137.53 376.6,-130.78"/>
</g>
<!-- Node11 -->
<g id="node11" class="node">
<title>Node11</title>
<g id="a_node11"><a xlink:href="typesizes_8h.html" target="_top" xlink:title=" ">
<polygon fill="white" stroke="black" points="397.5,-112.5 397.5,-131.5 490.5,-131.5 490.5,-112.5 397.5,-112.5"/>
<text text-anchor="middle" x="444" y="-119.5" font-family="Helvetica,sans-Serif" font-size="10.00">bits/typesizes.h</text>
</a>
</g>
</g>
<!-- Node9&#45;&gt;Node11 -->
<g id="edge13" class="edge">
<title>Node9&#45;&gt;Node11</title>
<path fill="none" stroke="midnightblue" d="M536.53,-173.98C518.72,-164.17 489.26,-147.93 468.37,-136.42"/>
<polygon fill="midnightblue" stroke="midnightblue" points="469.89,-133.27 459.45,-131.51 466.51,-139.4 469.89,-133.27"/>
</g>
<!-- Node12 -->
<g id="node12" class="node">
<title>Node12</title>
<g id="a_node12"><a xlink:href="time64_8h.html" target="_top" xlink:title=" ">
<polygon fill="white" stroke="black" points="508.5,-112.5 508.5,-131.5 589.5,-131.5 589.5,-112.5 508.5,-112.5"/>
<text text-anchor="middle" x="549" y="-119.5" font-family="Helvetica,sans-Serif" font-size="10.00">bits/time64.h</text>
</a>
</g>
</g>
<!-- Node9&#45;&gt;Node12 -->
<g id="edge14" class="edge">
<title>Node9&#45;&gt;Node12</title>
<path fill="none" stroke="midnightblue" d="M551.57,-173.98C551.15,-165.58 550.49,-152.48 549.94,-141.66"/>
<polygon fill="midnightblue" stroke="midnightblue" points="553.43,-141.32 549.43,-131.51 546.44,-141.67 553.43,-141.32"/>
</g>
<!-- Node14 -->
<g id="node14" class="node">
<title>Node14</title>
<g id="a_node14"><a xlink:href="signum-arch_8h.html" target="_top" xlink:title=" ">
<polygon fill="white" stroke="black" points="7.5,-174 7.5,-193 114.5,-193 114.5,-174 7.5,-174"/>
<text text-anchor="middle" x="61" y="-181" font-family="Helvetica,sans-Serif" font-size="10.00">bits/signum&#45;arch.h</text>
</a>
</g>
</g>
<!-- Node13&#45;&gt;Node14 -->
<g id="edge16" class="edge">
<title>Node13&#45;&gt;Node14</title>
<path fill="none" stroke="midnightblue" d="M61,-235.48C61,-227.08 61,-213.98 61,-203.16"/>
<polygon fill="midnightblue" stroke="midnightblue" points="64.5,-203.01 61,-193.01 57.5,-203.01 64.5,-203.01"/>
</g>
<!-- Node15&#45;&gt;Node9 -->
<g id="edge18" class="edge">
<title>Node15&#45;&gt;Node9</title>
<path fill="none" stroke="midnightblue" d="M407.21,-235.48C436.33,-225.22 485.37,-207.96 518.2,-196.4"/>
<polygon fill="midnightblue" stroke="midnightblue" points="519.56,-199.63 527.83,-193.01 517.24,-193.03 519.56,-199.63"/>
</g>
<!-- Node17 -->
<g id="node17" class="node">
<title>Node17</title>
<g id="a_node17"><a xlink:href="____sigset__t_8h.html" target="_top" xlink:title=" ">
<polygon fill="white" stroke="black" points="1660.5,-112.5 1660.5,-131.5 1785.5,-131.5 1785.5,-112.5 1660.5,-112.5"/>
<text text-anchor="middle" x="1723" y="-119.5" font-family="Helvetica,sans-Serif" font-size="10.00">bits/types/__sigset_t.h</text>
</a>
</g>
</g>
<!-- Node16&#45;&gt;Node17 -->
<g id="edge20" class="edge">
<title>Node16&#45;&gt;Node17</title>
<path fill="none" stroke="midnightblue" d="M1707.58,-173.98C1710.15,-165.49 1714.17,-152.2 1717.46,-141.32"/>
<polygon fill="midnightblue" stroke="midnightblue" points="1720.88,-142.09 1720.43,-131.51 1714.18,-140.07 1720.88,-142.09"/>
</g>
<!-- Node18&#45;&gt;Node9 -->
<g id="edge22" class="edge">
<title>Node18&#45;&gt;Node9</title>
<path fill="none" stroke="midnightblue" d="M265.85,-235.48C329.42,-224.15 441.03,-204.27 504.44,-192.97"/>
<polygon fill="midnightblue" stroke="midnightblue" points="505.34,-196.37 514.57,-191.17 504.11,-189.48 505.34,-196.37"/>
</g>
<!-- Node19 -->
<g id="node19" class="node">
<title>Node19</title>
<g id="a_node19"><a xlink:href="bits_2endian_8h.html" target="_top" xlink:title=" ">
<polygon fill="white" stroke="black" points="178,-174 178,-193 258,-193 258,-174 178,-174"/>
<text text-anchor="middle" x="218" y="-181" font-family="Helvetica,sans-Serif" font-size="10.00">bits/endian.h</text>
</a>
</g>
</g>
<!-- Node18&#45;&gt;Node19 -->
<g id="edge23" class="edge">
<title>Node18&#45;&gt;Node19</title>
<path fill="none" stroke="midnightblue" d="M218,-235.48C218,-227.08 218,-213.98 218,-203.16"/>
<polygon fill="midnightblue" stroke="midnightblue" points="221.5,-203.01 218,-193.01 214.5,-203.01 221.5,-203.01"/>
</g>
<!-- Node20 -->
<g id="node20" class="node">
<title>Node20</title>
<g id="a_node20"><a xlink:href="endianness_8h.html" target="_top" xlink:title=" ">
<polygon fill="white" stroke="black" points="167,-112.5 167,-131.5 269,-131.5 269,-112.5 167,-112.5"/>
<text text-anchor="middle" x="218" y="-119.5" font-family="Helvetica,sans-Serif" font-size="10.00">bits/endianness.h</text>
</a>
</g>
</g>
<!-- Node19&#45;&gt;Node20 -->
<g id="edge24" class="edge">
<title>Node19&#45;&gt;Node20</title>
<path fill="none" stroke="midnightblue" d="M218,-173.98C218,-165.58 218,-152.48 218,-141.66"/>
<polygon fill="midnightblue" stroke="midnightblue" points="221.5,-141.51 218,-131.51 214.5,-141.51 221.5,-141.51"/>
</g>
<!-- Node21&#45;&gt;Node5 -->
<g id="edge26" class="edge">
<title>Node21&#45;&gt;Node5</title>
<path fill="none" stroke="midnightblue" d="M996.1,-235.22C986.2,-220.69 965.32,-190.99 945,-168 896,-112.57 830.9,-53.74 799.89,-26.5"/>
<polygon fill="midnightblue" stroke="midnightblue" points="801.92,-23.63 792.09,-19.69 797.32,-28.9 801.92,-23.63"/>
</g>
<!-- Node21&#45;&gt;Node9 -->
<g id="edge27" class="edge">
<title>Node21&#45;&gt;Node9</title>
<path fill="none" stroke="midnightblue" d="M942.3,-236.1C939.49,-235.73 936.72,-235.36 934,-235 813.43,-219.05 671.44,-200.29 599.28,-190.75"/>
<polygon fill="midnightblue" stroke="midnightblue" points="599.52,-187.25 589.14,-189.41 598.6,-194.19 599.52,-187.25"/>
</g>
<!-- Node22 -->
<g id="node22" class="node">
<title>Node22</title>
<g id="a_node22"><a xlink:href="____sigval__t_8h.html" target="_top" xlink:title=" ">
<polygon fill="white" stroke="black" points="810.5,-174 810.5,-193 935.5,-193 935.5,-174 810.5,-174"/>
<text text-anchor="middle" x="873" y="-181" font-family="Helvetica,sans-Serif" font-size="10.00">bits/types/__sigval_t.h</text>
</a>
</g>
</g>
<!-- Node21&#45;&gt;Node22 -->
<g id="edge28" class="edge">
<title>Node21&#45;&gt;Node22</title>
<path fill="none" stroke="midnightblue" d="M983.52,-235.48C961.87,-225.49 925.79,-208.85 900.77,-197.31"/>
<polygon fill="midnightblue" stroke="midnightblue" points="901.99,-194.02 891.45,-193.01 899.06,-200.38 901.99,-194.02"/>
</g>
<!-- Node23 -->
<g id="node23" class="node">
<title>Node23</title>
<g id="a_node23"><a xlink:href="siginfo-arch_8h.html" target="_top" xlink:title=" ">
<polygon fill="white" stroke="black" points="1194,-174 1194,-193 1298,-193 1298,-174 1194,-174"/>
<text text-anchor="middle" x="1246" y="-181" font-family="Helvetica,sans-Serif" font-size="10.00">bits/siginfo&#45;arch.h</text>
</a>
</g>
</g>
<!-- Node21&#45;&gt;Node23 -->
<g id="edge29" class="edge">
<title>Node21&#45;&gt;Node23</title>
<path fill="none" stroke="midnightblue" d="M1036.96,-235.48C1080.17,-224.94 1153.79,-206.99 1201.13,-195.44"/>
<polygon fill="midnightblue" stroke="midnightblue" points="1202.22,-198.78 1211.11,-193.01 1200.56,-191.98 1202.22,-198.78"/>
</g>
<!-- Node24&#45;&gt;Node23 -->
<g id="edge31" class="edge">
<title>Node24&#45;&gt;Node23</title>
<path fill="none" stroke="midnightblue" d="M1459.32,-235.48C1415.13,-224.92 1339.79,-206.91 1291.49,-195.37"/>
<polygon fill="midnightblue" stroke="midnightblue" points="1292.15,-191.93 1281.61,-193.01 1290.52,-198.74 1292.15,-191.93"/>
</g>
<!-- Node25&#45;&gt;Node22 -->
<g id="edge33" class="edge">
<title>Node25&#45;&gt;Node22</title>
<path fill="none" stroke="midnightblue" d="M867.86,-235.48C868.71,-227.08 870.03,-213.98 871.12,-203.16"/>
<polygon fill="midnightblue" stroke="midnightblue" points="874.62,-203.31 872.14,-193.01 867.66,-202.61 874.62,-203.31"/>
</g>
<!-- Node26&#45;&gt;Node5 -->
<g id="edge35" class="edge">
<title>Node26&#45;&gt;Node5</title>
<path fill="none" stroke="midnightblue" d="M729.02,-235.43C736.99,-201.68 766.31,-77.47 777.56,-29.8"/>
<polygon fill="midnightblue" stroke="midnightblue" points="781.01,-30.43 779.9,-19.9 774.2,-28.82 781.01,-30.43"/>
</g>
<!-- Node26&#45;&gt;Node9 -->
<g id="edge36" class="edge">
<title>Node26&#45;&gt;Node9</title>
<path fill="none" stroke="midnightblue" d="M701.93,-235.48C671.65,-225.18 620.56,-207.81 586.56,-196.25"/>
<polygon fill="midnightblue" stroke="midnightblue" points="587.62,-192.91 577.03,-193.01 585.37,-199.54 587.62,-192.91"/>
</g>
<!-- Node26&#45;&gt;Node22 -->
<g id="edge37" class="edge">
<title>Node26&#45;&gt;Node22</title>
<path fill="none" stroke="midnightblue" d="M747.92,-235.48C772.75,-225.36 814.34,-208.4 842.69,-196.85"/>
<polygon fill="midnightblue" stroke="midnightblue" points="844.18,-200.02 852.12,-193.01 841.54,-193.54 844.18,-200.02"/>
</g>
<!-- Node29&#45;&gt;Node9 -->
<g id="edge41" class="edge">
<title>Node29&#45;&gt;Node9</title>
<path fill="none" stroke="midnightblue" d="M557.14,-235.48C556.29,-227.08 554.97,-213.98 553.88,-203.16"/>
<polygon fill="midnightblue" stroke="midnightblue" points="557.34,-202.61 552.86,-193.01 550.38,-203.31 557.34,-202.61"/>
</g>
<!-- Node31&#45;&gt;Node30 -->
<g id="edge44" class="edge">
<title>Node31&#45;&gt;Node30</title>
<path fill="none" stroke="midnightblue" d="M1540.59,-173.98C1546.38,-165.14 1555.59,-151.09 1562.87,-139.98"/>
<polygon fill="midnightblue" stroke="midnightblue" points="1565.87,-141.79 1568.42,-131.51 1560.01,-137.95 1565.87,-141.79"/>
</g>
<!-- Node32&#45;&gt;Node2 -->
<g id="edge46" class="edge">
<title>Node32&#45;&gt;Node2</title>
<path fill="none" stroke="midnightblue" d="M1107.73,-235.42C1076.89,-219.53 1007.4,-185.55 945,-168 854.4,-142.51 744.31,-130.78 684.61,-125.95"/>
<polygon fill="midnightblue" stroke="midnightblue" points="684.66,-122.45 674.42,-125.16 684.11,-129.43 684.66,-122.45"/>
</g>
<!-- Node32&#45;&gt;Node9 -->
<g id="edge47" class="edge">
<title>Node32&#45;&gt;Node9</title>
<path fill="none" stroke="midnightblue" d="M1079.79,-236.25C1076.82,-235.8 1073.87,-235.38 1071,-235 897.76,-211.89 690.64,-194.92 599.27,-187.97"/>
<polygon fill="midnightblue" stroke="midnightblue" points="599.47,-184.47 589.23,-187.21 598.94,-191.45 599.47,-184.47"/>
</g>
<!-- Node32&#45;&gt;Node16 -->
<g id="edge48" class="edge">
<title>Node32&#45;&gt;Node16</title>
<path fill="none" stroke="midnightblue" d="M1168.21,-236.21C1171.18,-235.77 1174.13,-235.37 1177,-235 1364.17,-211.19 1412.48,-219.91 1600,-199 1612,-197.66 1624.75,-196.06 1637.07,-194.41"/>
<polygon fill="midnightblue" stroke="midnightblue" points="1637.86,-197.83 1647.3,-193.02 1636.92,-190.9 1637.86,-197.83"/>
</g>
<!-- Node32&#45;&gt;Node31 -->
<g id="edge49" class="edge">
<title>Node32&#45;&gt;Node31</title>
<path fill="none" stroke="midnightblue" d="M1168.23,-236.39C1171.2,-235.91 1174.14,-235.44 1177,-235 1278.53,-219.22 1396.6,-202.97 1468.54,-193.31"/>
<polygon fill="midnightblue" stroke="midnightblue" points="1469.37,-196.73 1478.81,-191.93 1468.43,-189.79 1469.37,-196.73"/>
</g>
<!-- Node37 -->
<g id="node37" class="node">
<title>Node37</title>
<g id="a_node37"><a xlink:href="thread-shared-types_8h.html" target="_top" xlink:title=" ">
<polygon fill="white" stroke="black" points="2020,-168.5 2020,-198.5 2126,-198.5 2126,-168.5 2020,-168.5"/>
<text text-anchor="start" x="2028" y="-186.5" font-family="Helvetica,sans-Serif" font-size="10.00">bits/thread&#45;shared</text>
<text text-anchor="middle" x="2073" y="-175.5" font-family="Helvetica,sans-Serif" font-size="10.00">&#45;types.h</text>
</a>
</g>
</g>
<!-- Node36&#45;&gt;Node37 -->
<g id="edge54" class="edge">
<title>Node36&#45;&gt;Node37</title>
<path fill="none" stroke="midnightblue" d="M2144.96,-235.48C2133.59,-227.42 2116.09,-215.02 2101.2,-204.47"/>
<polygon fill="midnightblue" stroke="midnightblue" points="2102.98,-201.45 2092.8,-198.52 2098.93,-207.16 2102.98,-201.45"/>
</g>
<!-- Node38 -->
<g id="node38" class="node">
<title>Node38</title>
<g id="a_node38"><a xlink:href="pthreadtypes-arch_8h.html" target="_top" xlink:title=" ">
<polygon fill="white" stroke="black" points="1379,-56.5 1379,-75.5 1515,-75.5 1515,-56.5 1379,-56.5"/>
<text text-anchor="middle" x="1447" y="-63.5" font-family="Helvetica,sans-Serif" font-size="10.00">bits/pthreadtypes&#45;arch.h</text>
</a>
</g>
</g>
<!-- Node37&#45;&gt;Node38 -->
<g id="edge55" class="edge">
<title>Node37&#45;&gt;Node38</title>
<path fill="none" stroke="midnightblue" d="M2024.68,-168.37C1969.54,-152.68 1876.43,-127.53 1795,-112 1703.03,-94.46 1596.06,-81.76 1525.25,-74.41"/>
<polygon fill="midnightblue" stroke="midnightblue" points="1525.38,-70.91 1515.07,-73.37 1524.66,-77.87 1525.38,-70.91"/>
</g>
<!-- Node39 -->
<g id="node39" class="node">
<title>Node39</title>
<g id="a_node39"><a xlink:href="struct__mutex_8h.html" target="_top" xlink:title=" ">
<polygon fill="white" stroke="black" points="1952.5,-112.5 1952.5,-131.5 2063.5,-131.5 2063.5,-112.5 1952.5,-112.5"/>
<text text-anchor="middle" x="2008" y="-119.5" font-family="Helvetica,sans-Serif" font-size="10.00">bits/struct_mutex.h</text>
</a>
</g>
</g>
<!-- Node37&#45;&gt;Node39 -->
<g id="edge57" class="edge">
<title>Node37&#45;&gt;Node39</title>
<path fill="none" stroke="midnightblue" d="M2057.6,-168.4C2047.76,-159.4 2035.01,-147.72 2024.89,-138.47"/>
<polygon fill="midnightblue" stroke="midnightblue" points="2027.2,-135.83 2017.46,-131.66 2022.47,-140.99 2027.2,-135.83"/>
</g>
<!-- Node40 -->
<g id="node40" class="node">
<title>Node40</title>
<g id="a_node40"><a xlink:href="struct__rwlock_8h.html" target="_top" xlink:title=" ">
<polygon fill="white" stroke="black" points="2082,-112.5 2082,-131.5 2194,-131.5 2194,-112.5 2082,-112.5"/>
<text text-anchor="middle" x="2138" y="-119.5" font-family="Helvetica,sans-Serif" font-size="10.00">bits/struct_rwlock.h</text>
</a>
</g>
</g>
<!-- Node37&#45;&gt;Node40 -->
<g id="edge58" class="edge">
<title>Node37&#45;&gt;Node40</title>
<path fill="none" stroke="midnightblue" d="M2088.4,-168.4C2098.24,-159.4 2110.99,-147.72 2121.11,-138.47"/>
<polygon fill="midnightblue" stroke="midnightblue" points="2123.53,-140.99 2128.54,-131.66 2118.8,-135.83 2123.53,-140.99"/>
</g>
<!-- Node38&#45;&gt;Node5 -->
<g id="edge56" class="edge">
<title>Node38&#45;&gt;Node5</title>
<path fill="none" stroke="midnightblue" d="M1378.96,-59.47C1246.92,-48.75 958.3,-25.32 837.21,-15.48"/>
<polygon fill="midnightblue" stroke="midnightblue" points="837.31,-11.98 827.06,-14.66 836.74,-18.96 837.31,-11.98"/>
</g>
<!-- Node41&#45;&gt;Node17 -->
<g id="edge60" class="edge">
<title>Node41&#45;&gt;Node17</title>
<path fill="none" stroke="midnightblue" d="M1894.34,-173.98C1859.44,-163.59 1800.35,-146.01 1761.5,-134.45"/>
<polygon fill="midnightblue" stroke="midnightblue" points="1762.18,-131.01 1751.6,-131.51 1760.19,-137.72 1762.18,-131.01"/>
</g>
</g>
</svg>
