<?xml version="1.0" encoding="UTF-8" standalone="no"?>
<!DOCTYPE svg PUBLIC "-//W3C//DTD SVG 1.1//EN"
 "http://www.w3.org/Graphics/SVG/1.1/DTD/svg11.dtd">
<!-- Generated by graphviz version 2.44.1 (0)
 -->
<!-- Title: bits/sockaddr.h Pages: 1 -->
<svg width="1077pt" height="308pt"
 viewBox="0.00 0.00 1077.00 308.00" xmlns="http://www.w3.org/2000/svg" xmlns:xlink="http://www.w3.org/1999/xlink">
<g id="graph0" class="graph" transform="scale(1 1) rotate(0) translate(4 304)">
<title>bits/sockaddr.h</title>
<polygon fill="white" stroke="transparent" points="-4,4 -4,-304 1073,-304 1073,4 -4,4"/>
<!-- Node1 -->
<g id="node1" class="node">
<title>Node1</title>
<g id="a_node1"><a xlink:title=" ">
<polygon fill="#bfbfbf" stroke="black" points="600,-280.5 600,-299.5 689,-299.5 689,-280.5 600,-280.5"/>
<text text-anchor="middle" x="644.5" y="-287.5" font-family="Helvetica,sans-Serif" font-size="10.00">bits/sockaddr.h</text>
</a>
</g>
</g>
<!-- Node2 -->
<g id="node2" class="node">
<title>Node2</title>
<g id="a_node2"><a xlink:href="bits_2socket_8h.html" target="_top" xlink:title=" ">
<polygon fill="white" stroke="black" points="299.5,-224.5 299.5,-243.5 377.5,-243.5 377.5,-224.5 299.5,-224.5"/>
<text text-anchor="middle" x="338.5" y="-231.5" font-family="Helvetica,sans-Serif" font-size="10.00">bits/socket.h</text>
</a>
</g>
</g>
<!-- Node1&#45;&gt;Node2 -->
<g id="edge1" class="edge">
<title>Node1&#45;&gt;Node2</title>
<path fill="none" stroke="midnightblue" d="M589.67,-279.64C537.41,-270.68 456.55,-256.68 386.5,-244 383.58,-243.47 380.56,-242.92 377.53,-242.36"/>
<polygon fill="midnightblue" stroke="midnightblue" points="589.28,-283.13 599.72,-281.37 590.46,-276.23 589.28,-283.13"/>
</g>
<!-- Node7 -->
<g id="node7" class="node">
<title>Node7</title>
<g id="a_node7"><a xlink:href="at_8h.html" target="_top" xlink:title=" ">
<polygon fill="white" stroke="black" points="0,-112.5 0,-131.5 79,-131.5 79,-112.5 0,-112.5"/>
<text text-anchor="middle" x="39.5" y="-119.5" font-family="Helvetica,sans-Serif" font-size="10.00">netatalk/at.h</text>
</a>
</g>
</g>
<!-- Node1&#45;&gt;Node7 -->
<g id="edge23" class="edge">
<title>Node1&#45;&gt;Node7</title>
<path fill="none" stroke="midnightblue" d="M589.54,-287.48C518.97,-284.29 393.34,-274.44 290.5,-244 194.71,-215.64 90.14,-154.3 53.28,-131.64"/>
<polygon fill="midnightblue" stroke="midnightblue" points="589.83,-290.99 599.96,-287.92 590.12,-284 589.83,-290.99"/>
</g>
<!-- Node20 -->
<g id="node20" class="node">
<title>Node20</title>
<g id="a_node20"><a xlink:href="if__packet_8h.html" target="_top" xlink:title=" ">
<polygon fill="white" stroke="black" points="396,-224.5 396,-243.5 485,-243.5 485,-224.5 396,-224.5"/>
<text text-anchor="middle" x="440.5" y="-231.5" font-family="Helvetica,sans-Serif" font-size="10.00">net/if_packet.h</text>
</a>
</g>
</g>
<!-- Node1&#45;&gt;Node20 -->
<g id="edge21" class="edge">
<title>Node1&#45;&gt;Node20</title>
<path fill="none" stroke="midnightblue" d="M602.3,-277.83C563.78,-267.63 507.68,-252.78 472.67,-243.52"/>
<polygon fill="midnightblue" stroke="midnightblue" points="601.61,-281.27 612.18,-280.44 603.4,-274.5 601.61,-281.27"/>
</g>
<!-- Node21 -->
<g id="node21" class="node">
<title>Node21</title>
<g id="a_node21"><a xlink:href="ash_8h.html" target="_top" xlink:title=" ">
<polygon fill="white" stroke="black" points="503,-224.5 503,-243.5 582,-243.5 582,-224.5 503,-224.5"/>
<text text-anchor="middle" x="542.5" y="-231.5" font-family="Helvetica,sans-Serif" font-size="10.00">netash/ash.h</text>
</a>
</g>
</g>
<!-- Node1&#45;&gt;Node21 -->
<g id="edge22" class="edge">
<title>Node1&#45;&gt;Node21</title>
<path fill="none" stroke="midnightblue" d="M619.17,-275.59C600.31,-265.61 575.12,-252.27 558.85,-243.65"/>
<polygon fill="midnightblue" stroke="midnightblue" points="617.64,-278.74 628.11,-280.32 620.91,-272.55 617.64,-278.74"/>
</g>
<!-- Node22 -->
<g id="node22" class="node">
<title>Node22</title>
<g id="a_node22"><a xlink:href="ec_8h.html" target="_top" xlink:title=" ">
<polygon fill="white" stroke="black" points="600,-224.5 600,-243.5 689,-243.5 689,-224.5 600,-224.5"/>
<text text-anchor="middle" x="644.5" y="-231.5" font-family="Helvetica,sans-Serif" font-size="10.00">neteconet/ec.h</text>
</a>
</g>
</g>
<!-- Node1&#45;&gt;Node22 -->
<g id="edge24" class="edge">
<title>Node1&#45;&gt;Node22</title>
<path fill="none" stroke="midnightblue" d="M644.5,-269.8C644.5,-260.91 644.5,-250.78 644.5,-243.75"/>
<polygon fill="midnightblue" stroke="midnightblue" points="641,-270.08 644.5,-280.08 648,-270.08 641,-270.08"/>
</g>
<!-- Node23 -->
<g id="node23" class="node">
<title>Node23</title>
<g id="a_node23"><a xlink:href="ax25_8h.html" target="_top" xlink:title=" ">
<polygon fill="white" stroke="black" points="707.5,-224.5 707.5,-243.5 799.5,-243.5 799.5,-224.5 707.5,-224.5"/>
<text text-anchor="middle" x="753.5" y="-231.5" font-family="Helvetica,sans-Serif" font-size="10.00">netax25/ax25.h</text>
</a>
</g>
</g>
<!-- Node1&#45;&gt;Node23 -->
<g id="edge25" class="edge">
<title>Node1&#45;&gt;Node23</title>
<path fill="none" stroke="midnightblue" d="M671.02,-275.86C691.23,-265.85 718.49,-252.35 736.03,-243.65"/>
<polygon fill="midnightblue" stroke="midnightblue" points="669.42,-272.75 662.01,-280.32 672.53,-279.02 669.42,-272.75"/>
</g>
<!-- Node25 -->
<g id="node25" class="node">
<title>Node25</title>
<g id="a_node25"><a xlink:href="iucv_8h.html" target="_top" xlink:title=" ">
<polygon fill="white" stroke="black" points="817.5,-224.5 817.5,-243.5 901.5,-243.5 901.5,-224.5 817.5,-224.5"/>
<text text-anchor="middle" x="859.5" y="-231.5" font-family="Helvetica,sans-Serif" font-size="10.00">netiucv/iucv.h</text>
</a>
</g>
</g>
<!-- Node1&#45;&gt;Node25 -->
<g id="edge28" class="edge">
<title>Node1&#45;&gt;Node25</title>
<path fill="none" stroke="midnightblue" d="M688.46,-277.96C729.07,-267.76 788.54,-252.82 825.59,-243.52"/>
<polygon fill="midnightblue" stroke="midnightblue" points="687.41,-274.61 678.57,-280.44 689.12,-281.4 687.41,-274.61"/>
</g>
<!-- Node26 -->
<g id="node26" class="node">
<title>Node26</title>
<g id="a_node26"><a xlink:href="ipx_8h.html" target="_top" xlink:title=" ">
<polygon fill="white" stroke="black" points="919.5,-224.5 919.5,-243.5 993.5,-243.5 993.5,-224.5 919.5,-224.5"/>
<text text-anchor="middle" x="956.5" y="-231.5" font-family="Helvetica,sans-Serif" font-size="10.00">netipx/ipx.h</text>
</a>
</g>
</g>
<!-- Node1&#45;&gt;Node26 -->
<g id="edge29" class="edge">
<title>Node1&#45;&gt;Node26</title>
<path fill="none" stroke="midnightblue" d="M699.29,-280.15C753.12,-271.36 837.56,-257.3 910.5,-244 913.38,-243.47 916.36,-242.92 919.36,-242.35"/>
<polygon fill="midnightblue" stroke="midnightblue" points="698.58,-276.72 689.27,-281.79 699.71,-283.63 698.58,-276.72"/>
</g>
<!-- Node27 -->
<g id="node27" class="node">
<title>Node27</title>
<g id="a_node27"><a xlink:href="un_8h.html" target="_top" xlink:title=" ">
<polygon fill="white" stroke="black" points="1012,-224.5 1012,-243.5 1069,-243.5 1069,-224.5 1012,-224.5"/>
<text text-anchor="middle" x="1040.5" y="-231.5" font-family="Helvetica,sans-Serif" font-size="10.00">sys/un.h</text>
</a>
</g>
</g>
<!-- Node1&#45;&gt;Node27 -->
<g id="edge30" class="edge">
<title>Node1&#45;&gt;Node27</title>
<path fill="none" stroke="midnightblue" d="M699.08,-283.98C769.52,-277.08 895.72,-263.3 1002.5,-244 1005.57,-243.45 1008.76,-242.8 1011.94,-242.11"/>
<polygon fill="midnightblue" stroke="midnightblue" points="698.72,-280.5 689.1,-284.95 699.39,-287.47 698.72,-280.5"/>
</g>
<!-- Node3 -->
<g id="node3" class="node">
<title>Node3</title>
<g id="a_node3"><a xlink:href="sys_2socket_8h.html" target="_top" xlink:title=" ">
<polygon fill="white" stroke="black" points="300,-168.5 300,-187.5 377,-187.5 377,-168.5 300,-168.5"/>
<text text-anchor="middle" x="338.5" y="-175.5" font-family="Helvetica,sans-Serif" font-size="10.00">sys/socket.h</text>
</a>
</g>
</g>
<!-- Node2&#45;&gt;Node3 -->
<g id="edge2" class="edge">
<title>Node2&#45;&gt;Node3</title>
<path fill="none" stroke="midnightblue" d="M338.5,-213.8C338.5,-204.91 338.5,-194.78 338.5,-187.75"/>
<polygon fill="midnightblue" stroke="midnightblue" points="335,-214.08 338.5,-224.08 342,-214.08 335,-214.08"/>
</g>
<!-- Node4 -->
<g id="node4" class="node">
<title>Node4</title>
<g id="a_node4"><a xlink:href="ifaddrs_8h.html" target="_top" xlink:title=" ">
<polygon fill="white" stroke="black" points="97,-112.5 97,-131.5 156,-131.5 156,-112.5 97,-112.5"/>
<text text-anchor="middle" x="126.5" y="-119.5" font-family="Helvetica,sans-Serif" font-size="10.00">ifaddrs.h</text>
</a>
</g>
</g>
<!-- Node3&#45;&gt;Node4 -->
<g id="edge3" class="edge">
<title>Node3&#45;&gt;Node4</title>
<path fill="none" stroke="midnightblue" d="M295.09,-165.94C253.64,-155.39 192.31,-139.76 156.17,-130.56"/>
<polygon fill="midnightblue" stroke="midnightblue" points="294.35,-169.37 304.91,-168.44 296.08,-162.58 294.35,-169.37"/>
</g>
<!-- Node5 -->
<g id="node5" class="node">
<title>Node5</title>
<g id="a_node5"><a xlink:href="if__arp_8h.html" target="_top" xlink:title=" ">
<polygon fill="white" stroke="black" points="174.5,-112.5 174.5,-131.5 246.5,-131.5 246.5,-112.5 174.5,-112.5"/>
<text text-anchor="middle" x="210.5" y="-119.5" font-family="Helvetica,sans-Serif" font-size="10.00">net/if_arp.h</text>
</a>
</g>
</g>
<!-- Node3&#45;&gt;Node5 -->
<g id="edge4" class="edge">
<title>Node3&#45;&gt;Node5</title>
<path fill="none" stroke="midnightblue" d="M308.88,-164.5C284.88,-154.38 251.72,-140.39 230.69,-131.52"/>
<polygon fill="midnightblue" stroke="midnightblue" points="307.64,-167.78 318.22,-168.44 310.36,-161.33 307.64,-167.78"/>
</g>
<!-- Node6 -->
<g id="node6" class="node">
<title>Node6</title>
<g id="a_node6"><a xlink:href="route_8h.html" target="_top" xlink:title=" ">
<polygon fill="white" stroke="black" points="12.5,-56.5 12.5,-75.5 82.5,-75.5 82.5,-56.5 12.5,-56.5"/>
<text text-anchor="middle" x="47.5" y="-63.5" font-family="Helvetica,sans-Serif" font-size="10.00">net/route.h</text>
</a>
</g>
</g>
<!-- Node3&#45;&gt;Node6 -->
<g id="edge5" class="edge">
<title>Node3&#45;&gt;Node6</title>
<path fill="none" stroke="midnightblue" d="M322.95,-161.23C307.29,-146.27 281.74,-124.31 255.5,-112 247.66,-108.32 139.72,-85.89 82.52,-74.15"/>
<polygon fill="midnightblue" stroke="midnightblue" points="320.6,-163.82 330.19,-168.32 325.5,-158.82 320.6,-163.82"/>
</g>
<!-- Node3&#45;&gt;Node7 -->
<g id="edge6" class="edge">
<title>Node3&#45;&gt;Node7</title>
<path fill="none" stroke="midnightblue" d="M289.78,-168.38C239.19,-159.41 157.77,-144.89 87.5,-132 84.75,-131.5 81.91,-130.97 79.05,-130.44"/>
<polygon fill="midnightblue" stroke="midnightblue" points="289.33,-171.86 299.78,-170.16 290.55,-164.97 289.33,-171.86"/>
</g>
<!-- Node8 -->
<g id="node8" class="node">
<title>Node8</title>
<g id="a_node8"><a xlink:href="netinet_2in_8h.html" target="_top" xlink:title=" ">
<polygon fill="white" stroke="black" points="302.5,-112.5 302.5,-131.5 374.5,-131.5 374.5,-112.5 302.5,-112.5"/>
<text text-anchor="middle" x="338.5" y="-119.5" font-family="Helvetica,sans-Serif" font-size="10.00">netinet/in.h</text>
</a>
</g>
</g>
<!-- Node3&#45;&gt;Node8 -->
<g id="edge7" class="edge">
<title>Node3&#45;&gt;Node8</title>
<path fill="none" stroke="midnightblue" d="M338.5,-157.8C338.5,-148.91 338.5,-138.78 338.5,-131.75"/>
<polygon fill="midnightblue" stroke="midnightblue" points="335,-158.08 338.5,-168.08 342,-158.08 335,-158.08"/>
</g>
<!-- Node16 -->
<g id="node16" class="node">
<title>Node16</title>
<g id="a_node16"><a xlink:href="rose_8h.html" target="_top" xlink:title=" ">
<polygon fill="white" stroke="black" points="742.5,-112.5 742.5,-131.5 828.5,-131.5 828.5,-112.5 742.5,-112.5"/>
<text text-anchor="middle" x="785.5" y="-119.5" font-family="Helvetica,sans-Serif" font-size="10.00">netrose/rose.h</text>
</a>
</g>
</g>
<!-- Node3&#45;&gt;Node16 -->
<g id="edge17" class="edge">
<title>Node3&#45;&gt;Node16</title>
<path fill="none" stroke="midnightblue" d="M387.04,-172.38C461.67,-165.08 609.03,-149.85 733.5,-132 736.4,-131.58 739.39,-131.13 742.4,-130.66"/>
<polygon fill="midnightblue" stroke="midnightblue" points="386.62,-168.91 377,-173.36 387.3,-175.88 386.62,-168.91"/>
</g>
<!-- Node17 -->
<g id="node17" class="node">
<title>Node17</title>
<g id="a_node17"><a xlink:href="routed_8h.html" target="_top" xlink:title=" ">
<polygon fill="white" stroke="black" points="393,-112.5 393,-131.5 498,-131.5 498,-112.5 393,-112.5"/>
<text text-anchor="middle" x="445.5" y="-119.5" font-family="Helvetica,sans-Serif" font-size="10.00">protocols/routed.h</text>
</a>
</g>
</g>
<!-- Node3&#45;&gt;Node17 -->
<g id="edge18" class="edge">
<title>Node3&#45;&gt;Node17</title>
<path fill="none" stroke="midnightblue" d="M364.8,-163.73C384.61,-153.73 411.21,-140.31 428.35,-131.65"/>
<polygon fill="midnightblue" stroke="midnightblue" points="363.04,-160.69 355.69,-168.32 366.2,-166.94 363.04,-160.69"/>
</g>
<!-- Node18 -->
<g id="node18" class="node">
<title>Node18</title>
<g id="a_node18"><a xlink:href="talkd_8h.html" target="_top" xlink:title=" ">
<polygon fill="white" stroke="black" points="516.5,-112.5 516.5,-131.5 614.5,-131.5 614.5,-112.5 516.5,-112.5"/>
<text text-anchor="middle" x="565.5" y="-119.5" font-family="Helvetica,sans-Serif" font-size="10.00">protocols/talkd.h</text>
</a>
</g>
</g>
<!-- Node3&#45;&gt;Node18 -->
<g id="edge19" class="edge">
<title>Node3&#45;&gt;Node18</title>
<path fill="none" stroke="midnightblue" d="M384.37,-166.09C427.25,-155.89 490.42,-140.86 529.7,-131.52"/>
<polygon fill="midnightblue" stroke="midnightblue" points="383.39,-162.72 374.47,-168.44 385.01,-169.53 383.39,-162.72"/>
</g>
<!-- Node19 -->
<g id="node19" class="node">
<title>Node19</title>
<g id="a_node19"><a xlink:href="socketvar_8h.html" target="_top" xlink:title=" ">
<polygon fill="white" stroke="black" points="632.5,-112.5 632.5,-131.5 724.5,-131.5 724.5,-112.5 632.5,-112.5"/>
<text text-anchor="middle" x="678.5" y="-119.5" font-family="Helvetica,sans-Serif" font-size="10.00">sys/socketvar.h</text>
</a>
</g>
</g>
<!-- Node3&#45;&gt;Node19 -->
<g id="edge20" class="edge">
<title>Node3&#45;&gt;Node19</title>
<path fill="none" stroke="midnightblue" d="M387.36,-169.37C444.13,-160.49 540.62,-145.32 623.5,-132 626.37,-131.54 629.32,-131.06 632.29,-130.58"/>
<polygon fill="midnightblue" stroke="midnightblue" points="386.57,-165.95 377.23,-170.95 387.65,-172.87 386.57,-165.95"/>
</g>
<!-- Node8&#45;&gt;Node6 -->
<g id="edge11" class="edge">
<title>Node8&#45;&gt;Node6</title>
<path fill="none" stroke="midnightblue" d="M292.12,-112.61C226.1,-100.65 110.85,-79.74 91.5,-76 88.59,-75.44 85.58,-74.84 82.55,-74.24"/>
<polygon fill="midnightblue" stroke="midnightblue" points="291.8,-116.11 302.27,-114.44 293.05,-109.22 291.8,-116.11"/>
</g>
<!-- Node9 -->
<g id="node9" class="node">
<title>Node9</title>
<g id="a_node9"><a xlink:href="inet_8h.html" target="_top" xlink:title=" ">
<polygon fill="white" stroke="black" points="101,-56.5 101,-75.5 170,-75.5 170,-56.5 101,-56.5"/>
<text text-anchor="middle" x="135.5" y="-63.5" font-family="Helvetica,sans-Serif" font-size="10.00">arpa/inet.h</text>
</a>
</g>
</g>
<!-- Node8&#45;&gt;Node9 -->
<g id="edge8" class="edge">
<title>Node8&#45;&gt;Node9</title>
<path fill="none" stroke="midnightblue" d="M296.51,-109.83C258.18,-99.63 202.35,-84.78 167.52,-75.52"/>
<polygon fill="midnightblue" stroke="midnightblue" points="295.77,-113.26 306.33,-112.44 297.57,-106.49 295.77,-113.26"/>
</g>
<!-- Node10 -->
<g id="node10" class="node">
<title>Node10</title>
<g id="a_node10"><a xlink:href="res__state_8h.html" target="_top" xlink:title=" ">
<polygon fill="white" stroke="black" points="188.5,-56.5 188.5,-75.5 310.5,-75.5 310.5,-56.5 188.5,-56.5"/>
<text text-anchor="middle" x="249.5" y="-63.5" font-family="Helvetica,sans-Serif" font-size="10.00">bits/types/res_state.h</text>
</a>
</g>
</g>
<!-- Node8&#45;&gt;Node10 -->
<g id="edge9" class="edge">
<title>Node8&#45;&gt;Node10</title>
<path fill="none" stroke="midnightblue" d="M315.26,-106.9C298.94,-97 277.63,-84.07 263.76,-75.65"/>
<polygon fill="midnightblue" stroke="midnightblue" points="313.84,-110.13 324.2,-112.32 317.47,-104.14 313.84,-110.13"/>
</g>
<!-- Node11 -->
<g id="node11" class="node">
<title>Node11</title>
<g id="a_node11"><a xlink:href="resolv_8h.html" target="_top" xlink:title=" ">
<polygon fill="white" stroke="black" points="266,-0.5 266,-19.5 321,-19.5 321,-0.5 266,-0.5"/>
<text text-anchor="middle" x="293.5" y="-7.5" font-family="Helvetica,sans-Serif" font-size="10.00">resolv.h</text>
</a>
</g>
</g>
<!-- Node8&#45;&gt;Node11 -->
<g id="edge16" class="edge">
<title>Node8&#45;&gt;Node11</title>
<path fill="none" stroke="midnightblue" d="M334.36,-102.56C331.09,-89.32 326,-71.2 319.5,-56 313.82,-42.73 305.09,-28.47 299.33,-19.64"/>
<polygon fill="midnightblue" stroke="midnightblue" points="330.97,-103.43 336.67,-112.36 337.79,-101.82 330.97,-103.43"/>
</g>
<!-- Node12 -->
<g id="node12" class="node">
<title>Node12</title>
<g id="a_node12"><a xlink:href="icmp6_8h.html" target="_top" xlink:title=" ">
<polygon fill="white" stroke="black" points="367,-56.5 367,-75.5 460,-75.5 460,-56.5 367,-56.5"/>
<text text-anchor="middle" x="413.5" y="-63.5" font-family="Helvetica,sans-Serif" font-size="10.00">netinet/icmp6.h</text>
</a>
</g>
</g>
<!-- Node8&#45;&gt;Node12 -->
<g id="edge12" class="edge">
<title>Node8&#45;&gt;Node12</title>
<path fill="none" stroke="midnightblue" d="M358.81,-106.38C372.36,-96.62 389.74,-84.11 401.23,-75.83"/>
<polygon fill="midnightblue" stroke="midnightblue" points="356.62,-103.64 350.55,-112.32 360.71,-109.32 356.62,-103.64"/>
</g>
<!-- Node13 -->
<g id="node13" class="node">
<title>Node13</title>
<g id="a_node13"><a xlink:href="netdb_8h.html" target="_top" xlink:title=" ">
<polygon fill="white" stroke="black" points="478,-56.5 478,-75.5 531,-75.5 531,-56.5 478,-56.5"/>
<text text-anchor="middle" x="504.5" y="-63.5" font-family="Helvetica,sans-Serif" font-size="10.00">netdb.h</text>
</a>
</g>
</g>
<!-- Node8&#45;&gt;Node13 -->
<g id="edge13" class="edge">
<title>Node8&#45;&gt;Node13</title>
<path fill="none" stroke="midnightblue" d="M374.45,-109.3C405.73,-99.13 450.32,-84.62 478.32,-75.52"/>
<polygon fill="midnightblue" stroke="midnightblue" points="373.23,-106.02 364.8,-112.44 375.4,-112.68 373.23,-106.02"/>
</g>
<!-- Node14 -->
<g id="node14" class="node">
<title>Node14</title>
<g id="a_node14"><a xlink:href="ip_8h.html" target="_top" xlink:title=" ">
<polygon fill="white" stroke="black" points="549.5,-56.5 549.5,-75.5 621.5,-75.5 621.5,-56.5 549.5,-56.5"/>
<text text-anchor="middle" x="585.5" y="-63.5" font-family="Helvetica,sans-Serif" font-size="10.00">netinet/ip.h</text>
</a>
</g>
</g>
<!-- Node8&#45;&gt;Node14 -->
<g id="edge14" class="edge">
<title>Node8&#45;&gt;Node14</title>
<path fill="none" stroke="midnightblue" d="M384.73,-110.89C432.36,-100.48 505.61,-84.47 549.22,-74.93"/>
<polygon fill="midnightblue" stroke="midnightblue" points="383.7,-107.53 374.68,-113.09 385.2,-114.37 383.7,-107.53"/>
</g>
<!-- Node15 -->
<g id="node15" class="node">
<title>Node15</title>
<g id="a_node15"><a xlink:href="ip6_8h.html" target="_top" xlink:title=" ">
<polygon fill="white" stroke="black" points="639.5,-56.5 639.5,-75.5 717.5,-75.5 717.5,-56.5 639.5,-56.5"/>
<text text-anchor="middle" x="678.5" y="-63.5" font-family="Helvetica,sans-Serif" font-size="10.00">netinet/ip6.h</text>
</a>
</g>
</g>
<!-- Node8&#45;&gt;Node15 -->
<g id="edge15" class="edge">
<title>Node8&#45;&gt;Node15</title>
<path fill="none" stroke="midnightblue" d="M384.96,-111.82C494.54,-93.16 524.28,-93.69 630.5,-76 633.43,-75.51 636.45,-74.99 639.49,-74.45"/>
<polygon fill="midnightblue" stroke="midnightblue" points="384.08,-108.42 374.82,-113.57 385.27,-115.32 384.08,-108.42"/>
</g>
<!-- Node10&#45;&gt;Node11 -->
<g id="edge10" class="edge">
<title>Node10&#45;&gt;Node11</title>
<path fill="none" stroke="midnightblue" d="M263.23,-48.14C270.9,-38.74 280.13,-27.4 286.37,-19.75"/>
<polygon fill="midnightblue" stroke="midnightblue" points="260.37,-46.12 256.77,-56.08 265.8,-50.54 260.37,-46.12"/>
</g>
<!-- Node23&#45;&gt;Node16 -->
<g id="edge27" class="edge">
<title>Node23&#45;&gt;Node16</title>
<path fill="none" stroke="midnightblue" d="M758.83,-214.67C765.83,-190.62 777.82,-149.39 783,-131.59"/>
<polygon fill="midnightblue" stroke="midnightblue" points="755.44,-213.79 756.01,-224.37 762.17,-215.74 755.44,-213.79"/>
</g>
<!-- Node24 -->
<g id="node24" class="node">
<title>Node24</title>
<g id="a_node24"><a xlink:href="netrom_8h.html" target="_top" xlink:title=" ">
<polygon fill="white" stroke="black" points="782,-168.5 782,-187.5 881,-187.5 881,-168.5 782,-168.5"/>
<text text-anchor="middle" x="831.5" y="-175.5" font-family="Helvetica,sans-Serif" font-size="10.00">netrom/netrom.h</text>
</a>
</g>
</g>
<!-- Node23&#45;&gt;Node24 -->
<g id="edge26" class="edge">
<title>Node23&#45;&gt;Node24</title>
<path fill="none" stroke="midnightblue" d="M774.27,-218.62C788.52,-208.76 806.96,-195.99 819,-187.65"/>
<polygon fill="midnightblue" stroke="midnightblue" points="772.26,-215.75 766.03,-224.32 776.25,-221.51 772.26,-215.75"/>
</g>
</g>
</svg>
