<?xml version="1.0" encoding="UTF-8" standalone="no"?>
<!DOCTYPE svg PUBLIC "-//W3C//DTD SVG 1.1//EN"
 "http://www.w3.org/Graphics/SVG/1.1/DTD/svg11.dtd">
<!-- Generated by graphviz version 2.44.1 (0)
 -->
<!-- Title: sys/socketvar.h Pages: 1 -->
<!--zoomable 476 -->
<svg id="main" version="1.1" xmlns="http://www.w3.org/2000/svg" xmlns:xlink="http://www.w3.org/1999/xlink" xml:space="preserve" onload="init(evt)">
<style type="text/css"><![CDATA[
.edge:hover path { stroke: red; }
.edge:hover polygon { stroke: red; fill: red; }
]]></style>
<script type="text/javascript"><![CDATA[
var edges = document.getElementsByTagName('g');
if (edges && edges.length) {
  for (var i=0;i<edges.length;i++) {
    if (edges[i].id.substr(0,4)=='edge') {
      edges[i].setAttribute('class','edge');
    }
  }
}
]]></script>
        <defs>
                <circle id="rim" cx="0" cy="0" r="7"/>
                <circle id="rim2" cx="0" cy="0" r="3.5"/>
                <g id="zoomPlus">
                        <use xlink:href="#rim" fill="#404040">
                                <set attributeName="fill" to="#808080" begin="zoomplus.mouseover" end="zoomplus.mouseout"/>
                        </use>
                        <path d="M-4,0h8M0,-4v8" fill="none" stroke="white" stroke-width="1.5" pointer-events="none"/>
                </g>
                <g id="zoomMin">
                        <use xlink:href="#rim" fill="#404040">
                                <set attributeName="fill" to="#808080" begin="zoomminus.mouseover" end="zoomminus.mouseout"/>
                        </use>
                        <path d="M-4,0h8" fill="none" stroke="white" stroke-width="1.5" pointer-events="none"/>
                </g>
                <g id="dirArrow">
                        <path fill="none" stroke="white" stroke-width="1.5" d="M0,-3.0v7 M-2.5,-0.5L0,-3.0L2.5,-0.5"/>
                </g>
               <g id="resetDef">
                       <use xlink:href="#rim2" fill="#404040">
                               <set attributeName="fill" to="#808080" begin="reset.mouseover" end="reset.mouseout"/>
                       </use>
               </g>
        </defs>

<script type="text/javascript">
var viewWidth = 737;
var viewHeight = 476;
var sectionId = 'dynsection-0';
</script>
<script xlink:href="svgpan.js"/>
<svg id="graph" class="graph">
<g id="viewport">
<title>sys/socketvar.h</title>
<polygon fill="white" stroke="transparent" points="-4,4 -4,-472 732.5,-472 732.5,4 -4,4"/>
<!-- Node1 -->
<g id="node1" class="node">
<title>Node1</title>
<g id="a_node1"><a xlink:title=" ">
<polygon fill="#bfbfbf" stroke="black" points="596.5,-448.5 596.5,-467.5 688.5,-467.5 688.5,-448.5 596.5,-448.5"/>
<text text-anchor="middle" x="642.5" y="-455.5" font-family="Helvetica,sans-Serif" font-size="10.00">sys/socketvar.h</text>
</a>
</g>
</g>
<!-- Node2 -->
<g id="node2" class="node">
<title>Node2</title>
<g id="a_node2"><a xlink:href="sys_2socket_8h.html" target="_top" xlink:title=" ">
<polygon fill="white" stroke="black" points="604,-392.5 604,-411.5 681,-411.5 681,-392.5 604,-392.5"/>
<text text-anchor="middle" x="642.5" y="-399.5" font-family="Helvetica,sans-Serif" font-size="10.00">sys/socket.h</text>
</a>
</g>
</g>
<!-- Node1&#45;&gt;Node2 -->
<g id="edge1" class="edge">
<title>Node1&#45;&gt;Node2</title>
<path fill="none" stroke="midnightblue" d="M642.5,-448.08C642.5,-441.01 642.5,-430.86 642.5,-421.99"/>
<polygon fill="midnightblue" stroke="midnightblue" points="646,-421.75 642.5,-411.75 639,-421.75 646,-421.75"/>
</g>
<!-- Node3 -->
<g id="node3" class="node">
<title>Node3</title>
<g id="a_node3"><a xlink:href="features_8h.html" target="_top" xlink:title=" ">
<polygon fill="white" stroke="black" points="573.5,-112.5 573.5,-131.5 639.5,-131.5 639.5,-112.5 573.5,-112.5"/>
<text text-anchor="middle" x="606.5" y="-119.5" font-family="Helvetica,sans-Serif" font-size="10.00">features.h</text>
</a>
</g>
</g>
<!-- Node2&#45;&gt;Node3 -->
<g id="edge2" class="edge">
<title>Node2&#45;&gt;Node3</title>
<path fill="none" stroke="midnightblue" d="M656.32,-392.28C680.63,-375.74 728.5,-337.3 728.5,-291 728.5,-291 728.5,-291 728.5,-233 728.5,-184.57 674.81,-151.99 638.67,-135.54"/>
<polygon fill="midnightblue" stroke="midnightblue" points="640.01,-132.31 629.45,-131.52 637.21,-138.72 640.01,-132.31"/>
</g>
<!-- Node10 -->
<g id="node10" class="node">
<title>Node10</title>
<g id="a_node10"><a xlink:href="struct__iovec_8h.html" target="_top" xlink:title=" ">
<polygon fill="white" stroke="black" points="526.5,-336.5 526.5,-355.5 662.5,-355.5 662.5,-336.5 526.5,-336.5"/>
<text text-anchor="middle" x="594.5" y="-343.5" font-family="Helvetica,sans-Serif" font-size="10.00">bits/types/struct_iovec.h</text>
</a>
</g>
</g>
<!-- Node2&#45;&gt;Node10 -->
<g id="edge10" class="edge">
<title>Node2&#45;&gt;Node10</title>
<path fill="none" stroke="midnightblue" d="M634.57,-392.08C627.65,-384.3 617.43,-372.8 609.05,-363.37"/>
<polygon fill="midnightblue" stroke="midnightblue" points="611.54,-360.9 602.28,-355.75 606.31,-365.55 611.54,-360.9"/>
</g>
<!-- Node11 -->
<g id="node11" class="node">
<title>Node11</title>
<g id="a_node11"><a xlink:title=" ">
<polygon fill="white" stroke="#bfbfbf" points="634.5,-224.5 634.5,-243.5 690.5,-243.5 690.5,-224.5 634.5,-224.5"/>
<text text-anchor="middle" x="662.5" y="-231.5" font-family="Helvetica,sans-Serif" font-size="10.00">stddef.h</text>
</a>
</g>
</g>
<!-- Node2&#45;&gt;Node11 -->
<g id="edge12" class="edge">
<title>Node2&#45;&gt;Node11</title>
<path fill="none" stroke="midnightblue" d="M650.17,-392.46C657.28,-383.93 667.35,-370.09 671.5,-356 681.82,-320.94 674.02,-277.81 667.91,-253.67"/>
<polygon fill="midnightblue" stroke="midnightblue" points="671.22,-252.47 665.22,-243.73 664.46,-254.3 671.22,-252.47"/>
</g>
<!-- Node12 -->
<g id="node12" class="node">
<title>Node12</title>
<g id="a_node12"><a xlink:href="bits_2socket_8h.html" target="_top" xlink:title=" ">
<polygon fill="white" stroke="black" points="417.5,-336.5 417.5,-355.5 495.5,-355.5 495.5,-336.5 417.5,-336.5"/>
<text text-anchor="middle" x="456.5" y="-343.5" font-family="Helvetica,sans-Serif" font-size="10.00">bits/socket.h</text>
</a>
</g>
</g>
<!-- Node2&#45;&gt;Node12 -->
<g id="edge13" class="edge">
<title>Node2&#45;&gt;Node12</title>
<path fill="none" stroke="midnightblue" d="M613.03,-392.44C581.33,-383.24 530.77,-368.56 495.73,-358.39"/>
<polygon fill="midnightblue" stroke="midnightblue" points="496.41,-354.94 485.83,-355.52 494.46,-361.67 496.41,-354.94"/>
</g>
<!-- Node4 -->
<g id="node4" class="node">
<title>Node4</title>
<g id="a_node4"><a xlink:href="stdc-predef_8h.html" target="_top" xlink:title=" ">
<polygon fill="white" stroke="black" points="509.5,-56.5 509.5,-75.5 589.5,-75.5 589.5,-56.5 509.5,-56.5"/>
<text text-anchor="middle" x="549.5" y="-63.5" font-family="Helvetica,sans-Serif" font-size="10.00">stdc&#45;predef.h</text>
</a>
</g>
</g>
<!-- Node3&#45;&gt;Node4 -->
<g id="edge3" class="edge">
<title>Node3&#45;&gt;Node4</title>
<path fill="none" stroke="midnightblue" d="M597.34,-112.32C589,-104.42 576.47,-92.55 566.32,-82.94"/>
<polygon fill="midnightblue" stroke="midnightblue" points="568.49,-80.17 558.82,-75.83 563.68,-85.25 568.49,-80.17"/>
</g>
<!-- Node5 -->
<g id="node5" class="node">
<title>Node5</title>
<g id="a_node5"><a xlink:href="cdefs_8h.html" target="_top" xlink:title=" ">
<polygon fill="white" stroke="black" points="608,-56.5 608,-75.5 679,-75.5 679,-56.5 608,-56.5"/>
<text text-anchor="middle" x="643.5" y="-63.5" font-family="Helvetica,sans-Serif" font-size="10.00">sys/cdefs.h</text>
</a>
</g>
</g>
<!-- Node3&#45;&gt;Node5 -->
<g id="edge4" class="edge">
<title>Node3&#45;&gt;Node5</title>
<path fill="none" stroke="midnightblue" d="M607.44,-112.08C611.1,-104.38 618.5,-93.03 625.8,-83.65"/>
<polygon fill="midnightblue" stroke="midnightblue" points="628.67,-85.68 632.37,-75.75 623.29,-81.2 628.67,-85.68"/>
</g>
<!-- Node8 -->
<g id="node8" class="node">
<title>Node8</title>
<g id="a_node8"><a xlink:href="stubs_8h.html" target="_top" xlink:title=" ">
<polygon fill="white" stroke="black" points="418,-56.5 418,-75.5 491,-75.5 491,-56.5 418,-56.5"/>
<text text-anchor="middle" x="454.5" y="-63.5" font-family="Helvetica,sans-Serif" font-size="10.00">gnu/stubs.h</text>
</a>
</g>
</g>
<!-- Node3&#45;&gt;Node8 -->
<g id="edge8" class="edge">
<title>Node3&#45;&gt;Node8</title>
<path fill="none" stroke="midnightblue" d="M582.42,-112.44C556.96,-103.4 516.61,-89.06 488.04,-78.92"/>
<polygon fill="midnightblue" stroke="midnightblue" points="489.07,-75.57 478.47,-75.52 486.72,-82.16 489.07,-75.57"/>
</g>
<!-- Node5&#45;&gt;Node3 -->
<g id="edge5" class="edge">
<title>Node5&#45;&gt;Node3</title>
<path fill="none" stroke="midnightblue" d="M642.63,-75.75C639.03,-83.4 631.66,-94.74 624.36,-104.14"/>
<polygon fill="midnightblue" stroke="midnightblue" points="621.46,-102.15 617.78,-112.08 626.85,-106.62 621.46,-102.15"/>
</g>
<!-- Node6 -->
<g id="node6" class="node">
<title>Node6</title>
<g id="a_node6"><a xlink:href="wordsize_8h.html" target="_top" xlink:title=" ">
<polygon fill="white" stroke="black" points="323.5,-0.5 323.5,-19.5 413.5,-19.5 413.5,-0.5 323.5,-0.5"/>
<text text-anchor="middle" x="368.5" y="-7.5" font-family="Helvetica,sans-Serif" font-size="10.00">bits/wordsize.h</text>
</a>
</g>
</g>
<!-- Node5&#45;&gt;Node6 -->
<g id="edge6" class="edge">
<title>Node5&#45;&gt;Node6</title>
<path fill="none" stroke="midnightblue" d="M607.64,-57.81C604.55,-57.2 601.47,-56.59 598.5,-56 538.26,-44.08 469.11,-30.58 422.49,-21.5"/>
<polygon fill="midnightblue" stroke="midnightblue" points="423.09,-18.05 412.6,-19.57 421.75,-24.92 423.09,-18.05"/>
</g>
<!-- Node7 -->
<g id="node7" class="node">
<title>Node7</title>
<g id="a_node7"><a xlink:href="long-double_8h.html" target="_top" xlink:title=" ">
<polygon fill="white" stroke="black" points="591.5,-0.5 591.5,-19.5 695.5,-19.5 695.5,-0.5 591.5,-0.5"/>
<text text-anchor="middle" x="643.5" y="-7.5" font-family="Helvetica,sans-Serif" font-size="10.00">bits/long&#45;double.h</text>
</a>
</g>
</g>
<!-- Node5&#45;&gt;Node7 -->
<g id="edge7" class="edge">
<title>Node5&#45;&gt;Node7</title>
<path fill="none" stroke="midnightblue" d="M643.5,-56.08C643.5,-49.01 643.5,-38.86 643.5,-29.99"/>
<polygon fill="midnightblue" stroke="midnightblue" points="647,-29.75 643.5,-19.75 640,-29.75 647,-29.75"/>
</g>
<!-- Node9 -->
<g id="node9" class="node">
<title>Node9</title>
<g id="a_node9"><a xlink:title=" ">
<polygon fill="white" stroke="#bfbfbf" points="432,-0.5 432,-19.5 521,-19.5 521,-0.5 432,-0.5"/>
<text text-anchor="middle" x="476.5" y="-7.5" font-family="Helvetica,sans-Serif" font-size="10.00">gnu/stubs&#45;32.h</text>
</a>
</g>
</g>
<!-- Node8&#45;&gt;Node9 -->
<g id="edge9" class="edge">
<title>Node8&#45;&gt;Node9</title>
<path fill="none" stroke="midnightblue" d="M458.13,-56.08C461.11,-48.77 465.43,-38.18 469.12,-29.1"/>
<polygon fill="midnightblue" stroke="midnightblue" points="472.4,-30.33 472.93,-19.75 465.92,-27.69 472.4,-30.33"/>
</g>
<!-- Node10&#45;&gt;Node11 -->
<g id="edge11" class="edge">
<title>Node10&#45;&gt;Node11</title>
<path fill="none" stroke="midnightblue" d="M601.72,-336.35C608.93,-327.51 620.12,-313.24 628.5,-300 638.27,-284.57 647.77,-266.02 654.23,-252.7"/>
<polygon fill="midnightblue" stroke="midnightblue" points="657.39,-254.2 658.53,-243.66 651.07,-251.19 657.39,-254.2"/>
</g>
<!-- Node12&#45;&gt;Node11 -->
<g id="edge14" class="edge">
<title>Node12&#45;&gt;Node11</title>
<path fill="none" stroke="midnightblue" d="M495.67,-337.37C524.69,-330.55 564.42,-318.7 595.5,-300 616.86,-287.15 636.74,-266.28 649.21,-251.66"/>
<polygon fill="midnightblue" stroke="midnightblue" points="651.96,-253.82 655.65,-243.88 646.57,-249.35 651.96,-253.82"/>
</g>
<!-- Node13 -->
<g id="node13" class="node">
<title>Node13</title>
<g id="a_node13"><a xlink:href="sys_2types_8h.html" target="_top" xlink:title=" ">
<polygon fill="white" stroke="black" points="406.5,-280.5 406.5,-299.5 478.5,-299.5 478.5,-280.5 406.5,-280.5"/>
<text text-anchor="middle" x="442.5" y="-287.5" font-family="Helvetica,sans-Serif" font-size="10.00">sys/types.h</text>
</a>
</g>
</g>
<!-- Node12&#45;&gt;Node13 -->
<g id="edge15" class="edge">
<title>Node12&#45;&gt;Node13</title>
<path fill="none" stroke="midnightblue" d="M454.19,-336.08C452.33,-328.93 449.66,-318.64 447.35,-309.69"/>
<polygon fill="midnightblue" stroke="midnightblue" points="450.67,-308.55 444.77,-299.75 443.89,-310.31 450.67,-308.55"/>
</g>
<!-- Node22 -->
<g id="node22" class="node">
<title>Node22</title>
<g id="a_node22"><a xlink:href="socket__type_8h.html" target="_top" xlink:title=" ">
<polygon fill="white" stroke="black" points="283,-280.5 283,-299.5 388,-299.5 388,-280.5 283,-280.5"/>
<text text-anchor="middle" x="335.5" y="-287.5" font-family="Helvetica,sans-Serif" font-size="10.00">bits/socket_type.h</text>
</a>
</g>
</g>
<!-- Node12&#45;&gt;Node22 -->
<g id="edge32" class="edge">
<title>Node12&#45;&gt;Node22</title>
<path fill="none" stroke="midnightblue" d="M437.33,-336.44C417.59,-327.64 386.61,-313.81 364.01,-303.72"/>
<polygon fill="midnightblue" stroke="midnightblue" points="365.14,-300.4 354.58,-299.52 362.29,-306.79 365.14,-300.4"/>
</g>
<!-- Node23 -->
<g id="node23" class="node">
<title>Node23</title>
<g id="a_node23"><a xlink:href="sockaddr_8h.html" target="_top" xlink:title=" ">
<polygon fill="white" stroke="black" points="497,-280.5 497,-299.5 586,-299.5 586,-280.5 497,-280.5"/>
<text text-anchor="middle" x="541.5" y="-287.5" font-family="Helvetica,sans-Serif" font-size="10.00">bits/sockaddr.h</text>
</a>
</g>
</g>
<!-- Node12&#45;&gt;Node23 -->
<g id="edge33" class="edge">
<title>Node12&#45;&gt;Node23</title>
<path fill="none" stroke="midnightblue" d="M470.16,-336.32C483.42,-327.9 503.77,-314.97 519.35,-305.07"/>
<polygon fill="midnightblue" stroke="midnightblue" points="521.31,-307.97 527.88,-299.65 517.56,-302.06 521.31,-307.97"/>
</g>
<!-- Node24 -->
<g id="node24" class="node">
<title>Node24</title>
<g id="a_node24"><a xlink:href="socket-constants_8h.html" target="_top" xlink:title=" ">
<polygon fill="white" stroke="black" points="0,-168.5 0,-187.5 129,-187.5 129,-168.5 0,-168.5"/>
<text text-anchor="middle" x="64.5" y="-175.5" font-family="Helvetica,sans-Serif" font-size="10.00">bits/socket&#45;constants.h</text>
</a>
</g>
</g>
<!-- Node12&#45;&gt;Node24 -->
<g id="edge34" class="edge">
<title>Node12&#45;&gt;Node24</title>
<path fill="none" stroke="midnightblue" d="M417.34,-341.55C322.8,-332.32 86.42,-303.64 39.5,-244 28.23,-229.68 38.9,-209.69 49.58,-195.67"/>
<polygon fill="midnightblue" stroke="midnightblue" points="52.38,-197.77 56.03,-187.82 46.98,-193.32 52.38,-197.77"/>
</g>
<!-- Node13&#45;&gt;Node3 -->
<g id="edge16" class="edge">
<title>Node13&#45;&gt;Node3</title>
<path fill="none" stroke="midnightblue" d="M475.46,-280.42C507.36,-271.52 552.71,-257.1 565.5,-244 593.17,-215.66 602.19,-167.98 605.11,-141.73"/>
<polygon fill="midnightblue" stroke="midnightblue" points="608.61,-141.9 606.05,-131.62 601.64,-141.25 608.61,-141.9"/>
</g>
<!-- Node13&#45;&gt;Node11 -->
<g id="edge29" class="edge">
<title>Node13&#45;&gt;Node11</title>
<path fill="none" stroke="midnightblue" d="M477.36,-280.44C517.46,-270.6 583.07,-254.5 624.46,-244.34"/>
<polygon fill="midnightblue" stroke="midnightblue" points="625.56,-247.67 634.44,-241.89 623.89,-240.87 625.56,-247.67"/>
</g>
<!-- Node14 -->
<g id="node14" class="node">
<title>Node14</title>
<g id="a_node14"><a xlink:href="bits_2types_8h.html" target="_top" xlink:title=" ">
<polygon fill="white" stroke="black" points="331.5,-168.5 331.5,-187.5 405.5,-187.5 405.5,-168.5 331.5,-168.5"/>
<text text-anchor="middle" x="368.5" y="-175.5" font-family="Helvetica,sans-Serif" font-size="10.00">bits/types.h</text>
</a>
</g>
</g>
<!-- Node13&#45;&gt;Node14 -->
<g id="edge17" class="edge">
<title>Node13&#45;&gt;Node14</title>
<path fill="none" stroke="midnightblue" d="M478.67,-281.69C517.93,-272.11 572.19,-253.02 549.5,-224 533.2,-203.15 463.89,-190.57 415.93,-184.21"/>
<polygon fill="midnightblue" stroke="midnightblue" points="416.11,-180.71 405.75,-182.91 415.22,-187.65 416.11,-180.71"/>
</g>
<!-- Node18 -->
<g id="node18" class="node">
<title>Node18</title>
<g id="a_node18"><a xlink:href="clockid__t_8h.html" target="_top" xlink:title=" ">
<polygon fill="white" stroke="black" points="48.5,-224.5 48.5,-243.5 168.5,-243.5 168.5,-224.5 48.5,-224.5"/>
<text text-anchor="middle" x="108.5" y="-231.5" font-family="Helvetica,sans-Serif" font-size="10.00">bits/types/clockid_t.h</text>
</a>
</g>
</g>
<!-- Node13&#45;&gt;Node18 -->
<g id="edge23" class="edge">
<title>Node13&#45;&gt;Node18</title>
<path fill="none" stroke="midnightblue" d="M406.36,-281.79C403.03,-281.17 399.71,-280.56 396.5,-280 321.86,-266.87 235.99,-253.7 177.57,-245.03"/>
<polygon fill="midnightblue" stroke="midnightblue" points="177.76,-241.52 167.35,-243.52 176.73,-248.45 177.76,-241.52"/>
</g>
<!-- Node19 -->
<g id="node19" class="node">
<title>Node19</title>
<g id="a_node19"><a xlink:href="time__t_8h.html" target="_top" xlink:title=" ">
<polygon fill="white" stroke="black" points="186.5,-224.5 186.5,-243.5 294.5,-243.5 294.5,-224.5 186.5,-224.5"/>
<text text-anchor="middle" x="240.5" y="-231.5" font-family="Helvetica,sans-Serif" font-size="10.00">bits/types/time_t.h</text>
</a>
</g>
</g>
<!-- Node13&#45;&gt;Node19 -->
<g id="edge25" class="edge">
<title>Node13&#45;&gt;Node19</title>
<path fill="none" stroke="midnightblue" d="M410.49,-280.44C375.77,-271.16 320.21,-256.31 282.12,-246.13"/>
<polygon fill="midnightblue" stroke="midnightblue" points="282.92,-242.72 272.36,-243.52 281.11,-249.48 282.92,-242.72"/>
</g>
<!-- Node20 -->
<g id="node20" class="node">
<title>Node20</title>
<g id="a_node20"><a xlink:href="timer__t_8h.html" target="_top" xlink:title=" ">
<polygon fill="white" stroke="black" points="312.5,-224.5 312.5,-243.5 424.5,-243.5 424.5,-224.5 312.5,-224.5"/>
<text text-anchor="middle" x="368.5" y="-231.5" font-family="Helvetica,sans-Serif" font-size="10.00">bits/types/timer_t.h</text>
</a>
</g>
</g>
<!-- Node13&#45;&gt;Node20 -->
<g id="edge27" class="edge">
<title>Node13&#45;&gt;Node20</title>
<path fill="none" stroke="midnightblue" d="M430.61,-280.32C419.35,-272.11 402.21,-259.6 388.79,-249.81"/>
<polygon fill="midnightblue" stroke="midnightblue" points="390.75,-246.9 380.61,-243.83 386.62,-252.56 390.75,-246.9"/>
</g>
<!-- Node21 -->
<g id="node21" class="node">
<title>Node21</title>
<g id="a_node21"><a xlink:href="stdint-intn_8h.html" target="_top" xlink:title=" ">
<polygon fill="white" stroke="black" points="443,-224.5 443,-243.5 540,-243.5 540,-224.5 443,-224.5"/>
<text text-anchor="middle" x="491.5" y="-231.5" font-family="Helvetica,sans-Serif" font-size="10.00">bits/stdint&#45;intn.h</text>
</a>
</g>
</g>
<!-- Node13&#45;&gt;Node21 -->
<g id="edge30" class="edge">
<title>Node13&#45;&gt;Node21</title>
<path fill="none" stroke="midnightblue" d="M450.59,-280.08C457.66,-272.3 468.09,-260.8 476.65,-251.37"/>
<polygon fill="midnightblue" stroke="midnightblue" points="479.43,-253.51 483.56,-243.75 474.25,-248.8 479.43,-253.51"/>
</g>
<!-- Node14&#45;&gt;Node3 -->
<g id="edge18" class="edge">
<title>Node14&#45;&gt;Node3</title>
<path fill="none" stroke="midnightblue" d="M405.69,-168.56C448.47,-158.86 518.6,-142.94 563.64,-132.72"/>
<polygon fill="midnightblue" stroke="midnightblue" points="564.43,-136.13 573.41,-130.51 562.88,-129.31 564.43,-136.13"/>
</g>
<!-- Node14&#45;&gt;Node6 -->
<g id="edge19" class="edge">
<title>Node14&#45;&gt;Node6</title>
<path fill="none" stroke="midnightblue" d="M368.5,-168.08C368.5,-141.95 368.5,-65.21 368.5,-29.58"/>
<polygon fill="midnightblue" stroke="midnightblue" points="372,-29.57 368.5,-19.57 365,-29.57 372,-29.57"/>
</g>
<!-- Node15 -->
<g id="node15" class="node">
<title>Node15</title>
<g id="a_node15"><a xlink:href="timesize_8h.html" target="_top" xlink:title=" ">
<polygon fill="white" stroke="black" points="108,-112.5 108,-131.5 197,-131.5 197,-112.5 108,-112.5"/>
<text text-anchor="middle" x="152.5" y="-119.5" font-family="Helvetica,sans-Serif" font-size="10.00">bits/timesize.h</text>
</a>
</g>
</g>
<!-- Node14&#45;&gt;Node15 -->
<g id="edge20" class="edge">
<title>Node14&#45;&gt;Node15</title>
<path fill="none" stroke="midnightblue" d="M334.27,-168.44C296.99,-159.12 237.23,-144.18 196.49,-134"/>
<polygon fill="midnightblue" stroke="midnightblue" points="197.12,-130.55 186.57,-131.52 195.42,-137.34 197.12,-130.55"/>
</g>
<!-- Node16 -->
<g id="node16" class="node">
<title>Node16</title>
<g id="a_node16"><a xlink:href="typesizes_8h.html" target="_top" xlink:title=" ">
<polygon fill="white" stroke="black" points="397,-112.5 397,-131.5 490,-131.5 490,-112.5 397,-112.5"/>
<text text-anchor="middle" x="443.5" y="-119.5" font-family="Helvetica,sans-Serif" font-size="10.00">bits/typesizes.h</text>
</a>
</g>
</g>
<!-- Node14&#45;&gt;Node16 -->
<g id="edge21" class="edge">
<title>Node14&#45;&gt;Node16</title>
<path fill="none" stroke="midnightblue" d="M380.55,-168.32C391.96,-160.11 409.33,-147.6 422.93,-137.81"/>
<polygon fill="midnightblue" stroke="midnightblue" points="425.16,-140.52 431.23,-131.83 421.07,-134.84 425.16,-140.52"/>
</g>
<!-- Node17 -->
<g id="node17" class="node">
<title>Node17</title>
<g id="a_node17"><a xlink:href="time64_8h.html" target="_top" xlink:title=" ">
<polygon fill="white" stroke="black" points="259,-112.5 259,-131.5 340,-131.5 340,-112.5 259,-112.5"/>
<text text-anchor="middle" x="299.5" y="-119.5" font-family="Helvetica,sans-Serif" font-size="10.00">bits/time64.h</text>
</a>
</g>
</g>
<!-- Node14&#45;&gt;Node17 -->
<g id="edge22" class="edge">
<title>Node14&#45;&gt;Node17</title>
<path fill="none" stroke="midnightblue" d="M357.41,-168.32C347.01,-160.18 331.24,-147.84 318.78,-138.09"/>
<polygon fill="midnightblue" stroke="midnightblue" points="320.82,-135.24 310.79,-131.83 316.51,-140.75 320.82,-135.24"/>
</g>
<!-- Node18&#45;&gt;Node14 -->
<g id="edge24" class="edge">
<title>Node18&#45;&gt;Node14</title>
<path fill="none" stroke="midnightblue" d="M149.7,-224.44C196.35,-214.75 272.24,-198.99 321.25,-188.81"/>
<polygon fill="midnightblue" stroke="midnightblue" points="322.21,-192.19 331.29,-186.73 320.78,-185.34 322.21,-192.19"/>
</g>
<!-- Node19&#45;&gt;Node14 -->
<g id="edge26" class="edge">
<title>Node19&#45;&gt;Node14</title>
<path fill="none" stroke="midnightblue" d="M260.78,-224.44C281.85,-215.56 315.02,-201.56 338.99,-191.45"/>
<polygon fill="midnightblue" stroke="midnightblue" points="340.46,-194.63 348.31,-187.52 337.74,-188.18 340.46,-194.63"/>
</g>
<!-- Node20&#45;&gt;Node14 -->
<g id="edge28" class="edge">
<title>Node20&#45;&gt;Node14</title>
<path fill="none" stroke="midnightblue" d="M368.5,-224.08C368.5,-217.01 368.5,-206.86 368.5,-197.99"/>
<polygon fill="midnightblue" stroke="midnightblue" points="372,-197.75 368.5,-187.75 365,-197.75 372,-197.75"/>
</g>
<!-- Node21&#45;&gt;Node14 -->
<g id="edge31" class="edge">
<title>Node21&#45;&gt;Node14</title>
<path fill="none" stroke="midnightblue" d="M472.01,-224.44C451.86,-215.6 420.18,-201.69 397.17,-191.59"/>
<polygon fill="midnightblue" stroke="midnightblue" points="398.46,-188.33 387.9,-187.52 395.65,-194.74 398.46,-188.33"/>
</g>
<!-- Node24&#45;&gt;Node15 -->
<g id="edge35" class="edge">
<title>Node24&#45;&gt;Node15</title>
<path fill="none" stroke="midnightblue" d="M78.64,-168.32C92.37,-159.9 113.44,-146.97 129.56,-137.07"/>
<polygon fill="midnightblue" stroke="midnightblue" points="131.7,-139.87 138.4,-131.65 128.04,-133.9 131.7,-139.87"/>
</g>
</g>
</svg>
        <g id="navigator" transform="translate(0 0)" fill="#404254">
                <rect fill="#f2f5e9" fill-opacity="0.5" stroke="#606060" stroke-width=".5" x="0" y="0" width="60" height="60"/>
                <use id="zoomplus" xlink:href="#zoomPlus" x="17" y="9" onmousedown="handleZoom(evt,'in')"/>
                <use id="zoomminus" xlink:href="#zoomMin" x="42" y="9" onmousedown="handleZoom(evt,'out')"/>
                <use id="reset" xlink:href="#resetDef" x="30" y="36" onmousedown="handleReset()"/>
                <g id="arrowUp" xlink:href="#dirArrow" transform="translate(30 24)" onmousedown="handlePan(0,-1)">
                  <use xlink:href="#rim" fill="#404040">
                        <set attributeName="fill" to="#808080" begin="arrowUp.mouseover" end="arrowUp.mouseout"/>
                  </use>
                  <path fill="none" stroke="white" stroke-width="1.5" d="M0,-3.0v7 M-2.5,-0.5L0,-3.0L2.5,-0.5"/>
                </g>
                <g id="arrowRight" xlink:href="#dirArrow" transform="rotate(90) translate(36 -43)" onmousedown="handlePan(1,0)">
                  <use xlink:href="#rim" fill="#404040">
                        <set attributeName="fill" to="#808080" begin="arrowRight.mouseover" end="arrowRight.mouseout"/>
                  </use>
                  <path fill="none" stroke="white" stroke-width="1.5" d="M0,-3.0v7 M-2.5,-0.5L0,-3.0L2.5,-0.5"/>
                </g>
                <g id="arrowDown" xlink:href="#dirArrow" transform="rotate(180) translate(-30 -48)" onmousedown="handlePan(0,1)">
                  <use xlink:href="#rim" fill="#404040">
                        <set attributeName="fill" to="#808080" begin="arrowDown.mouseover" end="arrowDown.mouseout"/>
                  </use>
                  <path fill="none" stroke="white" stroke-width="1.5" d="M0,-3.0v7 M-2.5,-0.5L0,-3.0L2.5,-0.5"/>
                </g>
                <g id="arrowLeft" xlink:href="#dirArrow" transform="rotate(270) translate(-36 17)" onmousedown="handlePan(-1,0)">
                  <use xlink:href="#rim" fill="#404040">
                        <set attributeName="fill" to="#808080" begin="arrowLeft.mouseover" end="arrowLeft.mouseout"/>
                  </use>
                  <path fill="none" stroke="white" stroke-width="1.5" d="M0,-3.0v7 M-2.5,-0.5L0,-3.0L2.5,-0.5"/>
                </g>
        </g>
        <svg viewBox="0 0 15 15" width="100%" height="30px" preserveAspectRatio="xMaxYMin meet">
         <g id="arrow_out" transform="scale(0.3 0.3)">
          <a xlink:href="socketvar_8h__incl_org.svg" target="_base">
           <rect id="button" ry="5" rx="5" y="6" x="6" height="38" width="38"
                fill="#f2f5e9" fill-opacity="0.5" stroke="#606060" stroke-width="1.0"/>
           <path id="arrow"
             d="M 11.500037,31.436501 C 11.940474,20.09759 22.043105,11.32322 32.158766,21.979434 L 37.068811,17.246167 C 37.068811,17.246167 37.088388,32 37.088388,32 L 22.160133,31.978069 C 22.160133,31.978069 26.997745,27.140456 26.997745,27.140456 C 18.528582,18.264221 13.291696,25.230495 11.500037,31.436501 z"
             style="fill:#404040;"/>
          </a>
         </g>
        </svg>
</svg>
