<?xml version="1.0" encoding="UTF-8" standalone="no"?>
<!DOCTYPE svg PUBLIC "-//W3C//DTD SVG 1.1//EN"
 "http://www.w3.org/Graphics/SVG/1.1/DTD/svg11.dtd">
<!-- Generated by graphviz version 2.44.1 (0)
 -->
<!-- Title: bits/statx&#45;generic.h Pages: 1 -->
<svg width="286pt" height="95pt"
 viewBox="0.00 0.00 285.50 95.00" xmlns="http://www.w3.org/2000/svg" xmlns:xlink="http://www.w3.org/1999/xlink">
<g id="graph0" class="graph" transform="scale(1 1) rotate(0) translate(4 91)">
<title>bits/statx&#45;generic.h</title>
<polygon fill="white" stroke="transparent" points="-4,4 -4,-91 281.5,-91 281.5,4 -4,4"/>
<!-- Node1 -->
<g id="node1" class="node">
<title>Node1</title>
<g id="a_node1"><a xlink:title=" ">
<polygon fill="#bfbfbf" stroke="black" points="81,-67.5 81,-86.5 192,-86.5 192,-67.5 81,-67.5"/>
<text text-anchor="middle" x="136.5" y="-74.5" font-family="Helvetica,sans-Serif" font-size="10.00">bits/statx&#45;generic.h</text>
</a>
</g>
</g>
<!-- Node2 -->
<g id="node2" class="node">
<title>Node2</title>
<g id="a_node2"><a xlink:href="struct__statx__timestamp_8h.html" target="_top" xlink:title=" ">
<polygon fill="white" stroke="black" points="0,-0.5 0,-30.5 125,-30.5 125,-0.5 0,-0.5"/>
<text text-anchor="start" x="8" y="-18.5" font-family="Helvetica,sans-Serif" font-size="10.00">bits/types/struct_statx</text>
<text text-anchor="middle" x="62.5" y="-7.5" font-family="Helvetica,sans-Serif" font-size="10.00">_timestamp.h</text>
</a>
</g>
</g>
<!-- Node1&#45;&gt;Node2 -->
<g id="edge1" class="edge">
<title>Node1&#45;&gt;Node2</title>
<path fill="none" stroke="midnightblue" d="M125.9,-67.48C116.06,-59.57 101.04,-47.48 88.08,-37.07"/>
<polygon fill="midnightblue" stroke="midnightblue" points="89.93,-34.06 79.94,-30.52 85.54,-39.52 89.93,-34.06"/>
</g>
<!-- Node3 -->
<g id="node3" class="node">
<title>Node3</title>
<g id="a_node3"><a xlink:href="struct__statx_8h.html" target="_top" xlink:title=" ">
<polygon fill="white" stroke="black" points="143.5,-6 143.5,-25 277.5,-25 277.5,-6 143.5,-6"/>
<text text-anchor="middle" x="210.5" y="-13" font-family="Helvetica,sans-Serif" font-size="10.00">bits/types/struct_statx.h</text>
</a>
</g>
</g>
<!-- Node1&#45;&gt;Node3 -->
<g id="edge2" class="edge">
<title>Node1&#45;&gt;Node3</title>
<path fill="none" stroke="midnightblue" d="M147.1,-67.48C158.75,-58.11 177.69,-42.88 191.83,-31.51"/>
<polygon fill="midnightblue" stroke="midnightblue" points="194.32,-34 199.92,-25.01 189.93,-28.55 194.32,-34"/>
</g>
</g>
</svg>
