<?xml version="1.0" encoding="UTF-8" standalone="no"?>
<!DOCTYPE svg PUBLIC "-//W3C//DTD SVG 1.1//EN"
 "http://www.w3.org/Graphics/SVG/1.1/DTD/svg11.dtd">
<!-- Generated by graphviz version 2.44.1 (0)
 -->
<!-- Title: stdio_ext.h Pages: 1 -->
<!--zoomable 364 -->
<svg id="main" version="1.1" xmlns="http://www.w3.org/2000/svg" xmlns:xlink="http://www.w3.org/1999/xlink" xml:space="preserve" onload="init(evt)">
<style type="text/css"><![CDATA[
.edge:hover path { stroke: red; }
.edge:hover polygon { stroke: red; fill: red; }
]]></style>
<script type="text/javascript"><![CDATA[
var edges = document.getElementsByTagName('g');
if (edges && edges.length) {
  for (var i=0;i<edges.length;i++) {
    if (edges[i].id.substr(0,4)=='edge') {
      edges[i].setAttribute('class','edge');
    }
  }
}
]]></script>
        <defs>
                <circle id="rim" cx="0" cy="0" r="7"/>
                <circle id="rim2" cx="0" cy="0" r="3.5"/>
                <g id="zoomPlus">
                        <use xlink:href="#rim" fill="#404040">
                                <set attributeName="fill" to="#808080" begin="zoomplus.mouseover" end="zoomplus.mouseout"/>
                        </use>
                        <path d="M-4,0h8M0,-4v8" fill="none" stroke="white" stroke-width="1.5" pointer-events="none"/>
                </g>
                <g id="zoomMin">
                        <use xlink:href="#rim" fill="#404040">
                                <set attributeName="fill" to="#808080" begin="zoomminus.mouseover" end="zoomminus.mouseout"/>
                        </use>
                        <path d="M-4,0h8" fill="none" stroke="white" stroke-width="1.5" pointer-events="none"/>
                </g>
                <g id="dirArrow">
                        <path fill="none" stroke="white" stroke-width="1.5" d="M0,-3.0v7 M-2.5,-0.5L0,-3.0L2.5,-0.5"/>
                </g>
               <g id="resetDef">
                       <use xlink:href="#rim2" fill="#404040">
                               <set attributeName="fill" to="#808080" begin="reset.mouseover" end="reset.mouseout"/>
                       </use>
               </g>
        </defs>

<script type="text/javascript">
var viewWidth = 1122;
var viewHeight = 364;
var sectionId = 'dynsection-0';
</script>
<script xlink:href="svgpan.js"/>
<svg id="graph" class="graph">
<g id="viewport">
<title>stdio_ext.h</title>
<polygon fill="white" stroke="transparent" points="-4,4 -4,-360 1117.5,-360 1117.5,4 -4,4"/>
<!-- Node1 -->
<g id="node1" class="node">
<title>Node1</title>
<g id="a_node1"><a xlink:title=" ">
<polygon fill="#bfbfbf" stroke="black" points="542,-336.5 542,-355.5 613,-355.5 613,-336.5 542,-336.5"/>
<text text-anchor="middle" x="577.5" y="-343.5" font-family="Helvetica,sans-Serif" font-size="10.00">stdio_ext.h</text>
</a>
</g>
</g>
<!-- Node2 -->
<g id="node2" class="node">
<title>Node2</title>
<g id="a_node2"><a xlink:href="stdio_8h.html" target="_top" xlink:title=" ">
<polygon fill="white" stroke="black" points="552.5,-280.5 552.5,-299.5 602.5,-299.5 602.5,-280.5 552.5,-280.5"/>
<text text-anchor="middle" x="577.5" y="-287.5" font-family="Helvetica,sans-Serif" font-size="10.00">stdio.h</text>
</a>
</g>
</g>
<!-- Node1&#45;&gt;Node2 -->
<g id="edge1" class="edge">
<title>Node1&#45;&gt;Node2</title>
<path fill="none" stroke="midnightblue" d="M577.5,-336.08C577.5,-329.01 577.5,-318.86 577.5,-309.99"/>
<polygon fill="midnightblue" stroke="midnightblue" points="581,-309.75 577.5,-299.75 574,-309.75 581,-309.75"/>
</g>
<!-- Node3 -->
<g id="node3" class="node">
<title>Node3</title>
<g id="a_node3"><a xlink:href="libc-header-start_8h.html" target="_top" xlink:title=" ">
<polygon fill="white" stroke="black" points="421.5,-168.5 421.5,-187.5 549.5,-187.5 549.5,-168.5 421.5,-168.5"/>
<text text-anchor="middle" x="485.5" y="-175.5" font-family="Helvetica,sans-Serif" font-size="10.00">bits/libc&#45;header&#45;start.h</text>
</a>
</g>
</g>
<!-- Node2&#45;&gt;Node3 -->
<g id="edge2" class="edge">
<title>Node2&#45;&gt;Node3</title>
<path fill="none" stroke="midnightblue" d="M567.84,-280.5C558.17,-271.78 543.1,-257.6 531.5,-244 518.51,-228.76 505.49,-209.96 496.64,-196.5"/>
<polygon fill="midnightblue" stroke="midnightblue" points="499.36,-194.27 490.99,-187.78 493.48,-198.07 499.36,-194.27"/>
</g>
<!-- Node11 -->
<g id="node11" class="node">
<title>Node11</title>
<g id="a_node11"><a xlink:title=" ">
<polygon fill="white" stroke="#bfbfbf" points="632.5,-224.5 632.5,-243.5 688.5,-243.5 688.5,-224.5 632.5,-224.5"/>
<text text-anchor="middle" x="660.5" y="-231.5" font-family="Helvetica,sans-Serif" font-size="10.00">stddef.h</text>
</a>
</g>
</g>
<!-- Node2&#45;&gt;Node11 -->
<g id="edge11" class="edge">
<title>Node2&#45;&gt;Node11</title>
<path fill="none" stroke="midnightblue" d="M590.84,-280.32C603.66,-271.98 623.28,-259.21 638.44,-249.35"/>
<polygon fill="midnightblue" stroke="midnightblue" points="640.72,-252.04 647.2,-243.65 636.91,-246.17 640.72,-252.04"/>
</g>
<!-- Node12 -->
<g id="node12" class="node">
<title>Node12</title>
<g id="a_node12"><a xlink:title=" ">
<polygon fill="white" stroke="#bfbfbf" points="706.5,-224.5 706.5,-243.5 762.5,-243.5 762.5,-224.5 706.5,-224.5"/>
<text text-anchor="middle" x="734.5" y="-231.5" font-family="Helvetica,sans-Serif" font-size="10.00">stdarg.h</text>
</a>
</g>
</g>
<!-- Node2&#45;&gt;Node12 -->
<g id="edge12" class="edge">
<title>Node2&#45;&gt;Node12</title>
<path fill="none" stroke="midnightblue" d="M602.38,-280.44C628.79,-271.36 670.72,-256.94 700.24,-246.78"/>
<polygon fill="midnightblue" stroke="midnightblue" points="701.42,-250.08 709.74,-243.52 699.14,-243.46 701.42,-250.08"/>
</g>
<!-- Node13 -->
<g id="node13" class="node">
<title>Node13</title>
<g id="a_node13"><a xlink:href="bits_2types_8h.html" target="_top" xlink:title=" ">
<polygon fill="white" stroke="black" points="173.5,-168.5 173.5,-187.5 247.5,-187.5 247.5,-168.5 173.5,-168.5"/>
<text text-anchor="middle" x="210.5" y="-175.5" font-family="Helvetica,sans-Serif" font-size="10.00">bits/types.h</text>
</a>
</g>
</g>
<!-- Node2&#45;&gt;Node13 -->
<g id="edge13" class="edge">
<title>Node2&#45;&gt;Node13</title>
<path fill="none" stroke="midnightblue" d="M552.46,-288.75C453.84,-287.5 95.93,-280.47 62.5,-244 29.81,-208.33 108.26,-191.23 162.99,-183.86"/>
<polygon fill="midnightblue" stroke="midnightblue" points="163.76,-187.29 173.24,-182.55 162.88,-180.34 163.76,-187.29"/>
</g>
<!-- Node17 -->
<g id="node17" class="node">
<title>Node17</title>
<g id="a_node17"><a xlink:href="____fpos__t_8h.html" target="_top" xlink:title=" ">
<polygon fill="white" stroke="black" points="367,-224.5 367,-243.5 484,-243.5 484,-224.5 367,-224.5"/>
<text text-anchor="middle" x="425.5" y="-231.5" font-family="Helvetica,sans-Serif" font-size="10.00">bits/types/__fpos_t.h</text>
</a>
</g>
</g>
<!-- Node2&#45;&gt;Node17 -->
<g id="edge19" class="edge">
<title>Node2&#45;&gt;Node17</title>
<path fill="none" stroke="midnightblue" d="M553.42,-280.44C527.96,-271.4 487.61,-257.06 459.04,-246.92"/>
<polygon fill="midnightblue" stroke="midnightblue" points="460.07,-243.57 449.47,-243.52 457.72,-250.16 460.07,-243.57"/>
</g>
<!-- Node19 -->
<g id="node19" class="node">
<title>Node19</title>
<g id="a_node19"><a xlink:href="____fpos64__t_8h.html" target="_top" xlink:title=" ">
<polygon fill="white" stroke="black" points="220,-224.5 220,-243.5 349,-243.5 349,-224.5 220,-224.5"/>
<text text-anchor="middle" x="284.5" y="-231.5" font-family="Helvetica,sans-Serif" font-size="10.00">bits/types/__fpos64_t.h</text>
</a>
</g>
</g>
<!-- Node2&#45;&gt;Node19 -->
<g id="edge22" class="edge">
<title>Node2&#45;&gt;Node19</title>
<path fill="none" stroke="midnightblue" d="M552.27,-284.35C505.49,-275.73 404.3,-257.08 340.58,-245.34"/>
<polygon fill="midnightblue" stroke="midnightblue" points="341.16,-241.88 330.69,-243.51 339.89,-248.77 341.16,-241.88"/>
</g>
<!-- Node20 -->
<g id="node20" class="node">
<title>Node20</title>
<g id="a_node20"><a xlink:href="____FILE_8h.html" target="_top" xlink:title=" ">
<polygon fill="white" stroke="black" points="781,-224.5 781,-243.5 888,-243.5 888,-224.5 781,-224.5"/>
<text text-anchor="middle" x="834.5" y="-231.5" font-family="Helvetica,sans-Serif" font-size="10.00">bits/types/__FILE.h</text>
</a>
</g>
</g>
<!-- Node2&#45;&gt;Node20 -->
<g id="edge25" class="edge">
<title>Node2&#45;&gt;Node20</title>
<path fill="none" stroke="midnightblue" d="M602.61,-283.72C644.46,-274.93 729.28,-257.11 783.91,-245.63"/>
<polygon fill="midnightblue" stroke="midnightblue" points="784.68,-249.05 793.74,-243.56 783.24,-242.2 784.68,-249.05"/>
</g>
<!-- Node21 -->
<g id="node21" class="node">
<title>Node21</title>
<g id="a_node21"><a xlink:href="FILE_8h.html" target="_top" xlink:title=" ">
<polygon fill="white" stroke="black" points="906,-224.5 906,-243.5 1003,-243.5 1003,-224.5 906,-224.5"/>
<text text-anchor="middle" x="954.5" y="-231.5" font-family="Helvetica,sans-Serif" font-size="10.00">bits/types/FILE.h</text>
</a>
</g>
</g>
<!-- Node2&#45;&gt;Node21 -->
<g id="edge26" class="edge">
<title>Node2&#45;&gt;Node21</title>
<path fill="none" stroke="midnightblue" d="M602.83,-285.59C655.42,-278.47 780.56,-261.36 895.94,-244.21"/>
<polygon fill="midnightblue" stroke="midnightblue" points="896.62,-247.65 906,-242.72 895.59,-240.73 896.62,-247.65"/>
</g>
<!-- Node22 -->
<g id="node22" class="node">
<title>Node22</title>
<g id="a_node22"><a xlink:href="struct__FILE_8h.html" target="_top" xlink:title=" ">
<polygon fill="white" stroke="black" points="71.5,-224.5 71.5,-243.5 201.5,-243.5 201.5,-224.5 71.5,-224.5"/>
<text text-anchor="middle" x="136.5" y="-231.5" font-family="Helvetica,sans-Serif" font-size="10.00">bits/types/struct_FILE.h</text>
</a>
</g>
</g>
<!-- Node2&#45;&gt;Node22 -->
<g id="edge27" class="edge">
<title>Node2&#45;&gt;Node22</title>
<path fill="none" stroke="midnightblue" d="M552.21,-285.9C487.36,-277.96 313.17,-256.63 212.04,-244.25"/>
<polygon fill="midnightblue" stroke="midnightblue" points="212.23,-240.75 201.88,-243.01 211.38,-247.7 212.23,-240.75"/>
</g>
<!-- Node23 -->
<g id="node23" class="node">
<title>Node23</title>
<g id="a_node23"><a xlink:href="stdio__lim_8h.html" target="_top" xlink:title=" ">
<polygon fill="white" stroke="black" points="1021.5,-224.5 1021.5,-243.5 1113.5,-243.5 1113.5,-224.5 1021.5,-224.5"/>
<text text-anchor="middle" x="1067.5" y="-231.5" font-family="Helvetica,sans-Serif" font-size="10.00">bits/stdio_lim.h</text>
</a>
</g>
</g>
<!-- Node2&#45;&gt;Node23 -->
<g id="edge29" class="edge">
<title>Node2&#45;&gt;Node23</title>
<path fill="none" stroke="midnightblue" d="M602.57,-286.93C667.99,-281.41 849.45,-265.41 1011.18,-244.11"/>
<polygon fill="midnightblue" stroke="midnightblue" points="1011.86,-247.55 1021.32,-242.76 1010.94,-240.61 1011.86,-247.55"/>
</g>
<!-- Node24 -->
<g id="node24" class="node">
<title>Node24</title>
<g id="a_node24"><a xlink:href="floatn_8h.html" target="_top" xlink:title=" ">
<polygon fill="white" stroke="black" points="540.5,-224.5 540.5,-243.5 614.5,-243.5 614.5,-224.5 540.5,-224.5"/>
<text text-anchor="middle" x="577.5" y="-231.5" font-family="Helvetica,sans-Serif" font-size="10.00">bits/floatn.h</text>
</a>
</g>
</g>
<!-- Node2&#45;&gt;Node24 -->
<g id="edge30" class="edge">
<title>Node2&#45;&gt;Node24</title>
<path fill="none" stroke="midnightblue" d="M577.5,-280.08C577.5,-273.01 577.5,-262.86 577.5,-253.99"/>
<polygon fill="midnightblue" stroke="midnightblue" points="581,-253.75 577.5,-243.75 574,-253.75 581,-253.75"/>
</g>
<!-- Node4 -->
<g id="node4" class="node">
<title>Node4</title>
<g id="a_node4"><a xlink:href="features_8h.html" target="_top" xlink:title=" ">
<polygon fill="white" stroke="black" points="510.5,-112.5 510.5,-131.5 576.5,-131.5 576.5,-112.5 510.5,-112.5"/>
<text text-anchor="middle" x="543.5" y="-119.5" font-family="Helvetica,sans-Serif" font-size="10.00">features.h</text>
</a>
</g>
</g>
<!-- Node3&#45;&gt;Node4 -->
<g id="edge3" class="edge">
<title>Node3&#45;&gt;Node4</title>
<path fill="none" stroke="midnightblue" d="M494.82,-168.32C503.39,-160.34 516.31,-148.31 526.69,-138.65"/>
<polygon fill="midnightblue" stroke="midnightblue" points="529.08,-141.21 534.01,-131.83 524.31,-136.09 529.08,-141.21"/>
</g>
<!-- Node5 -->
<g id="node5" class="node">
<title>Node5</title>
<g id="a_node5"><a xlink:href="stdc-predef_8h.html" target="_top" xlink:title=" ">
<polygon fill="white" stroke="black" points="468.5,-56.5 468.5,-75.5 548.5,-75.5 548.5,-56.5 468.5,-56.5"/>
<text text-anchor="middle" x="508.5" y="-63.5" font-family="Helvetica,sans-Serif" font-size="10.00">stdc&#45;predef.h</text>
</a>
</g>
</g>
<!-- Node4&#45;&gt;Node5 -->
<g id="edge4" class="edge">
<title>Node4&#45;&gt;Node5</title>
<path fill="none" stroke="midnightblue" d="M537.72,-112.08C532.83,-104.53 525.67,-93.49 519.67,-84.23"/>
<polygon fill="midnightblue" stroke="midnightblue" points="522.55,-82.24 514.17,-75.75 516.67,-86.05 522.55,-82.24"/>
</g>
<!-- Node6 -->
<g id="node6" class="node">
<title>Node6</title>
<g id="a_node6"><a xlink:href="cdefs_8h.html" target="_top" xlink:title=" ">
<polygon fill="white" stroke="black" points="567,-56.5 567,-75.5 638,-75.5 638,-56.5 567,-56.5"/>
<text text-anchor="middle" x="602.5" y="-63.5" font-family="Helvetica,sans-Serif" font-size="10.00">sys/cdefs.h</text>
</a>
</g>
</g>
<!-- Node4&#45;&gt;Node6 -->
<g id="edge5" class="edge">
<title>Node4&#45;&gt;Node6</title>
<path fill="none" stroke="midnightblue" d="M548.08,-112.08C555.22,-103.98 568.13,-91.87 579.71,-82.23"/>
<polygon fill="midnightblue" stroke="midnightblue" points="582.19,-84.73 587.81,-75.75 577.81,-79.27 582.19,-84.73"/>
</g>
<!-- Node9 -->
<g id="node9" class="node">
<title>Node9</title>
<g id="a_node9"><a xlink:href="stubs_8h.html" target="_top" xlink:title=" ">
<polygon fill="white" stroke="black" points="377,-56.5 377,-75.5 450,-75.5 450,-56.5 377,-56.5"/>
<text text-anchor="middle" x="413.5" y="-63.5" font-family="Helvetica,sans-Serif" font-size="10.00">gnu/stubs.h</text>
</a>
</g>
</g>
<!-- Node4&#45;&gt;Node9 -->
<g id="edge9" class="edge">
<title>Node4&#45;&gt;Node9</title>
<path fill="none" stroke="midnightblue" d="M522.9,-112.44C501.51,-103.56 467.82,-89.56 443.48,-79.45"/>
<polygon fill="midnightblue" stroke="midnightblue" points="444.58,-76.12 434,-75.52 441.89,-82.58 444.58,-76.12"/>
</g>
<!-- Node6&#45;&gt;Node4 -->
<g id="edge6" class="edge">
<title>Node6&#45;&gt;Node4</title>
<path fill="none" stroke="midnightblue" d="M598,-75.83C590.86,-83.95 577.86,-96.15 566.22,-105.82"/>
<polygon fill="midnightblue" stroke="midnightblue" points="563.72,-103.34 558.09,-112.32 568.09,-108.81 563.72,-103.34"/>
</g>
<!-- Node7 -->
<g id="node7" class="node">
<title>Node7</title>
<g id="a_node7"><a xlink:href="wordsize_8h.html" target="_top" xlink:title=" ">
<polygon fill="white" stroke="black" points="282.5,-0.5 282.5,-19.5 372.5,-19.5 372.5,-0.5 282.5,-0.5"/>
<text text-anchor="middle" x="327.5" y="-7.5" font-family="Helvetica,sans-Serif" font-size="10.00">bits/wordsize.h</text>
</a>
</g>
</g>
<!-- Node6&#45;&gt;Node7 -->
<g id="edge7" class="edge">
<title>Node6&#45;&gt;Node7</title>
<path fill="none" stroke="midnightblue" d="M566.64,-57.81C563.55,-57.2 560.47,-56.59 557.5,-56 497.26,-44.08 428.11,-30.58 381.49,-21.5"/>
<polygon fill="midnightblue" stroke="midnightblue" points="382.09,-18.05 371.6,-19.57 380.75,-24.92 382.09,-18.05"/>
</g>
<!-- Node8 -->
<g id="node8" class="node">
<title>Node8</title>
<g id="a_node8"><a xlink:href="long-double_8h.html" target="_top" xlink:title=" ">
<polygon fill="white" stroke="black" points="582.5,-0.5 582.5,-19.5 686.5,-19.5 686.5,-0.5 582.5,-0.5"/>
<text text-anchor="middle" x="634.5" y="-7.5" font-family="Helvetica,sans-Serif" font-size="10.00">bits/long&#45;double.h</text>
</a>
</g>
</g>
<!-- Node6&#45;&gt;Node8 -->
<g id="edge8" class="edge">
<title>Node6&#45;&gt;Node8</title>
<path fill="none" stroke="midnightblue" d="M607.78,-56.08C612.21,-48.61 618.66,-37.72 624.12,-28.52"/>
<polygon fill="midnightblue" stroke="midnightblue" points="627.23,-30.14 629.31,-19.75 621.21,-26.57 627.23,-30.14"/>
</g>
<!-- Node10 -->
<g id="node10" class="node">
<title>Node10</title>
<g id="a_node10"><a xlink:title=" ">
<polygon fill="white" stroke="#bfbfbf" points="391,-0.5 391,-19.5 480,-19.5 480,-0.5 391,-0.5"/>
<text text-anchor="middle" x="435.5" y="-7.5" font-family="Helvetica,sans-Serif" font-size="10.00">gnu/stubs&#45;32.h</text>
</a>
</g>
</g>
<!-- Node9&#45;&gt;Node10 -->
<g id="edge10" class="edge">
<title>Node9&#45;&gt;Node10</title>
<path fill="none" stroke="midnightblue" d="M417.13,-56.08C420.11,-48.77 424.43,-38.18 428.12,-29.1"/>
<polygon fill="midnightblue" stroke="midnightblue" points="431.4,-30.33 431.93,-19.75 424.92,-27.69 431.4,-30.33"/>
</g>
<!-- Node13&#45;&gt;Node4 -->
<g id="edge14" class="edge">
<title>Node13&#45;&gt;Node4</title>
<path fill="none" stroke="midnightblue" d="M247.63,-169.61C250.63,-169.05 253.61,-168.51 256.5,-168 342.77,-152.8 444.09,-137.51 500.33,-129.25"/>
<polygon fill="midnightblue" stroke="midnightblue" points="500.9,-132.7 510.29,-127.79 499.89,-125.78 500.9,-132.7"/>
</g>
<!-- Node13&#45;&gt;Node7 -->
<g id="edge15" class="edge">
<title>Node13&#45;&gt;Node7</title>
<path fill="none" stroke="midnightblue" d="M247.73,-168.84C268.49,-162.34 293,-151.06 307.5,-132 330.3,-102.02 331.14,-55.69 329.48,-29.93"/>
<polygon fill="midnightblue" stroke="midnightblue" points="332.94,-29.34 328.61,-19.67 325.97,-29.93 332.94,-29.34"/>
</g>
<!-- Node14 -->
<g id="node14" class="node">
<title>Node14</title>
<g id="a_node14"><a xlink:href="timesize_8h.html" target="_top" xlink:title=" ">
<polygon fill="white" stroke="black" points="0,-112.5 0,-131.5 89,-131.5 89,-112.5 0,-112.5"/>
<text text-anchor="middle" x="44.5" y="-119.5" font-family="Helvetica,sans-Serif" font-size="10.00">bits/timesize.h</text>
</a>
</g>
</g>
<!-- Node13&#45;&gt;Node14 -->
<g id="edge16" class="edge">
<title>Node13&#45;&gt;Node14</title>
<path fill="none" stroke="midnightblue" d="M184.2,-168.44C156.15,-159.32 111.56,-144.81 80.32,-134.65"/>
<polygon fill="midnightblue" stroke="midnightblue" points="81.27,-131.28 70.68,-131.52 79.11,-137.94 81.27,-131.28"/>
</g>
<!-- Node15 -->
<g id="node15" class="node">
<title>Node15</title>
<g id="a_node15"><a xlink:href="typesizes_8h.html" target="_top" xlink:title=" ">
<polygon fill="white" stroke="black" points="107,-112.5 107,-131.5 200,-131.5 200,-112.5 107,-112.5"/>
<text text-anchor="middle" x="153.5" y="-119.5" font-family="Helvetica,sans-Serif" font-size="10.00">bits/typesizes.h</text>
</a>
</g>
</g>
<!-- Node13&#45;&gt;Node15 -->
<g id="edge17" class="edge">
<title>Node13&#45;&gt;Node15</title>
<path fill="none" stroke="midnightblue" d="M201.34,-168.32C193,-160.42 180.47,-148.55 170.32,-138.94"/>
<polygon fill="midnightblue" stroke="midnightblue" points="172.49,-136.17 162.82,-131.83 167.68,-141.25 172.49,-136.17"/>
</g>
<!-- Node16 -->
<g id="node16" class="node">
<title>Node16</title>
<g id="a_node16"><a xlink:href="time64_8h.html" target="_top" xlink:title=" ">
<polygon fill="white" stroke="black" points="218,-112.5 218,-131.5 299,-131.5 299,-112.5 218,-112.5"/>
<text text-anchor="middle" x="258.5" y="-119.5" font-family="Helvetica,sans-Serif" font-size="10.00">bits/time64.h</text>
</a>
</g>
</g>
<!-- Node13&#45;&gt;Node16 -->
<g id="edge18" class="edge">
<title>Node13&#45;&gt;Node16</title>
<path fill="none" stroke="midnightblue" d="M218.43,-168.08C225.35,-160.3 235.57,-148.8 243.95,-139.37"/>
<polygon fill="midnightblue" stroke="midnightblue" points="246.69,-141.55 250.72,-131.75 241.46,-136.9 246.69,-141.55"/>
</g>
<!-- Node17&#45;&gt;Node13 -->
<g id="edge20" class="edge">
<title>Node17&#45;&gt;Node13</title>
<path fill="none" stroke="midnightblue" d="M391.43,-224.44C354.32,-215.12 294.84,-200.18 254.29,-190"/>
<polygon fill="midnightblue" stroke="midnightblue" points="254.96,-186.56 244.41,-187.52 253.25,-193.35 254.96,-186.56"/>
</g>
<!-- Node18 -->
<g id="node18" class="node">
<title>Node18</title>
<g id="a_node18"><a xlink:href="____mbstate__t_8h.html" target="_top" xlink:title=" ">
<polygon fill="white" stroke="black" points="266,-168.5 266,-187.5 403,-187.5 403,-168.5 266,-168.5"/>
<text text-anchor="middle" x="334.5" y="-175.5" font-family="Helvetica,sans-Serif" font-size="10.00">bits/types/__mbstate_t.h</text>
</a>
</g>
</g>
<!-- Node17&#45;&gt;Node18 -->
<g id="edge21" class="edge">
<title>Node17&#45;&gt;Node18</title>
<path fill="none" stroke="midnightblue" d="M410.88,-224.32C396.55,-215.82 374.49,-202.73 357.75,-192.8"/>
<polygon fill="midnightblue" stroke="midnightblue" points="359.47,-189.75 349.08,-187.65 355.9,-195.77 359.47,-189.75"/>
</g>
<!-- Node19&#45;&gt;Node13 -->
<g id="edge23" class="edge">
<title>Node19&#45;&gt;Node13</title>
<path fill="none" stroke="midnightblue" d="M272.61,-224.32C261.35,-216.11 244.21,-203.6 230.79,-193.81"/>
<polygon fill="midnightblue" stroke="midnightblue" points="232.75,-190.9 222.61,-187.83 228.62,-196.56 232.75,-190.9"/>
</g>
<!-- Node19&#45;&gt;Node18 -->
<g id="edge24" class="edge">
<title>Node19&#45;&gt;Node18</title>
<path fill="none" stroke="midnightblue" d="M292.76,-224.08C299.96,-216.3 310.61,-204.8 319.35,-195.37"/>
<polygon fill="midnightblue" stroke="midnightblue" points="322.17,-197.47 326.4,-187.75 317.03,-192.71 322.17,-197.47"/>
</g>
<!-- Node22&#45;&gt;Node13 -->
<g id="edge28" class="edge">
<title>Node22&#45;&gt;Node13</title>
<path fill="none" stroke="midnightblue" d="M148.39,-224.32C159.65,-216.11 176.79,-203.6 190.21,-193.81"/>
<polygon fill="midnightblue" stroke="midnightblue" points="192.38,-196.56 198.39,-187.83 188.25,-190.9 192.38,-196.56"/>
</g>
<!-- Node24&#45;&gt;Node4 -->
<g id="edge31" class="edge">
<title>Node24&#45;&gt;Node4</title>
<path fill="none" stroke="midnightblue" d="M575.02,-224.14C571.49,-211.6 564.75,-187.97 558.5,-168 555.73,-159.15 552.5,-149.37 549.74,-141.2"/>
<polygon fill="midnightblue" stroke="midnightblue" points="553.01,-139.94 546.47,-131.6 546.38,-142.19 553.01,-139.94"/>
</g>
<!-- Node25 -->
<g id="node25" class="node">
<title>Node25</title>
<g id="a_node25"><a xlink:href="floatn-common_8h.html" target="_top" xlink:title=" ">
<polygon fill="white" stroke="black" points="606,-168.5 606,-187.5 727,-187.5 727,-168.5 606,-168.5"/>
<text text-anchor="middle" x="666.5" y="-175.5" font-family="Helvetica,sans-Serif" font-size="10.00">bits/floatn&#45;common.h</text>
</a>
</g>
</g>
<!-- Node24&#45;&gt;Node25 -->
<g id="edge32" class="edge">
<title>Node24&#45;&gt;Node25</title>
<path fill="none" stroke="midnightblue" d="M591.8,-224.32C605.68,-215.9 626.99,-202.97 643.3,-193.07"/>
<polygon fill="midnightblue" stroke="midnightblue" points="645.5,-195.83 652.24,-187.65 641.87,-189.85 645.5,-195.83"/>
</g>
<!-- Node25&#45;&gt;Node4 -->
<g id="edge33" class="edge">
<title>Node25&#45;&gt;Node4</title>
<path fill="none" stroke="midnightblue" d="M647.01,-168.44C626.86,-159.6 595.18,-145.69 572.17,-135.59"/>
<polygon fill="midnightblue" stroke="midnightblue" points="573.46,-132.33 562.9,-131.52 570.65,-138.74 573.46,-132.33"/>
</g>
<!-- Node25&#45;&gt;Node8 -->
<g id="edge34" class="edge">
<title>Node25&#45;&gt;Node8</title>
<path fill="none" stroke="midnightblue" d="M665.53,-168.42C663.19,-148.52 656.76,-97.73 647.5,-56 645.51,-47.06 642.76,-37.27 640.3,-29.12"/>
<polygon fill="midnightblue" stroke="midnightblue" points="643.63,-28.05 637.32,-19.54 636.95,-30.13 643.63,-28.05"/>
</g>
</g>
</svg>
        <g id="navigator" transform="translate(0 0)" fill="#404254">
                <rect fill="#f2f5e9" fill-opacity="0.5" stroke="#606060" stroke-width=".5" x="0" y="0" width="60" height="60"/>
                <use id="zoomplus" xlink:href="#zoomPlus" x="17" y="9" onmousedown="handleZoom(evt,'in')"/>
                <use id="zoomminus" xlink:href="#zoomMin" x="42" y="9" onmousedown="handleZoom(evt,'out')"/>
                <use id="reset" xlink:href="#resetDef" x="30" y="36" onmousedown="handleReset()"/>
                <g id="arrowUp" xlink:href="#dirArrow" transform="translate(30 24)" onmousedown="handlePan(0,-1)">
                  <use xlink:href="#rim" fill="#404040">
                        <set attributeName="fill" to="#808080" begin="arrowUp.mouseover" end="arrowUp.mouseout"/>
                  </use>
                  <path fill="none" stroke="white" stroke-width="1.5" d="M0,-3.0v7 M-2.5,-0.5L0,-3.0L2.5,-0.5"/>
                </g>
                <g id="arrowRight" xlink:href="#dirArrow" transform="rotate(90) translate(36 -43)" onmousedown="handlePan(1,0)">
                  <use xlink:href="#rim" fill="#404040">
                        <set attributeName="fill" to="#808080" begin="arrowRight.mouseover" end="arrowRight.mouseout"/>
                  </use>
                  <path fill="none" stroke="white" stroke-width="1.5" d="M0,-3.0v7 M-2.5,-0.5L0,-3.0L2.5,-0.5"/>
                </g>
                <g id="arrowDown" xlink:href="#dirArrow" transform="rotate(180) translate(-30 -48)" onmousedown="handlePan(0,1)">
                  <use xlink:href="#rim" fill="#404040">
                        <set attributeName="fill" to="#808080" begin="arrowDown.mouseover" end="arrowDown.mouseout"/>
                  </use>
                  <path fill="none" stroke="white" stroke-width="1.5" d="M0,-3.0v7 M-2.5,-0.5L0,-3.0L2.5,-0.5"/>
                </g>
                <g id="arrowLeft" xlink:href="#dirArrow" transform="rotate(270) translate(-36 17)" onmousedown="handlePan(-1,0)">
                  <use xlink:href="#rim" fill="#404040">
                        <set attributeName="fill" to="#808080" begin="arrowLeft.mouseover" end="arrowLeft.mouseout"/>
                  </use>
                  <path fill="none" stroke="white" stroke-width="1.5" d="M0,-3.0v7 M-2.5,-0.5L0,-3.0L2.5,-0.5"/>
                </g>
        </g>
        <svg viewBox="0 0 15 15" width="100%" height="30px" preserveAspectRatio="xMaxYMin meet">
         <g id="arrow_out" transform="scale(0.3 0.3)">
          <a xlink:href="stdio__ext_8h__incl_org.svg" target="_base">
           <rect id="button" ry="5" rx="5" y="6" x="6" height="38" width="38"
                fill="#f2f5e9" fill-opacity="0.5" stroke="#606060" stroke-width="1.0"/>
           <path id="arrow"
             d="M 11.500037,31.436501 C 11.940474,20.09759 22.043105,11.32322 32.158766,21.979434 L 37.068811,17.246167 C 37.068811,17.246167 37.088388,32 37.088388,32 L 22.160133,31.978069 C 22.160133,31.978069 26.997745,27.140456 26.997745,27.140456 C 18.528582,18.264221 13.291696,25.230495 11.500037,31.436501 z"
             style="fill:#404040;"/>
          </a>
         </g>
        </svg>
</svg>
