<?xml version="1.0" encoding="UTF-8" standalone="no"?>
<!DOCTYPE svg PUBLIC "-//W3C//DTD SVG 1.1//EN"
 "http://www.w3.org/Graphics/SVG/1.1/DTD/svg11.dtd">
<!-- Generated by graphviz version 2.44.1 (0)
 -->
<!-- Title: stdlib.h Pages: 1 -->
<svg width="394pt" height="308pt"
 viewBox="0.00 0.00 394.00 308.00" xmlns="http://www.w3.org/2000/svg" xmlns:xlink="http://www.w3.org/1999/xlink">
<g id="graph0" class="graph" transform="scale(1 1) rotate(0) translate(4 304)">
<title>stdlib.h</title>
<polygon fill="white" stroke="transparent" points="-4,4 -4,-304 390,-304 390,4 -4,4"/>
<!-- Node1 -->
<g id="node1" class="node">
<title>Node1</title>
<g id="a_node1"><a xlink:title=" ">
<polygon fill="#bfbfbf" stroke="black" points="163,-280.5 163,-299.5 216,-299.5 216,-280.5 163,-280.5"/>
<text text-anchor="middle" x="189.5" y="-287.5" font-family="Helvetica,sans-Serif" font-size="10.00">stdlib.h</text>
</a>
</g>
</g>
<!-- Node2 -->
<g id="node2" class="node">
<title>Node2</title>
<g id="a_node2"><a xlink:href="libc-header-start_8h.html" target="_top" xlink:title=" ">
<polygon fill="white" stroke="black" points="28.5,-168.5 28.5,-187.5 156.5,-187.5 156.5,-168.5 28.5,-168.5"/>
<text text-anchor="middle" x="92.5" y="-175.5" font-family="Helvetica,sans-Serif" font-size="10.00">bits/libc&#45;header&#45;start.h</text>
</a>
</g>
</g>
<!-- Node1&#45;&gt;Node2 -->
<g id="edge1" class="edge">
<title>Node1&#45;&gt;Node2</title>
<path fill="none" stroke="midnightblue" d="M164.67,-280.41C147.4,-273.22 125.12,-261.33 111.5,-244 101.07,-230.72 96.36,-211.89 94.24,-197.91"/>
<polygon fill="midnightblue" stroke="midnightblue" points="97.71,-197.44 93.03,-187.94 90.76,-198.28 97.71,-197.44"/>
</g>
<!-- Node10 -->
<g id="node10" class="node">
<title>Node10</title>
<g id="a_node10"><a xlink:title=" ">
<polygon fill="white" stroke="#bfbfbf" points="120.5,-224.5 120.5,-243.5 176.5,-243.5 176.5,-224.5 120.5,-224.5"/>
<text text-anchor="middle" x="148.5" y="-231.5" font-family="Helvetica,sans-Serif" font-size="10.00">stddef.h</text>
</a>
</g>
</g>
<!-- Node1&#45;&gt;Node10 -->
<g id="edge10" class="edge">
<title>Node1&#45;&gt;Node10</title>
<path fill="none" stroke="midnightblue" d="M182.73,-280.08C176.94,-272.46 168.44,-261.26 161.36,-251.94"/>
<polygon fill="midnightblue" stroke="midnightblue" points="163.98,-249.6 155.14,-243.75 158.4,-253.83 163.98,-249.6"/>
</g>
<!-- Node11 -->
<g id="node11" class="node">
<title>Node11</title>
<g id="a_node11"><a xlink:href="floatn_8h.html" target="_top" xlink:title=" ">
<polygon fill="white" stroke="black" points="194.5,-224.5 194.5,-243.5 268.5,-243.5 268.5,-224.5 194.5,-224.5"/>
<text text-anchor="middle" x="231.5" y="-231.5" font-family="Helvetica,sans-Serif" font-size="10.00">bits/floatn.h</text>
</a>
</g>
</g>
<!-- Node1&#45;&gt;Node11 -->
<g id="edge11" class="edge">
<title>Node1&#45;&gt;Node11</title>
<path fill="none" stroke="midnightblue" d="M196.44,-280.08C202.43,-272.38 211.25,-261.03 218.55,-251.65"/>
<polygon fill="midnightblue" stroke="midnightblue" points="221.32,-253.79 224.69,-243.75 215.79,-249.5 221.32,-253.79"/>
</g>
<!-- Node13 -->
<g id="node13" class="node">
<title>Node13</title>
<g id="a_node13"><a xlink:href="stdlib-float_8h.html" target="_top" xlink:title=" ">
<polygon fill="white" stroke="black" points="287,-224.5 287,-243.5 386,-243.5 386,-224.5 287,-224.5"/>
<text text-anchor="middle" x="336.5" y="-231.5" font-family="Helvetica,sans-Serif" font-size="10.00">bits/stdlib&#45;float.h</text>
</a>
</g>
</g>
<!-- Node1&#45;&gt;Node13 -->
<g id="edge16" class="edge">
<title>Node1&#45;&gt;Node13</title>
<path fill="none" stroke="midnightblue" d="M212.79,-280.44C237.31,-271.44 276.1,-257.19 303.7,-247.05"/>
<polygon fill="midnightblue" stroke="midnightblue" points="305.14,-250.25 313.32,-243.52 302.72,-243.68 305.14,-250.25"/>
</g>
<!-- Node3 -->
<g id="node3" class="node">
<title>Node3</title>
<g id="a_node3"><a xlink:href="features_8h.html" target="_top" xlink:title=" ">
<polygon fill="white" stroke="black" points="114.5,-112.5 114.5,-131.5 180.5,-131.5 180.5,-112.5 114.5,-112.5"/>
<text text-anchor="middle" x="147.5" y="-119.5" font-family="Helvetica,sans-Serif" font-size="10.00">features.h</text>
</a>
</g>
</g>
<!-- Node2&#45;&gt;Node3 -->
<g id="edge2" class="edge">
<title>Node2&#45;&gt;Node3</title>
<path fill="none" stroke="midnightblue" d="M101.58,-168.08C109.67,-160.14 121.7,-148.34 131.41,-138.8"/>
<polygon fill="midnightblue" stroke="midnightblue" points="133.9,-141.25 138.59,-131.75 129,-136.26 133.9,-141.25"/>
</g>
<!-- Node4 -->
<g id="node4" class="node">
<title>Node4</title>
<g id="a_node4"><a xlink:href="stdc-predef_8h.html" target="_top" xlink:title=" ">
<polygon fill="white" stroke="black" points="201.5,-56.5 201.5,-75.5 281.5,-75.5 281.5,-56.5 201.5,-56.5"/>
<text text-anchor="middle" x="241.5" y="-63.5" font-family="Helvetica,sans-Serif" font-size="10.00">stdc&#45;predef.h</text>
</a>
</g>
</g>
<!-- Node3&#45;&gt;Node4 -->
<g id="edge3" class="edge">
<title>Node3&#45;&gt;Node4</title>
<path fill="none" stroke="midnightblue" d="M162.6,-112.32C177.4,-103.82 200.19,-90.73 217.48,-80.8"/>
<polygon fill="midnightblue" stroke="midnightblue" points="219.51,-83.67 226.43,-75.65 216.02,-77.6 219.51,-83.67"/>
</g>
<!-- Node5 -->
<g id="node5" class="node">
<title>Node5</title>
<g id="a_node5"><a xlink:href="cdefs_8h.html" target="_top" xlink:title=" ">
<polygon fill="white" stroke="black" points="112,-56.5 112,-75.5 183,-75.5 183,-56.5 112,-56.5"/>
<text text-anchor="middle" x="147.5" y="-63.5" font-family="Helvetica,sans-Serif" font-size="10.00">sys/cdefs.h</text>
</a>
</g>
</g>
<!-- Node3&#45;&gt;Node5 -->
<g id="edge4" class="edge">
<title>Node3&#45;&gt;Node5</title>
<path fill="none" stroke="midnightblue" d="M142.33,-112.08C140.82,-104.93 140.39,-94.64 141.04,-85.69"/>
<polygon fill="midnightblue" stroke="midnightblue" points="144.52,-86.13 142.37,-75.75 137.58,-85.2 144.52,-86.13"/>
</g>
<!-- Node8 -->
<g id="node8" class="node">
<title>Node8</title>
<g id="a_node8"><a xlink:href="stubs_8h.html" target="_top" xlink:title=" ">
<polygon fill="white" stroke="black" points="17,-56.5 17,-75.5 90,-75.5 90,-56.5 17,-56.5"/>
<text text-anchor="middle" x="53.5" y="-63.5" font-family="Helvetica,sans-Serif" font-size="10.00">gnu/stubs.h</text>
</a>
</g>
</g>
<!-- Node3&#45;&gt;Node8 -->
<g id="edge8" class="edge">
<title>Node3&#45;&gt;Node8</title>
<path fill="none" stroke="midnightblue" d="M132.4,-112.32C117.6,-103.82 94.81,-90.73 77.52,-80.8"/>
<polygon fill="midnightblue" stroke="midnightblue" points="78.98,-77.6 68.57,-75.65 75.49,-83.67 78.98,-77.6"/>
</g>
<!-- Node5&#45;&gt;Node3 -->
<g id="edge5" class="edge">
<title>Node5&#45;&gt;Node3</title>
<path fill="none" stroke="midnightblue" d="M152.63,-75.75C154.16,-82.86 154.6,-93.14 153.97,-102.1"/>
<polygon fill="midnightblue" stroke="midnightblue" points="150.49,-101.71 152.67,-112.08 157.43,-102.62 150.49,-101.71"/>
</g>
<!-- Node6 -->
<g id="node6" class="node">
<title>Node6</title>
<g id="a_node6"><a xlink:href="wordsize_8h.html" target="_top" xlink:title=" ">
<polygon fill="white" stroke="black" points="107.5,-0.5 107.5,-19.5 197.5,-19.5 197.5,-0.5 107.5,-0.5"/>
<text text-anchor="middle" x="152.5" y="-7.5" font-family="Helvetica,sans-Serif" font-size="10.00">bits/wordsize.h</text>
</a>
</g>
</g>
<!-- Node5&#45;&gt;Node6 -->
<g id="edge6" class="edge">
<title>Node5&#45;&gt;Node6</title>
<path fill="none" stroke="midnightblue" d="M148.33,-56.08C148.98,-49.01 149.92,-38.86 150.74,-29.99"/>
<polygon fill="midnightblue" stroke="midnightblue" points="154.25,-30.03 151.69,-19.75 147.28,-29.39 154.25,-30.03"/>
</g>
<!-- Node7 -->
<g id="node7" class="node">
<title>Node7</title>
<g id="a_node7"><a xlink:href="long-double_8h.html" target="_top" xlink:title=" ">
<polygon fill="white" stroke="black" points="236.5,-0.5 236.5,-19.5 340.5,-19.5 340.5,-0.5 236.5,-0.5"/>
<text text-anchor="middle" x="288.5" y="-7.5" font-family="Helvetica,sans-Serif" font-size="10.00">bits/long&#45;double.h</text>
</a>
</g>
</g>
<!-- Node5&#45;&gt;Node7 -->
<g id="edge7" class="edge">
<title>Node5&#45;&gt;Node7</title>
<path fill="none" stroke="midnightblue" d="M169.84,-56.44C193.25,-47.48 230.24,-33.31 256.69,-23.18"/>
<polygon fill="midnightblue" stroke="midnightblue" points="258.18,-26.36 266.26,-19.52 255.67,-19.82 258.18,-26.36"/>
</g>
<!-- Node9 -->
<g id="node9" class="node">
<title>Node9</title>
<g id="a_node9"><a xlink:title=" ">
<polygon fill="white" stroke="#bfbfbf" points="0,-0.5 0,-19.5 89,-19.5 89,-0.5 0,-0.5"/>
<text text-anchor="middle" x="44.5" y="-7.5" font-family="Helvetica,sans-Serif" font-size="10.00">gnu/stubs&#45;32.h</text>
</a>
</g>
</g>
<!-- Node8&#45;&gt;Node9 -->
<g id="edge9" class="edge">
<title>Node8&#45;&gt;Node9</title>
<path fill="none" stroke="midnightblue" d="M52.01,-56.08C50.82,-48.93 49.11,-38.64 47.62,-29.69"/>
<polygon fill="midnightblue" stroke="midnightblue" points="51.05,-29.04 45.96,-19.75 44.15,-30.19 51.05,-29.04"/>
</g>
<!-- Node11&#45;&gt;Node3 -->
<g id="edge12" class="edge">
<title>Node11&#45;&gt;Node3</title>
<path fill="none" stroke="midnightblue" d="M224.91,-224.37C210.98,-206.14 178.37,-163.43 160.23,-139.68"/>
<polygon fill="midnightblue" stroke="midnightblue" points="162.91,-137.41 154.06,-131.59 157.35,-141.66 162.91,-137.41"/>
</g>
<!-- Node12 -->
<g id="node12" class="node">
<title>Node12</title>
<g id="a_node12"><a xlink:href="floatn-common_8h.html" target="_top" xlink:title=" ">
<polygon fill="white" stroke="black" points="213,-168.5 213,-187.5 334,-187.5 334,-168.5 213,-168.5"/>
<text text-anchor="middle" x="273.5" y="-175.5" font-family="Helvetica,sans-Serif" font-size="10.00">bits/floatn&#45;common.h</text>
</a>
</g>
</g>
<!-- Node11&#45;&gt;Node12 -->
<g id="edge13" class="edge">
<title>Node11&#45;&gt;Node12</title>
<path fill="none" stroke="midnightblue" d="M238.44,-224.08C244.43,-216.38 253.25,-205.03 260.55,-195.65"/>
<polygon fill="midnightblue" stroke="midnightblue" points="263.32,-197.79 266.69,-187.75 257.79,-193.5 263.32,-197.79"/>
</g>
<!-- Node12&#45;&gt;Node3 -->
<g id="edge14" class="edge">
<title>Node12&#45;&gt;Node3</title>
<path fill="none" stroke="midnightblue" d="M253.53,-168.44C232.89,-159.6 200.44,-145.69 176.87,-135.59"/>
<polygon fill="midnightblue" stroke="midnightblue" points="177.94,-132.24 167.37,-131.52 175.18,-138.67 177.94,-132.24"/>
</g>
<!-- Node12&#45;&gt;Node7 -->
<g id="edge15" class="edge">
<title>Node12&#45;&gt;Node7</title>
<path fill="none" stroke="midnightblue" d="M275.44,-168.41C279.26,-151.07 287.61,-110.55 290.5,-76 291.24,-67.14 290.7,-64.89 290.5,-56 290.31,-47.39 289.91,-37.86 289.52,-29.8"/>
<polygon fill="midnightblue" stroke="midnightblue" points="293.01,-29.43 289,-19.62 286.02,-29.79 293.01,-29.43"/>
</g>
</g>
</svg>
