<?xml version="1.0" encoding="UTF-8" standalone="no"?>
<!DOCTYPE svg PUBLIC "-//W3C//DTD SVG 1.1//EN"
 "http://www.w3.org/Graphics/SVG/1.1/DTD/svg11.dtd">
<!-- Generated by graphviz version 2.44.1 (0)
 -->
<!-- Title: sigcontext Pages: 1 -->
<!--zoomable 716 -->
<svg id="main" version="1.1" xmlns="http://www.w3.org/2000/svg" xmlns:xlink="http://www.w3.org/1999/xlink" xml:space="preserve" onload="init(evt)">
<style type="text/css"><![CDATA[
.edge:hover path { stroke: red; }
.edge:hover polygon { stroke: red; fill: red; }
]]></style>
<script type="text/javascript"><![CDATA[
var edges = document.getElementsByTagName('g');
if (edges && edges.length) {
  for (var i=0;i<edges.length;i++) {
    if (edges[i].id.substr(0,4)=='edge') {
      edges[i].setAttribute('class','edge');
    }
  }
}
]]></script>
        <defs>
                <circle id="rim" cx="0" cy="0" r="7"/>
                <circle id="rim2" cx="0" cy="0" r="3.5"/>
                <g id="zoomPlus">
                        <use xlink:href="#rim" fill="#404040">
                                <set attributeName="fill" to="#808080" begin="zoomplus.mouseover" end="zoomplus.mouseout"/>
                        </use>
                        <path d="M-4,0h8M0,-4v8" fill="none" stroke="white" stroke-width="1.5" pointer-events="none"/>
                </g>
                <g id="zoomMin">
                        <use xlink:href="#rim" fill="#404040">
                                <set attributeName="fill" to="#808080" begin="zoomminus.mouseover" end="zoomminus.mouseout"/>
                        </use>
                        <path d="M-4,0h8" fill="none" stroke="white" stroke-width="1.5" pointer-events="none"/>
                </g>
                <g id="dirArrow">
                        <path fill="none" stroke="white" stroke-width="1.5" d="M0,-3.0v7 M-2.5,-0.5L0,-3.0L2.5,-0.5"/>
                </g>
               <g id="resetDef">
                       <use xlink:href="#rim2" fill="#404040">
                               <set attributeName="fill" to="#808080" begin="reset.mouseover" end="reset.mouseout"/>
                       </use>
               </g>
        </defs>

<script type="text/javascript">
var viewWidth = 308;
var viewHeight = 716;
var sectionId = 'dynsection-0';
</script>
<script xlink:href="svgpan.js"/>
<svg id="graph" class="graph">
<g id="viewport">
<title>sigcontext</title>
<polygon fill="white" stroke="transparent" points="-4,4 -4,-712 304,-712 304,4 -4,4"/>
<!-- Node1 -->
<g id="node1" class="node">
<title>Node1</title>
<g id="a_node1"><a xlink:title=" ">
<polygon fill="#bfbfbf" stroke="black" points="120.5,-0.5 120.5,-343.5 215.5,-343.5 215.5,-0.5 120.5,-0.5"/>
<text text-anchor="middle" x="168" y="-331.5" font-family="Helvetica,sans-Serif" font-size="10.00">sigcontext</text>
<polyline fill="none" stroke="black" points="120.5,-324.5 215.5,-324.5 "/>
<text text-anchor="start" x="128.5" y="-312.5" font-family="Helvetica,sans-Serif" font-size="10.00">+ gs</text>
<text text-anchor="start" x="128.5" y="-301.5" font-family="Helvetica,sans-Serif" font-size="10.00">+ __gsh</text>
<text text-anchor="start" x="128.5" y="-290.5" font-family="Helvetica,sans-Serif" font-size="10.00">+ fs</text>
<text text-anchor="start" x="128.5" y="-279.5" font-family="Helvetica,sans-Serif" font-size="10.00">+ __fsh</text>
<text text-anchor="start" x="128.5" y="-268.5" font-family="Helvetica,sans-Serif" font-size="10.00">+ es</text>
<text text-anchor="start" x="128.5" y="-257.5" font-family="Helvetica,sans-Serif" font-size="10.00">+ __esh</text>
<text text-anchor="start" x="128.5" y="-246.5" font-family="Helvetica,sans-Serif" font-size="10.00">+ ds</text>
<text text-anchor="start" x="128.5" y="-235.5" font-family="Helvetica,sans-Serif" font-size="10.00">+ __dsh</text>
<text text-anchor="start" x="128.5" y="-224.5" font-family="Helvetica,sans-Serif" font-size="10.00">+ edi</text>
<text text-anchor="start" x="128.5" y="-213.5" font-family="Helvetica,sans-Serif" font-size="10.00">+ esi</text>
<text text-anchor="start" x="128.5" y="-202.5" font-family="Helvetica,sans-Serif" font-size="10.00">+ ebp</text>
<text text-anchor="start" x="128.5" y="-191.5" font-family="Helvetica,sans-Serif" font-size="10.00">+ esp</text>
<text text-anchor="start" x="128.5" y="-180.5" font-family="Helvetica,sans-Serif" font-size="10.00">+ ebx</text>
<text text-anchor="start" x="128.5" y="-169.5" font-family="Helvetica,sans-Serif" font-size="10.00">+ edx</text>
<text text-anchor="start" x="128.5" y="-158.5" font-family="Helvetica,sans-Serif" font-size="10.00">+ ecx</text>
<text text-anchor="start" x="128.5" y="-147.5" font-family="Helvetica,sans-Serif" font-size="10.00">+ eax</text>
<text text-anchor="start" x="128.5" y="-136.5" font-family="Helvetica,sans-Serif" font-size="10.00">+ trapno</text>
<text text-anchor="start" x="128.5" y="-125.5" font-family="Helvetica,sans-Serif" font-size="10.00">+ err</text>
<text text-anchor="start" x="128.5" y="-114.5" font-family="Helvetica,sans-Serif" font-size="10.00">+ eip</text>
<text text-anchor="start" x="128.5" y="-103.5" font-family="Helvetica,sans-Serif" font-size="10.00">+ cs</text>
<text text-anchor="start" x="128.5" y="-92.5" font-family="Helvetica,sans-Serif" font-size="10.00">+ __csh</text>
<text text-anchor="start" x="128.5" y="-81.5" font-family="Helvetica,sans-Serif" font-size="10.00">+ eflags</text>
<text text-anchor="start" x="128.5" y="-70.5" font-family="Helvetica,sans-Serif" font-size="10.00">+ esp_at_signal</text>
<text text-anchor="start" x="128.5" y="-59.5" font-family="Helvetica,sans-Serif" font-size="10.00">+ ss</text>
<text text-anchor="start" x="128.5" y="-48.5" font-family="Helvetica,sans-Serif" font-size="10.00">+ __ssh</text>
<text text-anchor="start" x="128.5" y="-37.5" font-family="Helvetica,sans-Serif" font-size="10.00">+ oldmask</text>
<text text-anchor="start" x="128.5" y="-26.5" font-family="Helvetica,sans-Serif" font-size="10.00">+ cr2</text>
<polyline fill="none" stroke="black" points="120.5,-19.5 215.5,-19.5 "/>
<text text-anchor="middle" x="168" y="-7.5" font-family="Helvetica,sans-Serif" font-size="10.00"> </text>
</a>
</g>
</g>
<!-- Node2 -->
<g id="node2" class="node">
<title>Node2</title>
<g id="a_node2"><a xlink:href="struct__fpstate.html" target="_top" xlink:title=" ">
<polygon fill="white" stroke="black" points="110,-391.5 110,-580.5 226,-580.5 226,-391.5 110,-391.5"/>
<text text-anchor="middle" x="168" y="-568.5" font-family="Helvetica,sans-Serif" font-size="10.00">_fpstate</text>
<polyline fill="none" stroke="black" points="110,-561.5 226,-561.5 "/>
<text text-anchor="start" x="118" y="-549.5" font-family="Helvetica,sans-Serif" font-size="10.00">+ cw</text>
<text text-anchor="start" x="118" y="-538.5" font-family="Helvetica,sans-Serif" font-size="10.00">+ sw</text>
<text text-anchor="start" x="118" y="-527.5" font-family="Helvetica,sans-Serif" font-size="10.00">+ tag</text>
<text text-anchor="start" x="118" y="-516.5" font-family="Helvetica,sans-Serif" font-size="10.00">+ ipoff</text>
<text text-anchor="start" x="118" y="-505.5" font-family="Helvetica,sans-Serif" font-size="10.00">+ cssel</text>
<text text-anchor="start" x="118" y="-494.5" font-family="Helvetica,sans-Serif" font-size="10.00">+ dataoff</text>
<text text-anchor="start" x="118" y="-483.5" font-family="Helvetica,sans-Serif" font-size="10.00">+ datasel</text>
<text text-anchor="start" x="118" y="-472.5" font-family="Helvetica,sans-Serif" font-size="10.00">+ status</text>
<text text-anchor="start" x="118" y="-461.5" font-family="Helvetica,sans-Serif" font-size="10.00">+ magic</text>
<text text-anchor="start" x="118" y="-450.5" font-family="Helvetica,sans-Serif" font-size="10.00">+ _fxsr_env</text>
<text text-anchor="start" x="118" y="-439.5" font-family="Helvetica,sans-Serif" font-size="10.00">+ mxcsr</text>
<text text-anchor="start" x="118" y="-428.5" font-family="Helvetica,sans-Serif" font-size="10.00">+ __glibc_reserved1</text>
<text text-anchor="start" x="118" y="-417.5" font-family="Helvetica,sans-Serif" font-size="10.00">+ __glibc_reserved2</text>
<polyline fill="none" stroke="black" points="110,-410.5 226,-410.5 "/>
<text text-anchor="middle" x="168" y="-398.5" font-family="Helvetica,sans-Serif" font-size="10.00"> </text>
</a>
</g>
</g>
<!-- Node2&#45;&gt;Node1 -->
<g id="edge1" class="edge">
<title>Node2&#45;&gt;Node1</title>
<path fill="none" stroke="#404040" d="M168,-391.39C168,-380.01 168,-368.11 168,-355.98"/>
<polygon fill="none" stroke="#404040" points="168,-355.79 164,-349.79 168,-343.79 172,-349.79 168,-355.79"/>
<text text-anchor="middle" x="191" y="-365" font-family="Helvetica,sans-Serif" font-size="10.00"> +fpstate</text>
</g>
<!-- Node3 -->
<g id="node3" class="node">
<title>Node3</title>
<g id="a_node3"><a xlink:href="struct__fpxreg.html" target="_top" xlink:title=" ">
<polygon fill="white" stroke="black" points="0,-628.5 0,-707.5 116,-707.5 116,-628.5 0,-628.5"/>
<text text-anchor="middle" x="58" y="-695.5" font-family="Helvetica,sans-Serif" font-size="10.00">_fpxreg</text>
<polyline fill="none" stroke="black" points="0,-688.5 116,-688.5 "/>
<text text-anchor="start" x="8" y="-676.5" font-family="Helvetica,sans-Serif" font-size="10.00">+ significand</text>
<text text-anchor="start" x="8" y="-665.5" font-family="Helvetica,sans-Serif" font-size="10.00">+ exponent</text>
<text text-anchor="start" x="8" y="-654.5" font-family="Helvetica,sans-Serif" font-size="10.00">+ __glibc_reserved1</text>
<polyline fill="none" stroke="black" points="0,-647.5 116,-647.5 "/>
<text text-anchor="middle" x="58" y="-635.5" font-family="Helvetica,sans-Serif" font-size="10.00"> </text>
</a>
</g>
</g>
<!-- Node3&#45;&gt;Node2 -->
<g id="edge2" class="edge">
<title>Node3&#45;&gt;Node2</title>
<path fill="none" stroke="#404040" d="M81.6,-628.39C88.49,-617.11 96.37,-604.21 104.51,-590.9"/>
<polygon fill="none" stroke="#404040" points="104.51,-590.9 104.22,-583.69 110.76,-580.66 111.05,-587.86 104.51,-590.9"/>
<text text-anchor="middle" x="122" y="-602" font-family="Helvetica,sans-Serif" font-size="10.00"> +_fxsr_st</text>
</g>
<!-- Node4 -->
<g id="node4" class="node">
<title>Node4</title>
<g id="a_node4"><a xlink:href="struct__xmmreg.html" target="_top" xlink:title=" ">
<polygon fill="white" stroke="black" points="134,-639.5 134,-696.5 202,-696.5 202,-639.5 134,-639.5"/>
<text text-anchor="middle" x="168" y="-684.5" font-family="Helvetica,sans-Serif" font-size="10.00">_xmmreg</text>
<polyline fill="none" stroke="black" points="134,-677.5 202,-677.5 "/>
<text text-anchor="start" x="142" y="-665.5" font-family="Helvetica,sans-Serif" font-size="10.00">+ element</text>
<polyline fill="none" stroke="black" points="134,-658.5 202,-658.5 "/>
<text text-anchor="middle" x="168" y="-646.5" font-family="Helvetica,sans-Serif" font-size="10.00"> </text>
</a>
</g>
</g>
<!-- Node4&#45;&gt;Node2 -->
<g id="edge3" class="edge">
<title>Node4&#45;&gt;Node2</title>
<path fill="none" stroke="#404040" d="M168,-639.27C168,-626.41 168,-610.23 168,-593.26"/>
<polygon fill="none" stroke="#404040" points="168,-592.79 164,-586.79 168,-580.79 172,-586.79 168,-592.79"/>
<text text-anchor="middle" x="189.5" y="-602" font-family="Helvetica,sans-Serif" font-size="10.00"> +_xmm</text>
</g>
<!-- Node5 -->
<g id="node5" class="node">
<title>Node5</title>
<g id="a_node5"><a xlink:href="struct__fpreg.html" target="_top" xlink:title=" ">
<polygon fill="white" stroke="black" points="220,-634 220,-702 300,-702 300,-634 220,-634"/>
<text text-anchor="middle" x="260" y="-690" font-family="Helvetica,sans-Serif" font-size="10.00">_fpreg</text>
<polyline fill="none" stroke="black" points="220,-683 300,-683 "/>
<text text-anchor="start" x="228" y="-671" font-family="Helvetica,sans-Serif" font-size="10.00">+ significand</text>
<text text-anchor="start" x="228" y="-660" font-family="Helvetica,sans-Serif" font-size="10.00">+ exponent</text>
<polyline fill="none" stroke="black" points="220,-653 300,-653 "/>
<text text-anchor="middle" x="260" y="-641" font-family="Helvetica,sans-Serif" font-size="10.00"> </text>
</a>
</g>
</g>
<!-- Node5&#45;&gt;Node2 -->
<g id="edge4" class="edge">
<title>Node5&#45;&gt;Node2</title>
<path fill="none" stroke="#404040" d="M243.13,-633.99C236.8,-621.62 229.23,-606.81 221.37,-591.42"/>
<polygon fill="none" stroke="#404040" points="221.35,-591.38 215.06,-587.86 215.89,-580.7 222.18,-584.22 221.35,-591.38"/>
<text text-anchor="middle" x="243" y="-602" font-family="Helvetica,sans-Serif" font-size="10.00"> +_st</text>
</g>
</g>
</svg>
        <g id="navigator" transform="translate(0 0)" fill="#404254">
                <rect fill="#f2f5e9" fill-opacity="0.5" stroke="#606060" stroke-width=".5" x="0" y="0" width="60" height="60"/>
                <use id="zoomplus" xlink:href="#zoomPlus" x="17" y="9" onmousedown="handleZoom(evt,'in')"/>
                <use id="zoomminus" xlink:href="#zoomMin" x="42" y="9" onmousedown="handleZoom(evt,'out')"/>
                <use id="reset" xlink:href="#resetDef" x="30" y="36" onmousedown="handleReset()"/>
                <g id="arrowUp" xlink:href="#dirArrow" transform="translate(30 24)" onmousedown="handlePan(0,-1)">
                  <use xlink:href="#rim" fill="#404040">
                        <set attributeName="fill" to="#808080" begin="arrowUp.mouseover" end="arrowUp.mouseout"/>
                  </use>
                  <path fill="none" stroke="white" stroke-width="1.5" d="M0,-3.0v7 M-2.5,-0.5L0,-3.0L2.5,-0.5"/>
                </g>
                <g id="arrowRight" xlink:href="#dirArrow" transform="rotate(90) translate(36 -43)" onmousedown="handlePan(1,0)">
                  <use xlink:href="#rim" fill="#404040">
                        <set attributeName="fill" to="#808080" begin="arrowRight.mouseover" end="arrowRight.mouseout"/>
                  </use>
                  <path fill="none" stroke="white" stroke-width="1.5" d="M0,-3.0v7 M-2.5,-0.5L0,-3.0L2.5,-0.5"/>
                </g>
                <g id="arrowDown" xlink:href="#dirArrow" transform="rotate(180) translate(-30 -48)" onmousedown="handlePan(0,1)">
                  <use xlink:href="#rim" fill="#404040">
                        <set attributeName="fill" to="#808080" begin="arrowDown.mouseover" end="arrowDown.mouseout"/>
                  </use>
                  <path fill="none" stroke="white" stroke-width="1.5" d="M0,-3.0v7 M-2.5,-0.5L0,-3.0L2.5,-0.5"/>
                </g>
                <g id="arrowLeft" xlink:href="#dirArrow" transform="rotate(270) translate(-36 17)" onmousedown="handlePan(-1,0)">
                  <use xlink:href="#rim" fill="#404040">
                        <set attributeName="fill" to="#808080" begin="arrowLeft.mouseover" end="arrowLeft.mouseout"/>
                  </use>
                  <path fill="none" stroke="white" stroke-width="1.5" d="M0,-3.0v7 M-2.5,-0.5L0,-3.0L2.5,-0.5"/>
                </g>
        </g>
        <svg viewBox="0 0 15 15" width="100%" height="30px" preserveAspectRatio="xMaxYMin meet">
         <g id="arrow_out" transform="scale(0.3 0.3)">
          <a xlink:href="structsigcontext__coll__graph_org.svg" target="_base">
           <rect id="button" ry="5" rx="5" y="6" x="6" height="38" width="38"
                fill="#f2f5e9" fill-opacity="0.5" stroke="#606060" stroke-width="1.0"/>
           <path id="arrow"
             d="M 11.500037,31.436501 C 11.940474,20.09759 22.043105,11.32322 32.158766,21.979434 L 37.068811,17.246167 C 37.068811,17.246167 37.088388,32 37.088388,32 L 22.160133,31.978069 C 22.160133,31.978069 26.997745,27.140456 26.997745,27.140456 C 18.528582,18.264221 13.291696,25.230495 11.500037,31.436501 z"
             style="fill:#404040;"/>
          </a>
         </g>
        </svg>
</svg>
