<?xml version="1.0" encoding="UTF-8" standalone="no"?>
<!DOCTYPE svg PUBLIC "-//W3C//DTD SVG 1.1//EN"
 "http://www.w3.org/Graphics/SVG/1.1/DTD/svg11.dtd">
<!-- Generated by graphviz version 2.44.1 (0)
 -->
<!-- Title: addrinfo Pages: 1 -->
<svg width="201pt" height="226pt"
 viewBox="0.00 0.00 200.50 226.00" xmlns="http://www.w3.org/2000/svg" xmlns:xlink="http://www.w3.org/1999/xlink">
<g id="graph0" class="graph" transform="scale(1 1) rotate(0) translate(4 222)">
<title>addrinfo</title>
<polygon fill="white" stroke="transparent" points="-4,4 -4,-222 196.5,-222 196.5,4 -4,4"/>
<!-- Node1 -->
<g id="node1" class="node">
<title>Node1</title>
<g id="a_node1"><a xlink:title=" ">
<polygon fill="#bfbfbf" stroke="black" points="27.5,-0.5 27.5,-112.5 126.5,-112.5 126.5,-0.5 27.5,-0.5"/>
<text text-anchor="middle" x="77" y="-100.5" font-family="Helvetica,sans-Serif" font-size="10.00">addrinfo</text>
<polyline fill="none" stroke="black" points="27.5,-93.5 126.5,-93.5 "/>
<text text-anchor="start" x="35.5" y="-81.5" font-family="Helvetica,sans-Serif" font-size="10.00">+ ai_flags</text>
<text text-anchor="start" x="35.5" y="-70.5" font-family="Helvetica,sans-Serif" font-size="10.00">+ ai_family</text>
<text text-anchor="start" x="35.5" y="-59.5" font-family="Helvetica,sans-Serif" font-size="10.00">+ ai_socktype</text>
<text text-anchor="start" x="35.5" y="-48.5" font-family="Helvetica,sans-Serif" font-size="10.00">+ ai_protocol</text>
<text text-anchor="start" x="35.5" y="-37.5" font-family="Helvetica,sans-Serif" font-size="10.00">+ ai_addrlen</text>
<text text-anchor="start" x="35.5" y="-26.5" font-family="Helvetica,sans-Serif" font-size="10.00">+ ai_canonname</text>
<polyline fill="none" stroke="black" points="27.5,-19.5 126.5,-19.5 "/>
<text text-anchor="middle" x="77" y="-7.5" font-family="Helvetica,sans-Serif" font-size="10.00"> </text>
</a>
</g>
</g>
<!-- Node1&#45;&gt;Node1 -->
<g id="edge2" class="edge">
<title>Node1&#45;&gt;Node1</title>
<path fill="none" stroke="#404040" d="M126.75,-70.97C137.07,-69.45 144.5,-64.62 144.5,-56.5 144.5,-51.93 142.15,-48.4 138.26,-45.92"/>
<polygon fill="none" stroke="#404040" points="138.11,-45.87 131.15,-47.74 126.75,-42.03 133.71,-40.16 138.11,-45.87"/>
<text text-anchor="middle" x="168.5" y="-54" font-family="Helvetica,sans-Serif" font-size="10.00"> +ai_next</text>
</g>
<!-- Node2 -->
<g id="node2" class="node">
<title>Node2</title>
<g id="a_node2"><a xlink:href="structsockaddr.html" target="_top" xlink:title=" ">
<polygon fill="white" stroke="black" points="0,-160.5 0,-217.5 154,-217.5 154,-160.5 0,-160.5"/>
<text text-anchor="middle" x="77" y="-205.5" font-family="Helvetica,sans-Serif" font-size="10.00">sockaddr</text>
<polyline fill="none" stroke="black" points="0,-198.5 154,-198.5 "/>
<text text-anchor="start" x="8" y="-186.5" font-family="Helvetica,sans-Serif" font-size="10.00">+ sa_data</text>
<polyline fill="none" stroke="black" points="0,-179.5 154,-179.5 "/>
<text text-anchor="start" x="8" y="-167.5" font-family="Helvetica,sans-Serif" font-size="10.00">+ __SOCKADDR_COMMON()</text>
</a>
</g>
</g>
<!-- Node2&#45;&gt;Node1 -->
<g id="edge1" class="edge">
<title>Node2&#45;&gt;Node1</title>
<path fill="none" stroke="#404040" d="M77,-160.32C77,-149.78 77,-137.25 77,-124.62"/>
<polygon fill="none" stroke="#404040" points="77,-124.55 73,-118.55 77,-112.55 81,-118.55 77,-124.55"/>
<text text-anchor="middle" x="101" y="-134" font-family="Helvetica,sans-Serif" font-size="10.00"> +ai_addr</text>
</g>
</g>
</svg>
