<?xml version="1.0" encoding="UTF-8" standalone="no"?>
<!DOCTYPE svg PUBLIC "-//W3C//DTD SVG 1.1//EN"
 "http://www.w3.org/Graphics/SVG/1.1/DTD/svg11.dtd">
<!-- Generated by graphviz version 2.44.1 (0)
 -->
<!-- Title: bits/struct_mutex.h Pages: 1 -->
<svg width="210pt" height="263pt"
 viewBox="0.00 0.00 209.50 263.00" xmlns="http://www.w3.org/2000/svg" xmlns:xlink="http://www.w3.org/1999/xlink">
<g id="graph0" class="graph" transform="scale(1 1) rotate(0) translate(4 259)">
<title>bits/struct_mutex.h</title>
<polygon fill="white" stroke="transparent" points="-4,4 -4,-259 205.5,-259 205.5,4 -4,4"/>
<!-- Node1 -->
<g id="node1" class="node">
<title>Node1</title>
<g id="a_node1"><a xlink:title=" ">
<polygon fill="#bfbfbf" stroke="black" points="62,-235.5 62,-254.5 173,-254.5 173,-235.5 62,-235.5"/>
<text text-anchor="middle" x="117.5" y="-242.5" font-family="Helvetica,sans-Serif" font-size="10.00">bits/struct_mutex.h</text>
</a>
</g>
</g>
<!-- Node2 -->
<g id="node2" class="node">
<title>Node2</title>
<g id="a_node2"><a xlink:href="thread-shared-types_8h.html" target="_top" xlink:title=" ">
<polygon fill="white" stroke="black" points="64.5,-168.5 64.5,-198.5 170.5,-198.5 170.5,-168.5 64.5,-168.5"/>
<text text-anchor="start" x="72.5" y="-186.5" font-family="Helvetica,sans-Serif" font-size="10.00">bits/thread&#45;shared</text>
<text text-anchor="middle" x="117.5" y="-175.5" font-family="Helvetica,sans-Serif" font-size="10.00">&#45;types.h</text>
</a>
</g>
</g>
<!-- Node1&#45;&gt;Node2 -->
<g id="edge1" class="edge">
<title>Node1&#45;&gt;Node2</title>
<path fill="none" stroke="midnightblue" d="M117.5,-225.23C117.5,-216.59 117.5,-206.5 117.5,-198.52"/>
<polygon fill="midnightblue" stroke="midnightblue" points="114,-225.48 117.5,-235.48 121,-225.48 114,-225.48"/>
</g>
<!-- Node3 -->
<g id="node3" class="node">
<title>Node3</title>
<g id="a_node3"><a xlink:href="pthreadtypes_8h.html" target="_top" xlink:title=" ">
<polygon fill="white" stroke="black" points="10,-112.5 10,-131.5 121,-131.5 121,-112.5 10,-112.5"/>
<text text-anchor="middle" x="65.5" y="-119.5" font-family="Helvetica,sans-Serif" font-size="10.00">bits/pthreadtypes.h</text>
</a>
</g>
</g>
<!-- Node2&#45;&gt;Node3 -->
<g id="edge2" class="edge">
<title>Node2&#45;&gt;Node3</title>
<path fill="none" stroke="midnightblue" d="M98.45,-160.7C89.65,-150.64 79.71,-139.26 73.07,-131.66"/>
<polygon fill="midnightblue" stroke="midnightblue" points="95.96,-163.17 105.18,-168.4 101.23,-158.57 95.96,-163.17"/>
</g>
<!-- Node7 -->
<g id="node7" class="node">
<title>Node7</title>
<g id="a_node7"><a xlink:href="threads_8h.html" target="_top" xlink:title=" ">
<polygon fill="white" stroke="black" points="139.5,-112.5 139.5,-131.5 201.5,-131.5 201.5,-112.5 139.5,-112.5"/>
<text text-anchor="middle" x="170.5" y="-119.5" font-family="Helvetica,sans-Serif" font-size="10.00">threads.h</text>
</a>
</g>
</g>
<!-- Node2&#45;&gt;Node7 -->
<g id="edge6" class="edge">
<title>Node2&#45;&gt;Node7</title>
<path fill="none" stroke="midnightblue" d="M136.92,-160.7C145.88,-150.64 156.02,-139.26 162.79,-131.66"/>
<polygon fill="midnightblue" stroke="midnightblue" points="134.1,-158.6 130.06,-168.4 139.33,-163.26 134.1,-158.6"/>
</g>
<!-- Node4 -->
<g id="node4" class="node">
<title>Node4</title>
<g id="a_node4"><a xlink:href="signal_8h.html" target="_top" xlink:title=" ">
<polygon fill="white" stroke="black" points="0,-56.5 0,-75.5 55,-75.5 55,-56.5 0,-56.5"/>
<text text-anchor="middle" x="27.5" y="-63.5" font-family="Helvetica,sans-Serif" font-size="10.00">signal.h</text>
</a>
</g>
</g>
<!-- Node3&#45;&gt;Node4 -->
<g id="edge3" class="edge">
<title>Node3&#45;&gt;Node4</title>
<path fill="none" stroke="midnightblue" d="M53.44,-103.86C46.86,-94.5 38.99,-83.33 33.66,-75.75"/>
<polygon fill="midnightblue" stroke="midnightblue" points="50.61,-105.92 59.23,-112.08 56.33,-101.89 50.61,-105.92"/>
</g>
<!-- Node5 -->
<g id="node5" class="node">
<title>Node5</title>
<g id="a_node5"><a xlink:href="pthread_8h.html" target="_top" xlink:title=" ">
<polygon fill="white" stroke="black" points="73,-56.5 73,-75.5 136,-75.5 136,-56.5 73,-56.5"/>
<text text-anchor="middle" x="104.5" y="-63.5" font-family="Helvetica,sans-Serif" font-size="10.00">pthread.h</text>
</a>
</g>
</g>
<!-- Node3&#45;&gt;Node5 -->
<g id="edge4" class="edge">
<title>Node3&#45;&gt;Node5</title>
<path fill="none" stroke="midnightblue" d="M77.88,-103.86C84.64,-94.5 92.71,-83.33 98.18,-75.75"/>
<polygon fill="midnightblue" stroke="midnightblue" points="74.96,-101.93 71.94,-112.08 80.63,-106.03 74.96,-101.93"/>
</g>
<!-- Node6 -->
<g id="node6" class="node">
<title>Node6</title>
<g id="a_node6"><a xlink:href="thread__db_8h.html" target="_top" xlink:title=" ">
<polygon fill="white" stroke="black" points="67.5,-0.5 67.5,-19.5 141.5,-19.5 141.5,-0.5 67.5,-0.5"/>
<text text-anchor="middle" x="104.5" y="-7.5" font-family="Helvetica,sans-Serif" font-size="10.00">thread_db.h</text>
</a>
</g>
</g>
<!-- Node5&#45;&gt;Node6 -->
<g id="edge5" class="edge">
<title>Node5&#45;&gt;Node6</title>
<path fill="none" stroke="midnightblue" d="M104.5,-45.8C104.5,-36.91 104.5,-26.78 104.5,-19.75"/>
<polygon fill="midnightblue" stroke="midnightblue" points="101,-46.08 104.5,-56.08 108,-46.08 101,-46.08"/>
</g>
</g>
</svg>
