<?xml version="1.0" encoding="UTF-8" standalone="no"?>
<!DOCTYPE svg PUBLIC "-//W3C//DTD SVG 1.1//EN"
 "http://www.w3.org/Graphics/SVG/1.1/DTD/svg11.dtd">
<!-- Generated by graphviz version 2.44.1 (0)
 -->
<!-- Title: nd_opt_hdr Pages: 1 -->
<svg width="96pt" height="77pt"
 viewBox="0.00 0.00 96.00 77.00" xmlns="http://www.w3.org/2000/svg" xmlns:xlink="http://www.w3.org/1999/xlink">
<g id="graph0" class="graph" transform="scale(1 1) rotate(0) translate(4 73)">
<title>nd_opt_hdr</title>
<polygon fill="white" stroke="transparent" points="-4,4 -4,-73 92,-73 92,4 -4,4"/>
<!-- Node1 -->
<g id="node1" class="node">
<title>Node1</title>
<g id="a_node1"><a xlink:title=" ">
<polygon fill="#bfbfbf" stroke="black" points="0,-0.5 0,-68.5 88,-68.5 88,-0.5 0,-0.5"/>
<text text-anchor="middle" x="44" y="-56.5" font-family="Helvetica,sans-Serif" font-size="10.00">nd_opt_hdr</text>
<polyline fill="none" stroke="black" points="0,-49.5 88,-49.5 "/>
<text text-anchor="start" x="8" y="-37.5" font-family="Helvetica,sans-Serif" font-size="10.00">+ nd_opt_type</text>
<text text-anchor="start" x="8" y="-26.5" font-family="Helvetica,sans-Serif" font-size="10.00">+ nd_opt_len</text>
<polyline fill="none" stroke="black" points="0,-19.5 88,-19.5 "/>
<text text-anchor="middle" x="44" y="-7.5" font-family="Helvetica,sans-Serif" font-size="10.00"> </text>
</a>
</g>
</g>
</g>
</svg>
