<?xml version="1.0" encoding="UTF-8" standalone="no"?>
<!DOCTYPE svg PUBLIC "-//W3C//DTD SVG 1.1//EN"
 "http://www.w3.org/Graphics/SVG/1.1/DTD/svg11.dtd">
<!-- Generated by graphviz version 2.44.1 (0)
 -->
<!-- Title: arpreq_old Pages: 1 -->
<svg width="162pt" height="193pt"
 viewBox="0.00 0.00 162.00 193.00" xmlns="http://www.w3.org/2000/svg" xmlns:xlink="http://www.w3.org/1999/xlink">
<g id="graph0" class="graph" transform="scale(1 1) rotate(0) translate(4 189)">
<title>arpreq_old</title>
<polygon fill="white" stroke="transparent" points="-4,4 -4,-189 158,-189 158,4 -4,4"/>
<!-- Node1 -->
<g id="node1" class="node">
<title>Node1</title>
<g id="a_node1"><a xlink:title=" ">
<polygon fill="#bfbfbf" stroke="black" points="41,-0.5 41,-57.5 113,-57.5 113,-0.5 41,-0.5"/>
<text text-anchor="middle" x="77" y="-45.5" font-family="Helvetica,sans-Serif" font-size="10.00">arpreq_old</text>
<polyline fill="none" stroke="black" points="41,-38.5 113,-38.5 "/>
<text text-anchor="start" x="49" y="-26.5" font-family="Helvetica,sans-Serif" font-size="10.00">+ arp_flags</text>
<polyline fill="none" stroke="black" points="41,-19.5 113,-19.5 "/>
<text text-anchor="middle" x="77" y="-7.5" font-family="Helvetica,sans-Serif" font-size="10.00"> </text>
</a>
</g>
</g>
<!-- Node2 -->
<g id="node2" class="node">
<title>Node2</title>
<g id="a_node2"><a xlink:href="structsockaddr.html" target="_top" xlink:title=" ">
<polygon fill="white" stroke="black" points="0,-127.5 0,-184.5 154,-184.5 154,-127.5 0,-127.5"/>
<text text-anchor="middle" x="77" y="-172.5" font-family="Helvetica,sans-Serif" font-size="10.00">sockaddr</text>
<polyline fill="none" stroke="black" points="0,-165.5 154,-165.5 "/>
<text text-anchor="start" x="8" y="-153.5" font-family="Helvetica,sans-Serif" font-size="10.00">+ sa_data</text>
<polyline fill="none" stroke="black" points="0,-146.5 154,-146.5 "/>
<text text-anchor="start" x="8" y="-134.5" font-family="Helvetica,sans-Serif" font-size="10.00">+ __SOCKADDR_COMMON()</text>
</a>
</g>
</g>
<!-- Node2&#45;&gt;Node1 -->
<g id="edge1" class="edge">
<title>Node2&#45;&gt;Node1</title>
<path fill="none" stroke="#404040" d="M77,-127.26C77,-110.35 77,-88.46 77,-69.73"/>
<polygon fill="none" stroke="#404040" points="77,-69.66 73,-63.66 77,-57.66 81,-63.66 77,-69.66"/>
<text text-anchor="middle" x="113.5" y="-101" font-family="Helvetica,sans-Serif" font-size="10.00"> +arp_ha</text>
<text text-anchor="middle" x="113.5" y="-90" font-family="Helvetica,sans-Serif" font-size="10.00">+arp_netmask</text>
<text text-anchor="middle" x="113.5" y="-79" font-family="Helvetica,sans-Serif" font-size="10.00">+arp_pa</text>
</g>
</g>
</svg>
