<?xml version="1.0" encoding="UTF-8" standalone="no"?>
<!DOCTYPE svg PUBLIC "-//W3C//DTD SVG 1.1//EN"
 "http://www.w3.org/Graphics/SVG/1.1/DTD/svg11.dtd">
<!-- Generated by graphviz version 2.44.1 (0)
 -->
<!-- Title: epoll_event Pages: 1 -->
<svg width="82pt" height="204pt"
 viewBox="0.00 0.00 82.00 204.00" xmlns="http://www.w3.org/2000/svg" xmlns:xlink="http://www.w3.org/1999/xlink">
<g id="graph0" class="graph" transform="scale(1 1) rotate(0) translate(4 200)">
<title>epoll_event</title>
<polygon fill="white" stroke="transparent" points="-4,4 -4,-200 78,-200 78,4 -4,4"/>
<!-- Node1 -->
<g id="node1" class="node">
<title>Node1</title>
<g id="a_node1"><a xlink:title=" ">
<polygon fill="#bfbfbf" stroke="black" points="0,-0.5 0,-57.5 74,-57.5 74,-0.5 0,-0.5"/>
<text text-anchor="middle" x="37" y="-45.5" font-family="Helvetica,sans-Serif" font-size="10.00">epoll_event</text>
<polyline fill="none" stroke="black" points="0,-38.5 74,-38.5 "/>
<text text-anchor="start" x="8" y="-26.5" font-family="Helvetica,sans-Serif" font-size="10.00">+ events</text>
<polyline fill="none" stroke="black" points="0,-19.5 74,-19.5 "/>
<text text-anchor="middle" x="37" y="-7.5" font-family="Helvetica,sans-Serif" font-size="10.00"> </text>
</a>
</g>
</g>
<!-- Node2 -->
<g id="node2" class="node">
<title>Node2</title>
<g id="a_node2"><a xlink:href="unionepoll__data.html" target="_top" xlink:title=" ">
<polygon fill="white" stroke="black" points="3,-105.5 3,-195.5 71,-195.5 71,-105.5 3,-105.5"/>
<text text-anchor="middle" x="37" y="-183.5" font-family="Helvetica,sans-Serif" font-size="10.00">epoll_data</text>
<polyline fill="none" stroke="black" points="3,-176.5 71,-176.5 "/>
<text text-anchor="start" x="11" y="-164.5" font-family="Helvetica,sans-Serif" font-size="10.00">+ ptr</text>
<text text-anchor="start" x="11" y="-153.5" font-family="Helvetica,sans-Serif" font-size="10.00">+ fd</text>
<text text-anchor="start" x="11" y="-142.5" font-family="Helvetica,sans-Serif" font-size="10.00">+ u32</text>
<text text-anchor="start" x="11" y="-131.5" font-family="Helvetica,sans-Serif" font-size="10.00">+ u64</text>
<polyline fill="none" stroke="black" points="3,-124.5 71,-124.5 "/>
<text text-anchor="middle" x="37" y="-112.5" font-family="Helvetica,sans-Serif" font-size="10.00"> </text>
</a>
</g>
</g>
<!-- Node2&#45;&gt;Node1 -->
<g id="edge1" class="edge">
<title>Node2&#45;&gt;Node1</title>
<path fill="none" stroke="#404040" d="M37,-105.34C37,-93.75 37,-81.31 37,-69.95"/>
<polygon fill="none" stroke="#404040" points="37,-69.69 33,-63.69 37,-57.69 41,-63.69 37,-69.69"/>
<text text-anchor="middle" x="54" y="-79" font-family="Helvetica,sans-Serif" font-size="10.00"> +data</text>
</g>
</g>
</svg>
