<?xml version="1.0" encoding="UTF-8" standalone="no"?>
<!DOCTYPE svg PUBLIC "-//W3C//DTD SVG 1.1//EN"
 "http://www.w3.org/Graphics/SVG/1.1/DTD/svg11.dtd">
<!-- Generated by graphviz version 2.44.1 (0)
 -->
<!-- Title: full_sockaddr_ax25 Pages: 1 -->
<svg width="228pt" height="287pt"
 viewBox="0.00 0.00 228.00 287.00" xmlns="http://www.w3.org/2000/svg" xmlns:xlink="http://www.w3.org/1999/xlink">
<g id="graph0" class="graph" transform="scale(1 1) rotate(0) translate(4 283)">
<title>full_sockaddr_ax25</title>
<polygon fill="white" stroke="transparent" points="-4,4 -4,-283 224,-283 224,4 -4,4"/>
<!-- Node1 -->
<g id="node1" class="node">
<title>Node1</title>
<g id="a_node1"><a xlink:title=" ">
<polygon fill="#bfbfbf" stroke="black" points="16,-0.5 16,-57.5 126,-57.5 126,-0.5 16,-0.5"/>
<text text-anchor="middle" x="71" y="-45.5" font-family="Helvetica,sans-Serif" font-size="10.00">full_sockaddr_ax25</text>
<polyline fill="none" stroke="black" points="16,-38.5 126,-38.5 "/>
<text text-anchor="middle" x="71" y="-26.5" font-family="Helvetica,sans-Serif" font-size="10.00"> </text>
<polyline fill="none" stroke="black" points="16,-19.5 126,-19.5 "/>
<text text-anchor="middle" x="71" y="-7.5" font-family="Helvetica,sans-Serif" font-size="10.00"> </text>
</a>
</g>
</g>
<!-- Node2 -->
<g id="node2" class="node">
<title>Node2</title>
<g id="a_node2"><a xlink:href="structsockaddr__ax25.html" target="_top" xlink:title=" ">
<polygon fill="white" stroke="black" points="126,-105.5 126,-173.5 220,-173.5 220,-105.5 126,-105.5"/>
<text text-anchor="middle" x="173" y="-161.5" font-family="Helvetica,sans-Serif" font-size="10.00">sockaddr_ax25</text>
<polyline fill="none" stroke="black" points="126,-154.5 220,-154.5 "/>
<text text-anchor="start" x="134" y="-142.5" font-family="Helvetica,sans-Serif" font-size="10.00">+ sax25_family</text>
<text text-anchor="start" x="134" y="-131.5" font-family="Helvetica,sans-Serif" font-size="10.00">+ sax25_ndigis</text>
<polyline fill="none" stroke="black" points="126,-124.5 220,-124.5 "/>
<text text-anchor="middle" x="173" y="-112.5" font-family="Helvetica,sans-Serif" font-size="10.00"> </text>
</a>
</g>
</g>
<!-- Node2&#45;&gt;Node1 -->
<g id="edge1" class="edge">
<title>Node2&#45;&gt;Node1</title>
<path fill="none" stroke="#404040" d="M141.84,-105.36C130.34,-93.12 117.24,-79.19 105.46,-66.66"/>
<polygon fill="none" stroke="#404040" points="105.38,-66.57 98.36,-64.94 97.16,-57.83 104.18,-59.46 105.38,-66.57"/>
<text text-anchor="middle" x="150" y="-79" font-family="Helvetica,sans-Serif" font-size="10.00"> +fsa_ax25</text>
</g>
<!-- Node3 -->
<g id="node3" class="node">
<title>Node3</title>
<g id="a_node3"><a xlink:href="structax25__address.html" target="_top" xlink:title=" ">
<polygon fill="white" stroke="black" points="0,-221.5 0,-278.5 84,-278.5 84,-221.5 0,-221.5"/>
<text text-anchor="middle" x="42" y="-266.5" font-family="Helvetica,sans-Serif" font-size="10.00">ax25_address</text>
<polyline fill="none" stroke="black" points="0,-259.5 84,-259.5 "/>
<text text-anchor="start" x="8" y="-247.5" font-family="Helvetica,sans-Serif" font-size="10.00">+ ax25_call</text>
<polyline fill="none" stroke="black" points="0,-240.5 84,-240.5 "/>
<text text-anchor="middle" x="42" y="-228.5" font-family="Helvetica,sans-Serif" font-size="10.00"> </text>
</a>
</g>
</g>
<!-- Node3&#45;&gt;Node1 -->
<g id="edge3" class="edge">
<title>Node3&#45;&gt;Node1</title>
<path fill="none" stroke="#404040" d="M36.27,-221.28C31.23,-191.99 25.97,-144.66 35,-105 37.81,-92.64 42.93,-79.94 48.43,-68.59"/>
<polygon fill="none" stroke="#404040" points="48.52,-68.42 47.7,-61.26 54,-57.75 54.82,-64.91 48.52,-68.42"/>
<text text-anchor="middle" x="76" y="-137" font-family="Helvetica,sans-Serif" font-size="10.00"> +fsa_digipeater</text>
</g>
<!-- Node3&#45;&gt;Node2 -->
<g id="edge2" class="edge">
<title>Node3&#45;&gt;Node2</title>
<path fill="none" stroke="#404040" d="M75.4,-221.34C90.1,-209.16 107.67,-194.61 123.82,-181.23"/>
<polygon fill="none" stroke="#404040" points="123.89,-181.17 125.96,-174.27 133.13,-173.52 131.06,-180.43 123.89,-181.17"/>
<text text-anchor="middle" x="139" y="-195" font-family="Helvetica,sans-Serif" font-size="10.00"> +sax25_call</text>
</g>
</g>
</svg>
