<?xml version="1.0" encoding="UTF-8" standalone="no"?>
<!DOCTYPE svg PUBLIC "-//W3C//DTD SVG 1.1//EN"
 "http://www.w3.org/Graphics/SVG/1.1/DTD/svg11.dtd">
<!-- Generated by graphviz version 2.44.1 (0)
 -->
<!-- Title: __res_state Pages: 1 -->
<!--zoomable 628 -->
<svg id="main" version="1.1" xmlns="http://www.w3.org/2000/svg" xmlns:xlink="http://www.w3.org/1999/xlink" xml:space="preserve" onload="init(evt)">
<style type="text/css"><![CDATA[
.edge:hover path { stroke: red; }
.edge:hover polygon { stroke: red; fill: red; }
]]></style>
<script type="text/javascript"><![CDATA[
var edges = document.getElementsByTagName('g');
if (edges && edges.length) {
  for (var i=0;i<edges.length;i++) {
    if (edges[i].id.substr(0,4)=='edge') {
      edges[i].setAttribute('class','edge');
    }
  }
}
]]></script>
        <defs>
                <circle id="rim" cx="0" cy="0" r="7"/>
                <circle id="rim2" cx="0" cy="0" r="3.5"/>
                <g id="zoomPlus">
                        <use xlink:href="#rim" fill="#404040">
                                <set attributeName="fill" to="#808080" begin="zoomplus.mouseover" end="zoomplus.mouseout"/>
                        </use>
                        <path d="M-4,0h8M0,-4v8" fill="none" stroke="white" stroke-width="1.5" pointer-events="none"/>
                </g>
                <g id="zoomMin">
                        <use xlink:href="#rim" fill="#404040">
                                <set attributeName="fill" to="#808080" begin="zoomminus.mouseover" end="zoomminus.mouseout"/>
                        </use>
                        <path d="M-4,0h8" fill="none" stroke="white" stroke-width="1.5" pointer-events="none"/>
                </g>
                <g id="dirArrow">
                        <path fill="none" stroke="white" stroke-width="1.5" d="M0,-3.0v7 M-2.5,-0.5L0,-3.0L2.5,-0.5"/>
                </g>
               <g id="resetDef">
                       <use xlink:href="#rim2" fill="#404040">
                               <set attributeName="fill" to="#808080" begin="reset.mouseover" end="reset.mouseout"/>
                       </use>
               </g>
        </defs>

<script type="text/javascript">
var viewWidth = 383;
var viewHeight = 628;
var sectionId = 'dynsection-0';
</script>
<script xlink:href="svgpan.js"/>
<svg id="graph" class="graph">
<g id="viewport">
<title>__res_state</title>
<polygon fill="white" stroke="transparent" points="-4,4 -4,-624 378.82,-624 378.82,4 -4,4"/>
<!-- Node1 -->
<g id="node1" class="node">
<title>Node1</title>
<g id="a_node1"><a xlink:title=" ">
<polygon fill="#bfbfbf" stroke="black" points="57.32,-0.5 57.32,-354.5 194.32,-354.5 194.32,-0.5 57.32,-0.5"/>
<text text-anchor="middle" x="125.82" y="-342.5" font-family="Helvetica,sans-Serif" font-size="10.00">__res_state</text>
<polyline fill="none" stroke="black" points="57.32,-335.5 194.32,-335.5 "/>
<text text-anchor="start" x="65.32" y="-323.5" font-family="Helvetica,sans-Serif" font-size="10.00">+ retrans</text>
<text text-anchor="start" x="65.32" y="-312.5" font-family="Helvetica,sans-Serif" font-size="10.00">+ retry</text>
<text text-anchor="start" x="65.32" y="-301.5" font-family="Helvetica,sans-Serif" font-size="10.00">+ options</text>
<text text-anchor="start" x="65.32" y="-290.5" font-family="Helvetica,sans-Serif" font-size="10.00">+ nscount</text>
<text text-anchor="start" x="65.32" y="-279.5" font-family="Helvetica,sans-Serif" font-size="10.00">+ id</text>
<text text-anchor="start" x="65.32" y="-268.5" font-family="Helvetica,sans-Serif" font-size="10.00">+ dnsrch</text>
<text text-anchor="start" x="65.32" y="-257.5" font-family="Helvetica,sans-Serif" font-size="10.00">+ defdname</text>
<text text-anchor="start" x="65.32" y="-246.5" font-family="Helvetica,sans-Serif" font-size="10.00">+ pfcode</text>
<text text-anchor="start" x="65.32" y="-235.5" font-family="Helvetica,sans-Serif" font-size="10.00">+ ndots</text>
<text text-anchor="start" x="65.32" y="-224.5" font-family="Helvetica,sans-Serif" font-size="10.00">+ nsort</text>
<text text-anchor="start" x="65.32" y="-213.5" font-family="Helvetica,sans-Serif" font-size="10.00">+ ipv6_unavail</text>
<text text-anchor="start" x="65.32" y="-202.5" font-family="Helvetica,sans-Serif" font-size="10.00">+ unused</text>
<text text-anchor="start" x="65.32" y="-191.5" font-family="Helvetica,sans-Serif" font-size="10.00">+ mask</text>
<text text-anchor="start" x="65.32" y="-180.5" font-family="Helvetica,sans-Serif" font-size="10.00">+ sort_list</text>
<text text-anchor="start" x="65.32" y="-169.5" font-family="Helvetica,sans-Serif" font-size="10.00">+ __glibc_unused_qhook</text>
<text text-anchor="start" x="65.32" y="-158.5" font-family="Helvetica,sans-Serif" font-size="10.00">+ __glibc_unused_rhook</text>
<text text-anchor="start" x="65.32" y="-147.5" font-family="Helvetica,sans-Serif" font-size="10.00">+ res_h_errno</text>
<text text-anchor="start" x="65.32" y="-136.5" font-family="Helvetica,sans-Serif" font-size="10.00">+ _vcsock</text>
<text text-anchor="start" x="65.32" y="-125.5" font-family="Helvetica,sans-Serif" font-size="10.00">+ _flags</text>
<text text-anchor="start" x="65.32" y="-114.5" font-family="Helvetica,sans-Serif" font-size="10.00">+ pad</text>
<text text-anchor="start" x="65.32" y="-103.5" font-family="Helvetica,sans-Serif" font-size="10.00">+ nscount</text>
<text text-anchor="start" x="65.32" y="-92.5" font-family="Helvetica,sans-Serif" font-size="10.00">+ nsmap</text>
<text text-anchor="start" x="65.32" y="-81.5" font-family="Helvetica,sans-Serif" font-size="10.00">+ nssocks</text>
<text text-anchor="start" x="65.32" y="-70.5" font-family="Helvetica,sans-Serif" font-size="10.00">+ nscount6</text>
<text text-anchor="start" x="65.32" y="-59.5" font-family="Helvetica,sans-Serif" font-size="10.00">+ nsinit</text>
<text text-anchor="start" x="65.32" y="-48.5" font-family="Helvetica,sans-Serif" font-size="10.00">+ __glibc_reserved</text>
<text text-anchor="start" x="65.32" y="-37.5" font-family="Helvetica,sans-Serif" font-size="10.00">+ _ext</text>
<text text-anchor="start" x="65.32" y="-26.5" font-family="Helvetica,sans-Serif" font-size="10.00">+ _u</text>
<polyline fill="none" stroke="black" points="57.32,-19.5 194.32,-19.5 "/>
<text text-anchor="middle" x="125.82" y="-7.5" font-family="Helvetica,sans-Serif" font-size="10.00"> </text>
</a>
</g>
</g>
<!-- Node2 -->
<g id="node2" class="node">
<title>Node2</title>
<g id="a_node2"><a xlink:href="structsockaddr__in.html" target="_top" xlink:title=" ">
<polygon fill="white" stroke="black" points="48.82,-408 48.82,-476 202.82,-476 202.82,-408 48.82,-408"/>
<text text-anchor="middle" x="125.82" y="-464" font-family="Helvetica,sans-Serif" font-size="10.00">sockaddr_in</text>
<polyline fill="none" stroke="black" points="48.82,-457 202.82,-457 "/>
<text text-anchor="start" x="56.82" y="-445" font-family="Helvetica,sans-Serif" font-size="10.00">+ sin_port</text>
<text text-anchor="start" x="56.82" y="-434" font-family="Helvetica,sans-Serif" font-size="10.00">+ sin_zero</text>
<polyline fill="none" stroke="black" points="48.82,-427 202.82,-427 "/>
<text text-anchor="start" x="56.82" y="-415" font-family="Helvetica,sans-Serif" font-size="10.00">+ __SOCKADDR_COMMON()</text>
</a>
</g>
</g>
<!-- Node2&#45;&gt;Node1 -->
<g id="edge1" class="edge">
<title>Node2&#45;&gt;Node1</title>
<path fill="none" stroke="#404040" d="M125.82,-407.75C125.82,-396.22 125.82,-382.33 125.82,-367.17"/>
<polygon fill="none" stroke="#404040" points="125.82,-366.76 121.82,-360.76 125.82,-354.76 129.82,-360.76 125.82,-366.76"/>
<text text-anchor="middle" x="158.32" y="-376" font-family="Helvetica,sans-Serif" font-size="10.00"> +nsaddr_list</text>
</g>
<!-- Node3 -->
<g id="node3" class="node">
<title>Node3</title>
<g id="a_node3"><a xlink:href="structin__addr.html" target="_top" xlink:title=" ">
<polygon fill="white" stroke="black" points="7.82,-546 7.82,-603 67.82,-603 67.82,-546 7.82,-546"/>
<text text-anchor="middle" x="37.82" y="-591" font-family="Helvetica,sans-Serif" font-size="10.00">in_addr</text>
<polyline fill="none" stroke="black" points="7.82,-584 67.82,-584 "/>
<text text-anchor="start" x="15.82" y="-572" font-family="Helvetica,sans-Serif" font-size="10.00">+ s_addr</text>
<polyline fill="none" stroke="black" points="7.82,-565 67.82,-565 "/>
<text text-anchor="middle" x="37.82" y="-553" font-family="Helvetica,sans-Serif" font-size="10.00"> </text>
</a>
</g>
</g>
<!-- Node3&#45;&gt;Node1 -->
<g id="edge3" class="edge">
<title>Node3&#45;&gt;Node1</title>
<path fill="none" stroke="#404040" d="M25.36,-545.71C18.06,-527.9 9.57,-504.07 5.82,-482 -0.13,-446.95 -2.85,-436.48 5.82,-402 15.35,-364.13 32.67,-325.69 51.24,-291.61"/>
<polygon fill="none" stroke="#404040" points="51.47,-291.19 50.89,-284 57.3,-280.71 57.88,-287.89 51.47,-291.19"/>
<text text-anchor="middle" x="22.82" y="-439.5" font-family="Helvetica,sans-Serif" font-size="10.00"> +addr</text>
</g>
<!-- Node3&#45;&gt;Node2 -->
<g id="edge2" class="edge">
<title>Node3&#45;&gt;Node2</title>
<path fill="none" stroke="#404040" d="M56.49,-545.82C68.17,-528.49 83.48,-505.8 96.73,-486.14"/>
<polygon fill="none" stroke="#404040" points="96.74,-486.13 96.78,-478.92 103.45,-476.18 103.41,-483.39 96.74,-486.13"/>
<text text-anchor="middle" x="114.32" y="-503" font-family="Helvetica,sans-Serif" font-size="10.00"> +sin_addr</text>
</g>
<!-- Node4 -->
<g id="node4" class="node">
<title>Node4</title>
<g id="a_node4"><a xlink:href="structsockaddr__in6.html" target="_top" xlink:title=" ">
<polygon fill="white" stroke="black" points="220.82,-402.5 220.82,-481.5 374.82,-481.5 374.82,-402.5 220.82,-402.5"/>
<text text-anchor="middle" x="297.82" y="-469.5" font-family="Helvetica,sans-Serif" font-size="10.00">sockaddr_in6</text>
<polyline fill="none" stroke="black" points="220.82,-462.5 374.82,-462.5 "/>
<text text-anchor="start" x="228.82" y="-450.5" font-family="Helvetica,sans-Serif" font-size="10.00">+ sin6_port</text>
<text text-anchor="start" x="228.82" y="-439.5" font-family="Helvetica,sans-Serif" font-size="10.00">+ sin6_flowinfo</text>
<text text-anchor="start" x="228.82" y="-428.5" font-family="Helvetica,sans-Serif" font-size="10.00">+ sin6_scope_id</text>
<polyline fill="none" stroke="black" points="220.82,-421.5 374.82,-421.5 "/>
<text text-anchor="start" x="228.82" y="-409.5" font-family="Helvetica,sans-Serif" font-size="10.00">+ __SOCKADDR_COMMON()</text>
</a>
</g>
</g>
<!-- Node4&#45;&gt;Node1 -->
<g id="edge4" class="edge">
<title>Node4&#45;&gt;Node1</title>
<path fill="none" stroke="#404040" d="M272.44,-402.27C253.57,-373.47 226.78,-332.57 201.24,-293.6"/>
<polygon fill="none" stroke="#404040" points="201.01,-293.25 194.38,-290.42 194.44,-283.21 201.07,-286.04 201.01,-293.25"/>
<text text-anchor="middle" x="281.82" y="-376" font-family="Helvetica,sans-Serif" font-size="10.00"> +nsaddrs</text>
</g>
<!-- Node5 -->
<g id="node5" class="node">
<title>Node5</title>
<g id="a_node5"><a xlink:href="structin6__addr.html" target="_top" xlink:title=" ">
<polygon fill="white" stroke="black" points="253.32,-529.5 253.32,-619.5 342.32,-619.5 342.32,-529.5 253.32,-529.5"/>
<text text-anchor="middle" x="297.82" y="-607.5" font-family="Helvetica,sans-Serif" font-size="10.00">in6_addr</text>
<polyline fill="none" stroke="black" points="253.32,-600.5 342.32,-600.5 "/>
<text text-anchor="start" x="261.32" y="-588.5" font-family="Helvetica,sans-Serif" font-size="10.00">+ __u6_addr8</text>
<text text-anchor="start" x="261.32" y="-577.5" font-family="Helvetica,sans-Serif" font-size="10.00">+ __u6_addr16</text>
<text text-anchor="start" x="261.32" y="-566.5" font-family="Helvetica,sans-Serif" font-size="10.00">+ __u6_addr32</text>
<text text-anchor="start" x="261.32" y="-555.5" font-family="Helvetica,sans-Serif" font-size="10.00">+ __in6_u</text>
<polyline fill="none" stroke="black" points="253.32,-548.5 342.32,-548.5 "/>
<text text-anchor="middle" x="297.82" y="-536.5" font-family="Helvetica,sans-Serif" font-size="10.00"> </text>
</a>
</g>
</g>
<!-- Node5&#45;&gt;Node4 -->
<g id="edge5" class="edge">
<title>Node5&#45;&gt;Node4</title>
<path fill="none" stroke="#404040" d="M297.82,-529.32C297.82,-518.02 297.82,-505.79 297.82,-494.17"/>
<polygon fill="none" stroke="#404040" points="297.82,-493.89 293.82,-487.89 297.82,-481.89 301.82,-487.89 297.82,-493.89"/>
<text text-anchor="middle" x="327.32" y="-503" font-family="Helvetica,sans-Serif" font-size="10.00"> +sin6_addr</text>
</g>
</g>
</svg>
        <g id="navigator" transform="translate(0 0)" fill="#404254">
                <rect fill="#f2f5e9" fill-opacity="0.5" stroke="#606060" stroke-width=".5" x="0" y="0" width="60" height="60"/>
                <use id="zoomplus" xlink:href="#zoomPlus" x="17" y="9" onmousedown="handleZoom(evt,'in')"/>
                <use id="zoomminus" xlink:href="#zoomMin" x="42" y="9" onmousedown="handleZoom(evt,'out')"/>
                <use id="reset" xlink:href="#resetDef" x="30" y="36" onmousedown="handleReset()"/>
                <g id="arrowUp" xlink:href="#dirArrow" transform="translate(30 24)" onmousedown="handlePan(0,-1)">
                  <use xlink:href="#rim" fill="#404040">
                        <set attributeName="fill" to="#808080" begin="arrowUp.mouseover" end="arrowUp.mouseout"/>
                  </use>
                  <path fill="none" stroke="white" stroke-width="1.5" d="M0,-3.0v7 M-2.5,-0.5L0,-3.0L2.5,-0.5"/>
                </g>
                <g id="arrowRight" xlink:href="#dirArrow" transform="rotate(90) translate(36 -43)" onmousedown="handlePan(1,0)">
                  <use xlink:href="#rim" fill="#404040">
                        <set attributeName="fill" to="#808080" begin="arrowRight.mouseover" end="arrowRight.mouseout"/>
                  </use>
                  <path fill="none" stroke="white" stroke-width="1.5" d="M0,-3.0v7 M-2.5,-0.5L0,-3.0L2.5,-0.5"/>
                </g>
                <g id="arrowDown" xlink:href="#dirArrow" transform="rotate(180) translate(-30 -48)" onmousedown="handlePan(0,1)">
                  <use xlink:href="#rim" fill="#404040">
                        <set attributeName="fill" to="#808080" begin="arrowDown.mouseover" end="arrowDown.mouseout"/>
                  </use>
                  <path fill="none" stroke="white" stroke-width="1.5" d="M0,-3.0v7 M-2.5,-0.5L0,-3.0L2.5,-0.5"/>
                </g>
                <g id="arrowLeft" xlink:href="#dirArrow" transform="rotate(270) translate(-36 17)" onmousedown="handlePan(-1,0)">
                  <use xlink:href="#rim" fill="#404040">
                        <set attributeName="fill" to="#808080" begin="arrowLeft.mouseover" end="arrowLeft.mouseout"/>
                  </use>
                  <path fill="none" stroke="white" stroke-width="1.5" d="M0,-3.0v7 M-2.5,-0.5L0,-3.0L2.5,-0.5"/>
                </g>
        </g>
        <svg viewBox="0 0 15 15" width="100%" height="30px" preserveAspectRatio="xMaxYMin meet">
         <g id="arrow_out" transform="scale(0.3 0.3)">
          <a xlink:href="struct____res__state__coll__graph_org.svg" target="_base">
           <rect id="button" ry="5" rx="5" y="6" x="6" height="38" width="38"
                fill="#f2f5e9" fill-opacity="0.5" stroke="#606060" stroke-width="1.0"/>
           <path id="arrow"
             d="M 11.500037,31.436501 C 11.940474,20.09759 22.043105,11.32322 32.158766,21.979434 L 37.068811,17.246167 C 37.068811,17.246167 37.088388,32 37.088388,32 L 22.160133,31.978069 C 22.160133,31.978069 26.997745,27.140456 26.997745,27.140456 C 18.528582,18.264221 13.291696,25.230495 11.500037,31.436501 z"
             style="fill:#404040;"/>
          </a>
         </g>
        </svg>
</svg>
