<?xml version="1.0" encoding="UTF-8" standalone="no"?>
<!DOCTYPE svg PUBLIC "-//W3C//DTD SVG 1.1//EN"
 "http://www.w3.org/Graphics/SVG/1.1/DTD/svg11.dtd">
<!-- Generated by graphviz version 2.44.1 (0)
 -->
<!-- Title: sockaddr_ec Pages: 1 -->
<svg width="162pt" height="215pt"
 viewBox="0.00 0.00 162.00 215.00" xmlns="http://www.w3.org/2000/svg" xmlns:xlink="http://www.w3.org/1999/xlink">
<g id="graph0" class="graph" transform="scale(1 1) rotate(0) translate(4 211)">
<title>sockaddr_ec</title>
<polygon fill="white" stroke="transparent" points="-4,4 -4,-211 158,-211 158,4 -4,4"/>
<!-- Node1 -->
<g id="node1" class="node">
<title>Node1</title>
<g id="a_node1"><a xlink:title=" ">
<polygon fill="#bfbfbf" stroke="black" points="0,-0.5 0,-90.5 154,-90.5 154,-0.5 0,-0.5"/>
<text text-anchor="middle" x="77" y="-78.5" font-family="Helvetica,sans-Serif" font-size="10.00">sockaddr_ec</text>
<polyline fill="none" stroke="black" points="0,-71.5 154,-71.5 "/>
<text text-anchor="start" x="8" y="-59.5" font-family="Helvetica,sans-Serif" font-size="10.00">+ port</text>
<text text-anchor="start" x="8" y="-48.5" font-family="Helvetica,sans-Serif" font-size="10.00">+ cb</text>
<text text-anchor="start" x="8" y="-37.5" font-family="Helvetica,sans-Serif" font-size="10.00">+ type</text>
<text text-anchor="start" x="8" y="-26.5" font-family="Helvetica,sans-Serif" font-size="10.00">+ cookie</text>
<polyline fill="none" stroke="black" points="0,-19.5 154,-19.5 "/>
<text text-anchor="start" x="8" y="-7.5" font-family="Helvetica,sans-Serif" font-size="10.00">+ __SOCKADDR_COMMON()</text>
</a>
</g>
</g>
<!-- Node2 -->
<g id="node2" class="node">
<title>Node2</title>
<g id="a_node2"><a xlink:href="structec__addr.html" target="_top" xlink:title=" ">
<polygon fill="white" stroke="black" points="46,-138.5 46,-206.5 108,-206.5 108,-138.5 46,-138.5"/>
<text text-anchor="middle" x="77" y="-194.5" font-family="Helvetica,sans-Serif" font-size="10.00">ec_addr</text>
<polyline fill="none" stroke="black" points="46,-187.5 108,-187.5 "/>
<text text-anchor="start" x="54" y="-175.5" font-family="Helvetica,sans-Serif" font-size="10.00">+ station</text>
<text text-anchor="start" x="54" y="-164.5" font-family="Helvetica,sans-Serif" font-size="10.00">+ net</text>
<polyline fill="none" stroke="black" points="46,-157.5 108,-157.5 "/>
<text text-anchor="middle" x="77" y="-145.5" font-family="Helvetica,sans-Serif" font-size="10.00"> </text>
</a>
</g>
</g>
<!-- Node2&#45;&gt;Node1 -->
<g id="edge1" class="edge">
<title>Node2&#45;&gt;Node1</title>
<path fill="none" stroke="#404040" d="M77,-138.33C77,-127.37 77,-114.86 77,-102.67"/>
<polygon fill="none" stroke="#404040" points="77,-102.66 73,-96.66 77,-90.66 81,-96.66 77,-102.66"/>
<text text-anchor="middle" x="94" y="-112" font-family="Helvetica,sans-Serif" font-size="10.00"> +addr</text>
</g>
</g>
</svg>
