<?xml version="1.0" encoding="UTF-8" standalone="no"?>
<!DOCTYPE svg PUBLIC "-//W3C//DTD SVG 1.1//EN"
 "http://www.w3.org/Graphics/SVG/1.1/DTD/svg11.dtd">
<!-- Generated by graphviz version 2.44.1 (0)
 -->
<!-- Title: bits/types/struct_iovec.h Pages: 1 -->
<svg width="838pt" height="252pt"
 viewBox="0.00 0.00 837.50 252.00" xmlns="http://www.w3.org/2000/svg" xmlns:xlink="http://www.w3.org/1999/xlink">
<g id="graph0" class="graph" transform="scale(1 1) rotate(0) translate(4 248)">
<title>bits/types/struct_iovec.h</title>
<polygon fill="white" stroke="transparent" points="-4,4 -4,-248 833.5,-248 833.5,4 -4,4"/>
<!-- Node1 -->
<g id="node1" class="node">
<title>Node1</title>
<g id="a_node1"><a xlink:title=" ">
<polygon fill="#bfbfbf" stroke="black" points="314.5,-224.5 314.5,-243.5 450.5,-243.5 450.5,-224.5 314.5,-224.5"/>
<text text-anchor="middle" x="382.5" y="-231.5" font-family="Helvetica,sans-Serif" font-size="10.00">bits/types/struct_iovec.h</text>
</a>
</g>
</g>
<!-- Node2 -->
<g id="node2" class="node">
<title>Node2</title>
<g id="a_node2"><a xlink:href="sys_2socket_8h.html" target="_top" xlink:title=" ">
<polygon fill="white" stroke="black" points="301,-168.5 301,-187.5 378,-187.5 378,-168.5 301,-168.5"/>
<text text-anchor="middle" x="339.5" y="-175.5" font-family="Helvetica,sans-Serif" font-size="10.00">sys/socket.h</text>
</a>
</g>
</g>
<!-- Node1&#45;&gt;Node2 -->
<g id="edge1" class="edge">
<title>Node1&#45;&gt;Node2</title>
<path fill="none" stroke="midnightblue" d="M369.08,-216.14C361.59,-206.74 352.56,-195.4 346.47,-187.75"/>
<polygon fill="midnightblue" stroke="midnightblue" points="366.43,-218.44 375.4,-224.08 371.91,-214.08 366.43,-218.44"/>
</g>
<!-- Node19 -->
<g id="node19" class="node">
<title>Node19</title>
<g id="a_node19"><a xlink:href="uio_8h.html" target="_top" xlink:title=" ">
<polygon fill="white" stroke="black" points="396.5,-168.5 396.5,-187.5 456.5,-187.5 456.5,-168.5 396.5,-168.5"/>
<text text-anchor="middle" x="426.5" y="-175.5" font-family="Helvetica,sans-Serif" font-size="10.00">sys/uio.h</text>
</a>
</g>
</g>
<!-- Node1&#45;&gt;Node19 -->
<g id="edge20" class="edge">
<title>Node1&#45;&gt;Node19</title>
<path fill="none" stroke="midnightblue" d="M396.23,-216.14C403.9,-206.74 413.13,-195.4 419.37,-187.75"/>
<polygon fill="midnightblue" stroke="midnightblue" points="393.37,-214.12 389.77,-224.08 398.8,-218.54 393.37,-214.12"/>
</g>
<!-- Node3 -->
<g id="node3" class="node">
<title>Node3</title>
<g id="a_node3"><a xlink:href="ifaddrs_8h.html" target="_top" xlink:title=" ">
<polygon fill="white" stroke="black" points="0,-112.5 0,-131.5 59,-131.5 59,-112.5 0,-112.5"/>
<text text-anchor="middle" x="29.5" y="-119.5" font-family="Helvetica,sans-Serif" font-size="10.00">ifaddrs.h</text>
</a>
</g>
</g>
<!-- Node2&#45;&gt;Node3 -->
<g id="edge2" class="edge">
<title>Node2&#45;&gt;Node3</title>
<path fill="none" stroke="midnightblue" d="M290.72,-169.84C236.33,-161.63 145.85,-147.33 68.5,-132 65.5,-131.41 62.38,-130.75 59.27,-130.07"/>
<polygon fill="midnightblue" stroke="midnightblue" points="290.36,-173.32 300.77,-171.34 291.4,-166.4 290.36,-173.32"/>
</g>
<!-- Node4 -->
<g id="node4" class="node">
<title>Node4</title>
<g id="a_node4"><a xlink:href="if__arp_8h.html" target="_top" xlink:title=" ">
<polygon fill="white" stroke="black" points="77.5,-112.5 77.5,-131.5 149.5,-131.5 149.5,-112.5 77.5,-112.5"/>
<text text-anchor="middle" x="113.5" y="-119.5" font-family="Helvetica,sans-Serif" font-size="10.00">net/if_arp.h</text>
</a>
</g>
</g>
<!-- Node2&#45;&gt;Node4 -->
<g id="edge3" class="edge">
<title>Node2&#45;&gt;Node4</title>
<path fill="none" stroke="midnightblue" d="M293.83,-166.09C251.14,-155.89 188.25,-140.86 149.14,-131.52"/>
<polygon fill="midnightblue" stroke="midnightblue" points="293.15,-169.52 303.69,-168.44 294.78,-162.72 293.15,-169.52"/>
</g>
<!-- Node5 -->
<g id="node5" class="node">
<title>Node5</title>
<g id="a_node5"><a xlink:href="route_8h.html" target="_top" xlink:title=" ">
<polygon fill="white" stroke="black" points="13.5,-56.5 13.5,-75.5 83.5,-75.5 83.5,-56.5 13.5,-56.5"/>
<text text-anchor="middle" x="48.5" y="-63.5" font-family="Helvetica,sans-Serif" font-size="10.00">net/route.h</text>
</a>
</g>
</g>
<!-- Node2&#45;&gt;Node5 -->
<g id="edge4" class="edge">
<title>Node2&#45;&gt;Node5</title>
<path fill="none" stroke="midnightblue" d="M297.69,-165.74C269.05,-157.55 230.45,-145.56 197.5,-132 179.49,-124.59 176.2,-120.14 158.5,-112 128.69,-98.29 93.48,-84.25 71.07,-75.58"/>
<polygon fill="midnightblue" stroke="midnightblue" points="296.8,-169.13 307.38,-168.48 298.7,-162.39 296.8,-169.13"/>
</g>
<!-- Node6 -->
<g id="node6" class="node">
<title>Node6</title>
<g id="a_node6"><a xlink:href="at_8h.html" target="_top" xlink:title=" ">
<polygon fill="white" stroke="black" points="206,-112.5 206,-131.5 285,-131.5 285,-112.5 206,-112.5"/>
<text text-anchor="middle" x="245.5" y="-119.5" font-family="Helvetica,sans-Serif" font-size="10.00">netatalk/at.h</text>
</a>
</g>
</g>
<!-- Node2&#45;&gt;Node6 -->
<g id="edge5" class="edge">
<title>Node2&#45;&gt;Node6</title>
<path fill="none" stroke="midnightblue" d="M315.44,-163.18C298.14,-153.24 275.35,-140.15 260.57,-131.65"/>
<polygon fill="midnightblue" stroke="midnightblue" points="313.98,-166.38 324.4,-168.32 317.47,-160.31 313.98,-166.38"/>
</g>
<!-- Node7 -->
<g id="node7" class="node">
<title>Node7</title>
<g id="a_node7"><a xlink:href="netinet_2in_8h.html" target="_top" xlink:title=" ">
<polygon fill="white" stroke="black" points="303.5,-112.5 303.5,-131.5 375.5,-131.5 375.5,-112.5 303.5,-112.5"/>
<text text-anchor="middle" x="339.5" y="-119.5" font-family="Helvetica,sans-Serif" font-size="10.00">netinet/in.h</text>
</a>
</g>
</g>
<!-- Node2&#45;&gt;Node7 -->
<g id="edge6" class="edge">
<title>Node2&#45;&gt;Node7</title>
<path fill="none" stroke="midnightblue" d="M339.5,-157.8C339.5,-148.91 339.5,-138.78 339.5,-131.75"/>
<polygon fill="midnightblue" stroke="midnightblue" points="336,-158.08 339.5,-168.08 343,-158.08 336,-158.08"/>
</g>
<!-- Node15 -->
<g id="node15" class="node">
<title>Node15</title>
<g id="a_node15"><a xlink:href="rose_8h.html" target="_top" xlink:title=" ">
<polygon fill="white" stroke="black" points="393.5,-112.5 393.5,-131.5 479.5,-131.5 479.5,-112.5 393.5,-112.5"/>
<text text-anchor="middle" x="436.5" y="-119.5" font-family="Helvetica,sans-Serif" font-size="10.00">netrose/rose.h</text>
</a>
</g>
</g>
<!-- Node2&#45;&gt;Node15 -->
<g id="edge16" class="edge">
<title>Node2&#45;&gt;Node15</title>
<path fill="none" stroke="midnightblue" d="M363.84,-163.45C381.74,-153.48 405.55,-140.23 420.95,-131.65"/>
<polygon fill="midnightblue" stroke="midnightblue" points="362.12,-160.4 355.08,-168.32 365.52,-166.52 362.12,-160.4"/>
</g>
<!-- Node16 -->
<g id="node16" class="node">
<title>Node16</title>
<g id="a_node16"><a xlink:href="routed_8h.html" target="_top" xlink:title=" ">
<polygon fill="white" stroke="black" points="498,-112.5 498,-131.5 603,-131.5 603,-112.5 498,-112.5"/>
<text text-anchor="middle" x="550.5" y="-119.5" font-family="Helvetica,sans-Serif" font-size="10.00">protocols/routed.h</text>
</a>
</g>
</g>
<!-- Node2&#45;&gt;Node16 -->
<g id="edge17" class="edge">
<title>Node2&#45;&gt;Node16</title>
<path fill="none" stroke="midnightblue" d="M382.64,-165.96C422.49,-155.76 480.86,-140.82 517.22,-131.52"/>
<polygon fill="midnightblue" stroke="midnightblue" points="381.75,-162.57 372.93,-168.44 383.49,-169.35 381.75,-162.57"/>
</g>
<!-- Node17 -->
<g id="node17" class="node">
<title>Node17</title>
<g id="a_node17"><a xlink:href="talkd_8h.html" target="_top" xlink:title=" ">
<polygon fill="white" stroke="black" points="621.5,-112.5 621.5,-131.5 719.5,-131.5 719.5,-112.5 621.5,-112.5"/>
<text text-anchor="middle" x="670.5" y="-119.5" font-family="Helvetica,sans-Serif" font-size="10.00">protocols/talkd.h</text>
</a>
</g>
</g>
<!-- Node2&#45;&gt;Node17 -->
<g id="edge18" class="edge">
<title>Node2&#45;&gt;Node17</title>
<path fill="none" stroke="midnightblue" d="M388.28,-167.92C445.45,-158.19 556.62,-140.75 621.29,-130.66"/>
<polygon fill="midnightblue" stroke="midnightblue" points="387.52,-164.49 378.26,-169.64 388.7,-171.39 387.52,-164.49"/>
</g>
<!-- Node18 -->
<g id="node18" class="node">
<title>Node18</title>
<g id="a_node18"><a xlink:href="socketvar_8h.html" target="_top" xlink:title=" ">
<polygon fill="white" stroke="black" points="737.5,-112.5 737.5,-131.5 829.5,-131.5 829.5,-112.5 737.5,-112.5"/>
<text text-anchor="middle" x="783.5" y="-119.5" font-family="Helvetica,sans-Serif" font-size="10.00">sys/socketvar.h</text>
</a>
</g>
</g>
<!-- Node2&#45;&gt;Node18 -->
<g id="edge19" class="edge">
<title>Node2&#45;&gt;Node18</title>
<path fill="none" stroke="midnightblue" d="M388.38,-167.99C540.03,-146.2 580.71,-151.88 728.5,-132 731.38,-131.61 734.33,-131.19 737.32,-130.75"/>
<polygon fill="midnightblue" stroke="midnightblue" points="387.62,-164.56 378.23,-169.46 388.63,-171.49 387.62,-164.56"/>
</g>
<!-- Node7&#45;&gt;Node5 -->
<g id="edge10" class="edge">
<title>Node7&#45;&gt;Node5</title>
<path fill="none" stroke="midnightblue" d="M293.8,-112.06C293.7,-112.04 293.6,-112.02 293.5,-112 204.3,-95.29 181.63,-93.09 92.5,-76 89.59,-75.44 86.57,-74.85 83.55,-74.25"/>
<polygon fill="midnightblue" stroke="midnightblue" points="292.87,-115.44 303.35,-113.87 294.18,-108.57 292.87,-115.44"/>
</g>
<!-- Node8 -->
<g id="node8" class="node">
<title>Node8</title>
<g id="a_node8"><a xlink:href="inet_8h.html" target="_top" xlink:title=" ">
<polygon fill="white" stroke="black" points="102,-56.5 102,-75.5 171,-75.5 171,-56.5 102,-56.5"/>
<text text-anchor="middle" x="136.5" y="-63.5" font-family="Helvetica,sans-Serif" font-size="10.00">arpa/inet.h</text>
</a>
</g>
</g>
<!-- Node7&#45;&gt;Node8 -->
<g id="edge7" class="edge">
<title>Node7&#45;&gt;Node8</title>
<path fill="none" stroke="midnightblue" d="M297.51,-109.83C259.18,-99.63 203.35,-84.78 168.52,-75.52"/>
<polygon fill="midnightblue" stroke="midnightblue" points="296.77,-113.26 307.33,-112.44 298.57,-106.49 296.77,-113.26"/>
</g>
<!-- Node9 -->
<g id="node9" class="node">
<title>Node9</title>
<g id="a_node9"><a xlink:href="res__state_8h.html" target="_top" xlink:title=" ">
<polygon fill="white" stroke="black" points="189.5,-56.5 189.5,-75.5 311.5,-75.5 311.5,-56.5 189.5,-56.5"/>
<text text-anchor="middle" x="250.5" y="-63.5" font-family="Helvetica,sans-Serif" font-size="10.00">bits/types/res_state.h</text>
</a>
</g>
</g>
<!-- Node7&#45;&gt;Node9 -->
<g id="edge8" class="edge">
<title>Node7&#45;&gt;Node9</title>
<path fill="none" stroke="midnightblue" d="M316.26,-106.9C299.94,-97 278.63,-84.07 264.76,-75.65"/>
<polygon fill="midnightblue" stroke="midnightblue" points="314.84,-110.13 325.2,-112.32 318.47,-104.14 314.84,-110.13"/>
</g>
<!-- Node10 -->
<g id="node10" class="node">
<title>Node10</title>
<g id="a_node10"><a xlink:href="resolv_8h.html" target="_top" xlink:title=" ">
<polygon fill="white" stroke="black" points="267,-0.5 267,-19.5 322,-19.5 322,-0.5 267,-0.5"/>
<text text-anchor="middle" x="294.5" y="-7.5" font-family="Helvetica,sans-Serif" font-size="10.00">resolv.h</text>
</a>
</g>
</g>
<!-- Node7&#45;&gt;Node10 -->
<g id="edge15" class="edge">
<title>Node7&#45;&gt;Node10</title>
<path fill="none" stroke="midnightblue" d="M335.36,-102.56C332.09,-89.32 327,-71.2 320.5,-56 314.82,-42.73 306.09,-28.47 300.33,-19.64"/>
<polygon fill="midnightblue" stroke="midnightblue" points="331.97,-103.43 337.67,-112.36 338.79,-101.82 331.97,-103.43"/>
</g>
<!-- Node11 -->
<g id="node11" class="node">
<title>Node11</title>
<g id="a_node11"><a xlink:href="icmp6_8h.html" target="_top" xlink:title=" ">
<polygon fill="white" stroke="black" points="368,-56.5 368,-75.5 461,-75.5 461,-56.5 368,-56.5"/>
<text text-anchor="middle" x="414.5" y="-63.5" font-family="Helvetica,sans-Serif" font-size="10.00">netinet/icmp6.h</text>
</a>
</g>
</g>
<!-- Node7&#45;&gt;Node11 -->
<g id="edge11" class="edge">
<title>Node7&#45;&gt;Node11</title>
<path fill="none" stroke="midnightblue" d="M359.81,-106.38C373.36,-96.62 390.74,-84.11 402.23,-75.83"/>
<polygon fill="midnightblue" stroke="midnightblue" points="357.62,-103.64 351.55,-112.32 361.71,-109.32 357.62,-103.64"/>
</g>
<!-- Node12 -->
<g id="node12" class="node">
<title>Node12</title>
<g id="a_node12"><a xlink:href="netdb_8h.html" target="_top" xlink:title=" ">
<polygon fill="white" stroke="black" points="479,-56.5 479,-75.5 532,-75.5 532,-56.5 479,-56.5"/>
<text text-anchor="middle" x="505.5" y="-63.5" font-family="Helvetica,sans-Serif" font-size="10.00">netdb.h</text>
</a>
</g>
</g>
<!-- Node7&#45;&gt;Node12 -->
<g id="edge12" class="edge">
<title>Node7&#45;&gt;Node12</title>
<path fill="none" stroke="midnightblue" d="M375.45,-109.3C406.73,-99.13 451.32,-84.62 479.32,-75.52"/>
<polygon fill="midnightblue" stroke="midnightblue" points="374.23,-106.02 365.8,-112.44 376.4,-112.68 374.23,-106.02"/>
</g>
<!-- Node13 -->
<g id="node13" class="node">
<title>Node13</title>
<g id="a_node13"><a xlink:href="ip_8h.html" target="_top" xlink:title=" ">
<polygon fill="white" stroke="black" points="550.5,-56.5 550.5,-75.5 622.5,-75.5 622.5,-56.5 550.5,-56.5"/>
<text text-anchor="middle" x="586.5" y="-63.5" font-family="Helvetica,sans-Serif" font-size="10.00">netinet/ip.h</text>
</a>
</g>
</g>
<!-- Node7&#45;&gt;Node13 -->
<g id="edge13" class="edge">
<title>Node7&#45;&gt;Node13</title>
<path fill="none" stroke="midnightblue" d="M385.73,-110.89C433.36,-100.48 506.61,-84.47 550.22,-74.93"/>
<polygon fill="midnightblue" stroke="midnightblue" points="384.7,-107.53 375.68,-113.09 386.2,-114.37 384.7,-107.53"/>
</g>
<!-- Node14 -->
<g id="node14" class="node">
<title>Node14</title>
<g id="a_node14"><a xlink:href="ip6_8h.html" target="_top" xlink:title=" ">
<polygon fill="white" stroke="black" points="640.5,-56.5 640.5,-75.5 718.5,-75.5 718.5,-56.5 640.5,-56.5"/>
<text text-anchor="middle" x="679.5" y="-63.5" font-family="Helvetica,sans-Serif" font-size="10.00">netinet/ip6.h</text>
</a>
</g>
</g>
<!-- Node7&#45;&gt;Node14 -->
<g id="edge14" class="edge">
<title>Node7&#45;&gt;Node14</title>
<path fill="none" stroke="midnightblue" d="M385.96,-111.82C495.54,-93.16 525.28,-93.69 631.5,-76 634.43,-75.51 637.45,-74.99 640.49,-74.45"/>
<polygon fill="midnightblue" stroke="midnightblue" points="385.08,-108.42 375.82,-113.57 386.27,-115.32 385.08,-108.42"/>
</g>
<!-- Node9&#45;&gt;Node10 -->
<g id="edge9" class="edge">
<title>Node9&#45;&gt;Node10</title>
<path fill="none" stroke="midnightblue" d="M264.23,-48.14C271.9,-38.74 281.13,-27.4 287.37,-19.75"/>
<polygon fill="midnightblue" stroke="midnightblue" points="261.37,-46.12 257.77,-56.08 266.8,-50.54 261.37,-46.12"/>
</g>
</g>
</svg>
