<?xml version="1.0" encoding="UTF-8" standalone="no"?>
<!DOCTYPE svg PUBLIC "-//W3C//DTD SVG 1.1//EN"
 "http://www.w3.org/Graphics/SVG/1.1/DTD/svg11.dtd">
<!-- Generated by graphviz version 2.44.1 (0)
 -->
<!-- Title: __gconv_info Pages: 1 -->
<svg width="376pt" height="430pt"
 viewBox="0.00 0.00 375.50 430.00" xmlns="http://www.w3.org/2000/svg" xmlns:xlink="http://www.w3.org/1999/xlink">
<g id="graph0" class="graph" transform="scale(1 1) rotate(0) translate(4 426)">
<title>__gconv_info</title>
<polygon fill="white" stroke="transparent" points="-4,4 -4,-426 371.5,-426 371.5,4 -4,4"/>
<!-- Node1 -->
<g id="node1" class="node">
<title>Node1</title>
<g id="a_node1"><a xlink:title=" ">
<polygon fill="#bfbfbf" stroke="black" points="143,-0.5 143,-57.5 223,-57.5 223,-0.5 143,-0.5"/>
<text text-anchor="middle" x="183" y="-45.5" font-family="Helvetica,sans-Serif" font-size="10.00">__gconv_info</text>
<polyline fill="none" stroke="black" points="143,-38.5 223,-38.5 "/>
<text text-anchor="start" x="151" y="-26.5" font-family="Helvetica,sans-Serif" font-size="10.00">+ __nsteps</text>
<polyline fill="none" stroke="black" points="143,-19.5 223,-19.5 "/>
<text text-anchor="middle" x="183" y="-7.5" font-family="Helvetica,sans-Serif" font-size="10.00"> </text>
</a>
</g>
</g>
<!-- Node2 -->
<g id="node2" class="node">
<title>Node2</title>
<g id="a_node2"><a xlink:href="struct____gconv__step.html" target="_top" xlink:title=" ">
<polygon fill="white" stroke="black" points="0,-105.5 0,-272.5 130,-272.5 130,-105.5 0,-105.5"/>
<text text-anchor="middle" x="65" y="-260.5" font-family="Helvetica,sans-Serif" font-size="10.00">__gconv_step</text>
<polyline fill="none" stroke="black" points="0,-253.5 130,-253.5 "/>
<text text-anchor="start" x="8" y="-241.5" font-family="Helvetica,sans-Serif" font-size="10.00">+ __shlib_handle</text>
<text text-anchor="start" x="8" y="-230.5" font-family="Helvetica,sans-Serif" font-size="10.00">+ __modname</text>
<text text-anchor="start" x="8" y="-219.5" font-family="Helvetica,sans-Serif" font-size="10.00">+ __counter</text>
<text text-anchor="start" x="8" y="-208.5" font-family="Helvetica,sans-Serif" font-size="10.00">+ __from_name</text>
<text text-anchor="start" x="8" y="-197.5" font-family="Helvetica,sans-Serif" font-size="10.00">+ __to_name</text>
<text text-anchor="start" x="8" y="-186.5" font-family="Helvetica,sans-Serif" font-size="10.00">+ __min_needed_from</text>
<text text-anchor="start" x="8" y="-175.5" font-family="Helvetica,sans-Serif" font-size="10.00">+ __max_needed_from</text>
<text text-anchor="start" x="8" y="-164.5" font-family="Helvetica,sans-Serif" font-size="10.00">+ __min_needed_to</text>
<text text-anchor="start" x="8" y="-153.5" font-family="Helvetica,sans-Serif" font-size="10.00">+ __max_needed_to</text>
<text text-anchor="start" x="8" y="-142.5" font-family="Helvetica,sans-Serif" font-size="10.00">+ __stateful</text>
<text text-anchor="start" x="8" y="-131.5" font-family="Helvetica,sans-Serif" font-size="10.00">+ __data</text>
<polyline fill="none" stroke="black" points="0,-124.5 130,-124.5 "/>
<text text-anchor="middle" x="65" y="-112.5" font-family="Helvetica,sans-Serif" font-size="10.00"> </text>
</a>
</g>
</g>
<!-- Node2&#45;&gt;Node1 -->
<g id="edge1" class="edge">
<title>Node2&#45;&gt;Node1</title>
<path fill="none" stroke="#404040" d="M126.76,-105.3C136.68,-92.02 146.5,-78.87 155.09,-67.38"/>
<polygon fill="none" stroke="#404040" points="155.11,-67.35 155.49,-60.15 162.29,-57.74 161.9,-64.94 155.11,-67.35"/>
<text text-anchor="middle" x="172.5" y="-79" font-family="Helvetica,sans-Serif" font-size="10.00"> +__steps</text>
</g>
<!-- Node2&#45;&gt;Node2 -->
<g id="edge2" class="edge">
<title>Node2&#45;&gt;Node2</title>
<path fill="none" stroke="#404040" d="M130.07,-207.39C140.7,-204.76 148,-198.63 148,-189 148,-183.28 145.43,-178.8 141.11,-175.55"/>
<polygon fill="none" stroke="#404040" points="141.02,-175.51 133.91,-176.71 130.07,-170.61 137.18,-169.41 141.02,-175.51"/>
<text text-anchor="middle" x="183" y="-203" font-family="Helvetica,sans-Serif" font-size="10.00"> +__btowc_fct</text>
<text text-anchor="middle" x="183" y="-192" font-family="Helvetica,sans-Serif" font-size="10.00">+__end_fct</text>
<text text-anchor="middle" x="183" y="-181" font-family="Helvetica,sans-Serif" font-size="10.00">+__fct</text>
<text text-anchor="middle" x="183" y="-170" font-family="Helvetica,sans-Serif" font-size="10.00">+__init_fct</text>
</g>
<!-- Node3 -->
<g id="node3" class="node">
<title>Node3</title>
<g id="a_node3"><a xlink:href="struct____gconv__step__data.html" target="_top" xlink:title=" ">
<polygon fill="white" stroke="black" points="236.5,-138.5 236.5,-239.5 367.5,-239.5 367.5,-138.5 236.5,-138.5"/>
<text text-anchor="middle" x="302" y="-227.5" font-family="Helvetica,sans-Serif" font-size="10.00">__gconv_step_data</text>
<polyline fill="none" stroke="black" points="236.5,-220.5 367.5,-220.5 "/>
<text text-anchor="start" x="244.5" y="-208.5" font-family="Helvetica,sans-Serif" font-size="10.00">+ __outbuf</text>
<text text-anchor="start" x="244.5" y="-197.5" font-family="Helvetica,sans-Serif" font-size="10.00">+ __outbufend</text>
<text text-anchor="start" x="244.5" y="-186.5" font-family="Helvetica,sans-Serif" font-size="10.00">+ __flags</text>
<text text-anchor="start" x="244.5" y="-175.5" font-family="Helvetica,sans-Serif" font-size="10.00">+ __invocation_counter</text>
<text text-anchor="start" x="244.5" y="-164.5" font-family="Helvetica,sans-Serif" font-size="10.00">+ __internal_use</text>
<polyline fill="none" stroke="black" points="236.5,-157.5 367.5,-157.5 "/>
<text text-anchor="middle" x="302" y="-145.5" font-family="Helvetica,sans-Serif" font-size="10.00"> </text>
</a>
</g>
</g>
<!-- Node3&#45;&gt;Node1 -->
<g id="edge3" class="edge">
<title>Node3&#45;&gt;Node1</title>
<path fill="none" stroke="#404040" d="M264.67,-138.44C247.37,-115.47 227.16,-88.63 211.16,-67.39"/>
<polygon fill="none" stroke="#404040" points="211.13,-67.35 204.33,-64.97 203.91,-57.77 210.72,-60.15 211.13,-67.35"/>
<text text-anchor="middle" x="246" y="-79" font-family="Helvetica,sans-Serif" font-size="10.00"> +__data</text>
</g>
<!-- Node4 -->
<g id="node4" class="node">
<title>Node4</title>
<g id="a_node4"><a xlink:href="struct____mbstate__t.html" target="_top" xlink:title=" ">
<polygon fill="white" stroke="black" points="263.5,-331.5 263.5,-421.5 340.5,-421.5 340.5,-331.5 263.5,-331.5"/>
<text text-anchor="middle" x="302" y="-409.5" font-family="Helvetica,sans-Serif" font-size="10.00">__mbstate_t</text>
<polyline fill="none" stroke="black" points="263.5,-402.5 340.5,-402.5 "/>
<text text-anchor="start" x="271.5" y="-390.5" font-family="Helvetica,sans-Serif" font-size="10.00">+ __count</text>
<text text-anchor="start" x="271.5" y="-379.5" font-family="Helvetica,sans-Serif" font-size="10.00">+ __wch</text>
<text text-anchor="start" x="271.5" y="-368.5" font-family="Helvetica,sans-Serif" font-size="10.00">+ __wchb</text>
<text text-anchor="start" x="271.5" y="-357.5" font-family="Helvetica,sans-Serif" font-size="10.00">+ __value</text>
<polyline fill="none" stroke="black" points="263.5,-350.5 340.5,-350.5 "/>
<text text-anchor="middle" x="302" y="-338.5" font-family="Helvetica,sans-Serif" font-size="10.00"> </text>
</a>
</g>
</g>
<!-- Node4&#45;&gt;Node3 -->
<g id="edge4" class="edge">
<title>Node4&#45;&gt;Node3</title>
<path fill="none" stroke="#404040" d="M302,-331.07C302,-307.29 302,-277.63 302,-251.65"/>
<polygon fill="none" stroke="#404040" points="302,-251.62 298,-245.62 302,-239.62 306,-245.62 302,-251.62"/>
<text text-anchor="middle" x="327" y="-305" font-family="Helvetica,sans-Serif" font-size="10.00"> +__state</text>
<text text-anchor="middle" x="327" y="-294" font-family="Helvetica,sans-Serif" font-size="10.00">+__statep</text>
</g>
</g>
</svg>
