<?xml version="1.0" encoding="UTF-8" standalone="no"?>
<!DOCTYPE svg PUBLIC "-//W3C//DTD SVG 1.1//EN"
 "http://www.w3.org/Graphics/SVG/1.1/DTD/svg11.dtd">
<!-- Generated by graphviz version 2.44.1 (0)
 -->
<!-- Title: rose_facilities_struct Pages: 1 -->
<svg width="212pt" height="237pt"
 viewBox="0.00 0.00 211.50 237.00" xmlns="http://www.w3.org/2000/svg" xmlns:xlink="http://www.w3.org/1999/xlink">
<g id="graph0" class="graph" transform="scale(1 1) rotate(0) translate(4 233)">
<title>rose_facilities_struct</title>
<polygon fill="white" stroke="transparent" points="-4,4 -4,-233 207.5,-233 207.5,4 -4,4"/>
<!-- Node1 -->
<g id="node1" class="node">
<title>Node1</title>
<g id="a_node1"><a xlink:title=" ">
<polygon fill="#bfbfbf" stroke="black" points="31.5,-0.5 31.5,-79.5 149.5,-79.5 149.5,-0.5 31.5,-0.5"/>
<text text-anchor="middle" x="90.5" y="-67.5" font-family="Helvetica,sans-Serif" font-size="10.00">rose_facilities_struct</text>
<polyline fill="none" stroke="black" points="31.5,-60.5 149.5,-60.5 "/>
<text text-anchor="start" x="39.5" y="-48.5" font-family="Helvetica,sans-Serif" font-size="10.00">+ source_ndigis</text>
<text text-anchor="start" x="39.5" y="-37.5" font-family="Helvetica,sans-Serif" font-size="10.00">+ dest_ndigis</text>
<text text-anchor="start" x="39.5" y="-26.5" font-family="Helvetica,sans-Serif" font-size="10.00">+ rand</text>
<polyline fill="none" stroke="black" points="31.5,-19.5 149.5,-19.5 "/>
<text text-anchor="middle" x="90.5" y="-7.5" font-family="Helvetica,sans-Serif" font-size="10.00"> </text>
</a>
</g>
</g>
<!-- Node2 -->
<g id="node2" class="node">
<title>Node2</title>
<g id="a_node2"><a xlink:href="structrose__address.html" target="_top" xlink:title=" ">
<polygon fill="white" stroke="black" points="0,-171.5 0,-228.5 81,-228.5 81,-171.5 0,-171.5"/>
<text text-anchor="middle" x="40.5" y="-216.5" font-family="Helvetica,sans-Serif" font-size="10.00">rose_address</text>
<polyline fill="none" stroke="black" points="0,-209.5 81,-209.5 "/>
<text text-anchor="start" x="8" y="-197.5" font-family="Helvetica,sans-Serif" font-size="10.00">+ rose_addr</text>
<polyline fill="none" stroke="black" points="0,-190.5 81,-190.5 "/>
<text text-anchor="middle" x="40.5" y="-178.5" font-family="Helvetica,sans-Serif" font-size="10.00"> </text>
</a>
</g>
</g>
<!-- Node2&#45;&gt;Node1 -->
<g id="edge1" class="edge">
<title>Node2&#45;&gt;Node1</title>
<path fill="none" stroke="#404040" d="M39.92,-171.16C40.34,-150.4 42.75,-121.66 51.5,-98 52.43,-95.49 53.49,-92.98 54.66,-90.49"/>
<polygon fill="none" stroke="#404040" points="54.72,-90.39 54.01,-83.21 60.36,-79.8 61.07,-86.97 54.72,-90.39"/>
<text text-anchor="middle" x="85.5" y="-134" font-family="Helvetica,sans-Serif" font-size="10.00"> +dest_addr</text>
<text text-anchor="middle" x="85.5" y="-123" font-family="Helvetica,sans-Serif" font-size="10.00">+fail_addr</text>
<text text-anchor="middle" x="85.5" y="-112" font-family="Helvetica,sans-Serif" font-size="10.00">+source_addr</text>
</g>
<!-- Node3 -->
<g id="node3" class="node">
<title>Node3</title>
<g id="a_node3"><a xlink:href="structax25__address.html" target="_top" xlink:title=" ">
<polygon fill="white" stroke="black" points="99.5,-171.5 99.5,-228.5 183.5,-228.5 183.5,-171.5 99.5,-171.5"/>
<text text-anchor="middle" x="141.5" y="-216.5" font-family="Helvetica,sans-Serif" font-size="10.00">ax25_address</text>
<polyline fill="none" stroke="black" points="99.5,-209.5 183.5,-209.5 "/>
<text text-anchor="start" x="107.5" y="-197.5" font-family="Helvetica,sans-Serif" font-size="10.00">+ ax25_call</text>
<polyline fill="none" stroke="black" points="99.5,-190.5 183.5,-190.5 "/>
<text text-anchor="middle" x="141.5" y="-178.5" font-family="Helvetica,sans-Serif" font-size="10.00"> </text>
</a>
</g>
</g>
<!-- Node3&#45;&gt;Node1 -->
<g id="edge2" class="edge">
<title>Node3&#45;&gt;Node1</title>
<path fill="none" stroke="#404040" d="M137.46,-171.47C133.97,-150.85 128.12,-122.17 119.5,-98 118.66,-95.63 117.73,-93.23 116.75,-90.83"/>
<polygon fill="none" stroke="#404040" points="116.67,-90.64 110.59,-86.77 111.83,-79.66 117.91,-83.54 116.67,-90.64"/>
<text text-anchor="middle" x="168.5" y="-145" font-family="Helvetica,sans-Serif" font-size="10.00"> +dest_call</text>
<text text-anchor="middle" x="168.5" y="-134" font-family="Helvetica,sans-Serif" font-size="10.00">+dest_digis</text>
<text text-anchor="middle" x="168.5" y="-123" font-family="Helvetica,sans-Serif" font-size="10.00">+fail_call</text>
<text text-anchor="middle" x="168.5" y="-112" font-family="Helvetica,sans-Serif" font-size="10.00">+source_call</text>
<text text-anchor="middle" x="168.5" y="-101" font-family="Helvetica,sans-Serif" font-size="10.00">+source_digis</text>
</g>
</g>
</svg>
