<?xml version="1.0" encoding="UTF-8" standalone="no"?>
<!DOCTYPE svg PUBLIC "-//W3C//DTD SVG 1.1//EN"
 "http://www.w3.org/Graphics/SVG/1.1/DTD/svg11.dtd">
<!-- Generated by graphviz version 2.44.1 (0)
 -->
<!-- Title: rtentry Pages: 1 -->
<svg width="162pt" height="314pt"
 viewBox="0.00 0.00 162.00 314.00" xmlns="http://www.w3.org/2000/svg" xmlns:xlink="http://www.w3.org/1999/xlink">
<g id="graph0" class="graph" transform="scale(1 1) rotate(0) translate(4 310)">
<title>rtentry</title>
<polygon fill="white" stroke="transparent" points="-4,4 -4,-310 158,-310 158,4 -4,4"/>
<!-- Node1 -->
<g id="node1" class="node">
<title>Node1</title>
<g id="a_node1"><a xlink:title=" ">
<polygon fill="#bfbfbf" stroke="black" points="38,-0.5 38,-178.5 116,-178.5 116,-0.5 38,-0.5"/>
<text text-anchor="middle" x="77" y="-166.5" font-family="Helvetica,sans-Serif" font-size="10.00">rtentry</text>
<polyline fill="none" stroke="black" points="38,-159.5 116,-159.5 "/>
<text text-anchor="start" x="46" y="-147.5" font-family="Helvetica,sans-Serif" font-size="10.00">+ rt_pad1</text>
<text text-anchor="start" x="46" y="-136.5" font-family="Helvetica,sans-Serif" font-size="10.00">+ rt_flags</text>
<text text-anchor="start" x="46" y="-125.5" font-family="Helvetica,sans-Serif" font-size="10.00">+ rt_pad2</text>
<text text-anchor="start" x="46" y="-114.5" font-family="Helvetica,sans-Serif" font-size="10.00">+ rt_pad3</text>
<text text-anchor="start" x="46" y="-103.5" font-family="Helvetica,sans-Serif" font-size="10.00">+ rt_tos</text>
<text text-anchor="start" x="46" y="-92.5" font-family="Helvetica,sans-Serif" font-size="10.00">+ rt_class</text>
<text text-anchor="start" x="46" y="-81.5" font-family="Helvetica,sans-Serif" font-size="10.00">+ rt_pad4</text>
<text text-anchor="start" x="46" y="-70.5" font-family="Helvetica,sans-Serif" font-size="10.00">+ rt_metric</text>
<text text-anchor="start" x="46" y="-59.5" font-family="Helvetica,sans-Serif" font-size="10.00">+ rt_dev</text>
<text text-anchor="start" x="46" y="-48.5" font-family="Helvetica,sans-Serif" font-size="10.00">+ rt_mtu</text>
<text text-anchor="start" x="46" y="-37.5" font-family="Helvetica,sans-Serif" font-size="10.00">+ rt_window</text>
<text text-anchor="start" x="46" y="-26.5" font-family="Helvetica,sans-Serif" font-size="10.00">+ rt_irtt</text>
<polyline fill="none" stroke="black" points="38,-19.5 116,-19.5 "/>
<text text-anchor="middle" x="77" y="-7.5" font-family="Helvetica,sans-Serif" font-size="10.00"> </text>
</a>
</g>
</g>
<!-- Node2 -->
<g id="node2" class="node">
<title>Node2</title>
<g id="a_node2"><a xlink:href="structsockaddr.html" target="_top" xlink:title=" ">
<polygon fill="white" stroke="black" points="0,-248.5 0,-305.5 154,-305.5 154,-248.5 0,-248.5"/>
<text text-anchor="middle" x="77" y="-293.5" font-family="Helvetica,sans-Serif" font-size="10.00">sockaddr</text>
<polyline fill="none" stroke="black" points="0,-286.5 154,-286.5 "/>
<text text-anchor="start" x="8" y="-274.5" font-family="Helvetica,sans-Serif" font-size="10.00">+ sa_data</text>
<polyline fill="none" stroke="black" points="0,-267.5 154,-267.5 "/>
<text text-anchor="start" x="8" y="-255.5" font-family="Helvetica,sans-Serif" font-size="10.00">+ __SOCKADDR_COMMON()</text>
</a>
</g>
</g>
<!-- Node2&#45;&gt;Node1 -->
<g id="edge1" class="edge">
<title>Node2&#45;&gt;Node1</title>
<path fill="none" stroke="#404040" d="M77,-248.23C77,-232.61 77,-212.05 77,-190.96"/>
<polygon fill="none" stroke="#404040" points="77,-190.86 73,-184.86 77,-178.86 81,-184.86 77,-190.86"/>
<text text-anchor="middle" x="110.5" y="-222" font-family="Helvetica,sans-Serif" font-size="10.00"> +rt_dst</text>
<text text-anchor="middle" x="110.5" y="-211" font-family="Helvetica,sans-Serif" font-size="10.00">+rt_gateway</text>
<text text-anchor="middle" x="110.5" y="-200" font-family="Helvetica,sans-Serif" font-size="10.00">+rt_genmask</text>
</g>
</g>
</svg>
