<?xml version="1.0" encoding="UTF-8" standalone="no"?>
<!DOCTYPE svg PUBLIC "-//W3C//DTD SVG 1.1//EN"
 "http://www.w3.org/Graphics/SVG/1.1/DTD/svg11.dtd">
<!-- Generated by graphviz version 2.44.1 (0)
 -->
<!-- Title: argp_child Pages: 1 -->
<!--zoomable 738 -->
<svg id="main" version="1.1" xmlns="http://www.w3.org/2000/svg" xmlns:xlink="http://www.w3.org/1999/xlink" xml:space="preserve" onload="init(evt)">
<style type="text/css"><![CDATA[
.edge:hover path { stroke: red; }
.edge:hover polygon { stroke: red; fill: red; }
]]></style>
<script type="text/javascript"><![CDATA[
var edges = document.getElementsByTagName('g');
if (edges && edges.length) {
  for (var i=0;i<edges.length;i++) {
    if (edges[i].id.substr(0,4)=='edge') {
      edges[i].setAttribute('class','edge');
    }
  }
}
]]></script>
        <defs>
                <circle id="rim" cx="0" cy="0" r="7"/>
                <circle id="rim2" cx="0" cy="0" r="3.5"/>
                <g id="zoomPlus">
                        <use xlink:href="#rim" fill="#404040">
                                <set attributeName="fill" to="#808080" begin="zoomplus.mouseover" end="zoomplus.mouseout"/>
                        </use>
                        <path d="M-4,0h8M0,-4v8" fill="none" stroke="white" stroke-width="1.5" pointer-events="none"/>
                </g>
                <g id="zoomMin">
                        <use xlink:href="#rim" fill="#404040">
                                <set attributeName="fill" to="#808080" begin="zoomminus.mouseover" end="zoomminus.mouseout"/>
                        </use>
                        <path d="M-4,0h8" fill="none" stroke="white" stroke-width="1.5" pointer-events="none"/>
                </g>
                <g id="dirArrow">
                        <path fill="none" stroke="white" stroke-width="1.5" d="M0,-3.0v7 M-2.5,-0.5L0,-3.0L2.5,-0.5"/>
                </g>
               <g id="resetDef">
                       <use xlink:href="#rim2" fill="#404040">
                               <set attributeName="fill" to="#808080" begin="reset.mouseover" end="reset.mouseout"/>
                       </use>
               </g>
        </defs>

<script type="text/javascript">
var viewWidth = 371;
var viewHeight = 738;
var sectionId = 'dynsection-0';
</script>
<script xlink:href="svgpan.js"/>
<svg id="graph" class="graph">
<g id="viewport">
<title>argp_child</title>
<polygon fill="white" stroke="transparent" points="-4,4 -4,-734 366.5,-734 366.5,4 -4,4"/>
<!-- Node1 -->
<g id="node1" class="node">
<title>Node1</title>
<g id="a_node1"><a xlink:title=" ">
<polygon fill="#bfbfbf" stroke="black" points="0,-634 0,-713 67,-713 67,-634 0,-634"/>
<text text-anchor="middle" x="33.5" y="-701" font-family="Helvetica,sans-Serif" font-size="10.00">argp_child</text>
<polyline fill="none" stroke="black" points="0,-694 67,-694 "/>
<text text-anchor="start" x="8" y="-682" font-family="Helvetica,sans-Serif" font-size="10.00">+ flags</text>
<text text-anchor="start" x="8" y="-671" font-family="Helvetica,sans-Serif" font-size="10.00">+ header</text>
<text text-anchor="start" x="8" y="-660" font-family="Helvetica,sans-Serif" font-size="10.00">+ group</text>
<polyline fill="none" stroke="black" points="0,-653 67,-653 "/>
<text text-anchor="middle" x="33.5" y="-641" font-family="Helvetica,sans-Serif" font-size="10.00"> </text>
</a>
</g>
</g>
<!-- Node2 -->
<g id="node2" class="node">
<title>Node2</title>
<g id="a_node2"><a xlink:href="structargp.html" target="_top" xlink:title=" ">
<polygon fill="white" stroke="black" points="40.5,-353 40.5,-443 132.5,-443 132.5,-353 40.5,-353"/>
<text text-anchor="middle" x="86.5" y="-431" font-family="Helvetica,sans-Serif" font-size="10.00">argp</text>
<polyline fill="none" stroke="black" points="40.5,-424 132.5,-424 "/>
<text text-anchor="start" x="48.5" y="-412" font-family="Helvetica,sans-Serif" font-size="10.00">+ args_doc</text>
<text text-anchor="start" x="48.5" y="-401" font-family="Helvetica,sans-Serif" font-size="10.00">+ doc</text>
<text text-anchor="start" x="48.5" y="-390" font-family="Helvetica,sans-Serif" font-size="10.00">+ help_filter</text>
<text text-anchor="start" x="48.5" y="-379" font-family="Helvetica,sans-Serif" font-size="10.00">+ argp_domain</text>
<polyline fill="none" stroke="black" points="40.5,-372 132.5,-372 "/>
<text text-anchor="middle" x="86.5" y="-360" font-family="Helvetica,sans-Serif" font-size="10.00"> </text>
</a>
</g>
</g>
<!-- Node1&#45;&gt;Node2 -->
<g id="edge2" class="edge">
<title>Node1&#45;&gt;Node2</title>
<path fill="none" stroke="#404040" d="M14.5,-633.7C9.65,-619.46 6.54,-603.12 9.5,-588 18.7,-541.05 39.61,-491.04 57.33,-454.27"/>
<polygon fill="none" stroke="#404040" points="57.43,-454.08 56.48,-446.93 62.71,-443.3 63.66,-450.45 57.43,-454.08"/>
<text text-anchor="middle" x="35" y="-591" font-family="Helvetica,sans-Serif" font-size="10.00"> +children</text>
</g>
<!-- Node2&#45;&gt;Node1 -->
<g id="edge1" class="edge">
<title>Node2&#45;&gt;Node1</title>
<path fill="none" stroke="#404040" d="M85.29,-443.36C83.31,-484.33 78.12,-546.6 64.5,-599 62.46,-606.83 59.74,-614.92 56.75,-622.74"/>
<polygon fill="none" stroke="#404040" points="56.72,-622.82 58.18,-629.88 52.23,-633.94 50.77,-626.88 56.72,-622.82"/>
<text text-anchor="middle" x="83.5" y="-591" font-family="Helvetica,sans-Serif" font-size="10.00"> +argp</text>
</g>
<!-- Node3 -->
<g id="node3" class="node">
<title>Node3</title>
<g id="a_node3"><a xlink:href="structargp__state.html" target="_top" xlink:title=" ">
<polygon fill="white" stroke="black" points="110.5,-0.5 110.5,-167.5 196.5,-167.5 196.5,-0.5 110.5,-0.5"/>
<text text-anchor="middle" x="153.5" y="-155.5" font-family="Helvetica,sans-Serif" font-size="10.00">argp_state</text>
<polyline fill="none" stroke="black" points="110.5,-148.5 196.5,-148.5 "/>
<text text-anchor="start" x="118.5" y="-136.5" font-family="Helvetica,sans-Serif" font-size="10.00">+ argc</text>
<text text-anchor="start" x="118.5" y="-125.5" font-family="Helvetica,sans-Serif" font-size="10.00">+ argv</text>
<text text-anchor="start" x="118.5" y="-114.5" font-family="Helvetica,sans-Serif" font-size="10.00">+ next</text>
<text text-anchor="start" x="118.5" y="-103.5" font-family="Helvetica,sans-Serif" font-size="10.00">+ flags</text>
<text text-anchor="start" x="118.5" y="-92.5" font-family="Helvetica,sans-Serif" font-size="10.00">+ arg_num</text>
<text text-anchor="start" x="118.5" y="-81.5" font-family="Helvetica,sans-Serif" font-size="10.00">+ quoted</text>
<text text-anchor="start" x="118.5" y="-70.5" font-family="Helvetica,sans-Serif" font-size="10.00">+ input</text>
<text text-anchor="start" x="118.5" y="-59.5" font-family="Helvetica,sans-Serif" font-size="10.00">+ child_inputs</text>
<text text-anchor="start" x="118.5" y="-48.5" font-family="Helvetica,sans-Serif" font-size="10.00">+ hook</text>
<text text-anchor="start" x="118.5" y="-37.5" font-family="Helvetica,sans-Serif" font-size="10.00">+ name</text>
<text text-anchor="start" x="118.5" y="-26.5" font-family="Helvetica,sans-Serif" font-size="10.00">+ pstate</text>
<polyline fill="none" stroke="black" points="110.5,-19.5 196.5,-19.5 "/>
<text text-anchor="middle" x="153.5" y="-7.5" font-family="Helvetica,sans-Serif" font-size="10.00"> </text>
</a>
</g>
</g>
<!-- Node2&#45;&gt;Node3 -->
<g id="edge4" class="edge">
<title>Node2&#45;&gt;Node3</title>
<path fill="none" stroke="#404040" d="M72.47,-352.75C61,-309.04 49.63,-240.95 69.5,-186 76.43,-166.82 88.78,-148.71 101.9,-133.27"/>
<polygon fill="none" stroke="#404040" points="102.16,-132.98 103.16,-125.84 110.13,-124.01 109.13,-131.16 102.16,-132.98"/>
<text text-anchor="middle" x="98.5" y="-194.5" font-family="Helvetica,sans-Serif" font-size="10.00"> +root_argp</text>
</g>
<!-- Node3&#45;&gt;Node2 -->
<g id="edge3" class="edge">
<title>Node3&#45;&gt;Node2</title>
<path fill="none" stroke="#404040" d="M139.35,-167.83C136.86,-181.28 134.2,-195.05 131.5,-208 122.13,-252.99 109.98,-303.63 100.67,-341.16"/>
<polygon fill="none" stroke="#404040" points="100.66,-341.22 103.09,-348.01 97.76,-352.86 95.33,-346.07 100.66,-341.22"/>
<text text-anchor="middle" x="157" y="-194.5" font-family="Helvetica,sans-Serif" font-size="10.00"> +parser</text>
</g>
<!-- Node4 -->
<g id="node4" class="node">
<title>Node4</title>
<g id="a_node4"><a xlink:href="struct__IO__FILE.html" target="_top" xlink:title=" ">
<polygon fill="white" stroke="black" points="163.5,-226.5 163.5,-569.5 275.5,-569.5 275.5,-226.5 163.5,-226.5"/>
<text text-anchor="middle" x="219.5" y="-557.5" font-family="Helvetica,sans-Serif" font-size="10.00">_IO_FILE</text>
<polyline fill="none" stroke="black" points="163.5,-550.5 275.5,-550.5 "/>
<text text-anchor="start" x="171.5" y="-538.5" font-family="Helvetica,sans-Serif" font-size="10.00">+ _flags</text>
<text text-anchor="start" x="171.5" y="-527.5" font-family="Helvetica,sans-Serif" font-size="10.00">+ _IO_read_ptr</text>
<text text-anchor="start" x="171.5" y="-516.5" font-family="Helvetica,sans-Serif" font-size="10.00">+ _IO_read_end</text>
<text text-anchor="start" x="171.5" y="-505.5" font-family="Helvetica,sans-Serif" font-size="10.00">+ _IO_read_base</text>
<text text-anchor="start" x="171.5" y="-494.5" font-family="Helvetica,sans-Serif" font-size="10.00">+ _IO_write_base</text>
<text text-anchor="start" x="171.5" y="-483.5" font-family="Helvetica,sans-Serif" font-size="10.00">+ _IO_write_ptr</text>
<text text-anchor="start" x="171.5" y="-472.5" font-family="Helvetica,sans-Serif" font-size="10.00">+ _IO_write_end</text>
<text text-anchor="start" x="171.5" y="-461.5" font-family="Helvetica,sans-Serif" font-size="10.00">+ _IO_buf_base</text>
<text text-anchor="start" x="171.5" y="-450.5" font-family="Helvetica,sans-Serif" font-size="10.00">+ _IO_buf_end</text>
<text text-anchor="start" x="171.5" y="-439.5" font-family="Helvetica,sans-Serif" font-size="10.00">+ _IO_save_base</text>
<text text-anchor="start" x="171.5" y="-428.5" font-family="Helvetica,sans-Serif" font-size="10.00">+ _IO_backup_base</text>
<text text-anchor="start" x="171.5" y="-417.5" font-family="Helvetica,sans-Serif" font-size="10.00">+ _IO_save_end</text>
<text text-anchor="start" x="171.5" y="-406.5" font-family="Helvetica,sans-Serif" font-size="10.00">+ _markers</text>
<text text-anchor="start" x="171.5" y="-395.5" font-family="Helvetica,sans-Serif" font-size="10.00">+ _fileno</text>
<text text-anchor="start" x="171.5" y="-384.5" font-family="Helvetica,sans-Serif" font-size="10.00">+ _flags2</text>
<text text-anchor="start" x="171.5" y="-373.5" font-family="Helvetica,sans-Serif" font-size="10.00">+ _old_offset</text>
<text text-anchor="start" x="171.5" y="-362.5" font-family="Helvetica,sans-Serif" font-size="10.00">+ _cur_column</text>
<text text-anchor="start" x="171.5" y="-351.5" font-family="Helvetica,sans-Serif" font-size="10.00">+ _vtable_offset</text>
<text text-anchor="start" x="171.5" y="-340.5" font-family="Helvetica,sans-Serif" font-size="10.00">+ _shortbuf</text>
<text text-anchor="start" x="171.5" y="-329.5" font-family="Helvetica,sans-Serif" font-size="10.00">+ _lock</text>
<text text-anchor="start" x="171.5" y="-318.5" font-family="Helvetica,sans-Serif" font-size="10.00">+ _offset</text>
<text text-anchor="start" x="171.5" y="-307.5" font-family="Helvetica,sans-Serif" font-size="10.00">+ _codecvt</text>
<text text-anchor="start" x="171.5" y="-296.5" font-family="Helvetica,sans-Serif" font-size="10.00">+ _wide_data</text>
<text text-anchor="start" x="171.5" y="-285.5" font-family="Helvetica,sans-Serif" font-size="10.00">+ _freeres_buf</text>
<text text-anchor="start" x="171.5" y="-274.5" font-family="Helvetica,sans-Serif" font-size="10.00">+ __pad5</text>
<text text-anchor="start" x="171.5" y="-263.5" font-family="Helvetica,sans-Serif" font-size="10.00">+ _mode</text>
<text text-anchor="start" x="171.5" y="-252.5" font-family="Helvetica,sans-Serif" font-size="10.00">+ _unused2</text>
<polyline fill="none" stroke="black" points="163.5,-245.5 275.5,-245.5 "/>
<text text-anchor="middle" x="219.5" y="-233.5" font-family="Helvetica,sans-Serif" font-size="10.00"> </text>
</a>
</g>
</g>
<!-- Node4&#45;&gt;Node3 -->
<g id="edge5" class="edge">
<title>Node4&#45;&gt;Node3</title>
<path fill="none" stroke="#404040" d="M206.26,-226.32C203.82,-212.58 200.92,-199 197.5,-186 196.9,-183.71 196.25,-181.41 195.56,-179.1"/>
<polygon fill="none" stroke="#404040" points="195.51,-178.93 189.87,-174.44 191.84,-167.5 197.48,-171.99 195.51,-178.93"/>
<text text-anchor="middle" x="234" y="-200" font-family="Helvetica,sans-Serif" font-size="10.00"> +err_stream</text>
<text text-anchor="middle" x="234" y="-189" font-family="Helvetica,sans-Serif" font-size="10.00">+out_stream</text>
</g>
<!-- Node4&#45;&gt;Node4 -->
<g id="edge6" class="edge">
<title>Node4&#45;&gt;Node4</title>
<path fill="none" stroke="#404040" d="M275.65,-432.51C286.12,-428.26 293.5,-416.76 293.5,-398 293.5,-385.98 290.47,-376.95 285.54,-370.88"/>
<polygon fill="none" stroke="#404040" points="285.26,-370.67 278.06,-370.29 275.65,-363.49 282.85,-363.88 285.26,-370.67"/>
<text text-anchor="middle" x="328" y="-401" font-family="Helvetica,sans-Serif" font-size="10.00"> +_chain</text>
<text text-anchor="middle" x="328" y="-390" font-family="Helvetica,sans-Serif" font-size="10.00">+_freeres_list</text>
</g>
<!-- Node5 -->
<g id="node5" class="node">
<title>Node5</title>
<g id="a_node5"><a xlink:href="structargp__option.html" target="_top" xlink:title=" ">
<polygon fill="white" stroke="black" points="106.5,-617.5 106.5,-729.5 180.5,-729.5 180.5,-617.5 106.5,-617.5"/>
<text text-anchor="middle" x="143.5" y="-717.5" font-family="Helvetica,sans-Serif" font-size="10.00">argp_option</text>
<polyline fill="none" stroke="black" points="106.5,-710.5 180.5,-710.5 "/>
<text text-anchor="start" x="114.5" y="-698.5" font-family="Helvetica,sans-Serif" font-size="10.00">+ name</text>
<text text-anchor="start" x="114.5" y="-687.5" font-family="Helvetica,sans-Serif" font-size="10.00">+ key</text>
<text text-anchor="start" x="114.5" y="-676.5" font-family="Helvetica,sans-Serif" font-size="10.00">+ arg</text>
<text text-anchor="start" x="114.5" y="-665.5" font-family="Helvetica,sans-Serif" font-size="10.00">+ flags</text>
<text text-anchor="start" x="114.5" y="-654.5" font-family="Helvetica,sans-Serif" font-size="10.00">+ doc</text>
<text text-anchor="start" x="114.5" y="-643.5" font-family="Helvetica,sans-Serif" font-size="10.00">+ group</text>
<polyline fill="none" stroke="black" points="106.5,-636.5 180.5,-636.5 "/>
<text text-anchor="middle" x="143.5" y="-624.5" font-family="Helvetica,sans-Serif" font-size="10.00"> </text>
</a>
</g>
</g>
<!-- Node5&#45;&gt;Node2 -->
<g id="edge7" class="edge">
<title>Node5&#45;&gt;Node2</title>
<path fill="none" stroke="#404040" d="M132.03,-617.48C122.19,-570.27 108.08,-502.53 98.18,-455.03"/>
<polygon fill="none" stroke="#404040" points="98.14,-454.86 93,-449.8 95.69,-443.11 100.83,-448.17 98.14,-454.86"/>
<text text-anchor="middle" x="150.5" y="-591" font-family="Helvetica,sans-Serif" font-size="10.00"> +options</text>
</g>
</g>
</svg>
        <g id="navigator" transform="translate(0 0)" fill="#404254">
                <rect fill="#f2f5e9" fill-opacity="0.5" stroke="#606060" stroke-width=".5" x="0" y="0" width="60" height="60"/>
                <use id="zoomplus" xlink:href="#zoomPlus" x="17" y="9" onmousedown="handleZoom(evt,'in')"/>
                <use id="zoomminus" xlink:href="#zoomMin" x="42" y="9" onmousedown="handleZoom(evt,'out')"/>
                <use id="reset" xlink:href="#resetDef" x="30" y="36" onmousedown="handleReset()"/>
                <g id="arrowUp" xlink:href="#dirArrow" transform="translate(30 24)" onmousedown="handlePan(0,-1)">
                  <use xlink:href="#rim" fill="#404040">
                        <set attributeName="fill" to="#808080" begin="arrowUp.mouseover" end="arrowUp.mouseout"/>
                  </use>
                  <path fill="none" stroke="white" stroke-width="1.5" d="M0,-3.0v7 M-2.5,-0.5L0,-3.0L2.5,-0.5"/>
                </g>
                <g id="arrowRight" xlink:href="#dirArrow" transform="rotate(90) translate(36 -43)" onmousedown="handlePan(1,0)">
                  <use xlink:href="#rim" fill="#404040">
                        <set attributeName="fill" to="#808080" begin="arrowRight.mouseover" end="arrowRight.mouseout"/>
                  </use>
                  <path fill="none" stroke="white" stroke-width="1.5" d="M0,-3.0v7 M-2.5,-0.5L0,-3.0L2.5,-0.5"/>
                </g>
                <g id="arrowDown" xlink:href="#dirArrow" transform="rotate(180) translate(-30 -48)" onmousedown="handlePan(0,1)">
                  <use xlink:href="#rim" fill="#404040">
                        <set attributeName="fill" to="#808080" begin="arrowDown.mouseover" end="arrowDown.mouseout"/>
                  </use>
                  <path fill="none" stroke="white" stroke-width="1.5" d="M0,-3.0v7 M-2.5,-0.5L0,-3.0L2.5,-0.5"/>
                </g>
                <g id="arrowLeft" xlink:href="#dirArrow" transform="rotate(270) translate(-36 17)" onmousedown="handlePan(-1,0)">
                  <use xlink:href="#rim" fill="#404040">
                        <set attributeName="fill" to="#808080" begin="arrowLeft.mouseover" end="arrowLeft.mouseout"/>
                  </use>
                  <path fill="none" stroke="white" stroke-width="1.5" d="M0,-3.0v7 M-2.5,-0.5L0,-3.0L2.5,-0.5"/>
                </g>
        </g>
        <svg viewBox="0 0 15 15" width="100%" height="30px" preserveAspectRatio="xMaxYMin meet">
         <g id="arrow_out" transform="scale(0.3 0.3)">
          <a xlink:href="structargp__child__coll__graph_org.svg" target="_base">
           <rect id="button" ry="5" rx="5" y="6" x="6" height="38" width="38"
                fill="#f2f5e9" fill-opacity="0.5" stroke="#606060" stroke-width="1.0"/>
           <path id="arrow"
             d="M 11.500037,31.436501 C 11.940474,20.09759 22.043105,11.32322 32.158766,21.979434 L 37.068811,17.246167 C 37.068811,17.246167 37.088388,32 37.088388,32 L 22.160133,31.978069 C 22.160133,31.978069 26.997745,27.140456 26.997745,27.140456 C 18.528582,18.264221 13.291696,25.230495 11.500037,31.436501 z"
             style="fill:#404040;"/>
          </a>
         </g>
        </svg>
</svg>
