<?xml version="1.0" encoding="UTF-8" standalone="no"?>
<!DOCTYPE svg PUBLIC "-//W3C//DTD SVG 1.1//EN"
 "http://www.w3.org/Graphics/SVG/1.1/DTD/svg11.dtd">
<!-- Generated by graphviz version 2.44.1 (0)
 -->
<!-- Title: rose_route_struct Pages: 1 -->
<svg width="202pt" height="204pt"
 viewBox="0.00 0.00 201.50 204.00" xmlns="http://www.w3.org/2000/svg" xmlns:xlink="http://www.w3.org/1999/xlink">
<g id="graph0" class="graph" transform="scale(1 1) rotate(0) translate(4 200)">
<title>rose_route_struct</title>
<polygon fill="white" stroke="transparent" points="-4,4 -4,-200 197.5,-200 197.5,4 -4,4"/>
<!-- Node1 -->
<g id="node1" class="node">
<title>Node1</title>
<g id="a_node1"><a xlink:title=" ">
<polygon fill="#bfbfbf" stroke="black" points="40,-0.5 40,-79.5 141,-79.5 141,-0.5 40,-0.5"/>
<text text-anchor="middle" x="90.5" y="-67.5" font-family="Helvetica,sans-Serif" font-size="10.00">rose_route_struct</text>
<polyline fill="none" stroke="black" points="40,-60.5 141,-60.5 "/>
<text text-anchor="start" x="48" y="-48.5" font-family="Helvetica,sans-Serif" font-size="10.00">+ mask</text>
<text text-anchor="start" x="48" y="-37.5" font-family="Helvetica,sans-Serif" font-size="10.00">+ device</text>
<text text-anchor="start" x="48" y="-26.5" font-family="Helvetica,sans-Serif" font-size="10.00">+ ndigis</text>
<polyline fill="none" stroke="black" points="40,-19.5 141,-19.5 "/>
<text text-anchor="middle" x="90.5" y="-7.5" font-family="Helvetica,sans-Serif" font-size="10.00"> </text>
</a>
</g>
</g>
<!-- Node2 -->
<g id="node2" class="node">
<title>Node2</title>
<g id="a_node2"><a xlink:href="structrose__address.html" target="_top" xlink:title=" ">
<polygon fill="white" stroke="black" points="0,-138.5 0,-195.5 81,-195.5 81,-138.5 0,-138.5"/>
<text text-anchor="middle" x="40.5" y="-183.5" font-family="Helvetica,sans-Serif" font-size="10.00">rose_address</text>
<polyline fill="none" stroke="black" points="0,-176.5 81,-176.5 "/>
<text text-anchor="start" x="8" y="-164.5" font-family="Helvetica,sans-Serif" font-size="10.00">+ rose_addr</text>
<polyline fill="none" stroke="black" points="0,-157.5 81,-157.5 "/>
<text text-anchor="middle" x="40.5" y="-145.5" font-family="Helvetica,sans-Serif" font-size="10.00"> </text>
</a>
</g>
</g>
<!-- Node2&#45;&gt;Node1 -->
<g id="edge1" class="edge">
<title>Node2&#45;&gt;Node1</title>
<path fill="none" stroke="#404040" d="M51.6,-138.26C57.15,-124.37 64.05,-107.12 70.49,-91.02"/>
<polygon fill="none" stroke="#404040" points="70.62,-90.71 69.13,-83.65 75.07,-79.57 76.56,-86.62 70.62,-90.71"/>
<text text-anchor="middle" x="92.5" y="-106.5" font-family="Helvetica,sans-Serif" font-size="10.00"> +address</text>
</g>
<!-- Node3 -->
<g id="node3" class="node">
<title>Node3</title>
<g id="a_node3"><a xlink:href="structax25__address.html" target="_top" xlink:title=" ">
<polygon fill="white" stroke="black" points="99.5,-138.5 99.5,-195.5 183.5,-195.5 183.5,-138.5 99.5,-138.5"/>
<text text-anchor="middle" x="141.5" y="-183.5" font-family="Helvetica,sans-Serif" font-size="10.00">ax25_address</text>
<polyline fill="none" stroke="black" points="99.5,-176.5 183.5,-176.5 "/>
<text text-anchor="start" x="107.5" y="-164.5" font-family="Helvetica,sans-Serif" font-size="10.00">+ ax25_call</text>
<polyline fill="none" stroke="black" points="99.5,-157.5 183.5,-157.5 "/>
<text text-anchor="middle" x="141.5" y="-145.5" font-family="Helvetica,sans-Serif" font-size="10.00"> </text>
</a>
</g>
</g>
<!-- Node3&#45;&gt;Node1 -->
<g id="edge2" class="edge">
<title>Node3&#45;&gt;Node1</title>
<path fill="none" stroke="#404040" d="M133.59,-138.18C129.77,-125.73 124.85,-110.96 119.5,-98 118.48,-95.54 117.4,-93.04 116.28,-90.53"/>
<polygon fill="none" stroke="#404040" points="116.23,-90.43 110.07,-86.69 111.15,-79.56 117.31,-83.3 116.23,-90.43"/>
<text text-anchor="middle" x="160" y="-112" font-family="Helvetica,sans-Serif" font-size="10.00"> +digipeaters</text>
<text text-anchor="middle" x="160" y="-101" font-family="Helvetica,sans-Serif" font-size="10.00">+neighbour</text>
</g>
</g>
</svg>
