<?xml version="1.0" encoding="UTF-8" standalone="no"?>
<!DOCTYPE svg PUBLIC "-//W3C//DTD SVG 1.1//EN"
 "http://www.w3.org/Graphics/SVG/1.1/DTD/svg11.dtd">
<!-- Generated by graphviz version 2.44.1 (0)
 -->
<!-- Title: bits/types/struct_timeval.h Pages: 1 -->
<svg width="817pt" height="308pt"
 viewBox="0.00 0.00 817.00 308.00" xmlns="http://www.w3.org/2000/svg" xmlns:xlink="http://www.w3.org/1999/xlink">
<g id="graph0" class="graph" transform="scale(1 1) rotate(0) translate(4 304)">
<title>bits/types/struct_timeval.h</title>
<polygon fill="white" stroke="transparent" points="-4,4 -4,-304 813,-304 813,4 -4,4"/>
<!-- Node1 -->
<g id="node1" class="node">
<title>Node1</title>
<g id="a_node1"><a xlink:title=" ">
<polygon fill="#bfbfbf" stroke="black" points="168,-280.5 168,-299.5 315,-299.5 315,-280.5 168,-280.5"/>
<text text-anchor="middle" x="241.5" y="-287.5" font-family="Helvetica,sans-Serif" font-size="10.00">bits/types/struct_timeval.h</text>
</a>
</g>
</g>
<!-- Node2 -->
<g id="node2" class="node">
<title>Node2</title>
<g id="a_node2"><a xlink:href="bits_2resource_8h.html" target="_top" xlink:title=" ">
<polygon fill="white" stroke="black" points="0,-168.5 0,-187.5 89,-187.5 89,-168.5 0,-168.5"/>
<text text-anchor="middle" x="44.5" y="-175.5" font-family="Helvetica,sans-Serif" font-size="10.00">bits/resource.h</text>
</a>
</g>
</g>
<!-- Node1&#45;&gt;Node2 -->
<g id="edge1" class="edge">
<title>Node1&#45;&gt;Node2</title>
<path fill="none" stroke="midnightblue" d="M169.19,-278.79C125.76,-271.22 75.99,-259.52 60.5,-244 45.4,-228.86 43.74,-201.91 44,-187.94"/>
<polygon fill="midnightblue" stroke="midnightblue" points="168.77,-282.27 179.21,-280.48 169.93,-275.36 168.77,-282.27"/>
</g>
<!-- Node4 -->
<g id="node4" class="node">
<title>Node4</title>
<g id="a_node4"><a xlink:href="struct__rusage_8h.html" target="_top" xlink:title=" ">
<polygon fill="white" stroke="black" points="70,-224.5 70,-243.5 213,-243.5 213,-224.5 70,-224.5"/>
<text text-anchor="middle" x="141.5" y="-231.5" font-family="Helvetica,sans-Serif" font-size="10.00">bits/types/struct_rusage.h</text>
</a>
</g>
</g>
<!-- Node1&#45;&gt;Node4 -->
<g id="edge3" class="edge">
<title>Node1&#45;&gt;Node4</title>
<path fill="none" stroke="midnightblue" d="M216.41,-275.45C197.95,-265.48 173.4,-252.23 157.53,-243.65"/>
<polygon fill="midnightblue" stroke="midnightblue" points="214.97,-278.65 225.43,-280.32 218.3,-272.49 214.97,-278.65"/>
</g>
<!-- Node5 -->
<g id="node5" class="node">
<title>Node5</title>
<g id="a_node5"><a xlink:href="bits_2timex_8h.html" target="_top" xlink:title=" ">
<polygon fill="white" stroke="black" points="157,-168.5 157,-187.5 232,-187.5 232,-168.5 157,-168.5"/>
<text text-anchor="middle" x="194.5" y="-175.5" font-family="Helvetica,sans-Serif" font-size="10.00">bits/timex.h</text>
</a>
</g>
</g>
<!-- Node1&#45;&gt;Node5 -->
<g id="edge5" class="edge">
<title>Node1&#45;&gt;Node5</title>
<path fill="none" stroke="midnightblue" d="M237.1,-270.53C233.63,-257.28 228.26,-239.16 221.5,-224 215.56,-210.69 206.5,-196.44 200.54,-187.62"/>
<polygon fill="midnightblue" stroke="midnightblue" points="233.73,-271.49 239.55,-280.35 240.52,-269.8 233.73,-271.49"/>
</g>
<!-- Node7 -->
<g id="node7" class="node">
<title>Node7</title>
<g id="a_node7"><a xlink:href="sys_2select_8h.html" target="_top" xlink:title=" ">
<polygon fill="white" stroke="black" points="269.5,-224.5 269.5,-243.5 343.5,-243.5 343.5,-224.5 269.5,-224.5"/>
<text text-anchor="middle" x="306.5" y="-231.5" font-family="Helvetica,sans-Serif" font-size="10.00">sys/select.h</text>
</a>
</g>
</g>
<!-- Node1&#45;&gt;Node7 -->
<g id="edge7" class="edge">
<title>Node1&#45;&gt;Node7</title>
<path fill="none" stroke="midnightblue" d="M259.77,-273.82C271.42,-264.15 286.1,-251.95 295.87,-243.83"/>
<polygon fill="midnightblue" stroke="midnightblue" points="257.4,-271.24 251.94,-280.32 261.87,-276.63 257.4,-271.24"/>
</g>
<!-- Node8 -->
<g id="node8" class="node">
<title>Node8</title>
<g id="a_node8"><a xlink:href="sys_2time_8h.html" target="_top" xlink:title=" ">
<polygon fill="white" stroke="black" points="337.5,-168.5 337.5,-187.5 405.5,-187.5 405.5,-168.5 337.5,-168.5"/>
<text text-anchor="middle" x="371.5" y="-175.5" font-family="Helvetica,sans-Serif" font-size="10.00">sys/time.h</text>
</a>
</g>
</g>
<!-- Node1&#45;&gt;Node8 -->
<g id="edge24" class="edge">
<title>Node1&#45;&gt;Node8</title>
<path fill="none" stroke="midnightblue" d="M296.36,-277.46C316.44,-270.73 337.82,-260.24 352.5,-244 367.01,-227.95 370.48,-201.39 371.28,-187.72"/>
<polygon fill="midnightblue" stroke="midnightblue" points="295.16,-274.17 286.64,-280.47 297.23,-280.85 295.16,-274.17"/>
</g>
<!-- Node3 -->
<g id="node3" class="node">
<title>Node3</title>
<g id="a_node3"><a xlink:href="sys_2resource_8h.html" target="_top" xlink:title=" ">
<polygon fill="white" stroke="black" points="1,-112.5 1,-131.5 88,-131.5 88,-112.5 1,-112.5"/>
<text text-anchor="middle" x="44.5" y="-119.5" font-family="Helvetica,sans-Serif" font-size="10.00">sys/resource.h</text>
</a>
</g>
</g>
<!-- Node2&#45;&gt;Node3 -->
<g id="edge2" class="edge">
<title>Node2&#45;&gt;Node3</title>
<path fill="none" stroke="midnightblue" d="M44.5,-157.8C44.5,-148.91 44.5,-138.78 44.5,-131.75"/>
<polygon fill="midnightblue" stroke="midnightblue" points="41,-158.08 44.5,-168.08 48,-158.08 41,-158.08"/>
</g>
<!-- Node4&#45;&gt;Node2 -->
<g id="edge4" class="edge">
<title>Node4&#45;&gt;Node2</title>
<path fill="none" stroke="midnightblue" d="M117.16,-219.45C99.26,-209.48 75.45,-196.23 60.05,-187.65"/>
<polygon fill="midnightblue" stroke="midnightblue" points="115.48,-222.52 125.92,-224.32 118.88,-216.4 115.48,-222.52"/>
</g>
<!-- Node6 -->
<g id="node6" class="node">
<title>Node6</title>
<g id="a_node6"><a xlink:href="sys_2timex_8h.html" target="_top" xlink:title=" ">
<polygon fill="white" stroke="black" points="109.5,-112.5 109.5,-131.5 183.5,-131.5 183.5,-112.5 109.5,-112.5"/>
<text text-anchor="middle" x="146.5" y="-119.5" font-family="Helvetica,sans-Serif" font-size="10.00">sys/timex.h</text>
</a>
</g>
</g>
<!-- Node5&#45;&gt;Node6 -->
<g id="edge6" class="edge">
<title>Node5&#45;&gt;Node6</title>
<path fill="none" stroke="midnightblue" d="M179.77,-160.43C171.36,-150.97 161.15,-139.48 154.28,-131.75"/>
<polygon fill="midnightblue" stroke="midnightblue" points="177.31,-162.93 186.57,-168.08 182.55,-158.28 177.31,-162.93"/>
</g>
<!-- Node7&#45;&gt;Node8 -->
<g id="edge8" class="edge">
<title>Node7&#45;&gt;Node8</title>
<path fill="none" stroke="midnightblue" d="M324.77,-217.82C336.42,-208.15 351.1,-195.95 360.87,-187.83"/>
<polygon fill="midnightblue" stroke="midnightblue" points="322.4,-215.24 316.94,-224.32 326.87,-220.63 322.4,-215.24"/>
</g>
<!-- Node8&#45;&gt;Node6 -->
<g id="edge21" class="edge">
<title>Node8&#45;&gt;Node6</title>
<path fill="none" stroke="midnightblue" d="M327.54,-166.45C285.06,-156.26 221.52,-141 182.11,-131.55"/>
<polygon fill="midnightblue" stroke="midnightblue" points="326.79,-169.87 337.33,-168.8 328.42,-163.06 326.79,-169.87"/>
</g>
<!-- Node9 -->
<g id="node9" class="node">
<title>Node9</title>
<g id="a_node9"><a xlink:href="bits_2utmpx_8h.html" target="_top" xlink:title=" ">
<polygon fill="white" stroke="black" points="201.5,-112.5 201.5,-131.5 279.5,-131.5 279.5,-112.5 201.5,-112.5"/>
<text text-anchor="middle" x="240.5" y="-119.5" font-family="Helvetica,sans-Serif" font-size="10.00">bits/utmpx.h</text>
</a>
</g>
</g>
<!-- Node8&#45;&gt;Node9 -->
<g id="edge9" class="edge">
<title>Node8&#45;&gt;Node9</title>
<path fill="none" stroke="midnightblue" d="M341.18,-164.5C316.62,-154.38 282.68,-140.39 261.16,-131.52"/>
<polygon fill="midnightblue" stroke="midnightblue" points="340.16,-167.87 350.74,-168.44 342.83,-161.4 340.16,-167.87"/>
</g>
<!-- Node10 -->
<g id="node10" class="node">
<title>Node10</title>
<g id="a_node10"><a xlink:href="utmpx_8h.html" target="_top" xlink:title=" ">
<polygon fill="white" stroke="black" points="242,-56.5 242,-75.5 299,-75.5 299,-56.5 242,-56.5"/>
<text text-anchor="middle" x="270.5" y="-63.5" font-family="Helvetica,sans-Serif" font-size="10.00">utmpx.h</text>
</a>
</g>
</g>
<!-- Node8&#45;&gt;Node10 -->
<g id="edge23" class="edge">
<title>Node8&#45;&gt;Node10</title>
<path fill="none" stroke="midnightblue" d="M355.06,-161.14C346.41,-152.65 335.71,-141.92 326.5,-132 308.26,-112.35 287.98,-88.2 277.55,-75.59"/>
<polygon fill="midnightblue" stroke="midnightblue" points="352.73,-163.76 362.34,-168.23 357.61,-158.74 352.73,-163.76"/>
</g>
<!-- Node11 -->
<g id="node11" class="node">
<title>Node11</title>
<g id="a_node11"><a xlink:href="bits_2utmp_8h.html" target="_top" xlink:title=" ">
<polygon fill="white" stroke="black" points="335.5,-112.5 335.5,-131.5 407.5,-131.5 407.5,-112.5 335.5,-112.5"/>
<text text-anchor="middle" x="371.5" y="-119.5" font-family="Helvetica,sans-Serif" font-size="10.00">bits/utmp.h</text>
</a>
</g>
</g>
<!-- Node8&#45;&gt;Node11 -->
<g id="edge11" class="edge">
<title>Node8&#45;&gt;Node11</title>
<path fill="none" stroke="midnightblue" d="M371.5,-157.8C371.5,-148.91 371.5,-138.78 371.5,-131.75"/>
<polygon fill="midnightblue" stroke="midnightblue" points="368,-158.08 371.5,-168.08 375,-158.08 368,-158.08"/>
</g>
<!-- Node14 -->
<g id="node14" class="node">
<title>Node14</title>
<g id="a_node14"><a xlink:href="timed_8h.html" target="_top" xlink:title=" ">
<polygon fill="white" stroke="black" points="425.5,-112.5 425.5,-131.5 527.5,-131.5 527.5,-112.5 425.5,-112.5"/>
<text text-anchor="middle" x="476.5" y="-119.5" font-family="Helvetica,sans-Serif" font-size="10.00">protocols/timed.h</text>
</a>
</g>
</g>
<!-- Node8&#45;&gt;Node14 -->
<g id="edge14" class="edge">
<title>Node8&#45;&gt;Node14</title>
<path fill="none" stroke="midnightblue" d="M397.31,-163.73C416.75,-153.73 442.85,-140.31 459.67,-131.65"/>
<polygon fill="midnightblue" stroke="midnightblue" points="395.66,-160.64 388.37,-168.32 398.86,-166.86 395.66,-160.64"/>
</g>
<!-- Node15 -->
<g id="node15" class="node">
<title>Node15</title>
<g id="a_node15"><a xlink:href="sys_2procfs_8h.html" target="_top" xlink:title=" ">
<polygon fill="white" stroke="black" points="546,-112.5 546,-131.5 621,-131.5 621,-112.5 546,-112.5"/>
<text text-anchor="middle" x="583.5" y="-119.5" font-family="Helvetica,sans-Serif" font-size="10.00">sys/procfs.h</text>
</a>
</g>
</g>
<!-- Node8&#45;&gt;Node15 -->
<g id="edge15" class="edge">
<title>Node8&#45;&gt;Node15</title>
<path fill="none" stroke="midnightblue" d="M414.85,-165.96C454.89,-155.76 513.53,-140.82 550.07,-131.52"/>
<polygon fill="midnightblue" stroke="midnightblue" points="413.92,-162.58 405.09,-168.44 415.65,-169.37 413.92,-162.58"/>
</g>
<!-- Node20 -->
<g id="node20" class="node">
<title>Node20</title>
<g id="a_node20"><a xlink:href="profil_8h.html" target="_top" xlink:title=" ">
<polygon fill="white" stroke="black" points="639.5,-112.5 639.5,-131.5 709.5,-131.5 709.5,-112.5 639.5,-112.5"/>
<text text-anchor="middle" x="674.5" y="-119.5" font-family="Helvetica,sans-Serif" font-size="10.00">sys/profil.h</text>
</a>
</g>
</g>
<!-- Node8&#45;&gt;Node20 -->
<g id="edge20" class="edge">
<title>Node8&#45;&gt;Node20</title>
<path fill="none" stroke="midnightblue" d="M416.06,-169.67C467.73,-161.08 555.4,-146.2 630.5,-132 633.41,-131.45 636.43,-130.86 639.45,-130.27"/>
<polygon fill="midnightblue" stroke="midnightblue" points="415.21,-166.27 405.91,-171.36 416.35,-173.17 415.21,-166.27"/>
</g>
<!-- Node21 -->
<g id="node21" class="node">
<title>Node21</title>
<g id="a_node21"><a xlink:href="sys_2timerfd_8h.html" target="_top" xlink:title=" ">
<polygon fill="white" stroke="black" points="728,-112.5 728,-131.5 809,-131.5 809,-112.5 728,-112.5"/>
<text text-anchor="middle" x="768.5" y="-119.5" font-family="Helvetica,sans-Serif" font-size="10.00">sys/timerfd.h</text>
</a>
</g>
</g>
<!-- Node8&#45;&gt;Node21 -->
<g id="edge22" class="edge">
<title>Node8&#45;&gt;Node21</title>
<path fill="none" stroke="midnightblue" d="M415.61,-171.98C481.62,-164.32 609.94,-148.8 718.5,-132 721.55,-131.53 724.7,-131.02 727.87,-130.49"/>
<polygon fill="midnightblue" stroke="midnightblue" points="415.1,-168.52 405.56,-173.15 415.9,-175.47 415.1,-168.52"/>
</g>
<!-- Node9&#45;&gt;Node10 -->
<g id="edge10" class="edge">
<title>Node9&#45;&gt;Node10</title>
<path fill="none" stroke="midnightblue" d="M250.35,-103.27C255.47,-94.05 261.52,-83.17 265.64,-75.75"/>
<polygon fill="midnightblue" stroke="midnightblue" points="247.25,-101.64 245.45,-112.08 253.37,-105.04 247.25,-101.64"/>
</g>
<!-- Node12 -->
<g id="node12" class="node">
<title>Node12</title>
<g id="a_node12"><a xlink:href="utmp_8h.html" target="_top" xlink:title=" ">
<polygon fill="white" stroke="black" points="346,-56.5 346,-75.5 397,-75.5 397,-56.5 346,-56.5"/>
<text text-anchor="middle" x="371.5" y="-63.5" font-family="Helvetica,sans-Serif" font-size="10.00">utmp.h</text>
</a>
</g>
</g>
<!-- Node11&#45;&gt;Node12 -->
<g id="edge12" class="edge">
<title>Node11&#45;&gt;Node12</title>
<path fill="none" stroke="midnightblue" d="M371.5,-101.8C371.5,-92.91 371.5,-82.78 371.5,-75.75"/>
<polygon fill="midnightblue" stroke="midnightblue" points="368,-102.08 371.5,-112.08 375,-102.08 368,-102.08"/>
</g>
<!-- Node13 -->
<g id="node13" class="node">
<title>Node13</title>
<g id="a_node13"><a xlink:href="lastlog_8h.html" target="_top" xlink:title=" ">
<polygon fill="white" stroke="black" points="342,-0.5 342,-19.5 401,-19.5 401,-0.5 342,-0.5"/>
<text text-anchor="middle" x="371.5" y="-7.5" font-family="Helvetica,sans-Serif" font-size="10.00">lastlog.h</text>
</a>
</g>
</g>
<!-- Node12&#45;&gt;Node13 -->
<g id="edge13" class="edge">
<title>Node12&#45;&gt;Node13</title>
<path fill="none" stroke="midnightblue" d="M371.5,-45.8C371.5,-36.91 371.5,-26.78 371.5,-19.75"/>
<polygon fill="midnightblue" stroke="midnightblue" points="368,-46.08 371.5,-56.08 375,-46.08 368,-46.08"/>
</g>
<!-- Node16 -->
<g id="node16" class="node">
<title>Node16</title>
<g id="a_node16"><a xlink:href="proc__service_8h.html" target="_top" xlink:title=" ">
<polygon fill="white" stroke="black" points="450,-56.5 450,-75.5 537,-75.5 537,-56.5 450,-56.5"/>
<text text-anchor="middle" x="493.5" y="-63.5" font-family="Helvetica,sans-Serif" font-size="10.00">proc_service.h</text>
</a>
</g>
</g>
<!-- Node15&#45;&gt;Node16 -->
<g id="edge16" class="edge">
<title>Node15&#45;&gt;Node16</title>
<path fill="none" stroke="midnightblue" d="M560.46,-107.18C543.9,-97.24 522.08,-84.15 507.92,-75.65"/>
<polygon fill="midnightblue" stroke="midnightblue" points="558.66,-110.18 569.04,-112.32 562.27,-104.18 558.66,-110.18"/>
</g>
<!-- Node17 -->
<g id="node17" class="node">
<title>Node17</title>
<g id="a_node17"><a xlink:href="sys_2elf_8h.html" target="_top" xlink:title=" ">
<polygon fill="white" stroke="black" points="555,-56.5 555,-75.5 612,-75.5 612,-56.5 555,-56.5"/>
<text text-anchor="middle" x="583.5" y="-63.5" font-family="Helvetica,sans-Serif" font-size="10.00">sys/elf.h</text>
</a>
</g>
</g>
<!-- Node15&#45;&gt;Node17 -->
<g id="edge17" class="edge">
<title>Node15&#45;&gt;Node17</title>
<path fill="none" stroke="midnightblue" d="M583.5,-101.8C583.5,-92.91 583.5,-82.78 583.5,-75.75"/>
<polygon fill="midnightblue" stroke="midnightblue" points="580,-102.08 583.5,-112.08 587,-102.08 580,-102.08"/>
</g>
<!-- Node19 -->
<g id="node19" class="node">
<title>Node19</title>
<g id="a_node19"><a xlink:href="thread__db_8h.html" target="_top" xlink:title=" ">
<polygon fill="white" stroke="black" points="630.5,-56.5 630.5,-75.5 704.5,-75.5 704.5,-56.5 630.5,-56.5"/>
<text text-anchor="middle" x="667.5" y="-63.5" font-family="Helvetica,sans-Serif" font-size="10.00">thread_db.h</text>
</a>
</g>
</g>
<!-- Node15&#45;&gt;Node19 -->
<g id="edge19" class="edge">
<title>Node15&#45;&gt;Node19</title>
<path fill="none" stroke="midnightblue" d="M605.43,-106.9C620.84,-97 640.95,-84.07 654.04,-75.65"/>
<polygon fill="midnightblue" stroke="midnightblue" points="603.52,-103.97 597,-112.32 607.3,-109.86 603.52,-103.97"/>
</g>
<!-- Node18 -->
<g id="node18" class="node">
<title>Node18</title>
<g id="a_node18"><a xlink:href="auxv_8h.html" target="_top" xlink:title=" ">
<polygon fill="white" stroke="black" points="549.5,-0.5 549.5,-19.5 617.5,-19.5 617.5,-0.5 549.5,-0.5"/>
<text text-anchor="middle" x="583.5" y="-7.5" font-family="Helvetica,sans-Serif" font-size="10.00">sys/auxv.h</text>
</a>
</g>
</g>
<!-- Node17&#45;&gt;Node18 -->
<g id="edge18" class="edge">
<title>Node17&#45;&gt;Node18</title>
<path fill="none" stroke="midnightblue" d="M583.5,-45.8C583.5,-36.91 583.5,-26.78 583.5,-19.75"/>
<polygon fill="midnightblue" stroke="midnightblue" points="580,-46.08 583.5,-56.08 587,-46.08 580,-46.08"/>
</g>
</g>
</svg>
