<?xml version="1.0" encoding="UTF-8" standalone="no"?>
<!DOCTYPE svg PUBLIC "-//W3C//DTD SVG 1.1//EN"
 "http://www.w3.org/Graphics/SVG/1.1/DTD/svg11.dtd">
<!-- Generated by graphviz version 2.44.1 (0)
 -->
<!-- Title: obstack Pages: 1 -->
<svg width="175pt" height="325pt"
 viewBox="0.00 0.00 174.50 325.00" xmlns="http://www.w3.org/2000/svg" xmlns:xlink="http://www.w3.org/1999/xlink">
<g id="graph0" class="graph" transform="scale(1 1) rotate(0) translate(4 321)">
<title>obstack</title>
<polygon fill="white" stroke="transparent" points="-4,4 -4,-321 170.5,-321 170.5,4 -4,4"/>
<!-- Node1 -->
<g id="node1" class="node">
<title>Node1</title>
<g id="a_node1"><a xlink:title=" ">
<polygon fill="#bfbfbf" stroke="black" points="0,-0.5 0,-189.5 134,-189.5 134,-0.5 0,-0.5"/>
<text text-anchor="middle" x="67" y="-177.5" font-family="Helvetica,sans-Serif" font-size="10.00">obstack</text>
<polyline fill="none" stroke="black" points="0,-170.5 134,-170.5 "/>
<text text-anchor="start" x="8" y="-158.5" font-family="Helvetica,sans-Serif" font-size="10.00">+ chunk_size</text>
<text text-anchor="start" x="8" y="-147.5" font-family="Helvetica,sans-Serif" font-size="10.00">+ object_base</text>
<text text-anchor="start" x="8" y="-136.5" font-family="Helvetica,sans-Serif" font-size="10.00">+ next_free</text>
<text text-anchor="start" x="8" y="-125.5" font-family="Helvetica,sans-Serif" font-size="10.00">+ chunk_limit</text>
<text text-anchor="start" x="8" y="-114.5" font-family="Helvetica,sans-Serif" font-size="10.00">+ tempint</text>
<text text-anchor="start" x="8" y="-103.5" font-family="Helvetica,sans-Serif" font-size="10.00">+ tempptr</text>
<text text-anchor="start" x="8" y="-92.5" font-family="Helvetica,sans-Serif" font-size="10.00">+ temp</text>
<text text-anchor="start" x="8" y="-81.5" font-family="Helvetica,sans-Serif" font-size="10.00">+ alignment_mask</text>
<text text-anchor="start" x="8" y="-70.5" font-family="Helvetica,sans-Serif" font-size="10.00">+ freefun</text>
<text text-anchor="start" x="8" y="-59.5" font-family="Helvetica,sans-Serif" font-size="10.00">+ extra_arg</text>
<text text-anchor="start" x="8" y="-48.5" font-family="Helvetica,sans-Serif" font-size="10.00">+ use_extra_arg</text>
<text text-anchor="start" x="8" y="-37.5" font-family="Helvetica,sans-Serif" font-size="10.00">+ maybe_empty_object</text>
<text text-anchor="start" x="8" y="-26.5" font-family="Helvetica,sans-Serif" font-size="10.00">+ alloc_failed</text>
<polyline fill="none" stroke="black" points="0,-19.5 134,-19.5 "/>
<text text-anchor="middle" x="67" y="-7.5" font-family="Helvetica,sans-Serif" font-size="10.00"> </text>
</a>
</g>
</g>
<!-- Node2 -->
<g id="node2" class="node">
<title>Node2</title>
<g id="a_node2"><a xlink:href="struct__obstack__chunk.html" target="_top" xlink:title=" ">
<polygon fill="white" stroke="black" points="19.5,-248.5 19.5,-316.5 114.5,-316.5 114.5,-248.5 19.5,-248.5"/>
<text text-anchor="middle" x="67" y="-304.5" font-family="Helvetica,sans-Serif" font-size="10.00">_obstack_chunk</text>
<polyline fill="none" stroke="black" points="19.5,-297.5 114.5,-297.5 "/>
<text text-anchor="start" x="27.5" y="-285.5" font-family="Helvetica,sans-Serif" font-size="10.00">+ limit</text>
<text text-anchor="start" x="27.5" y="-274.5" font-family="Helvetica,sans-Serif" font-size="10.00">+ contents</text>
<polyline fill="none" stroke="black" points="19.5,-267.5 114.5,-267.5 "/>
<text text-anchor="middle" x="67" y="-255.5" font-family="Helvetica,sans-Serif" font-size="10.00"> </text>
</a>
</g>
</g>
<!-- Node2&#45;&gt;Node1 -->
<g id="edge1" class="edge">
<title>Node2&#45;&gt;Node1</title>
<path fill="none" stroke="#404040" d="M67,-248.34C67,-235 67,-218.82 67,-202.05"/>
<polygon fill="none" stroke="#404040" points="67,-201.76 63,-195.76 67,-189.76 71,-195.76 67,-201.76"/>
<text text-anchor="middle" x="94" y="-222" font-family="Helvetica,sans-Serif" font-size="10.00"> +chunk</text>
<text text-anchor="middle" x="94" y="-211" font-family="Helvetica,sans-Serif" font-size="10.00">+chunkfun</text>
</g>
<!-- Node2&#45;&gt;Node2 -->
<g id="edge2" class="edge">
<title>Node2&#45;&gt;Node2</title>
<path fill="none" stroke="#404040" d="M114.69,-293.78C125.01,-292.68 132.5,-288.92 132.5,-282.5 132.5,-278.99 130.26,-276.28 126.54,-274.35"/>
<polygon fill="none" stroke="#404040" points="126.29,-274.29 119.47,-276.62 114.69,-271.22 121.51,-268.89 126.29,-274.29"/>
<text text-anchor="middle" x="149.5" y="-280" font-family="Helvetica,sans-Serif" font-size="10.00"> +prev</text>
</g>
</g>
</svg>
