<?xml version="1.0" encoding="UTF-8" standalone="no"?>
<!DOCTYPE svg PUBLIC "-//W3C//DTD SVG 1.1//EN"
 "http://www.w3.org/Graphics/SVG/1.1/DTD/svg11.dtd">
<!-- Generated by graphviz version 2.44.1 (0)
 -->
<!-- Title: whod Pages: 1 -->
<svg width="113pt" height="375pt"
 viewBox="0.00 0.00 113.00 375.00" xmlns="http://www.w3.org/2000/svg" xmlns:xlink="http://www.w3.org/1999/xlink">
<g id="graph0" class="graph" transform="scale(1 1) rotate(0) translate(4 371)">
<title>whod</title>
<polygon fill="white" stroke="transparent" points="-4,4 -4,-371 109,-371 109,4 -4,4"/>
<!-- Node1 -->
<g id="node1" class="node">
<title>Node1</title>
<g id="a_node1"><a xlink:title=" ">
<polygon fill="#bfbfbf" stroke="black" points="0,-0.5 0,-134.5 96,-134.5 96,-0.5 0,-0.5"/>
<text text-anchor="middle" x="48" y="-122.5" font-family="Helvetica,sans-Serif" font-size="10.00">whod</text>
<polyline fill="none" stroke="black" points="0,-115.5 96,-115.5 "/>
<text text-anchor="start" x="8" y="-103.5" font-family="Helvetica,sans-Serif" font-size="10.00">+ wd_vers</text>
<text text-anchor="start" x="8" y="-92.5" font-family="Helvetica,sans-Serif" font-size="10.00">+ wd_type</text>
<text text-anchor="start" x="8" y="-81.5" font-family="Helvetica,sans-Serif" font-size="10.00">+ wd_pad</text>
<text text-anchor="start" x="8" y="-70.5" font-family="Helvetica,sans-Serif" font-size="10.00">+ wd_sendtime</text>
<text text-anchor="start" x="8" y="-59.5" font-family="Helvetica,sans-Serif" font-size="10.00">+ wd_recvtime</text>
<text text-anchor="start" x="8" y="-48.5" font-family="Helvetica,sans-Serif" font-size="10.00">+ wd_hostname</text>
<text text-anchor="start" x="8" y="-37.5" font-family="Helvetica,sans-Serif" font-size="10.00">+ wd_loadav</text>
<text text-anchor="start" x="8" y="-26.5" font-family="Helvetica,sans-Serif" font-size="10.00">+ wd_boottime</text>
<polyline fill="none" stroke="black" points="0,-19.5 96,-19.5 "/>
<text text-anchor="middle" x="48" y="-7.5" font-family="Helvetica,sans-Serif" font-size="10.00"> </text>
</a>
</g>
</g>
<!-- Node2 -->
<g id="node2" class="node">
<title>Node2</title>
<g id="a_node2"><a xlink:href="structwhod_1_1whoent.html" target="_top" xlink:title=" ">
<polygon fill="white" stroke="black" points="5.5,-182.5 5.5,-239.5 90.5,-239.5 90.5,-182.5 5.5,-182.5"/>
<text text-anchor="middle" x="48" y="-227.5" font-family="Helvetica,sans-Serif" font-size="10.00">whod::whoent</text>
<polyline fill="none" stroke="black" points="5.5,-220.5 90.5,-220.5 "/>
<text text-anchor="start" x="13.5" y="-208.5" font-family="Helvetica,sans-Serif" font-size="10.00">+ we_idle</text>
<polyline fill="none" stroke="black" points="5.5,-201.5 90.5,-201.5 "/>
<text text-anchor="middle" x="48" y="-189.5" font-family="Helvetica,sans-Serif" font-size="10.00"> </text>
</a>
</g>
</g>
<!-- Node2&#45;&gt;Node1 -->
<g id="edge1" class="edge">
<title>Node2&#45;&gt;Node1</title>
<path fill="none" stroke="#404040" d="M48,-182.38C48,-172.02 48,-159.66 48,-146.97"/>
<polygon fill="none" stroke="#404040" points="48,-146.75 44,-140.75 48,-134.75 52,-140.75 48,-146.75"/>
<text text-anchor="middle" x="71" y="-156" font-family="Helvetica,sans-Serif" font-size="10.00"> +wd_we</text>
</g>
<!-- Node3 -->
<g id="node3" class="node">
<title>Node3</title>
<g id="a_node3"><a xlink:href="structoutmp.html" target="_top" xlink:title=" ">
<polygon fill="white" stroke="black" points="9.5,-287.5 9.5,-366.5 86.5,-366.5 86.5,-287.5 9.5,-287.5"/>
<text text-anchor="middle" x="48" y="-354.5" font-family="Helvetica,sans-Serif" font-size="10.00">outmp</text>
<polyline fill="none" stroke="black" points="9.5,-347.5 86.5,-347.5 "/>
<text text-anchor="start" x="17.5" y="-335.5" font-family="Helvetica,sans-Serif" font-size="10.00">+ out_line</text>
<text text-anchor="start" x="17.5" y="-324.5" font-family="Helvetica,sans-Serif" font-size="10.00">+ out_name</text>
<text text-anchor="start" x="17.5" y="-313.5" font-family="Helvetica,sans-Serif" font-size="10.00">+ out_time</text>
<polyline fill="none" stroke="black" points="9.5,-306.5 86.5,-306.5 "/>
<text text-anchor="middle" x="48" y="-294.5" font-family="Helvetica,sans-Serif" font-size="10.00"> </text>
</a>
</g>
</g>
<!-- Node3&#45;&gt;Node2 -->
<g id="edge2" class="edge">
<title>Node3&#45;&gt;Node2</title>
<path fill="none" stroke="#404040" d="M48,-287.4C48,-275.93 48,-263.33 48,-251.78"/>
<polygon fill="none" stroke="#404040" points="48,-251.75 44,-245.75 48,-239.75 52,-245.75 48,-251.75"/>
<text text-anchor="middle" x="76.5" y="-261" font-family="Helvetica,sans-Serif" font-size="10.00"> +we_utmp</text>
</g>
</g>
</svg>
