<?xml version="1.0" encoding="UTF-8" standalone="no"?>
<!DOCTYPE svg PUBLIC "-//W3C//DTD SVG 1.1//EN"
 "http://www.w3.org/Graphics/SVG/1.1/DTD/svg11.dtd">
<!-- Generated by graphviz version 2.44.1 (0)
 -->
<!-- Title: sys/timerfd.h Pages: 1 -->
<svg width="866pt" height="420pt"
 viewBox="0.00 0.00 866.50 420.00" xmlns="http://www.w3.org/2000/svg" xmlns:xlink="http://www.w3.org/1999/xlink">
<g id="graph0" class="graph" transform="scale(1 1) rotate(0) translate(4 416)">
<title>sys/timerfd.h</title>
<polygon fill="white" stroke="transparent" points="-4,4 -4,-416 862.5,-416 862.5,4 -4,4"/>
<!-- Node1 -->
<g id="node1" class="node">
<title>Node1</title>
<g id="a_node1"><a xlink:title=" ">
<polygon fill="#bfbfbf" stroke="black" points="625.5,-392.5 625.5,-411.5 706.5,-411.5 706.5,-392.5 625.5,-392.5"/>
<text text-anchor="middle" x="666" y="-399.5" font-family="Helvetica,sans-Serif" font-size="10.00">sys/timerfd.h</text>
</a>
</g>
</g>
<!-- Node2 -->
<g id="node2" class="node">
<title>Node2</title>
<g id="a_node2"><a xlink:href="sys_2time_8h.html" target="_top" xlink:title=" ">
<polygon fill="white" stroke="black" points="474,-336.5 474,-355.5 522,-355.5 522,-336.5 474,-336.5"/>
<text text-anchor="middle" x="498" y="-343.5" font-family="Helvetica,sans-Serif" font-size="10.00">time.h</text>
</a>
</g>
</g>
<!-- Node1&#45;&gt;Node2 -->
<g id="edge1" class="edge">
<title>Node1&#45;&gt;Node2</title>
<path fill="none" stroke="midnightblue" d="M639.38,-392.44C610.24,-383.08 563.46,-368.04 531.76,-357.85"/>
<polygon fill="midnightblue" stroke="midnightblue" points="532.63,-354.46 522.04,-354.73 530.49,-361.12 532.63,-354.46"/>
</g>
<!-- Node20 -->
<g id="node20" class="node">
<title>Node20</title>
<g id="a_node20"><a xlink:href="struct__itimerspec_8h.html" target="_top" xlink:title=" ">
<polygon fill="white" stroke="black" points="665.5,-280.5 665.5,-299.5 826.5,-299.5 826.5,-280.5 665.5,-280.5"/>
<text text-anchor="middle" x="746" y="-287.5" font-family="Helvetica,sans-Serif" font-size="10.00">bits/types/struct_itimerspec.h</text>
</a>
</g>
</g>
<!-- Node1&#45;&gt;Node20 -->
<g id="edge28" class="edge">
<title>Node1&#45;&gt;Node20</title>
<path fill="none" stroke="midnightblue" d="M666.95,-392.25C668.74,-379.01 673.64,-353.58 686,-336 694.95,-323.27 708.62,-312.62 720.66,-304.88"/>
<polygon fill="midnightblue" stroke="midnightblue" points="722.71,-307.73 729.43,-299.54 719.07,-301.74 722.71,-307.73"/>
</g>
<!-- Node24 -->
<g id="node24" class="node">
<title>Node24</title>
<g id="a_node24"><a xlink:href="bits_2timerfd_8h.html" target="_top" xlink:title=" ">
<polygon fill="white" stroke="black" points="694.5,-336.5 694.5,-355.5 777.5,-355.5 777.5,-336.5 694.5,-336.5"/>
<text text-anchor="middle" x="736" y="-343.5" font-family="Helvetica,sans-Serif" font-size="10.00">bits/timerfd.h</text>
</a>
</g>
</g>
<!-- Node1&#45;&gt;Node24 -->
<g id="edge34" class="edge">
<title>Node1&#45;&gt;Node24</title>
<path fill="none" stroke="midnightblue" d="M677.24,-392.32C687.79,-384.18 703.8,-371.84 716.44,-362.09"/>
<polygon fill="midnightblue" stroke="midnightblue" points="718.77,-364.71 724.55,-355.83 714.49,-359.17 718.77,-364.71"/>
</g>
<!-- Node3 -->
<g id="node3" class="node">
<title>Node3</title>
<g id="a_node3"><a xlink:href="features_8h.html" target="_top" xlink:title=" ">
<polygon fill="white" stroke="black" points="176,-112.5 176,-131.5 242,-131.5 242,-112.5 176,-112.5"/>
<text text-anchor="middle" x="209" y="-119.5" font-family="Helvetica,sans-Serif" font-size="10.00">features.h</text>
</a>
</g>
</g>
<!-- Node2&#45;&gt;Node3 -->
<g id="edge2" class="edge">
<title>Node2&#45;&gt;Node3</title>
<path fill="none" stroke="midnightblue" d="M473.88,-343.58C385.51,-337.85 81.35,-313.3 20,-244 -2.46,-218.63 -7.1,-194.52 14,-168 32.56,-144.66 113.92,-132.39 165.5,-126.83"/>
<polygon fill="midnightblue" stroke="midnightblue" points="166.12,-130.29 175.71,-125.78 165.4,-123.33 166.12,-130.29"/>
</g>
<!-- Node10 -->
<g id="node10" class="node">
<title>Node10</title>
<g id="a_node10"><a xlink:href="bits_2types_8h.html" target="_top" xlink:title=" ">
<polygon fill="white" stroke="black" points="437,-168.5 437,-187.5 511,-187.5 511,-168.5 437,-168.5"/>
<text text-anchor="middle" x="474" y="-175.5" font-family="Helvetica,sans-Serif" font-size="10.00">bits/types.h</text>
</a>
</g>
</g>
<!-- Node2&#45;&gt;Node10 -->
<g id="edge10" class="edge">
<title>Node2&#45;&gt;Node10</title>
<path fill="none" stroke="midnightblue" d="M519.03,-336.45C561.94,-317.77 652.7,-271.2 618,-224 596.02,-194.1 554.27,-183.52 521.36,-180.02"/>
<polygon fill="midnightblue" stroke="midnightblue" points="521.28,-176.5 511.02,-179.12 520.68,-183.47 521.28,-176.5"/>
</g>
<!-- Node14 -->
<g id="node14" class="node">
<title>Node14</title>
<g id="a_node14"><a xlink:href="time__t_8h.html" target="_top" xlink:title=" ">
<polygon fill="white" stroke="black" points="335,-224.5 335,-243.5 443,-243.5 443,-224.5 335,-224.5"/>
<text text-anchor="middle" x="389" y="-231.5" font-family="Helvetica,sans-Serif" font-size="10.00">bits/types/time_t.h</text>
</a>
</g>
</g>
<!-- Node2&#45;&gt;Node14 -->
<g id="edge16" class="edge">
<title>Node2&#45;&gt;Node14</title>
<path fill="none" stroke="midnightblue" d="M489.44,-336.37C471.14,-317.89 427.93,-274.29 404.6,-250.74"/>
<polygon fill="midnightblue" stroke="midnightblue" points="407.04,-248.23 397.51,-243.59 402.06,-253.16 407.04,-248.23"/>
</g>
<!-- Node15 -->
<g id="node15" class="node">
<title>Node15</title>
<g id="a_node15"><a xlink:href="struct__timeval_8h.html" target="_top" xlink:title=" ">
<polygon fill="white" stroke="black" points="461.5,-224.5 461.5,-243.5 608.5,-243.5 608.5,-224.5 461.5,-224.5"/>
<text text-anchor="middle" x="535" y="-231.5" font-family="Helvetica,sans-Serif" font-size="10.00">bits/types/struct_timeval.h</text>
</a>
</g>
</g>
<!-- Node2&#45;&gt;Node15 -->
<g id="edge18" class="edge">
<title>Node2&#45;&gt;Node15</title>
<path fill="none" stroke="midnightblue" d="M500.9,-336.37C506.9,-318.54 520.77,-277.3 528.85,-253.27"/>
<polygon fill="midnightblue" stroke="midnightblue" points="532.24,-254.19 532.11,-243.59 525.6,-251.95 532.24,-254.19"/>
</g>
<!-- Node16 -->
<g id="node16" class="node">
<title>Node16</title>
<g id="a_node16"><a xlink:href="sys_2select_8h.html" target="_top" xlink:title=" ">
<polygon fill="white" stroke="black" points="270,-280.5 270,-299.5 344,-299.5 344,-280.5 270,-280.5"/>
<text text-anchor="middle" x="307" y="-287.5" font-family="Helvetica,sans-Serif" font-size="10.00">sys/select.h</text>
</a>
</g>
</g>
<!-- Node2&#45;&gt;Node16 -->
<g id="edge20" class="edge">
<title>Node2&#45;&gt;Node16</title>
<path fill="none" stroke="midnightblue" d="M473.81,-338.16C441.92,-329.15 385.4,-313.17 347.08,-302.33"/>
<polygon fill="midnightblue" stroke="midnightblue" points="347.85,-298.91 337.28,-299.56 345.95,-305.65 347.85,-298.91"/>
</g>
<!-- Node4 -->
<g id="node4" class="node">
<title>Node4</title>
<g id="a_node4"><a xlink:href="stdc-predef_8h.html" target="_top" xlink:title=" ">
<polygon fill="white" stroke="black" points="263,-56.5 263,-75.5 343,-75.5 343,-56.5 263,-56.5"/>
<text text-anchor="middle" x="303" y="-63.5" font-family="Helvetica,sans-Serif" font-size="10.00">stdc&#45;predef.h</text>
</a>
</g>
</g>
<!-- Node3&#45;&gt;Node4 -->
<g id="edge3" class="edge">
<title>Node3&#45;&gt;Node4</title>
<path fill="none" stroke="midnightblue" d="M224.1,-112.32C238.9,-103.82 261.69,-90.73 278.98,-80.8"/>
<polygon fill="midnightblue" stroke="midnightblue" points="281,-83.67 287.93,-75.65 277.52,-77.6 281,-83.67"/>
</g>
<!-- Node5 -->
<g id="node5" class="node">
<title>Node5</title>
<g id="a_node5"><a xlink:href="cdefs_8h.html" target="_top" xlink:title=" ">
<polygon fill="white" stroke="black" points="173.5,-56.5 173.5,-75.5 244.5,-75.5 244.5,-56.5 173.5,-56.5"/>
<text text-anchor="middle" x="209" y="-63.5" font-family="Helvetica,sans-Serif" font-size="10.00">sys/cdefs.h</text>
</a>
</g>
</g>
<!-- Node3&#45;&gt;Node5 -->
<g id="edge4" class="edge">
<title>Node3&#45;&gt;Node5</title>
<path fill="none" stroke="midnightblue" d="M203.83,-112.08C202.32,-104.93 201.89,-94.64 202.54,-85.69"/>
<polygon fill="midnightblue" stroke="midnightblue" points="206.01,-86.13 203.87,-75.75 199.07,-85.2 206.01,-86.13"/>
</g>
<!-- Node8 -->
<g id="node8" class="node">
<title>Node8</title>
<g id="a_node8"><a xlink:href="stubs_8h.html" target="_top" xlink:title=" ">
<polygon fill="white" stroke="black" points="76.5,-56.5 76.5,-75.5 149.5,-75.5 149.5,-56.5 76.5,-56.5"/>
<text text-anchor="middle" x="113" y="-63.5" font-family="Helvetica,sans-Serif" font-size="10.00">gnu/stubs.h</text>
</a>
</g>
</g>
<!-- Node3&#45;&gt;Node8 -->
<g id="edge8" class="edge">
<title>Node3&#45;&gt;Node8</title>
<path fill="none" stroke="midnightblue" d="M193.57,-112.32C178.46,-103.82 155.18,-90.73 137.53,-80.8"/>
<polygon fill="midnightblue" stroke="midnightblue" points="138.81,-77.51 128.38,-75.65 135.38,-83.61 138.81,-77.51"/>
</g>
<!-- Node5&#45;&gt;Node3 -->
<g id="edge5" class="edge">
<title>Node5&#45;&gt;Node3</title>
<path fill="none" stroke="midnightblue" d="M214.13,-75.75C215.65,-82.86 216.1,-93.14 215.47,-102.1"/>
<polygon fill="midnightblue" stroke="midnightblue" points="211.99,-101.71 214.16,-112.08 218.93,-102.62 211.99,-101.71"/>
</g>
<!-- Node6 -->
<g id="node6" class="node">
<title>Node6</title>
<g id="a_node6"><a xlink:href="wordsize_8h.html" target="_top" xlink:title=" ">
<polygon fill="white" stroke="black" points="321,-0.5 321,-19.5 411,-19.5 411,-0.5 321,-0.5"/>
<text text-anchor="middle" x="366" y="-7.5" font-family="Helvetica,sans-Serif" font-size="10.00">bits/wordsize.h</text>
</a>
</g>
</g>
<!-- Node5&#45;&gt;Node6 -->
<g id="edge6" class="edge">
<title>Node5&#45;&gt;Node6</title>
<path fill="none" stroke="midnightblue" d="M233.87,-56.44C260.29,-47.36 302.21,-32.94 331.74,-22.78"/>
<polygon fill="midnightblue" stroke="midnightblue" points="332.92,-26.08 341.24,-19.52 330.64,-19.46 332.92,-26.08"/>
</g>
<!-- Node7 -->
<g id="node7" class="node">
<title>Node7</title>
<g id="a_node7"><a xlink:href="long-double_8h.html" target="_top" xlink:title=" ">
<polygon fill="white" stroke="black" points="164,-0.5 164,-19.5 268,-19.5 268,-0.5 164,-0.5"/>
<text text-anchor="middle" x="216" y="-7.5" font-family="Helvetica,sans-Serif" font-size="10.00">bits/long&#45;double.h</text>
</a>
</g>
</g>
<!-- Node5&#45;&gt;Node7 -->
<g id="edge7" class="edge">
<title>Node5&#45;&gt;Node7</title>
<path fill="none" stroke="midnightblue" d="M210.15,-56.08C211.08,-48.93 212.41,-38.64 213.57,-29.69"/>
<polygon fill="midnightblue" stroke="midnightblue" points="217.05,-30.12 214.86,-19.75 210.11,-29.22 217.05,-30.12"/>
</g>
<!-- Node9 -->
<g id="node9" class="node">
<title>Node9</title>
<g id="a_node9"><a xlink:title=" ">
<polygon fill="white" stroke="#bfbfbf" points="56.5,-0.5 56.5,-19.5 145.5,-19.5 145.5,-0.5 56.5,-0.5"/>
<text text-anchor="middle" x="101" y="-7.5" font-family="Helvetica,sans-Serif" font-size="10.00">gnu/stubs&#45;32.h</text>
</a>
</g>
</g>
<!-- Node8&#45;&gt;Node9 -->
<g id="edge9" class="edge">
<title>Node8&#45;&gt;Node9</title>
<path fill="none" stroke="midnightblue" d="M111.02,-56.08C109.43,-48.93 107.14,-38.64 105.15,-29.69"/>
<polygon fill="midnightblue" stroke="midnightblue" points="108.53,-28.75 102.94,-19.75 101.69,-30.27 108.53,-28.75"/>
</g>
<!-- Node10&#45;&gt;Node3 -->
<g id="edge11" class="edge">
<title>Node10&#45;&gt;Node3</title>
<path fill="none" stroke="midnightblue" d="M436.87,-169.43C388.36,-159.55 303.58,-142.27 252.23,-131.81"/>
<polygon fill="midnightblue" stroke="midnightblue" points="252.61,-128.32 242.11,-129.75 251.21,-135.17 252.61,-128.32"/>
</g>
<!-- Node10&#45;&gt;Node6 -->
<g id="edge12" class="edge">
<title>Node10&#45;&gt;Node6</title>
<path fill="none" stroke="midnightblue" d="M460.79,-168.33C449.1,-160.11 432.2,-146.83 421,-132 396.41,-99.44 379.55,-54.13 371.47,-29.22"/>
<polygon fill="midnightblue" stroke="midnightblue" points="374.79,-28.1 368.46,-19.6 368.11,-30.19 374.79,-28.1"/>
</g>
<!-- Node11 -->
<g id="node11" class="node">
<title>Node11</title>
<g id="a_node11"><a xlink:href="timesize_8h.html" target="_top" xlink:title=" ">
<polygon fill="white" stroke="black" points="429.5,-112.5 429.5,-131.5 518.5,-131.5 518.5,-112.5 429.5,-112.5"/>
<text text-anchor="middle" x="474" y="-119.5" font-family="Helvetica,sans-Serif" font-size="10.00">bits/timesize.h</text>
</a>
</g>
</g>
<!-- Node10&#45;&gt;Node11 -->
<g id="edge13" class="edge">
<title>Node10&#45;&gt;Node11</title>
<path fill="none" stroke="midnightblue" d="M474,-168.08C474,-161.01 474,-150.86 474,-141.99"/>
<polygon fill="midnightblue" stroke="midnightblue" points="477.5,-141.75 474,-131.75 470.5,-141.75 477.5,-141.75"/>
</g>
<!-- Node12 -->
<g id="node12" class="node">
<title>Node12</title>
<g id="a_node12"><a xlink:href="typesizes_8h.html" target="_top" xlink:title=" ">
<polygon fill="white" stroke="black" points="536.5,-112.5 536.5,-131.5 629.5,-131.5 629.5,-112.5 536.5,-112.5"/>
<text text-anchor="middle" x="583" y="-119.5" font-family="Helvetica,sans-Serif" font-size="10.00">bits/typesizes.h</text>
</a>
</g>
</g>
<!-- Node10&#45;&gt;Node12 -->
<g id="edge14" class="edge">
<title>Node10&#45;&gt;Node12</title>
<path fill="none" stroke="midnightblue" d="M491.51,-168.32C509.07,-159.62 536.33,-146.12 556.53,-136.11"/>
<polygon fill="midnightblue" stroke="midnightblue" points="558.12,-139.23 565.53,-131.65 555.01,-132.96 558.12,-139.23"/>
</g>
<!-- Node13 -->
<g id="node13" class="node">
<title>Node13</title>
<g id="a_node13"><a xlink:href="time64_8h.html" target="_top" xlink:title=" ">
<polygon fill="white" stroke="black" points="291.5,-112.5 291.5,-131.5 372.5,-131.5 372.5,-112.5 291.5,-112.5"/>
<text text-anchor="middle" x="332" y="-119.5" font-family="Helvetica,sans-Serif" font-size="10.00">bits/time64.h</text>
</a>
</g>
</g>
<!-- Node10&#45;&gt;Node13 -->
<g id="edge15" class="edge">
<title>Node10&#45;&gt;Node13</title>
<path fill="none" stroke="midnightblue" d="M451.5,-168.44C427.92,-159.48 390.67,-145.31 364.03,-135.18"/>
<polygon fill="midnightblue" stroke="midnightblue" points="364.98,-131.8 354.39,-131.52 362.49,-138.34 364.98,-131.8"/>
</g>
<!-- Node14&#45;&gt;Node10 -->
<g id="edge17" class="edge">
<title>Node14&#45;&gt;Node10</title>
<path fill="none" stroke="midnightblue" d="M402.65,-224.32C415.91,-215.9 436.27,-202.97 451.84,-193.07"/>
<polygon fill="midnightblue" stroke="midnightblue" points="453.81,-195.97 460.37,-187.65 450.06,-190.06 453.81,-195.97"/>
</g>
<!-- Node15&#45;&gt;Node10 -->
<g id="edge19" class="edge">
<title>Node15&#45;&gt;Node10</title>
<path fill="none" stroke="midnightblue" d="M525.2,-224.32C516.18,-216.34 502.59,-204.31 491.68,-194.65"/>
<polygon fill="midnightblue" stroke="midnightblue" points="493.78,-191.84 483.98,-187.83 489.14,-197.08 493.78,-191.84"/>
</g>
<!-- Node16&#45;&gt;Node3 -->
<g id="edge21" class="edge">
<title>Node16&#45;&gt;Node3</title>
<path fill="none" stroke="midnightblue" d="M269.74,-284.94C243.75,-279.95 210.83,-268.82 194,-244 172.7,-212.59 188.59,-165.82 200.03,-140.62"/>
<polygon fill="midnightblue" stroke="midnightblue" points="203.22,-142.06 204.39,-131.53 196.91,-139.03 203.22,-142.06"/>
</g>
<!-- Node16&#45;&gt;Node10 -->
<g id="edge22" class="edge">
<title>Node16&#45;&gt;Node10</title>
<path fill="none" stroke="midnightblue" d="M307.05,-280.12C307.62,-266.23 310.78,-239.38 326,-224 352.41,-197.3 394.14,-186.34 426.57,-181.89"/>
<polygon fill="midnightblue" stroke="midnightblue" points="427.23,-185.34 436.73,-180.67 426.39,-178.39 427.23,-185.34"/>
</g>
<!-- Node16&#45;&gt;Node14 -->
<g id="edge26" class="edge">
<title>Node16&#45;&gt;Node14</title>
<path fill="none" stroke="midnightblue" d="M320.17,-280.32C332.84,-271.98 352.23,-259.21 367.2,-249.35"/>
<polygon fill="midnightblue" stroke="midnightblue" points="369.43,-252.08 375.85,-243.65 365.58,-246.23 369.43,-252.08"/>
</g>
<!-- Node16&#45;&gt;Node15 -->
<g id="edge27" class="edge">
<title>Node16&#45;&gt;Node15</title>
<path fill="none" stroke="midnightblue" d="M343.12,-280.44C382.65,-271.08 446.09,-256.06 489.11,-245.87"/>
<polygon fill="midnightblue" stroke="midnightblue" points="490.11,-249.23 499.04,-243.52 488.5,-242.42 490.11,-249.23"/>
</g>
<!-- Node17 -->
<g id="node17" class="node">
<title>Node17</title>
<g id="a_node17"><a xlink:href="bits_2select_8h.html" target="_top" xlink:title=" ">
<polygon fill="white" stroke="black" points="203,-224.5 203,-243.5 279,-243.5 279,-224.5 203,-224.5"/>
<text text-anchor="middle" x="241" y="-231.5" font-family="Helvetica,sans-Serif" font-size="10.00">bits/select.h</text>
</a>
</g>
</g>
<!-- Node16&#45;&gt;Node17 -->
<g id="edge23" class="edge">
<title>Node16&#45;&gt;Node17</title>
<path fill="none" stroke="midnightblue" d="M296.39,-280.32C286.54,-272.26 271.65,-260.08 259.78,-250.37"/>
<polygon fill="midnightblue" stroke="midnightblue" points="261.75,-247.46 251.79,-243.83 257.32,-252.88 261.75,-247.46"/>
</g>
<!-- Node18 -->
<g id="node18" class="node">
<title>Node18</title>
<g id="a_node18"><a xlink:href="sigset__t_8h.html" target="_top" xlink:title=" ">
<polygon fill="white" stroke="black" points="29.5,-224.5 29.5,-243.5 144.5,-243.5 144.5,-224.5 29.5,-224.5"/>
<text text-anchor="middle" x="87" y="-231.5" font-family="Helvetica,sans-Serif" font-size="10.00">bits/types/sigset_t.h</text>
</a>
</g>
</g>
<!-- Node16&#45;&gt;Node18 -->
<g id="edge24" class="edge">
<title>Node16&#45;&gt;Node18</title>
<path fill="none" stroke="midnightblue" d="M272.14,-280.44C234.08,-271.1 173.04,-256.12 131.54,-245.93"/>
<polygon fill="midnightblue" stroke="midnightblue" points="132.24,-242.5 121.69,-243.52 130.57,-249.3 132.24,-242.5"/>
</g>
<!-- Node19 -->
<g id="node19" class="node">
<title>Node19</title>
<g id="a_node19"><a xlink:href="____sigset__t_8h.html" target="_top" xlink:title=" ">
<polygon fill="white" stroke="black" points="23.5,-168.5 23.5,-187.5 148.5,-187.5 148.5,-168.5 23.5,-168.5"/>
<text text-anchor="middle" x="86" y="-175.5" font-family="Helvetica,sans-Serif" font-size="10.00">bits/types/__sigset_t.h</text>
</a>
</g>
</g>
<!-- Node18&#45;&gt;Node19 -->
<g id="edge25" class="edge">
<title>Node18&#45;&gt;Node19</title>
<path fill="none" stroke="midnightblue" d="M86.83,-224.08C86.7,-217.01 86.51,-206.86 86.35,-197.99"/>
<polygon fill="midnightblue" stroke="midnightblue" points="89.84,-197.68 86.16,-187.75 82.84,-197.81 89.84,-197.68"/>
</g>
<!-- Node20&#45;&gt;Node10 -->
<g id="edge29" class="edge">
<title>Node20&#45;&gt;Node10</title>
<path fill="none" stroke="midnightblue" d="M735.9,-280.29C719.3,-266.39 684.69,-239.23 651,-224 609.01,-205.02 557.65,-193.09 521.09,-186.32"/>
<polygon fill="midnightblue" stroke="midnightblue" points="521.65,-182.86 511.19,-184.54 520.41,-189.75 521.65,-182.86"/>
</g>
<!-- Node21 -->
<g id="node21" class="node">
<title>Node21</title>
<g id="a_node21"><a xlink:href="struct__timespec_8h.html" target="_top" xlink:title=" ">
<polygon fill="white" stroke="black" points="703.5,-224.5 703.5,-243.5 858.5,-243.5 858.5,-224.5 703.5,-224.5"/>
<text text-anchor="middle" x="781" y="-231.5" font-family="Helvetica,sans-Serif" font-size="10.00">bits/types/struct_timespec.h</text>
</a>
</g>
</g>
<!-- Node20&#45;&gt;Node21 -->
<g id="edge30" class="edge">
<title>Node20&#45;&gt;Node21</title>
<path fill="none" stroke="midnightblue" d="M751.78,-280.08C756.67,-272.53 763.82,-261.49 769.83,-252.23"/>
<polygon fill="midnightblue" stroke="midnightblue" points="772.82,-254.05 775.33,-243.75 766.95,-250.24 772.82,-254.05"/>
</g>
<!-- Node21&#45;&gt;Node10 -->
<g id="edge31" class="edge">
<title>Node21&#45;&gt;Node10</title>
<path fill="none" stroke="midnightblue" d="M732.35,-224.44C674.45,-214.26 578.43,-197.37 521.19,-187.3"/>
<polygon fill="midnightblue" stroke="midnightblue" points="521.76,-183.85 511.31,-185.56 520.55,-190.74 521.76,-183.85"/>
</g>
<!-- Node22 -->
<g id="node22" class="node">
<title>Node22</title>
<g id="a_node22"><a xlink:href="bits_2endian_8h.html" target="_top" xlink:title=" ">
<polygon fill="white" stroke="black" points="741,-168.5 741,-187.5 821,-187.5 821,-168.5 741,-168.5"/>
<text text-anchor="middle" x="781" y="-175.5" font-family="Helvetica,sans-Serif" font-size="10.00">bits/endian.h</text>
</a>
</g>
</g>
<!-- Node21&#45;&gt;Node22 -->
<g id="edge32" class="edge">
<title>Node21&#45;&gt;Node22</title>
<path fill="none" stroke="midnightblue" d="M781,-224.08C781,-217.01 781,-206.86 781,-197.99"/>
<polygon fill="midnightblue" stroke="midnightblue" points="784.5,-197.75 781,-187.75 777.5,-197.75 784.5,-197.75"/>
</g>
<!-- Node23 -->
<g id="node23" class="node">
<title>Node23</title>
<g id="a_node23"><a xlink:href="endianness_8h.html" target="_top" xlink:title=" ">
<polygon fill="white" stroke="black" points="730,-112.5 730,-131.5 832,-131.5 832,-112.5 730,-112.5"/>
<text text-anchor="middle" x="781" y="-119.5" font-family="Helvetica,sans-Serif" font-size="10.00">bits/endianness.h</text>
</a>
</g>
</g>
<!-- Node22&#45;&gt;Node23 -->
<g id="edge33" class="edge">
<title>Node22&#45;&gt;Node23</title>
<path fill="none" stroke="midnightblue" d="M781,-168.08C781,-161.01 781,-150.86 781,-141.99"/>
<polygon fill="midnightblue" stroke="midnightblue" points="784.5,-141.75 781,-131.75 777.5,-141.75 784.5,-141.75"/>
</g>
</g>
</svg>
