<?xml version="1.0" encoding="UTF-8" standalone="no"?>
<!DOCTYPE svg PUBLIC "-//W3C//DTD SVG 1.1//EN"
 "http://www.w3.org/Graphics/SVG/1.1/DTD/svg11.dtd">
<!-- Generated by graphviz version 2.44.1 (0)
 -->
<!-- Title: sys/fcntl.h Pages: 1 -->
<svg width="93pt" height="28pt"
 viewBox="0.00 0.00 93.00 28.00" xmlns="http://www.w3.org/2000/svg" xmlns:xlink="http://www.w3.org/1999/xlink">
<g id="graph0" class="graph" transform="scale(1 1) rotate(0) translate(4 24)">
<title>sys/fcntl.h</title>
<polygon fill="white" stroke="transparent" points="-4,4 -4,-24 89,-24 89,4 -4,4"/>
<!-- Node1 -->
<g id="node1" class="node">
<title>Node1</title>
<g id="a_node1"><a xlink:title=" ">
<polygon fill="#bfbfbf" stroke="black" points="0,-0.5 0,-19.5 67,-19.5 67,-0.5 0,-0.5"/>
<text text-anchor="middle" x="33.5" y="-7.5" font-family="Helvetica,sans-Serif" font-size="10.00">sys/fcntl.h</text>
</a>
</g>
</g>
<!-- Node1&#45;&gt;Node1 -->
<g id="edge1" class="edge">
<title>Node1&#45;&gt;Node1</title>
<path fill="none" stroke="midnightblue" d="M67.18,-13.74C77.2,-13.63 85,-12.38 85,-10 85,-8.51 81.95,-7.47 77.22,-6.86"/>
<polygon fill="midnightblue" stroke="midnightblue" points="77.37,-3.37 67.18,-6.26 76.95,-10.35 77.37,-3.37"/>
</g>
</g>
</svg>
