<?xml version="1.0" encoding="UTF-8" standalone="no"?>
<!DOCTYPE svg PUBLIC "-//W3C//DTD SVG 1.1//EN"
 "http://www.w3.org/Graphics/SVG/1.1/DTD/svg11.dtd">
<!-- Generated by graphviz version 2.44.1 (0)
 -->
<!-- Title: sys/elf.h Pages: 1 -->
<svg width="1224pt" height="476pt"
 viewBox="0.00 0.00 1224.00 476.00" xmlns="http://www.w3.org/2000/svg" xmlns:xlink="http://www.w3.org/1999/xlink">
<g id="graph0" class="graph" transform="scale(1 1) rotate(0) translate(4 472)">
<title>sys/elf.h</title>
<polygon fill="white" stroke="transparent" points="-4,4 -4,-472 1220,-472 1220,4 -4,4"/>
<!-- Node1 -->
<g id="node1" class="node">
<title>Node1</title>
<g id="a_node1"><a xlink:title=" ">
<polygon fill="#bfbfbf" stroke="black" points="582.5,-448.5 582.5,-467.5 639.5,-467.5 639.5,-448.5 582.5,-448.5"/>
<text text-anchor="middle" x="611" y="-455.5" font-family="Helvetica,sans-Serif" font-size="10.00">sys/elf.h</text>
</a>
</g>
</g>
<!-- Node2 -->
<g id="node2" class="node">
<title>Node2</title>
<g id="a_node2"><a xlink:href="sys_2procfs_8h.html" target="_top" xlink:title=" ">
<polygon fill="white" stroke="black" points="573.5,-392.5 573.5,-411.5 648.5,-411.5 648.5,-392.5 573.5,-392.5"/>
<text text-anchor="middle" x="611" y="-399.5" font-family="Helvetica,sans-Serif" font-size="10.00">sys/procfs.h</text>
</a>
</g>
</g>
<!-- Node1&#45;&gt;Node2 -->
<g id="edge1" class="edge">
<title>Node1&#45;&gt;Node2</title>
<path fill="none" stroke="midnightblue" d="M611,-448.08C611,-441.01 611,-430.86 611,-421.99"/>
<polygon fill="midnightblue" stroke="midnightblue" points="614.5,-421.75 611,-411.75 607.5,-421.75 614.5,-421.75"/>
</g>
<!-- Node3 -->
<g id="node3" class="node">
<title>Node3</title>
<g id="a_node3"><a xlink:href="features_8h.html" target="_top" xlink:title=" ">
<polygon fill="white" stroke="black" points="333,-112.5 333,-131.5 399,-131.5 399,-112.5 333,-112.5"/>
<text text-anchor="middle" x="366" y="-119.5" font-family="Helvetica,sans-Serif" font-size="10.00">features.h</text>
</a>
</g>
</g>
<!-- Node2&#45;&gt;Node3 -->
<g id="edge2" class="edge">
<title>Node2&#45;&gt;Node3</title>
<path fill="none" stroke="midnightblue" d="M573.24,-398.23C440.03,-387.94 0,-349.54 0,-291 0,-291 0,-291 0,-233 0,-198.84 12.3,-186.51 41,-168 86.66,-138.55 244.76,-128 322.35,-124.54"/>
<polygon fill="midnightblue" stroke="midnightblue" points="322.91,-128.02 332.75,-124.1 322.61,-121.03 322.91,-128.02"/>
</g>
<!-- Node10 -->
<g id="node10" class="node">
<title>Node10</title>
<g id="a_node10"><a xlink:href="sys_2time_8h.html" target="_top" xlink:title=" ">
<polygon fill="white" stroke="black" points="410,-336.5 410,-355.5 478,-355.5 478,-336.5 410,-336.5"/>
<text text-anchor="middle" x="444" y="-343.5" font-family="Helvetica,sans-Serif" font-size="10.00">sys/time.h</text>
</a>
</g>
</g>
<!-- Node2&#45;&gt;Node10 -->
<g id="edge10" class="edge">
<title>Node2&#45;&gt;Node10</title>
<path fill="none" stroke="midnightblue" d="M584.54,-392.44C556.32,-383.32 511.46,-368.81 480.03,-358.65"/>
<polygon fill="midnightblue" stroke="midnightblue" points="480.93,-355.26 470.34,-355.52 478.78,-361.92 480.93,-355.26"/>
</g>
<!-- Node21 -->
<g id="node21" class="node">
<title>Node21</title>
<g id="a_node21"><a xlink:href="sys_2types_8h.html" target="_top" xlink:title=" ">
<polygon fill="white" stroke="black" points="809,-280.5 809,-299.5 881,-299.5 881,-280.5 809,-280.5"/>
<text text-anchor="middle" x="845" y="-287.5" font-family="Helvetica,sans-Serif" font-size="10.00">sys/types.h</text>
</a>
</g>
</g>
<!-- Node2&#45;&gt;Node21 -->
<g id="edge30" class="edge">
<title>Node2&#45;&gt;Node21</title>
<path fill="none" stroke="midnightblue" d="M583.06,-392.49C550.88,-381.29 504.98,-360.19 526,-336 543.63,-315.71 714.65,-300.52 798.76,-294.21"/>
<polygon fill="midnightblue" stroke="midnightblue" points="799.1,-297.69 808.82,-293.47 798.59,-290.71 799.1,-297.69"/>
</g>
<!-- Node26 -->
<g id="node26" class="node">
<title>Node26</title>
<g id="a_node26"><a xlink:href="user_8h.html" target="_top" xlink:title=" ">
<polygon fill="white" stroke="black" points="534.5,-336.5 534.5,-355.5 599.5,-355.5 599.5,-336.5 534.5,-336.5"/>
<text text-anchor="middle" x="567" y="-343.5" font-family="Helvetica,sans-Serif" font-size="10.00">sys/user.h</text>
</a>
</g>
</g>
<!-- Node2&#45;&gt;Node26 -->
<g id="edge41" class="edge">
<title>Node2&#45;&gt;Node26</title>
<path fill="none" stroke="midnightblue" d="M603.73,-392.08C597.46,-384.38 588.21,-373.03 580.57,-363.65"/>
<polygon fill="midnightblue" stroke="midnightblue" points="583.16,-361.29 574.13,-355.75 577.73,-365.71 583.16,-361.29"/>
</g>
<!-- Node27 -->
<g id="node27" class="node">
<title>Node27</title>
<g id="a_node27"><a xlink:href="bits_2procfs_8h.html" target="_top" xlink:title=" ">
<polygon fill="white" stroke="black" points="617.5,-336.5 617.5,-355.5 694.5,-355.5 694.5,-336.5 617.5,-336.5"/>
<text text-anchor="middle" x="656" y="-343.5" font-family="Helvetica,sans-Serif" font-size="10.00">bits/procfs.h</text>
</a>
</g>
</g>
<!-- Node2&#45;&gt;Node27 -->
<g id="edge42" class="edge">
<title>Node2&#45;&gt;Node27</title>
<path fill="none" stroke="midnightblue" d="M618.43,-392.08C624.85,-384.38 634.31,-373.03 642.12,-363.65"/>
<polygon fill="midnightblue" stroke="midnightblue" points="644.99,-365.67 648.71,-355.75 639.62,-361.19 644.99,-365.67"/>
</g>
<!-- Node28 -->
<g id="node28" class="node">
<title>Node28</title>
<g id="a_node28"><a xlink:href="procfs-id_8h.html" target="_top" xlink:title=" ">
<polygon fill="white" stroke="black" points="712.5,-336.5 712.5,-355.5 801.5,-355.5 801.5,-336.5 712.5,-336.5"/>
<text text-anchor="middle" x="757" y="-343.5" font-family="Helvetica,sans-Serif" font-size="10.00">bits/procfs&#45;id.h</text>
</a>
</g>
</g>
<!-- Node2&#45;&gt;Node28 -->
<g id="edge43" class="edge">
<title>Node2&#45;&gt;Node28</title>
<path fill="none" stroke="midnightblue" d="M634.13,-392.44C658.48,-383.44 697.01,-369.19 724.42,-359.05"/>
<polygon fill="midnightblue" stroke="midnightblue" points="725.81,-362.27 733.97,-355.52 723.38,-355.7 725.81,-362.27"/>
</g>
<!-- Node29 -->
<g id="node29" class="node">
<title>Node29</title>
<g id="a_node29"><a xlink:href="procfs-prregset_8h.html" target="_top" xlink:title=" ">
<polygon fill="white" stroke="black" points="819.5,-336.5 819.5,-355.5 940.5,-355.5 940.5,-336.5 819.5,-336.5"/>
<text text-anchor="middle" x="880" y="-343.5" font-family="Helvetica,sans-Serif" font-size="10.00">bits/procfs&#45;prregset.h</text>
</a>
</g>
</g>
<!-- Node2&#45;&gt;Node29 -->
<g id="edge44" class="edge">
<title>Node2&#45;&gt;Node29</title>
<path fill="none" stroke="midnightblue" d="M648.69,-393.43C695.28,-384.08 774.85,-368.11 827.43,-357.55"/>
<polygon fill="midnightblue" stroke="midnightblue" points="828.13,-360.98 837.24,-355.58 826.75,-354.12 828.13,-360.98"/>
</g>
<!-- Node30 -->
<g id="node30" class="node">
<title>Node30</title>
<g id="a_node30"><a xlink:href="procfs-extra_8h.html" target="_top" xlink:title=" ">
<polygon fill="white" stroke="black" points="959,-336.5 959,-355.5 1065,-355.5 1065,-336.5 959,-336.5"/>
<text text-anchor="middle" x="1012" y="-343.5" font-family="Helvetica,sans-Serif" font-size="10.00">bits/procfs&#45;extra.h</text>
</a>
</g>
</g>
<!-- Node2&#45;&gt;Node30 -->
<g id="edge45" class="edge">
<title>Node2&#45;&gt;Node30</title>
<path fill="none" stroke="midnightblue" d="M648.64,-396.16C709.46,-388.3 833.35,-372.15 948.83,-356.15"/>
<polygon fill="midnightblue" stroke="midnightblue" points="949.48,-359.59 958.91,-354.75 948.52,-352.66 949.48,-359.59"/>
</g>
<!-- Node4 -->
<g id="node4" class="node">
<title>Node4</title>
<g id="a_node4"><a xlink:href="stdc-predef_8h.html" target="_top" xlink:title=" ">
<polygon fill="white" stroke="black" points="420,-56.5 420,-75.5 500,-75.5 500,-56.5 420,-56.5"/>
<text text-anchor="middle" x="460" y="-63.5" font-family="Helvetica,sans-Serif" font-size="10.00">stdc&#45;predef.h</text>
</a>
</g>
</g>
<!-- Node3&#45;&gt;Node4 -->
<g id="edge3" class="edge">
<title>Node3&#45;&gt;Node4</title>
<path fill="none" stroke="midnightblue" d="M381.1,-112.32C395.9,-103.82 418.69,-90.73 435.98,-80.8"/>
<polygon fill="midnightblue" stroke="midnightblue" points="438.01,-83.67 444.93,-75.65 434.52,-77.6 438.01,-83.67"/>
</g>
<!-- Node5 -->
<g id="node5" class="node">
<title>Node5</title>
<g id="a_node5"><a xlink:href="cdefs_8h.html" target="_top" xlink:title=" ">
<polygon fill="white" stroke="black" points="330.5,-56.5 330.5,-75.5 401.5,-75.5 401.5,-56.5 330.5,-56.5"/>
<text text-anchor="middle" x="366" y="-63.5" font-family="Helvetica,sans-Serif" font-size="10.00">sys/cdefs.h</text>
</a>
</g>
</g>
<!-- Node3&#45;&gt;Node5 -->
<g id="edge4" class="edge">
<title>Node3&#45;&gt;Node5</title>
<path fill="none" stroke="midnightblue" d="M360.83,-112.08C359.32,-104.93 358.89,-94.64 359.54,-85.69"/>
<polygon fill="midnightblue" stroke="midnightblue" points="363.02,-86.13 360.87,-75.75 356.08,-85.2 363.02,-86.13"/>
</g>
<!-- Node8 -->
<g id="node8" class="node">
<title>Node8</title>
<g id="a_node8"><a xlink:href="stubs_8h.html" target="_top" xlink:title=" ">
<polygon fill="white" stroke="black" points="233.5,-56.5 233.5,-75.5 306.5,-75.5 306.5,-56.5 233.5,-56.5"/>
<text text-anchor="middle" x="270" y="-63.5" font-family="Helvetica,sans-Serif" font-size="10.00">gnu/stubs.h</text>
</a>
</g>
</g>
<!-- Node3&#45;&gt;Node8 -->
<g id="edge8" class="edge">
<title>Node3&#45;&gt;Node8</title>
<path fill="none" stroke="midnightblue" d="M350.58,-112.32C335.46,-103.82 312.18,-90.73 294.53,-80.8"/>
<polygon fill="midnightblue" stroke="midnightblue" points="295.82,-77.51 285.39,-75.65 292.39,-83.61 295.82,-77.51"/>
</g>
<!-- Node5&#45;&gt;Node3 -->
<g id="edge5" class="edge">
<title>Node5&#45;&gt;Node3</title>
<path fill="none" stroke="midnightblue" d="M371.13,-75.75C372.66,-82.86 373.1,-93.14 372.47,-102.1"/>
<polygon fill="midnightblue" stroke="midnightblue" points="368.99,-101.71 371.17,-112.08 375.93,-102.62 368.99,-101.71"/>
</g>
<!-- Node6 -->
<g id="node6" class="node">
<title>Node6</title>
<g id="a_node6"><a xlink:href="wordsize_8h.html" target="_top" xlink:title=" ">
<polygon fill="white" stroke="black" points="602,-0.5 602,-19.5 692,-19.5 692,-0.5 602,-0.5"/>
<text text-anchor="middle" x="647" y="-7.5" font-family="Helvetica,sans-Serif" font-size="10.00">bits/wordsize.h</text>
</a>
</g>
</g>
<!-- Node5&#45;&gt;Node6 -->
<g id="edge6" class="edge">
<title>Node5&#45;&gt;Node6</title>
<path fill="none" stroke="midnightblue" d="M401.86,-57.8C404.95,-57.19 408.03,-56.58 411,-56 472.91,-43.91 544.04,-30.4 591.89,-21.36"/>
<polygon fill="midnightblue" stroke="midnightblue" points="592.56,-24.8 601.73,-19.51 591.26,-17.92 592.56,-24.8"/>
</g>
<!-- Node7 -->
<g id="node7" class="node">
<title>Node7</title>
<g id="a_node7"><a xlink:href="long-double_8h.html" target="_top" xlink:title=" ">
<polygon fill="white" stroke="black" points="321,-0.5 321,-19.5 425,-19.5 425,-0.5 321,-0.5"/>
<text text-anchor="middle" x="373" y="-7.5" font-family="Helvetica,sans-Serif" font-size="10.00">bits/long&#45;double.h</text>
</a>
</g>
</g>
<!-- Node5&#45;&gt;Node7 -->
<g id="edge7" class="edge">
<title>Node5&#45;&gt;Node7</title>
<path fill="none" stroke="midnightblue" d="M367.16,-56.08C368.08,-48.93 369.42,-38.64 370.58,-29.69"/>
<polygon fill="midnightblue" stroke="midnightblue" points="374.05,-30.12 371.87,-19.75 367.11,-29.22 374.05,-30.12"/>
</g>
<!-- Node9 -->
<g id="node9" class="node">
<title>Node9</title>
<g id="a_node9"><a xlink:title=" ">
<polygon fill="white" stroke="#bfbfbf" points="213.5,-0.5 213.5,-19.5 302.5,-19.5 302.5,-0.5 213.5,-0.5"/>
<text text-anchor="middle" x="258" y="-7.5" font-family="Helvetica,sans-Serif" font-size="10.00">gnu/stubs&#45;32.h</text>
</a>
</g>
</g>
<!-- Node8&#45;&gt;Node9 -->
<g id="edge9" class="edge">
<title>Node8&#45;&gt;Node9</title>
<path fill="none" stroke="midnightblue" d="M268.02,-56.08C266.43,-48.93 264.14,-38.64 262.15,-29.69"/>
<polygon fill="midnightblue" stroke="midnightblue" points="265.53,-28.75 259.94,-19.75 258.7,-30.27 265.53,-28.75"/>
</g>
<!-- Node10&#45;&gt;Node3 -->
<g id="edge11" class="edge">
<title>Node10&#45;&gt;Node3</title>
<path fill="none" stroke="midnightblue" d="M409.85,-341.35C323.58,-331.36 100.62,-300.46 57,-244 36.35,-217.27 34.9,-193.55 57,-168 90.83,-128.89 245.84,-123.08 322.63,-122.66"/>
<polygon fill="midnightblue" stroke="midnightblue" points="322.94,-126.16 332.93,-122.63 322.92,-119.16 322.94,-126.16"/>
</g>
<!-- Node11 -->
<g id="node11" class="node">
<title>Node11</title>
<g id="a_node11"><a xlink:href="bits_2types_8h.html" target="_top" xlink:title=" ">
<polygon fill="white" stroke="black" points="700,-168.5 700,-187.5 774,-187.5 774,-168.5 700,-168.5"/>
<text text-anchor="middle" x="737" y="-175.5" font-family="Helvetica,sans-Serif" font-size="10.00">bits/types.h</text>
</a>
</g>
</g>
<!-- Node10&#45;&gt;Node11 -->
<g id="edge12" class="edge">
<title>Node10&#45;&gt;Node11</title>
<path fill="none" stroke="midnightblue" d="M465.23,-336.48C503.87,-320.61 587.73,-284.41 653,-244 677.43,-228.87 703.25,-208.08 719.71,-194.12"/>
<polygon fill="midnightblue" stroke="midnightblue" points="722.1,-196.68 727.4,-187.51 717.54,-191.37 722.1,-196.68"/>
</g>
<!-- Node15 -->
<g id="node15" class="node">
<title>Node15</title>
<g id="a_node15"><a xlink:href="time__t_8h.html" target="_top" xlink:title=" ">
<polygon fill="white" stroke="black" points="536,-224.5 536,-243.5 644,-243.5 644,-224.5 536,-224.5"/>
<text text-anchor="middle" x="590" y="-231.5" font-family="Helvetica,sans-Serif" font-size="10.00">bits/types/time_t.h</text>
</a>
</g>
</g>
<!-- Node10&#45;&gt;Node15 -->
<g id="edge18" class="edge">
<title>Node10&#45;&gt;Node15</title>
<path fill="none" stroke="midnightblue" d="M455.46,-336.37C480.3,-317.65 539.36,-273.15 570.31,-249.83"/>
<polygon fill="midnightblue" stroke="midnightblue" points="572.72,-252.4 578.6,-243.59 568.5,-246.81 572.72,-252.4"/>
</g>
<!-- Node16 -->
<g id="node16" class="node">
<title>Node16</title>
<g id="a_node16"><a xlink:href="struct__timeval_8h.html" target="_top" xlink:title=" ">
<polygon fill="white" stroke="black" points="370.5,-224.5 370.5,-243.5 517.5,-243.5 517.5,-224.5 370.5,-224.5"/>
<text text-anchor="middle" x="444" y="-231.5" font-family="Helvetica,sans-Serif" font-size="10.00">bits/types/struct_timeval.h</text>
</a>
</g>
</g>
<!-- Node10&#45;&gt;Node16 -->
<g id="edge20" class="edge">
<title>Node10&#45;&gt;Node16</title>
<path fill="none" stroke="midnightblue" d="M444,-336.37C444,-318.62 444,-277.67 444,-253.6"/>
<polygon fill="midnightblue" stroke="midnightblue" points="447.5,-253.59 444,-243.59 440.5,-253.59 447.5,-253.59"/>
</g>
<!-- Node17 -->
<g id="node17" class="node">
<title>Node17</title>
<g id="a_node17"><a xlink:href="sys_2select_8h.html" target="_top" xlink:title=" ">
<polygon fill="white" stroke="black" points="305,-280.5 305,-299.5 379,-299.5 379,-280.5 305,-280.5"/>
<text text-anchor="middle" x="342" y="-287.5" font-family="Helvetica,sans-Serif" font-size="10.00">sys/select.h</text>
</a>
</g>
</g>
<!-- Node10&#45;&gt;Node17 -->
<g id="edge22" class="edge">
<title>Node10&#45;&gt;Node17</title>
<path fill="none" stroke="midnightblue" d="M427.61,-336.32C411.33,-327.7 386.13,-314.36 367.28,-304.39"/>
<polygon fill="midnightblue" stroke="midnightblue" points="368.82,-301.24 358.35,-299.65 365.55,-307.43 368.82,-301.24"/>
</g>
<!-- Node11&#45;&gt;Node3 -->
<g id="edge13" class="edge">
<title>Node11&#45;&gt;Node3</title>
<path fill="none" stroke="midnightblue" d="M699.98,-170.31C695.28,-169.51 690.53,-168.72 686,-168 587.26,-152.35 470.94,-136.68 409.35,-128.61"/>
<polygon fill="midnightblue" stroke="midnightblue" points="409.59,-125.11 399.23,-127.28 408.69,-132.05 409.59,-125.11"/>
</g>
<!-- Node11&#45;&gt;Node6 -->
<g id="edge14" class="edge">
<title>Node11&#45;&gt;Node6</title>
<path fill="none" stroke="midnightblue" d="M751.94,-168.46C770.5,-156.66 798.41,-134.31 787,-112 764.57,-68.17 713.28,-39 679.4,-23.72"/>
<polygon fill="midnightblue" stroke="midnightblue" points="680.49,-20.38 669.92,-19.61 677.7,-26.8 680.49,-20.38"/>
</g>
<!-- Node12 -->
<g id="node12" class="node">
<title>Node12</title>
<g id="a_node12"><a xlink:href="timesize_8h.html" target="_top" xlink:title=" ">
<polygon fill="white" stroke="black" points="478.5,-112.5 478.5,-131.5 567.5,-131.5 567.5,-112.5 478.5,-112.5"/>
<text text-anchor="middle" x="523" y="-119.5" font-family="Helvetica,sans-Serif" font-size="10.00">bits/timesize.h</text>
</a>
</g>
</g>
<!-- Node11&#45;&gt;Node12 -->
<g id="edge15" class="edge">
<title>Node11&#45;&gt;Node12</title>
<path fill="none" stroke="midnightblue" d="M703.09,-168.44C666.15,-159.12 606.95,-144.18 566.58,-134"/>
<polygon fill="midnightblue" stroke="midnightblue" points="567.3,-130.57 556.75,-131.52 565.59,-137.36 567.3,-130.57"/>
</g>
<!-- Node13 -->
<g id="node13" class="node">
<title>Node13</title>
<g id="a_node13"><a xlink:href="typesizes_8h.html" target="_top" xlink:title=" ">
<polygon fill="white" stroke="black" points="585.5,-112.5 585.5,-131.5 678.5,-131.5 678.5,-112.5 585.5,-112.5"/>
<text text-anchor="middle" x="632" y="-119.5" font-family="Helvetica,sans-Serif" font-size="10.00">bits/typesizes.h</text>
</a>
</g>
</g>
<!-- Node11&#45;&gt;Node13 -->
<g id="edge16" class="edge">
<title>Node11&#45;&gt;Node13</title>
<path fill="none" stroke="midnightblue" d="M720.13,-168.32C703.29,-159.66 677.19,-146.24 657.76,-136.25"/>
<polygon fill="midnightblue" stroke="midnightblue" points="659.32,-133.12 648.83,-131.65 656.12,-139.34 659.32,-133.12"/>
</g>
<!-- Node14 -->
<g id="node14" class="node">
<title>Node14</title>
<g id="a_node14"><a xlink:href="time64_8h.html" target="_top" xlink:title=" ">
<polygon fill="white" stroke="black" points="696.5,-112.5 696.5,-131.5 777.5,-131.5 777.5,-112.5 696.5,-112.5"/>
<text text-anchor="middle" x="737" y="-119.5" font-family="Helvetica,sans-Serif" font-size="10.00">bits/time64.h</text>
</a>
</g>
</g>
<!-- Node11&#45;&gt;Node14 -->
<g id="edge17" class="edge">
<title>Node11&#45;&gt;Node14</title>
<path fill="none" stroke="midnightblue" d="M737,-168.08C737,-161.01 737,-150.86 737,-141.99"/>
<polygon fill="midnightblue" stroke="midnightblue" points="740.5,-141.75 737,-131.75 733.5,-141.75 740.5,-141.75"/>
</g>
<!-- Node15&#45;&gt;Node11 -->
<g id="edge19" class="edge">
<title>Node15&#45;&gt;Node11</title>
<path fill="none" stroke="midnightblue" d="M613.29,-224.44C637.81,-215.44 676.6,-201.19 704.2,-191.05"/>
<polygon fill="midnightblue" stroke="midnightblue" points="705.64,-194.25 713.82,-187.52 703.22,-187.68 705.64,-194.25"/>
</g>
<!-- Node16&#45;&gt;Node11 -->
<g id="edge21" class="edge">
<title>Node16&#45;&gt;Node11</title>
<path fill="none" stroke="midnightblue" d="M490.43,-224.44C544.85,-214.41 634.56,-197.88 689.46,-187.76"/>
<polygon fill="midnightblue" stroke="midnightblue" points="690.42,-191.14 699.62,-185.89 689.15,-184.26 690.42,-191.14"/>
</g>
<!-- Node17&#45;&gt;Node3 -->
<g id="edge23" class="edge">
<title>Node17&#45;&gt;Node3</title>
<path fill="none" stroke="midnightblue" d="M341.96,-280.13C342.02,-267.58 342.48,-243.95 345,-224 348.69,-194.76 356.31,-161.39 361.29,-141.27"/>
<polygon fill="midnightblue" stroke="midnightblue" points="364.68,-142.12 363.74,-131.57 357.89,-140.41 364.68,-142.12"/>
</g>
<!-- Node17&#45;&gt;Node11 -->
<g id="edge24" class="edge">
<title>Node17&#45;&gt;Node11</title>
<path fill="none" stroke="midnightblue" d="M341.74,-280.25C341.84,-266.04 344.31,-238.13 361,-224 409.56,-182.87 599.68,-178.21 689.51,-178.39"/>
<polygon fill="midnightblue" stroke="midnightblue" points="689.67,-181.89 699.69,-178.43 689.7,-174.89 689.67,-181.89"/>
</g>
<!-- Node17&#45;&gt;Node15 -->
<g id="edge28" class="edge">
<title>Node17&#45;&gt;Node15</title>
<path fill="none" stroke="midnightblue" d="M379.13,-280.92C422.15,-271.55 493.2,-256.08 540.78,-245.72"/>
<polygon fill="midnightblue" stroke="midnightblue" points="541.54,-249.13 550.57,-243.59 540.05,-242.29 541.54,-249.13"/>
</g>
<!-- Node17&#45;&gt;Node16 -->
<g id="edge29" class="edge">
<title>Node17&#45;&gt;Node16</title>
<path fill="none" stroke="midnightblue" d="M358.39,-280.32C374.67,-271.7 399.87,-258.36 418.72,-248.39"/>
<polygon fill="midnightblue" stroke="midnightblue" points="420.45,-251.43 427.65,-243.65 417.18,-245.24 420.45,-251.43"/>
</g>
<!-- Node18 -->
<g id="node18" class="node">
<title>Node18</title>
<g id="a_node18"><a xlink:href="bits_2select_8h.html" target="_top" xlink:title=" ">
<polygon fill="white" stroke="black" points="200,-224.5 200,-243.5 276,-243.5 276,-224.5 200,-224.5"/>
<text text-anchor="middle" x="238" y="-231.5" font-family="Helvetica,sans-Serif" font-size="10.00">bits/select.h</text>
</a>
</g>
</g>
<!-- Node17&#45;&gt;Node18 -->
<g id="edge25" class="edge">
<title>Node17&#45;&gt;Node18</title>
<path fill="none" stroke="midnightblue" d="M325.29,-280.32C308.69,-271.7 283,-258.36 263.78,-248.39"/>
<polygon fill="midnightblue" stroke="midnightblue" points="265.16,-245.16 254.67,-243.65 261.93,-251.37 265.16,-245.16"/>
</g>
<!-- Node19 -->
<g id="node19" class="node">
<title>Node19</title>
<g id="a_node19"><a xlink:href="sigset__t_8h.html" target="_top" xlink:title=" ">
<polygon fill="white" stroke="black" points="66.5,-224.5 66.5,-243.5 181.5,-243.5 181.5,-224.5 66.5,-224.5"/>
<text text-anchor="middle" x="124" y="-231.5" font-family="Helvetica,sans-Serif" font-size="10.00">bits/types/sigset_t.h</text>
</a>
</g>
</g>
<!-- Node17&#45;&gt;Node19 -->
<g id="edge26" class="edge">
<title>Node17&#45;&gt;Node19</title>
<path fill="none" stroke="midnightblue" d="M307.46,-280.44C269.75,-271.1 209.26,-256.12 168.14,-245.93"/>
<polygon fill="midnightblue" stroke="midnightblue" points="168.93,-242.52 158.38,-243.52 167.25,-249.32 168.93,-242.52"/>
</g>
<!-- Node20 -->
<g id="node20" class="node">
<title>Node20</title>
<g id="a_node20"><a xlink:href="____sigset__t_8h.html" target="_top" xlink:title=" ">
<polygon fill="white" stroke="black" points="66.5,-168.5 66.5,-187.5 191.5,-187.5 191.5,-168.5 66.5,-168.5"/>
<text text-anchor="middle" x="129" y="-175.5" font-family="Helvetica,sans-Serif" font-size="10.00">bits/types/__sigset_t.h</text>
</a>
</g>
</g>
<!-- Node19&#45;&gt;Node20 -->
<g id="edge27" class="edge">
<title>Node19&#45;&gt;Node20</title>
<path fill="none" stroke="midnightblue" d="M124.83,-224.08C125.48,-217.01 126.42,-206.86 127.24,-197.99"/>
<polygon fill="midnightblue" stroke="midnightblue" points="130.75,-198.03 128.19,-187.75 123.78,-197.39 130.75,-198.03"/>
</g>
<!-- Node21&#45;&gt;Node3 -->
<g id="edge31" class="edge">
<title>Node21&#45;&gt;Node3</title>
<path fill="none" stroke="midnightblue" d="M820.26,-280.42C740.76,-252.88 491.76,-166.58 400.21,-134.86"/>
<polygon fill="midnightblue" stroke="midnightblue" points="401.19,-131.49 390.6,-131.52 398.9,-138.11 401.19,-131.49"/>
</g>
<!-- Node21&#45;&gt;Node11 -->
<g id="edge32" class="edge">
<title>Node21&#45;&gt;Node11</title>
<path fill="none" stroke="midnightblue" d="M881.23,-289.04C951.78,-287.92 1096.7,-279.07 1049,-224 1015.31,-185.1 862.75,-179.07 784.15,-178.61"/>
<polygon fill="midnightblue" stroke="midnightblue" points="784.03,-175.11 774.02,-178.58 784.01,-182.11 784.03,-175.11"/>
</g>
<!-- Node21&#45;&gt;Node15 -->
<g id="edge35" class="edge">
<title>Node21&#45;&gt;Node15</title>
<path fill="none" stroke="midnightblue" d="M808.74,-281.32C764.61,-271.98 689.88,-256.15 640.23,-245.64"/>
<polygon fill="midnightblue" stroke="midnightblue" points="640.85,-242.19 630.35,-243.54 639.4,-249.04 640.85,-242.19"/>
</g>
<!-- Node22 -->
<g id="node22" class="node">
<title>Node22</title>
<g id="a_node22"><a xlink:href="clockid__t_8h.html" target="_top" xlink:title=" ">
<polygon fill="white" stroke="black" points="1096,-224.5 1096,-243.5 1216,-243.5 1216,-224.5 1096,-224.5"/>
<text text-anchor="middle" x="1156" y="-231.5" font-family="Helvetica,sans-Serif" font-size="10.00">bits/types/clockid_t.h</text>
</a>
</g>
</g>
<!-- Node21&#45;&gt;Node22 -->
<g id="edge33" class="edge">
<title>Node21&#45;&gt;Node22</title>
<path fill="none" stroke="midnightblue" d="M881.28,-282.7C934.29,-273.5 1033.48,-256.27 1097.05,-245.24"/>
<polygon fill="midnightblue" stroke="midnightblue" points="1097.68,-248.68 1106.93,-243.52 1096.48,-241.78 1097.68,-248.68"/>
</g>
<!-- Node23 -->
<g id="node23" class="node">
<title>Node23</title>
<g id="a_node23"><a xlink:href="timer__t_8h.html" target="_top" xlink:title=" ">
<polygon fill="white" stroke="black" points="738,-224.5 738,-243.5 850,-243.5 850,-224.5 738,-224.5"/>
<text text-anchor="middle" x="794" y="-231.5" font-family="Helvetica,sans-Serif" font-size="10.00">bits/types/timer_t.h</text>
</a>
</g>
</g>
<!-- Node21&#45;&gt;Node23 -->
<g id="edge36" class="edge">
<title>Node21&#45;&gt;Node23</title>
<path fill="none" stroke="midnightblue" d="M836.58,-280.08C829.15,-272.22 818.15,-260.57 809.19,-251.08"/>
<polygon fill="midnightblue" stroke="midnightblue" points="811.68,-248.62 802.26,-243.75 806.59,-253.42 811.68,-248.62"/>
</g>
<!-- Node24 -->
<g id="node24" class="node">
<title>Node24</title>
<g id="a_node24"><a xlink:title=" ">
<polygon fill="white" stroke="#bfbfbf" points="868,-224.5 868,-243.5 924,-243.5 924,-224.5 868,-224.5"/>
<text text-anchor="middle" x="896" y="-231.5" font-family="Helvetica,sans-Serif" font-size="10.00">stddef.h</text>
</a>
</g>
</g>
<!-- Node21&#45;&gt;Node24 -->
<g id="edge38" class="edge">
<title>Node21&#45;&gt;Node24</title>
<path fill="none" stroke="midnightblue" d="M853.42,-280.08C860.85,-272.22 871.85,-260.57 880.81,-251.08"/>
<polygon fill="midnightblue" stroke="midnightblue" points="883.41,-253.42 887.74,-243.75 878.32,-248.62 883.41,-253.42"/>
</g>
<!-- Node25 -->
<g id="node25" class="node">
<title>Node25</title>
<g id="a_node25"><a xlink:href="stdint-intn_8h.html" target="_top" xlink:title=" ">
<polygon fill="white" stroke="black" points="942.5,-224.5 942.5,-243.5 1039.5,-243.5 1039.5,-224.5 942.5,-224.5"/>
<text text-anchor="middle" x="991" y="-231.5" font-family="Helvetica,sans-Serif" font-size="10.00">bits/stdint&#45;intn.h</text>
</a>
</g>
</g>
<!-- Node21&#45;&gt;Node25 -->
<g id="edge39" class="edge">
<title>Node21&#45;&gt;Node25</title>
<path fill="none" stroke="midnightblue" d="M868.13,-280.44C892.48,-271.44 931.01,-257.19 958.42,-247.05"/>
<polygon fill="midnightblue" stroke="midnightblue" points="959.81,-250.27 967.97,-243.52 957.38,-243.7 959.81,-250.27"/>
</g>
<!-- Node22&#45;&gt;Node11 -->
<g id="edge34" class="edge">
<title>Node22&#45;&gt;Node11</title>
<path fill="none" stroke="midnightblue" d="M1095.97,-225.26C1012.01,-214.44 861.21,-195.01 784.55,-185.13"/>
<polygon fill="midnightblue" stroke="midnightblue" points="784.6,-181.61 774.24,-183.8 783.71,-188.55 784.6,-181.61"/>
</g>
<!-- Node23&#45;&gt;Node11 -->
<g id="edge37" class="edge">
<title>Node23&#45;&gt;Node11</title>
<path fill="none" stroke="midnightblue" d="M784.84,-224.32C776.5,-216.42 763.97,-204.55 753.82,-194.94"/>
<polygon fill="midnightblue" stroke="midnightblue" points="755.99,-192.17 746.32,-187.83 751.18,-197.25 755.99,-192.17"/>
</g>
<!-- Node25&#45;&gt;Node11 -->
<g id="edge40" class="edge">
<title>Node25&#45;&gt;Node11</title>
<path fill="none" stroke="midnightblue" d="M950.75,-224.44C905.44,-214.81 831.89,-199.17 783.98,-188.99"/>
<polygon fill="midnightblue" stroke="midnightblue" points="784.68,-185.56 774.17,-186.9 783.22,-192.4 784.68,-185.56"/>
</g>
</g>
</svg>
