<?xml version="1.0" encoding="UTF-8" standalone="no"?>
<!DOCTYPE svg PUBLIC "-//W3C//DTD SVG 1.1//EN"
 "http://www.w3.org/Graphics/SVG/1.1/DTD/svg11.dtd">
<!-- Generated by graphviz version 2.44.1 (0)
 -->
<!-- Title: sys/epoll.h Pages: 1 -->
<!--zoomable 364 -->
<svg id="main" version="1.1" xmlns="http://www.w3.org/2000/svg" xmlns:xlink="http://www.w3.org/1999/xlink" xml:space="preserve" onload="init(evt)">
<style type="text/css"><![CDATA[
.edge:hover path { stroke: red; }
.edge:hover polygon { stroke: red; fill: red; }
]]></style>
<script type="text/javascript"><![CDATA[
var edges = document.getElementsByTagName('g');
if (edges && edges.length) {
  for (var i=0;i<edges.length;i++) {
    if (edges[i].id.substr(0,4)=='edge') {
      edges[i].setAttribute('class','edge');
    }
  }
}
]]></script>
        <defs>
                <circle id="rim" cx="0" cy="0" r="7"/>
                <circle id="rim2" cx="0" cy="0" r="3.5"/>
                <g id="zoomPlus">
                        <use xlink:href="#rim" fill="#404040">
                                <set attributeName="fill" to="#808080" begin="zoomplus.mouseover" end="zoomplus.mouseout"/>
                        </use>
                        <path d="M-4,0h8M0,-4v8" fill="none" stroke="white" stroke-width="1.5" pointer-events="none"/>
                </g>
                <g id="zoomMin">
                        <use xlink:href="#rim" fill="#404040">
                                <set attributeName="fill" to="#808080" begin="zoomminus.mouseover" end="zoomminus.mouseout"/>
                        </use>
                        <path d="M-4,0h8" fill="none" stroke="white" stroke-width="1.5" pointer-events="none"/>
                </g>
                <g id="dirArrow">
                        <path fill="none" stroke="white" stroke-width="1.5" d="M0,-3.0v7 M-2.5,-0.5L0,-3.0L2.5,-0.5"/>
                </g>
               <g id="resetDef">
                       <use xlink:href="#rim2" fill="#404040">
                               <set attributeName="fill" to="#808080" begin="reset.mouseover" end="reset.mouseout"/>
                       </use>
               </g>
        </defs>

<script type="text/javascript">
var viewWidth = 1113;
var viewHeight = 364;
var sectionId = 'dynsection-0';
</script>
<script xlink:href="svgpan.js"/>
<svg id="graph" class="graph">
<g id="viewport">
<title>sys/epoll.h</title>
<polygon fill="white" stroke="transparent" points="-4,4 -4,-360 1109.06,-360 1109.06,4 -4,4"/>
<!-- Node1 -->
<g id="node1" class="node">
<title>Node1</title>
<g id="a_node1"><a xlink:title=" ">
<polygon fill="#bfbfbf" stroke="black" points="687.06,-336.5 687.06,-355.5 756.06,-355.5 756.06,-336.5 687.06,-336.5"/>
<text text-anchor="middle" x="721.56" y="-343.5" font-family="Helvetica,sans-Serif" font-size="10.00">sys/epoll.h</text>
</a>
</g>
</g>
<!-- Node2 -->
<g id="node2" class="node">
<title>Node2</title>
<g id="a_node2"><a xlink:href="stdint_8h.html" target="_top" xlink:title=" ">
<polygon fill="white" stroke="black" points="144.06,-280.5 144.06,-299.5 197.06,-299.5 197.06,-280.5 144.06,-280.5"/>
<text text-anchor="middle" x="170.56" y="-287.5" font-family="Helvetica,sans-Serif" font-size="10.00">stdint.h</text>
</a>
</g>
</g>
<!-- Node1&#45;&gt;Node2 -->
<g id="edge1" class="edge">
<title>Node1&#45;&gt;Node2</title>
<path fill="none" stroke="midnightblue" d="M686.67,-341.58C588.08,-331.92 308.04,-304.47 207.26,-294.6"/>
<polygon fill="midnightblue" stroke="midnightblue" points="207.54,-291.11 197.25,-293.62 206.86,-298.07 207.54,-291.11"/>
</g>
<!-- Node18 -->
<g id="node18" class="node">
<title>Node18</title>
<g id="a_node18"><a xlink:href="sys_2types_8h.html" target="_top" xlink:title=" ">
<polygon fill="white" stroke="black" points="629.56,-280.5 629.56,-299.5 701.56,-299.5 701.56,-280.5 629.56,-280.5"/>
<text text-anchor="middle" x="665.56" y="-287.5" font-family="Helvetica,sans-Serif" font-size="10.00">sys/types.h</text>
</a>
</g>
</g>
<!-- Node1&#45;&gt;Node18 -->
<g id="edge23" class="edge">
<title>Node1&#45;&gt;Node18</title>
<path fill="none" stroke="midnightblue" d="M712.56,-336.32C704.36,-328.42 692.05,-316.55 682.08,-306.94"/>
<polygon fill="midnightblue" stroke="midnightblue" points="684.35,-304.26 674.72,-299.83 679.49,-309.29 684.35,-304.26"/>
</g>
<!-- Node23 -->
<g id="node23" class="node">
<title>Node23</title>
<g id="a_node23"><a xlink:href="sigset__t_8h.html" target="_top" xlink:title=" ">
<polygon fill="white" stroke="black" points="720.06,-280.5 720.06,-299.5 835.06,-299.5 835.06,-280.5 720.06,-280.5"/>
<text text-anchor="middle" x="777.56" y="-287.5" font-family="Helvetica,sans-Serif" font-size="10.00">bits/types/sigset_t.h</text>
</a>
</g>
</g>
<!-- Node1&#45;&gt;Node23 -->
<g id="edge34" class="edge">
<title>Node1&#45;&gt;Node23</title>
<path fill="none" stroke="midnightblue" d="M730.55,-336.32C738.75,-328.42 751.06,-316.55 761.03,-306.94"/>
<polygon fill="midnightblue" stroke="midnightblue" points="763.63,-309.29 768.4,-299.83 758.77,-304.26 763.63,-309.29"/>
</g>
<!-- Node25 -->
<g id="node25" class="node">
<title>Node25</title>
<g id="a_node25"><a xlink:href="bits_2epoll_8h.html" target="_top" xlink:title=" ">
<polygon fill="white" stroke="black" points="853.06,-280.5 853.06,-299.5 924.06,-299.5 924.06,-280.5 853.06,-280.5"/>
<text text-anchor="middle" x="888.56" y="-287.5" font-family="Helvetica,sans-Serif" font-size="10.00">bits/epoll.h</text>
</a>
</g>
</g>
<!-- Node1&#45;&gt;Node25 -->
<g id="edge36" class="edge">
<title>Node1&#45;&gt;Node25</title>
<path fill="none" stroke="midnightblue" d="M748.02,-336.44C776.23,-327.32 821.1,-312.81 852.53,-302.65"/>
<polygon fill="midnightblue" stroke="midnightblue" points="853.78,-305.92 862.22,-299.52 851.63,-299.26 853.78,-305.92"/>
</g>
<!-- Node3 -->
<g id="node3" class="node">
<title>Node3</title>
<g id="a_node3"><a xlink:href="libc-header-start_8h.html" target="_top" xlink:title=" ">
<polygon fill="white" stroke="black" points="110.56,-168.5 110.56,-187.5 238.56,-187.5 238.56,-168.5 110.56,-168.5"/>
<text text-anchor="middle" x="174.56" y="-175.5" font-family="Helvetica,sans-Serif" font-size="10.00">bits/libc&#45;header&#45;start.h</text>
</a>
</g>
</g>
<!-- Node2&#45;&gt;Node3 -->
<g id="edge2" class="edge">
<title>Node2&#45;&gt;Node3</title>
<path fill="none" stroke="midnightblue" d="M166.37,-280.19C160.96,-267.72 152.67,-244.18 156.56,-224 158.35,-214.7 162.04,-204.89 165.62,-196.8"/>
<polygon fill="midnightblue" stroke="midnightblue" points="168.83,-198.2 169.94,-187.66 162.5,-195.21 168.83,-198.2"/>
</g>
<!-- Node7 -->
<g id="node7" class="node">
<title>Node7</title>
<g id="a_node7"><a xlink:href="wordsize_8h.html" target="_top" xlink:title=" ">
<polygon fill="white" stroke="black" points="50.56,-0.5 50.56,-19.5 140.56,-19.5 140.56,-0.5 50.56,-0.5"/>
<text text-anchor="middle" x="95.56" y="-7.5" font-family="Helvetica,sans-Serif" font-size="10.00">bits/wordsize.h</text>
</a>
</g>
</g>
<!-- Node2&#45;&gt;Node7 -->
<g id="edge18" class="edge">
<title>Node2&#45;&gt;Node7</title>
<path fill="none" stroke="midnightblue" d="M144.05,-288.48C110.49,-286.36 53.03,-277.65 19.56,-244 -1.67,-222.66 0.56,-209.1 0.56,-179 0.56,-179 0.56,-179 0.56,-121 0.56,-77.74 43.16,-43.09 71.31,-24.91"/>
<polygon fill="midnightblue" stroke="midnightblue" points="73.22,-27.85 79.87,-19.6 69.53,-21.9 73.22,-27.85"/>
</g>
<!-- Node11 -->
<g id="node11" class="node">
<title>Node11</title>
<g id="a_node11"><a xlink:href="bits_2types_8h.html" target="_top" xlink:title=" ">
<polygon fill="white" stroke="black" points="369.56,-168.5 369.56,-187.5 443.56,-187.5 443.56,-168.5 369.56,-168.5"/>
<text text-anchor="middle" x="406.56" y="-175.5" font-family="Helvetica,sans-Serif" font-size="10.00">bits/types.h</text>
</a>
</g>
</g>
<!-- Node2&#45;&gt;Node11 -->
<g id="edge11" class="edge">
<title>Node2&#45;&gt;Node11</title>
<path fill="none" stroke="midnightblue" d="M170.44,-280.41C170.74,-266.42 173.49,-238.83 189.56,-224 213.84,-201.58 303.27,-188.99 359.46,-183.13"/>
<polygon fill="midnightblue" stroke="midnightblue" points="359.95,-186.59 369.54,-182.11 359.24,-179.63 359.95,-186.59"/>
</g>
<!-- Node15 -->
<g id="node15" class="node">
<title>Node15</title>
<g id="a_node15"><a xlink:href="bits_2wchar_8h.html" target="_top" xlink:title=" ">
<polygon fill="white" stroke="black" points="29.06,-224.5 29.06,-243.5 104.06,-243.5 104.06,-224.5 29.06,-224.5"/>
<text text-anchor="middle" x="66.56" y="-231.5" font-family="Helvetica,sans-Serif" font-size="10.00">bits/wchar.h</text>
</a>
</g>
</g>
<!-- Node2&#45;&gt;Node15 -->
<g id="edge17" class="edge">
<title>Node2&#45;&gt;Node15</title>
<path fill="none" stroke="midnightblue" d="M153.85,-280.32C137.24,-271.7 111.55,-258.36 92.34,-248.39"/>
<polygon fill="midnightblue" stroke="midnightblue" points="93.71,-245.16 83.22,-243.65 90.49,-251.37 93.71,-245.16"/>
</g>
<!-- Node16 -->
<g id="node16" class="node">
<title>Node16</title>
<g id="a_node16"><a xlink:href="stdint-intn_8h.html" target="_top" xlink:title=" ">
<polygon fill="white" stroke="black" points="320.06,-224.5 320.06,-243.5 417.06,-243.5 417.06,-224.5 320.06,-224.5"/>
<text text-anchor="middle" x="368.56" y="-231.5" font-family="Helvetica,sans-Serif" font-size="10.00">bits/stdint&#45;intn.h</text>
</a>
</g>
</g>
<!-- Node2&#45;&gt;Node16 -->
<g id="edge19" class="edge">
<title>Node2&#45;&gt;Node16</title>
<path fill="none" stroke="midnightblue" d="M197.26,-281.72C230.59,-272.63 287.97,-256.98 327.05,-246.32"/>
<polygon fill="midnightblue" stroke="midnightblue" points="328.33,-249.6 337.06,-243.59 326.49,-242.84 328.33,-249.6"/>
</g>
<!-- Node17 -->
<g id="node17" class="node">
<title>Node17</title>
<g id="a_node17"><a xlink:href="stdint-uintn_8h.html" target="_top" xlink:title=" ">
<polygon fill="white" stroke="black" points="199.06,-224.5 199.06,-243.5 302.06,-243.5 302.06,-224.5 199.06,-224.5"/>
<text text-anchor="middle" x="250.56" y="-231.5" font-family="Helvetica,sans-Serif" font-size="10.00">bits/stdint&#45;uintn.h</text>
</a>
</g>
</g>
<!-- Node2&#45;&gt;Node17 -->
<g id="edge21" class="edge">
<title>Node2&#45;&gt;Node17</title>
<path fill="none" stroke="midnightblue" d="M183.41,-280.32C195.77,-271.98 214.69,-259.21 229.29,-249.35"/>
<polygon fill="midnightblue" stroke="midnightblue" points="231.4,-252.15 237.74,-243.65 227.49,-246.35 231.4,-252.15"/>
</g>
<!-- Node4 -->
<g id="node4" class="node">
<title>Node4</title>
<g id="a_node4"><a xlink:href="features_8h.html" target="_top" xlink:title=" ">
<polygon fill="white" stroke="black" points="222.56,-112.5 222.56,-131.5 288.56,-131.5 288.56,-112.5 222.56,-112.5"/>
<text text-anchor="middle" x="255.56" y="-119.5" font-family="Helvetica,sans-Serif" font-size="10.00">features.h</text>
</a>
</g>
</g>
<!-- Node3&#45;&gt;Node4 -->
<g id="edge3" class="edge">
<title>Node3&#45;&gt;Node4</title>
<path fill="none" stroke="midnightblue" d="M187.57,-168.32C200.09,-159.98 219.24,-147.21 234.03,-137.35"/>
<polygon fill="midnightblue" stroke="midnightblue" points="236.2,-140.11 242.57,-131.65 232.31,-134.29 236.2,-140.11"/>
</g>
<!-- Node5 -->
<g id="node5" class="node">
<title>Node5</title>
<g id="a_node5"><a xlink:href="stdc-predef_8h.html" target="_top" xlink:title=" ">
<polygon fill="white" stroke="black" points="355.56,-56.5 355.56,-75.5 435.56,-75.5 435.56,-56.5 355.56,-56.5"/>
<text text-anchor="middle" x="395.56" y="-63.5" font-family="Helvetica,sans-Serif" font-size="10.00">stdc&#45;predef.h</text>
</a>
</g>
</g>
<!-- Node4&#45;&gt;Node5 -->
<g id="edge4" class="edge">
<title>Node4&#45;&gt;Node5</title>
<path fill="none" stroke="midnightblue" d="M277.74,-112.44C300.99,-103.48 337.71,-89.31 363.97,-79.18"/>
<polygon fill="midnightblue" stroke="midnightblue" points="365.41,-82.38 373.48,-75.52 362.89,-75.85 365.41,-82.38"/>
</g>
<!-- Node6 -->
<g id="node6" class="node">
<title>Node6</title>
<g id="a_node6"><a xlink:href="cdefs_8h.html" target="_top" xlink:title=" ">
<polygon fill="white" stroke="black" points="175.06,-56.5 175.06,-75.5 246.06,-75.5 246.06,-56.5 175.06,-56.5"/>
<text text-anchor="middle" x="210.56" y="-63.5" font-family="Helvetica,sans-Serif" font-size="10.00">sys/cdefs.h</text>
</a>
</g>
</g>
<!-- Node4&#45;&gt;Node6 -->
<g id="edge5" class="edge">
<title>Node4&#45;&gt;Node6</title>
<path fill="none" stroke="midnightblue" d="M243.21,-112.32C235.24,-104.73 225.46,-93.48 218.47,-84.09"/>
<polygon fill="midnightblue" stroke="midnightblue" points="221.33,-82.07 212.77,-75.83 215.57,-86.05 221.33,-82.07"/>
</g>
<!-- Node9 -->
<g id="node9" class="node">
<title>Node9</title>
<g id="a_node9"><a xlink:href="stubs_8h.html" target="_top" xlink:title=" ">
<polygon fill="white" stroke="black" points="264.06,-56.5 264.06,-75.5 337.06,-75.5 337.06,-56.5 264.06,-56.5"/>
<text text-anchor="middle" x="300.56" y="-63.5" font-family="Helvetica,sans-Serif" font-size="10.00">gnu/stubs.h</text>
</a>
</g>
</g>
<!-- Node4&#45;&gt;Node9 -->
<g id="edge9" class="edge">
<title>Node4&#45;&gt;Node9</title>
<path fill="none" stroke="midnightblue" d="M262.99,-112.08C269.41,-104.38 278.86,-93.03 286.68,-83.65"/>
<polygon fill="midnightblue" stroke="midnightblue" points="289.55,-85.67 293.26,-75.75 284.17,-81.19 289.55,-85.67"/>
</g>
<!-- Node6&#45;&gt;Node4 -->
<g id="edge6" class="edge">
<title>Node6&#45;&gt;Node4</title>
<path fill="none" stroke="midnightblue" d="M222.98,-75.75C230.92,-83.33 240.64,-94.5 247.6,-103.86"/>
<polygon fill="midnightblue" stroke="midnightblue" points="244.73,-105.85 253.29,-112.08 250.48,-101.87 244.73,-105.85"/>
</g>
<!-- Node6&#45;&gt;Node7 -->
<g id="edge7" class="edge">
<title>Node6&#45;&gt;Node7</title>
<path fill="none" stroke="midnightblue" d="M192.33,-56.44C173.66,-47.68 144.4,-33.94 122.94,-23.86"/>
<polygon fill="midnightblue" stroke="midnightblue" points="124.23,-20.6 113.69,-19.52 121.26,-26.93 124.23,-20.6"/>
</g>
<!-- Node8 -->
<g id="node8" class="node">
<title>Node8</title>
<g id="a_node8"><a xlink:href="long-double_8h.html" target="_top" xlink:title=" ">
<polygon fill="white" stroke="black" points="158.56,-0.5 158.56,-19.5 262.56,-19.5 262.56,-0.5 158.56,-0.5"/>
<text text-anchor="middle" x="210.56" y="-7.5" font-family="Helvetica,sans-Serif" font-size="10.00">bits/long&#45;double.h</text>
</a>
</g>
</g>
<!-- Node6&#45;&gt;Node8 -->
<g id="edge8" class="edge">
<title>Node6&#45;&gt;Node8</title>
<path fill="none" stroke="midnightblue" d="M210.56,-56.08C210.56,-49.01 210.56,-38.86 210.56,-29.99"/>
<polygon fill="midnightblue" stroke="midnightblue" points="214.06,-29.75 210.56,-19.75 207.06,-29.75 214.06,-29.75"/>
</g>
<!-- Node10 -->
<g id="node10" class="node">
<title>Node10</title>
<g id="a_node10"><a xlink:title=" ">
<polygon fill="white" stroke="#bfbfbf" points="281.06,-0.5 281.06,-19.5 370.06,-19.5 370.06,-0.5 281.06,-0.5"/>
<text text-anchor="middle" x="325.56" y="-7.5" font-family="Helvetica,sans-Serif" font-size="10.00">gnu/stubs&#45;32.h</text>
</a>
</g>
</g>
<!-- Node9&#45;&gt;Node10 -->
<g id="edge10" class="edge">
<title>Node9&#45;&gt;Node10</title>
<path fill="none" stroke="midnightblue" d="M304.68,-56.08C308.07,-48.77 312.97,-38.18 317.18,-29.1"/>
<polygon fill="midnightblue" stroke="midnightblue" points="320.48,-30.3 321.51,-19.75 314.13,-27.36 320.48,-30.3"/>
</g>
<!-- Node11&#45;&gt;Node4 -->
<g id="edge12" class="edge">
<title>Node11&#45;&gt;Node4</title>
<path fill="none" stroke="midnightblue" d="M382.63,-168.44C357.34,-159.4 317.25,-145.06 288.88,-134.92"/>
<polygon fill="midnightblue" stroke="midnightblue" points="289.97,-131.59 279.37,-131.52 287.61,-138.18 289.97,-131.59"/>
</g>
<!-- Node11&#45;&gt;Node7 -->
<g id="edge13" class="edge">
<title>Node11&#45;&gt;Node7</title>
<path fill="none" stroke="midnightblue" d="M369.48,-174.56C328.89,-170.52 263,-159.89 213.56,-132 166.46,-105.44 126.03,-54.42 107.06,-27.92"/>
<polygon fill="midnightblue" stroke="midnightblue" points="109.88,-25.83 101.28,-19.65 104.14,-29.85 109.88,-25.83"/>
</g>
<!-- Node12 -->
<g id="node12" class="node">
<title>Node12</title>
<g id="a_node12"><a xlink:href="timesize_8h.html" target="_top" xlink:title=" ">
<polygon fill="white" stroke="black" points="307.06,-112.5 307.06,-131.5 396.06,-131.5 396.06,-112.5 307.06,-112.5"/>
<text text-anchor="middle" x="351.56" y="-119.5" font-family="Helvetica,sans-Serif" font-size="10.00">bits/timesize.h</text>
</a>
</g>
</g>
<!-- Node11&#45;&gt;Node12 -->
<g id="edge14" class="edge">
<title>Node11&#45;&gt;Node12</title>
<path fill="none" stroke="midnightblue" d="M397.47,-168.08C389.39,-160.14 377.36,-148.34 367.65,-138.8"/>
<polygon fill="midnightblue" stroke="midnightblue" points="370.06,-136.26 360.47,-131.75 365.15,-141.25 370.06,-136.26"/>
</g>
<!-- Node13 -->
<g id="node13" class="node">
<title>Node13</title>
<g id="a_node13"><a xlink:href="typesizes_8h.html" target="_top" xlink:title=" ">
<polygon fill="white" stroke="black" points="414.06,-112.5 414.06,-131.5 507.06,-131.5 507.06,-112.5 414.06,-112.5"/>
<text text-anchor="middle" x="460.56" y="-119.5" font-family="Helvetica,sans-Serif" font-size="10.00">bits/typesizes.h</text>
</a>
</g>
</g>
<!-- Node11&#45;&gt;Node13 -->
<g id="edge15" class="edge">
<title>Node11&#45;&gt;Node13</title>
<path fill="none" stroke="midnightblue" d="M415.47,-168.08C423.34,-160.22 434.99,-148.57 444.48,-139.08"/>
<polygon fill="midnightblue" stroke="midnightblue" points="447.21,-141.3 451.81,-131.75 442.26,-136.35 447.21,-141.3"/>
</g>
<!-- Node14 -->
<g id="node14" class="node">
<title>Node14</title>
<g id="a_node14"><a xlink:href="time64_8h.html" target="_top" xlink:title=" ">
<polygon fill="white" stroke="black" points="525.06,-112.5 525.06,-131.5 606.06,-131.5 606.06,-112.5 525.06,-112.5"/>
<text text-anchor="middle" x="565.56" y="-119.5" font-family="Helvetica,sans-Serif" font-size="10.00">bits/time64.h</text>
</a>
</g>
</g>
<!-- Node11&#45;&gt;Node14 -->
<g id="edge16" class="edge">
<title>Node11&#45;&gt;Node14</title>
<path fill="none" stroke="midnightblue" d="M431.75,-168.44C458.5,-159.36 500.96,-144.94 530.86,-134.78"/>
<polygon fill="midnightblue" stroke="midnightblue" points="532.14,-138.05 540.48,-131.52 529.89,-131.42 532.14,-138.05"/>
</g>
<!-- Node16&#45;&gt;Node11 -->
<g id="edge20" class="edge">
<title>Node16&#45;&gt;Node11</title>
<path fill="none" stroke="midnightblue" d="M374.83,-224.08C380.2,-216.46 388.07,-205.26 394.64,-195.94"/>
<polygon fill="midnightblue" stroke="midnightblue" points="397.51,-197.94 400.4,-187.75 391.78,-193.91 397.51,-197.94"/>
</g>
<!-- Node17&#45;&gt;Node11 -->
<g id="edge22" class="edge">
<title>Node17&#45;&gt;Node11</title>
<path fill="none" stroke="midnightblue" d="M275.28,-224.44C301.41,-215.4 342.82,-201.06 372.13,-190.92"/>
<polygon fill="midnightblue" stroke="midnightblue" points="373.65,-194.1 381.95,-187.52 371.36,-187.48 373.65,-194.1"/>
</g>
<!-- Node18&#45;&gt;Node4 -->
<g id="edge24" class="edge">
<title>Node18&#45;&gt;Node4</title>
<path fill="none" stroke="midnightblue" d="M701.88,-281.62C704.82,-281.06 707.73,-280.51 710.56,-280 810.69,-261.87 999.15,-300.94 932.56,-224 841.25,-118.51 455,-155.48 298.93,-132.01"/>
<polygon fill="midnightblue" stroke="midnightblue" points="299.42,-128.55 288.99,-130.38 298.29,-135.45 299.42,-128.55"/>
</g>
<!-- Node18&#45;&gt;Node11 -->
<g id="edge25" class="edge">
<title>Node18&#45;&gt;Node11</title>
<path fill="none" stroke="midnightblue" d="M629.37,-287.52C587.15,-284.36 516.51,-274.53 464.56,-244 444.47,-232.2 427.56,-211.07 417.27,-196.11"/>
<polygon fill="midnightblue" stroke="midnightblue" points="420.18,-194.15 411.75,-187.73 414.33,-198 420.18,-194.15"/>
</g>
<!-- Node18&#45;&gt;Node16 -->
<g id="edge33" class="edge">
<title>Node18&#45;&gt;Node16</title>
<path fill="none" stroke="midnightblue" d="M629.44,-282.43C578.65,-273.2 485.64,-256.29 425.5,-245.35"/>
<polygon fill="midnightblue" stroke="midnightblue" points="425.87,-241.86 415.4,-243.52 424.62,-248.75 425.87,-241.86"/>
</g>
<!-- Node19 -->
<g id="node19" class="node">
<title>Node19</title>
<g id="a_node19"><a xlink:href="clockid__t_8h.html" target="_top" xlink:title=" ">
<polygon fill="white" stroke="black" points="473.56,-224.5 473.56,-243.5 593.56,-243.5 593.56,-224.5 473.56,-224.5"/>
<text text-anchor="middle" x="533.56" y="-231.5" font-family="Helvetica,sans-Serif" font-size="10.00">bits/types/clockid_t.h</text>
</a>
</g>
</g>
<!-- Node18&#45;&gt;Node19 -->
<g id="edge26" class="edge">
<title>Node18&#45;&gt;Node19</title>
<path fill="none" stroke="midnightblue" d="M644.64,-280.44C622.82,-271.52 588.41,-257.44 563.66,-247.32"/>
<polygon fill="midnightblue" stroke="midnightblue" points="564.96,-244.06 554.37,-243.52 562.3,-250.54 564.96,-244.06"/>
</g>
<!-- Node20 -->
<g id="node20" class="node">
<title>Node20</title>
<g id="a_node20"><a xlink:href="time__t_8h.html" target="_top" xlink:title=" ">
<polygon fill="white" stroke="black" points="611.56,-224.5 611.56,-243.5 719.56,-243.5 719.56,-224.5 611.56,-224.5"/>
<text text-anchor="middle" x="665.56" y="-231.5" font-family="Helvetica,sans-Serif" font-size="10.00">bits/types/time_t.h</text>
</a>
</g>
</g>
<!-- Node18&#45;&gt;Node20 -->
<g id="edge28" class="edge">
<title>Node18&#45;&gt;Node20</title>
<path fill="none" stroke="midnightblue" d="M665.56,-280.08C665.56,-273.01 665.56,-262.86 665.56,-253.99"/>
<polygon fill="midnightblue" stroke="midnightblue" points="669.06,-253.75 665.56,-243.75 662.06,-253.75 669.06,-253.75"/>
</g>
<!-- Node21 -->
<g id="node21" class="node">
<title>Node21</title>
<g id="a_node21"><a xlink:href="timer__t_8h.html" target="_top" xlink:title=" ">
<polygon fill="white" stroke="black" points="737.56,-224.5 737.56,-243.5 849.56,-243.5 849.56,-224.5 737.56,-224.5"/>
<text text-anchor="middle" x="793.56" y="-231.5" font-family="Helvetica,sans-Serif" font-size="10.00">bits/types/timer_t.h</text>
</a>
</g>
</g>
<!-- Node18&#45;&gt;Node21 -->
<g id="edge30" class="edge">
<title>Node18&#45;&gt;Node21</title>
<path fill="none" stroke="midnightblue" d="M685.84,-280.44C706.9,-271.56 740.07,-257.56 764.04,-247.45"/>
<polygon fill="midnightblue" stroke="midnightblue" points="765.52,-250.63 773.37,-243.52 762.8,-244.18 765.52,-250.63"/>
</g>
<!-- Node22 -->
<g id="node22" class="node">
<title>Node22</title>
<g id="a_node22"><a xlink:title=" ">
<polygon fill="white" stroke="#bfbfbf" points="867.56,-224.5 867.56,-243.5 923.56,-243.5 923.56,-224.5 867.56,-224.5"/>
<text text-anchor="middle" x="895.56" y="-231.5" font-family="Helvetica,sans-Serif" font-size="10.00">stddef.h</text>
</a>
</g>
</g>
<!-- Node18&#45;&gt;Node22 -->
<g id="edge32" class="edge">
<title>Node18&#45;&gt;Node22</title>
<path fill="none" stroke="midnightblue" d="M701.86,-280.64C738.63,-272.16 797.39,-258.53 857.27,-244.29"/>
<polygon fill="midnightblue" stroke="midnightblue" points="858.36,-247.63 867.28,-241.91 856.74,-240.82 858.36,-247.63"/>
</g>
<!-- Node19&#45;&gt;Node11 -->
<g id="edge27" class="edge">
<title>Node19&#45;&gt;Node11</title>
<path fill="none" stroke="midnightblue" d="M513.43,-224.44C492.53,-215.56 459.62,-201.56 435.84,-191.45"/>
<polygon fill="midnightblue" stroke="midnightblue" points="437.16,-188.21 426.59,-187.52 434.42,-194.65 437.16,-188.21"/>
</g>
<!-- Node20&#45;&gt;Node11 -->
<g id="edge29" class="edge">
<title>Node20&#45;&gt;Node11</title>
<path fill="none" stroke="midnightblue" d="M624.52,-224.44C578.04,-214.75 502.45,-198.99 453.62,-188.81"/>
<polygon fill="midnightblue" stroke="midnightblue" points="454.13,-185.34 443.63,-186.73 452.7,-192.2 454.13,-185.34"/>
</g>
<!-- Node21&#45;&gt;Node11 -->
<g id="edge31" class="edge">
<title>Node21&#45;&gt;Node11</title>
<path fill="none" stroke="midnightblue" d="M737.28,-225.15C660.76,-214.47 525.23,-195.56 453.74,-185.58"/>
<polygon fill="midnightblue" stroke="midnightblue" points="454.06,-182.09 443.67,-184.18 453.09,-189.03 454.06,-182.09"/>
</g>
<!-- Node24 -->
<g id="node24" class="node">
<title>Node24</title>
<g id="a_node24"><a xlink:href="____sigset__t_8h.html" target="_top" xlink:title=" ">
<polygon fill="white" stroke="black" points="980.06,-224.5 980.06,-243.5 1105.06,-243.5 1105.06,-224.5 980.06,-224.5"/>
<text text-anchor="middle" x="1042.56" y="-231.5" font-family="Helvetica,sans-Serif" font-size="10.00">bits/types/__sigset_t.h</text>
</a>
</g>
</g>
<!-- Node23&#45;&gt;Node24 -->
<g id="edge35" class="edge">
<title>Node23&#45;&gt;Node24</title>
<path fill="none" stroke="midnightblue" d="M819.55,-280.44C865.97,-270.98 940.78,-255.74 990.8,-245.55"/>
<polygon fill="midnightblue" stroke="midnightblue" points="991.66,-248.94 1000.76,-243.52 990.27,-242.08 991.66,-248.94"/>
</g>
</g>
</svg>
        <g id="navigator" transform="translate(0 0)" fill="#404254">
                <rect fill="#f2f5e9" fill-opacity="0.5" stroke="#606060" stroke-width=".5" x="0" y="0" width="60" height="60"/>
                <use id="zoomplus" xlink:href="#zoomPlus" x="17" y="9" onmousedown="handleZoom(evt,'in')"/>
                <use id="zoomminus" xlink:href="#zoomMin" x="42" y="9" onmousedown="handleZoom(evt,'out')"/>
                <use id="reset" xlink:href="#resetDef" x="30" y="36" onmousedown="handleReset()"/>
                <g id="arrowUp" xlink:href="#dirArrow" transform="translate(30 24)" onmousedown="handlePan(0,-1)">
                  <use xlink:href="#rim" fill="#404040">
                        <set attributeName="fill" to="#808080" begin="arrowUp.mouseover" end="arrowUp.mouseout"/>
                  </use>
                  <path fill="none" stroke="white" stroke-width="1.5" d="M0,-3.0v7 M-2.5,-0.5L0,-3.0L2.5,-0.5"/>
                </g>
                <g id="arrowRight" xlink:href="#dirArrow" transform="rotate(90) translate(36 -43)" onmousedown="handlePan(1,0)">
                  <use xlink:href="#rim" fill="#404040">
                        <set attributeName="fill" to="#808080" begin="arrowRight.mouseover" end="arrowRight.mouseout"/>
                  </use>
                  <path fill="none" stroke="white" stroke-width="1.5" d="M0,-3.0v7 M-2.5,-0.5L0,-3.0L2.5,-0.5"/>
                </g>
                <g id="arrowDown" xlink:href="#dirArrow" transform="rotate(180) translate(-30 -48)" onmousedown="handlePan(0,1)">
                  <use xlink:href="#rim" fill="#404040">
                        <set attributeName="fill" to="#808080" begin="arrowDown.mouseover" end="arrowDown.mouseout"/>
                  </use>
                  <path fill="none" stroke="white" stroke-width="1.5" d="M0,-3.0v7 M-2.5,-0.5L0,-3.0L2.5,-0.5"/>
                </g>
                <g id="arrowLeft" xlink:href="#dirArrow" transform="rotate(270) translate(-36 17)" onmousedown="handlePan(-1,0)">
                  <use xlink:href="#rim" fill="#404040">
                        <set attributeName="fill" to="#808080" begin="arrowLeft.mouseover" end="arrowLeft.mouseout"/>
                  </use>
                  <path fill="none" stroke="white" stroke-width="1.5" d="M0,-3.0v7 M-2.5,-0.5L0,-3.0L2.5,-0.5"/>
                </g>
        </g>
        <svg viewBox="0 0 15 15" width="100%" height="30px" preserveAspectRatio="xMaxYMin meet">
         <g id="arrow_out" transform="scale(0.3 0.3)">
          <a xlink:href="sys_2epoll_8h__incl_org.svg" target="_base">
           <rect id="button" ry="5" rx="5" y="6" x="6" height="38" width="38"
                fill="#f2f5e9" fill-opacity="0.5" stroke="#606060" stroke-width="1.0"/>
           <path id="arrow"
             d="M 11.500037,31.436501 C 11.940474,20.09759 22.043105,11.32322 32.158766,21.979434 L 37.068811,17.246167 C 37.068811,17.246167 37.088388,32 37.088388,32 L 22.160133,31.978069 C 22.160133,31.978069 26.997745,27.140456 26.997745,27.140456 C 18.528582,18.264221 13.291696,25.230495 11.500037,31.436501 z"
             style="fill:#404040;"/>
          </a>
         </g>
        </svg>
</svg>
