<?xml version="1.0" encoding="UTF-8" standalone="no"?>
<!DOCTYPE svg PUBLIC "-//W3C//DTD SVG 1.1//EN"
 "http://www.w3.org/Graphics/SVG/1.1/DTD/svg11.dtd">
<!-- Generated by graphviz version 2.44.1 (0)
 -->
<!-- Title: sys/unistd.h Pages: 1 -->
<svg width="101pt" height="28pt"
 viewBox="0.00 0.00 101.00 28.00" xmlns="http://www.w3.org/2000/svg" xmlns:xlink="http://www.w3.org/1999/xlink">
<g id="graph0" class="graph" transform="scale(1 1) rotate(0) translate(4 24)">
<title>sys/unistd.h</title>
<polygon fill="white" stroke="transparent" points="-4,4 -4,-24 97,-24 97,4 -4,4"/>
<!-- Node1 -->
<g id="node1" class="node">
<title>Node1</title>
<g id="a_node1"><a xlink:title=" ">
<polygon fill="#bfbfbf" stroke="black" points="0,-0.5 0,-19.5 75,-19.5 75,-0.5 0,-0.5"/>
<text text-anchor="middle" x="37.5" y="-7.5" font-family="Helvetica,sans-Serif" font-size="10.00">sys/unistd.h</text>
</a>
</g>
</g>
<!-- Node1&#45;&gt;Node1 -->
<g id="edge1" class="edge">
<title>Node1&#45;&gt;Node1</title>
<path fill="none" stroke="midnightblue" d="M85.24,-13.06C89.98,-12.45 93,-11.43 93,-10 93,-7.71 85.27,-6.47 75.11,-6.28"/>
<polygon fill="midnightblue" stroke="midnightblue" points="84.86,-9.58 75.11,-13.72 85.32,-16.56 84.86,-9.58"/>
</g>
</g>
</svg>
