<?xml version="1.0" encoding="UTF-8" standalone="no"?>
<!DOCTYPE svg PUBLIC "-//W3C//DTD SVG 1.1//EN"
 "http://www.w3.org/Graphics/SVG/1.1/DTD/svg11.dtd">
<!-- Generated by graphviz version 2.44.1 (0)
 -->
<!-- Title: sys/sem.h Pages: 1 -->
<!--zoomable 420 -->
<svg id="main" version="1.1" xmlns="http://www.w3.org/2000/svg" xmlns:xlink="http://www.w3.org/1999/xlink" xml:space="preserve" onload="init(evt)">
<style type="text/css"><![CDATA[
.edge:hover path { stroke: red; }
.edge:hover polygon { stroke: red; fill: red; }
]]></style>
<script type="text/javascript"><![CDATA[
var edges = document.getElementsByTagName('g');
if (edges && edges.length) {
  for (var i=0;i<edges.length;i++) {
    if (edges[i].id.substr(0,4)=='edge') {
      edges[i].setAttribute('class','edge');
    }
  }
}
]]></script>
        <defs>
                <circle id="rim" cx="0" cy="0" r="7"/>
                <circle id="rim2" cx="0" cy="0" r="3.5"/>
                <g id="zoomPlus">
                        <use xlink:href="#rim" fill="#404040">
                                <set attributeName="fill" to="#808080" begin="zoomplus.mouseover" end="zoomplus.mouseout"/>
                        </use>
                        <path d="M-4,0h8M0,-4v8" fill="none" stroke="white" stroke-width="1.5" pointer-events="none"/>
                </g>
                <g id="zoomMin">
                        <use xlink:href="#rim" fill="#404040">
                                <set attributeName="fill" to="#808080" begin="zoomminus.mouseover" end="zoomminus.mouseout"/>
                        </use>
                        <path d="M-4,0h8" fill="none" stroke="white" stroke-width="1.5" pointer-events="none"/>
                </g>
                <g id="dirArrow">
                        <path fill="none" stroke="white" stroke-width="1.5" d="M0,-3.0v7 M-2.5,-0.5L0,-3.0L2.5,-0.5"/>
                </g>
               <g id="resetDef">
                       <use xlink:href="#rim2" fill="#404040">
                               <set attributeName="fill" to="#808080" begin="reset.mouseover" end="reset.mouseout"/>
                       </use>
               </g>
        </defs>

<script type="text/javascript">
var viewWidth = 896;
var viewHeight = 420;
var sectionId = 'dynsection-0';
</script>
<script xlink:href="svgpan.js"/>
<svg id="graph" class="graph">
<g id="viewport">
<title>sys/sem.h</title>
<polygon fill="white" stroke="transparent" points="-4,4 -4,-416 892.39,-416 892.39,4 -4,4"/>
<!-- Node1 -->
<g id="node1" class="node">
<title>Node1</title>
<g id="a_node1"><a xlink:title=" ">
<polygon fill="#bfbfbf" stroke="black" points="172,-392.5 172,-411.5 238,-411.5 238,-392.5 172,-392.5"/>
<text text-anchor="middle" x="205" y="-399.5" font-family="Helvetica,sans-Serif" font-size="10.00">sys/sem.h</text>
</a>
</g>
</g>
<!-- Node2 -->
<g id="node2" class="node">
<title>Node2</title>
<g id="a_node2"><a xlink:href="features_8h.html" target="_top" xlink:title=" ">
<polygon fill="white" stroke="black" points="294,-112.5 294,-131.5 360,-131.5 360,-112.5 294,-112.5"/>
<text text-anchor="middle" x="327" y="-119.5" font-family="Helvetica,sans-Serif" font-size="10.00">features.h</text>
</a>
</g>
</g>
<!-- Node1&#45;&gt;Node2 -->
<g id="edge1" class="edge">
<title>Node1&#45;&gt;Node2</title>
<path fill="none" stroke="midnightblue" d="M171.61,-398.19C113.52,-391.29 0,-367.94 0,-291 0,-291 0,-291 0,-233 0,-185.79 40.91,-187.28 84,-168 149.63,-138.63 233.46,-128.43 283.55,-124.88"/>
<polygon fill="midnightblue" stroke="midnightblue" points="283.95,-128.37 293.7,-124.23 283.5,-121.38 283.95,-128.37"/>
</g>
<!-- Node9 -->
<g id="node9" class="node">
<title>Node9</title>
<g id="a_node9"><a xlink:title=" ">
<polygon fill="white" stroke="#bfbfbf" points="252,-224.5 252,-243.5 308,-243.5 308,-224.5 252,-224.5"/>
<text text-anchor="middle" x="280" y="-231.5" font-family="Helvetica,sans-Serif" font-size="10.00">stddef.h</text>
</a>
</g>
</g>
<!-- Node1&#45;&gt;Node9 -->
<g id="edge9" class="edge">
<title>Node1&#45;&gt;Node9</title>
<path fill="none" stroke="midnightblue" d="M209.03,-392.08C220.89,-365.83 255.81,-288.55 271.81,-253.12"/>
<polygon fill="midnightblue" stroke="midnightblue" points="275.2,-254.12 276.13,-243.57 268.82,-251.24 275.2,-254.12"/>
</g>
<!-- Node10 -->
<g id="node10" class="node">
<title>Node10</title>
<g id="a_node10"><a xlink:href="sys_2ipc_8h.html" target="_top" xlink:title=" ">
<polygon fill="white" stroke="black" points="108.5,-280.5 108.5,-299.5 167.5,-299.5 167.5,-280.5 108.5,-280.5"/>
<text text-anchor="middle" x="138" y="-287.5" font-family="Helvetica,sans-Serif" font-size="10.00">sys/ipc.h</text>
</a>
</g>
</g>
<!-- Node1&#45;&gt;Node10 -->
<g id="edge10" class="edge">
<title>Node1&#45;&gt;Node10</title>
<path fill="none" stroke="midnightblue" d="M199.74,-392.37C188.73,-374.3 163.08,-332.18 148.54,-308.31"/>
<polygon fill="midnightblue" stroke="midnightblue" points="151.42,-306.31 143.23,-299.59 145.45,-309.95 151.42,-306.31"/>
</g>
<!-- Node18 -->
<g id="node18" class="node">
<title>Node18</title>
<g id="a_node18"><a xlink:href="bits_2sem_8h.html" target="_top" xlink:title=" ">
<polygon fill="white" stroke="black" points="588,-336.5 588,-355.5 656,-355.5 656,-336.5 588,-336.5"/>
<text text-anchor="middle" x="622" y="-343.5" font-family="Helvetica,sans-Serif" font-size="10.00">bits/sem.h</text>
</a>
</g>
</g>
<!-- Node1&#45;&gt;Node18 -->
<g id="edge21" class="edge">
<title>Node1&#45;&gt;Node18</title>
<path fill="none" stroke="midnightblue" d="M238.07,-396.72C312.59,-387.07 493.69,-363.62 577.76,-352.73"/>
<polygon fill="midnightblue" stroke="midnightblue" points="578.29,-356.19 587.76,-351.43 577.4,-349.25 578.29,-356.19"/>
</g>
<!-- Node3 -->
<g id="node3" class="node">
<title>Node3</title>
<g id="a_node3"><a xlink:href="stdc-predef_8h.html" target="_top" xlink:title=" ">
<polygon fill="white" stroke="black" points="381,-56.5 381,-75.5 461,-75.5 461,-56.5 381,-56.5"/>
<text text-anchor="middle" x="421" y="-63.5" font-family="Helvetica,sans-Serif" font-size="10.00">stdc&#45;predef.h</text>
</a>
</g>
</g>
<!-- Node2&#45;&gt;Node3 -->
<g id="edge2" class="edge">
<title>Node2&#45;&gt;Node3</title>
<path fill="none" stroke="midnightblue" d="M342.1,-112.32C356.9,-103.82 379.69,-90.73 396.98,-80.8"/>
<polygon fill="midnightblue" stroke="midnightblue" points="399.01,-83.67 405.93,-75.65 395.52,-77.6 399.01,-83.67"/>
</g>
<!-- Node4 -->
<g id="node4" class="node">
<title>Node4</title>
<g id="a_node4"><a xlink:href="cdefs_8h.html" target="_top" xlink:title=" ">
<polygon fill="white" stroke="black" points="291.5,-56.5 291.5,-75.5 362.5,-75.5 362.5,-56.5 291.5,-56.5"/>
<text text-anchor="middle" x="327" y="-63.5" font-family="Helvetica,sans-Serif" font-size="10.00">sys/cdefs.h</text>
</a>
</g>
</g>
<!-- Node2&#45;&gt;Node4 -->
<g id="edge3" class="edge">
<title>Node2&#45;&gt;Node4</title>
<path fill="none" stroke="midnightblue" d="M321.83,-112.08C320.32,-104.93 319.89,-94.64 320.54,-85.69"/>
<polygon fill="midnightblue" stroke="midnightblue" points="324.02,-86.13 321.87,-75.75 317.08,-85.2 324.02,-86.13"/>
</g>
<!-- Node7 -->
<g id="node7" class="node">
<title>Node7</title>
<g id="a_node7"><a xlink:href="stubs_8h.html" target="_top" xlink:title=" ">
<polygon fill="white" stroke="black" points="194.5,-56.5 194.5,-75.5 267.5,-75.5 267.5,-56.5 194.5,-56.5"/>
<text text-anchor="middle" x="231" y="-63.5" font-family="Helvetica,sans-Serif" font-size="10.00">gnu/stubs.h</text>
</a>
</g>
</g>
<!-- Node2&#45;&gt;Node7 -->
<g id="edge7" class="edge">
<title>Node2&#45;&gt;Node7</title>
<path fill="none" stroke="midnightblue" d="M311.58,-112.32C296.46,-103.82 273.18,-90.73 255.53,-80.8"/>
<polygon fill="midnightblue" stroke="midnightblue" points="256.82,-77.51 246.39,-75.65 253.39,-83.61 256.82,-77.51"/>
</g>
<!-- Node4&#45;&gt;Node2 -->
<g id="edge4" class="edge">
<title>Node4&#45;&gt;Node2</title>
<path fill="none" stroke="midnightblue" d="M332.13,-75.75C333.66,-82.86 334.1,-93.14 333.47,-102.1"/>
<polygon fill="midnightblue" stroke="midnightblue" points="329.99,-101.71 332.17,-112.08 336.93,-102.62 329.99,-101.71"/>
</g>
<!-- Node5 -->
<g id="node5" class="node">
<title>Node5</title>
<g id="a_node5"><a xlink:href="wordsize_8h.html" target="_top" xlink:title=" ">
<polygon fill="white" stroke="black" points="424,-0.5 424,-19.5 514,-19.5 514,-0.5 424,-0.5"/>
<text text-anchor="middle" x="469" y="-7.5" font-family="Helvetica,sans-Serif" font-size="10.00">bits/wordsize.h</text>
</a>
</g>
</g>
<!-- Node4&#45;&gt;Node5 -->
<g id="edge5" class="edge">
<title>Node4&#45;&gt;Node5</title>
<path fill="none" stroke="midnightblue" d="M349.5,-56.44C373.08,-47.48 410.32,-33.31 436.96,-23.18"/>
<polygon fill="midnightblue" stroke="midnightblue" points="438.5,-26.34 446.6,-19.52 436.01,-19.8 438.5,-26.34"/>
</g>
<!-- Node6 -->
<g id="node6" class="node">
<title>Node6</title>
<g id="a_node6"><a xlink:href="long-double_8h.html" target="_top" xlink:title=" ">
<polygon fill="white" stroke="black" points="282,-0.5 282,-19.5 386,-19.5 386,-0.5 282,-0.5"/>
<text text-anchor="middle" x="334" y="-7.5" font-family="Helvetica,sans-Serif" font-size="10.00">bits/long&#45;double.h</text>
</a>
</g>
</g>
<!-- Node4&#45;&gt;Node6 -->
<g id="edge6" class="edge">
<title>Node4&#45;&gt;Node6</title>
<path fill="none" stroke="midnightblue" d="M328.16,-56.08C329.08,-48.93 330.42,-38.64 331.58,-29.69"/>
<polygon fill="midnightblue" stroke="midnightblue" points="335.05,-30.12 332.87,-19.75 328.11,-29.22 335.05,-30.12"/>
</g>
<!-- Node8 -->
<g id="node8" class="node">
<title>Node8</title>
<g id="a_node8"><a xlink:title=" ">
<polygon fill="white" stroke="#bfbfbf" points="174.5,-0.5 174.5,-19.5 263.5,-19.5 263.5,-0.5 174.5,-0.5"/>
<text text-anchor="middle" x="219" y="-7.5" font-family="Helvetica,sans-Serif" font-size="10.00">gnu/stubs&#45;32.h</text>
</a>
</g>
</g>
<!-- Node7&#45;&gt;Node8 -->
<g id="edge8" class="edge">
<title>Node7&#45;&gt;Node8</title>
<path fill="none" stroke="midnightblue" d="M229.02,-56.08C227.43,-48.93 225.14,-38.64 223.15,-29.69"/>
<polygon fill="midnightblue" stroke="midnightblue" points="226.53,-28.75 220.94,-19.75 219.7,-30.27 226.53,-28.75"/>
</g>
<!-- Node10&#45;&gt;Node2 -->
<g id="edge11" class="edge">
<title>Node10&#45;&gt;Node2</title>
<path fill="none" stroke="midnightblue" d="M110.09,-280.41C81.21,-269.91 42.25,-250.25 57,-224 101.59,-144.65 219.1,-127.07 283.42,-123.54"/>
<polygon fill="midnightblue" stroke="midnightblue" points="283.81,-127.03 293.64,-123.07 283.49,-120.03 283.81,-127.03"/>
</g>
<!-- Node11 -->
<g id="node11" class="node">
<title>Node11</title>
<g id="a_node11"><a xlink:href="ipctypes_8h.html" target="_top" xlink:title=" ">
<polygon fill="white" stroke="black" points="66,-224.5 66,-243.5 154,-243.5 154,-224.5 66,-224.5"/>
<text text-anchor="middle" x="110" y="-231.5" font-family="Helvetica,sans-Serif" font-size="10.00">bits/ipctypes.h</text>
</a>
</g>
</g>
<!-- Node10&#45;&gt;Node11 -->
<g id="edge12" class="edge">
<title>Node10&#45;&gt;Node11</title>
<path fill="none" stroke="midnightblue" d="M133.38,-280.08C129.54,-272.69 123.98,-261.95 119.24,-252.81"/>
<polygon fill="midnightblue" stroke="midnightblue" points="122.25,-251.02 114.54,-243.75 116.03,-254.24 122.25,-251.02"/>
</g>
<!-- Node12 -->
<g id="node12" class="node">
<title>Node12</title>
<g id="a_node12"><a xlink:href="bits_2ipc_8h.html" target="_top" xlink:title=" ">
<polygon fill="white" stroke="black" points="172.5,-224.5 172.5,-243.5 233.5,-243.5 233.5,-224.5 172.5,-224.5"/>
<text text-anchor="middle" x="203" y="-231.5" font-family="Helvetica,sans-Serif" font-size="10.00">bits/ipc.h</text>
</a>
</g>
</g>
<!-- Node10&#45;&gt;Node12 -->
<g id="edge13" class="edge">
<title>Node10&#45;&gt;Node12</title>
<path fill="none" stroke="midnightblue" d="M148.44,-280.32C158.15,-272.26 172.82,-260.08 184.5,-250.37"/>
<polygon fill="midnightblue" stroke="midnightblue" points="186.91,-252.92 192.37,-243.83 182.44,-247.53 186.91,-252.92"/>
</g>
<!-- Node13 -->
<g id="node13" class="node">
<title>Node13</title>
<g id="a_node13"><a xlink:href="bits_2types_8h.html" target="_top" xlink:title=" ">
<polygon fill="white" stroke="black" points="527,-168.5 527,-187.5 601,-187.5 601,-168.5 527,-168.5"/>
<text text-anchor="middle" x="564" y="-175.5" font-family="Helvetica,sans-Serif" font-size="10.00">bits/types.h</text>
</a>
</g>
</g>
<!-- Node12&#45;&gt;Node13 -->
<g id="edge14" class="edge">
<title>Node12&#45;&gt;Node13</title>
<path fill="none" stroke="midnightblue" d="M233.52,-225.86C236.72,-225.2 239.92,-224.56 243,-224 339.76,-206.36 454.01,-191.83 516.78,-184.39"/>
<polygon fill="midnightblue" stroke="midnightblue" points="517.25,-187.86 526.77,-183.21 516.43,-180.91 517.25,-187.86"/>
</g>
<!-- Node17 -->
<g id="node17" class="node">
<title>Node17</title>
<g id="a_node17"><a xlink:href="ipc-perm_8h.html" target="_top" xlink:title=" ">
<polygon fill="white" stroke="black" points="158,-168.5 158,-187.5 248,-187.5 248,-168.5 158,-168.5"/>
<text text-anchor="middle" x="203" y="-175.5" font-family="Helvetica,sans-Serif" font-size="10.00">bits/ipc&#45;perm.h</text>
</a>
</g>
</g>
<!-- Node12&#45;&gt;Node17 -->
<g id="edge20" class="edge">
<title>Node12&#45;&gt;Node17</title>
<path fill="none" stroke="midnightblue" d="M203,-224.08C203,-217.01 203,-206.86 203,-197.99"/>
<polygon fill="midnightblue" stroke="midnightblue" points="206.5,-197.75 203,-187.75 199.5,-197.75 206.5,-197.75"/>
</g>
<!-- Node13&#45;&gt;Node2 -->
<g id="edge15" class="edge">
<title>Node13&#45;&gt;Node2</title>
<path fill="none" stroke="midnightblue" d="M526.97,-168.56C484.58,-158.9 415.22,-143.1 370.34,-132.88"/>
<polygon fill="midnightblue" stroke="midnightblue" points="370.86,-129.4 360.33,-130.59 369.3,-136.23 370.86,-129.4"/>
</g>
<!-- Node13&#45;&gt;Node5 -->
<g id="edge16" class="edge">
<title>Node13&#45;&gt;Node5</title>
<path fill="none" stroke="midnightblue" d="M549.4,-168.41C537.02,-160.42 519.62,-147.45 509,-132 486.94,-99.9 476.3,-54.73 471.81,-29.65"/>
<polygon fill="midnightblue" stroke="midnightblue" points="475.24,-28.95 470.16,-19.65 468.34,-30.09 475.24,-28.95"/>
</g>
<!-- Node14 -->
<g id="node14" class="node">
<title>Node14</title>
<g id="a_node14"><a xlink:href="timesize_8h.html" target="_top" xlink:title=" ">
<polygon fill="white" stroke="black" points="798.5,-112.5 798.5,-131.5 887.5,-131.5 887.5,-112.5 798.5,-112.5"/>
<text text-anchor="middle" x="843" y="-119.5" font-family="Helvetica,sans-Serif" font-size="10.00">bits/timesize.h</text>
</a>
</g>
</g>
<!-- Node13&#45;&gt;Node14 -->
<g id="edge17" class="edge">
<title>Node13&#45;&gt;Node14</title>
<path fill="none" stroke="midnightblue" d="M601.05,-169.83C649.19,-160.51 733.62,-144.17 788.92,-133.47"/>
<polygon fill="midnightblue" stroke="midnightblue" points="789.74,-136.87 798.89,-131.54 788.41,-130 789.74,-136.87"/>
</g>
<!-- Node15 -->
<g id="node15" class="node">
<title>Node15</title>
<g id="a_node15"><a xlink:href="typesizes_8h.html" target="_top" xlink:title=" ">
<polygon fill="white" stroke="black" points="517.5,-112.5 517.5,-131.5 610.5,-131.5 610.5,-112.5 517.5,-112.5"/>
<text text-anchor="middle" x="564" y="-119.5" font-family="Helvetica,sans-Serif" font-size="10.00">bits/typesizes.h</text>
</a>
</g>
</g>
<!-- Node13&#45;&gt;Node15 -->
<g id="edge18" class="edge">
<title>Node13&#45;&gt;Node15</title>
<path fill="none" stroke="midnightblue" d="M564,-168.08C564,-161.01 564,-150.86 564,-141.99"/>
<polygon fill="midnightblue" stroke="midnightblue" points="567.5,-141.75 564,-131.75 560.5,-141.75 567.5,-141.75"/>
</g>
<!-- Node16 -->
<g id="node16" class="node">
<title>Node16</title>
<g id="a_node16"><a xlink:href="time64_8h.html" target="_top" xlink:title=" ">
<polygon fill="white" stroke="black" points="628.5,-112.5 628.5,-131.5 709.5,-131.5 709.5,-112.5 628.5,-112.5"/>
<text text-anchor="middle" x="669" y="-119.5" font-family="Helvetica,sans-Serif" font-size="10.00">bits/time64.h</text>
</a>
</g>
</g>
<!-- Node13&#45;&gt;Node16 -->
<g id="edge19" class="edge">
<title>Node13&#45;&gt;Node16</title>
<path fill="none" stroke="midnightblue" d="M580.87,-168.32C597.71,-159.66 623.81,-146.24 643.24,-136.25"/>
<polygon fill="midnightblue" stroke="midnightblue" points="644.88,-139.34 652.17,-131.65 641.68,-133.12 644.88,-139.34"/>
</g>
<!-- Node18&#45;&gt;Node14 -->
<g id="edge34" class="edge">
<title>Node18&#45;&gt;Node14</title>
<path fill="none" stroke="midnightblue" d="M656.26,-343.92C715.18,-339.95 833.92,-322.13 881,-244 901.36,-210.22 874.62,-164.48 856.73,-140.05"/>
<polygon fill="midnightblue" stroke="midnightblue" points="859.28,-137.61 850.42,-131.8 853.72,-141.87 859.28,-137.61"/>
</g>
<!-- Node19 -->
<g id="node19" class="node">
<title>Node19</title>
<g id="a_node19"><a xlink:href="sys_2types_8h.html" target="_top" xlink:title=" ">
<polygon fill="white" stroke="black" points="520,-280.5 520,-299.5 592,-299.5 592,-280.5 520,-280.5"/>
<text text-anchor="middle" x="556" y="-287.5" font-family="Helvetica,sans-Serif" font-size="10.00">sys/types.h</text>
</a>
</g>
</g>
<!-- Node18&#45;&gt;Node19 -->
<g id="edge22" class="edge">
<title>Node18&#45;&gt;Node19</title>
<path fill="none" stroke="midnightblue" d="M611.4,-336.32C601.54,-328.26 586.65,-316.08 574.78,-306.37"/>
<polygon fill="midnightblue" stroke="midnightblue" points="576.75,-303.46 566.8,-299.83 572.32,-308.88 576.75,-303.46"/>
</g>
<!-- Node24 -->
<g id="node24" class="node">
<title>Node24</title>
<g id="a_node24"><a xlink:href="struct__semid__ds_8h.html" target="_top" xlink:title=" ">
<polygon fill="white" stroke="black" points="610,-280.5 610,-299.5 766,-299.5 766,-280.5 610,-280.5"/>
<text text-anchor="middle" x="688" y="-287.5" font-family="Helvetica,sans-Serif" font-size="10.00">bits/types/struct_semid_ds.h</text>
</a>
</g>
</g>
<!-- Node18&#45;&gt;Node24 -->
<g id="edge35" class="edge">
<title>Node18&#45;&gt;Node24</title>
<path fill="none" stroke="midnightblue" d="M632.6,-336.32C642.46,-328.26 657.35,-316.08 669.22,-306.37"/>
<polygon fill="midnightblue" stroke="midnightblue" points="671.68,-308.88 677.2,-299.83 667.25,-303.46 671.68,-308.88"/>
</g>
<!-- Node19&#45;&gt;Node2 -->
<g id="edge23" class="edge">
<title>Node19&#45;&gt;Node2</title>
<path fill="none" stroke="midnightblue" d="M519.84,-285.5C468.43,-279.78 377.9,-266.74 355,-244 327.68,-216.87 324.85,-168.71 325.64,-142.06"/>
<polygon fill="midnightblue" stroke="midnightblue" points="329.15,-141.95 326.16,-131.79 322.16,-141.6 329.15,-141.95"/>
</g>
<!-- Node19&#45;&gt;Node9 -->
<g id="edge31" class="edge">
<title>Node19&#45;&gt;Node9</title>
<path fill="none" stroke="midnightblue" d="M519.88,-282.3C473.87,-273.71 391.93,-258.22 322,-244 320.77,-243.75 319.51,-243.49 318.25,-243.23"/>
<polygon fill="midnightblue" stroke="midnightblue" points="318.95,-239.8 308.45,-241.18 317.52,-246.66 318.95,-239.8"/>
</g>
<!-- Node19&#45;&gt;Node13 -->
<g id="edge24" class="edge">
<title>Node19&#45;&gt;Node13</title>
<path fill="none" stroke="midnightblue" d="M592.31,-281.54C595.25,-280.99 598.17,-280.48 601,-280 659.39,-270.19 826.06,-288.61 865,-244 870.85,-237.3 870.8,-230.73 865,-224 832.84,-186.68 687.82,-179.85 611.42,-178.9"/>
<polygon fill="midnightblue" stroke="midnightblue" points="611.15,-175.39 601.12,-178.8 611.08,-182.39 611.15,-175.39"/>
</g>
<!-- Node20 -->
<g id="node20" class="node">
<title>Node20</title>
<g id="a_node20"><a xlink:href="clockid__t_8h.html" target="_top" xlink:title=" ">
<polygon fill="white" stroke="black" points="364,-224.5 364,-243.5 484,-243.5 484,-224.5 364,-224.5"/>
<text text-anchor="middle" x="424" y="-231.5" font-family="Helvetica,sans-Serif" font-size="10.00">bits/types/clockid_t.h</text>
</a>
</g>
</g>
<!-- Node19&#45;&gt;Node20 -->
<g id="edge25" class="edge">
<title>Node19&#45;&gt;Node20</title>
<path fill="none" stroke="midnightblue" d="M535.08,-280.44C513.26,-271.52 478.85,-257.44 454.11,-247.32"/>
<polygon fill="midnightblue" stroke="midnightblue" points="455.4,-244.06 444.82,-243.52 452.75,-250.54 455.4,-244.06"/>
</g>
<!-- Node21 -->
<g id="node21" class="node">
<title>Node21</title>
<g id="a_node21"><a xlink:href="time__t_8h.html" target="_top" xlink:title=" ">
<polygon fill="white" stroke="black" points="502,-224.5 502,-243.5 610,-243.5 610,-224.5 502,-224.5"/>
<text text-anchor="middle" x="556" y="-231.5" font-family="Helvetica,sans-Serif" font-size="10.00">bits/types/time_t.h</text>
</a>
</g>
</g>
<!-- Node19&#45;&gt;Node21 -->
<g id="edge27" class="edge">
<title>Node19&#45;&gt;Node21</title>
<path fill="none" stroke="midnightblue" d="M556,-280.08C556,-273.01 556,-262.86 556,-253.99"/>
<polygon fill="midnightblue" stroke="midnightblue" points="559.5,-253.75 556,-243.75 552.5,-253.75 559.5,-253.75"/>
</g>
<!-- Node22 -->
<g id="node22" class="node">
<title>Node22</title>
<g id="a_node22"><a xlink:href="timer__t_8h.html" target="_top" xlink:title=" ">
<polygon fill="white" stroke="black" points="628,-224.5 628,-243.5 740,-243.5 740,-224.5 628,-224.5"/>
<text text-anchor="middle" x="684" y="-231.5" font-family="Helvetica,sans-Serif" font-size="10.00">bits/types/timer_t.h</text>
</a>
</g>
</g>
<!-- Node19&#45;&gt;Node22 -->
<g id="edge29" class="edge">
<title>Node19&#45;&gt;Node22</title>
<path fill="none" stroke="midnightblue" d="M576.28,-280.44C597.35,-271.56 630.52,-257.56 654.49,-247.45"/>
<polygon fill="midnightblue" stroke="midnightblue" points="655.96,-250.63 663.81,-243.52 653.24,-244.18 655.96,-250.63"/>
</g>
<!-- Node23 -->
<g id="node23" class="node">
<title>Node23</title>
<g id="a_node23"><a xlink:href="stdint-intn_8h.html" target="_top" xlink:title=" ">
<polygon fill="white" stroke="black" points="758.5,-224.5 758.5,-243.5 855.5,-243.5 855.5,-224.5 758.5,-224.5"/>
<text text-anchor="middle" x="807" y="-231.5" font-family="Helvetica,sans-Serif" font-size="10.00">bits/stdint&#45;intn.h</text>
</a>
</g>
</g>
<!-- Node19&#45;&gt;Node23 -->
<g id="edge32" class="edge">
<title>Node19&#45;&gt;Node23</title>
<path fill="none" stroke="midnightblue" d="M592.23,-281.21C635.7,-271.85 708.81,-256.12 757.47,-245.65"/>
<polygon fill="midnightblue" stroke="midnightblue" points="758.43,-249.03 767.47,-243.5 756.96,-242.19 758.43,-249.03"/>
</g>
<!-- Node20&#45;&gt;Node13 -->
<g id="edge26" class="edge">
<title>Node20&#45;&gt;Node13</title>
<path fill="none" stroke="midnightblue" d="M446.18,-224.44C469.43,-215.48 506.15,-201.31 532.42,-191.18"/>
<polygon fill="midnightblue" stroke="midnightblue" points="533.85,-194.38 541.92,-187.52 531.33,-187.85 533.85,-194.38"/>
</g>
<!-- Node21&#45;&gt;Node13 -->
<g id="edge28" class="edge">
<title>Node21&#45;&gt;Node13</title>
<path fill="none" stroke="midnightblue" d="M557.32,-224.08C558.38,-216.93 559.91,-206.64 561.23,-197.69"/>
<polygon fill="midnightblue" stroke="midnightblue" points="564.7,-198.16 562.7,-187.75 557.78,-197.13 564.7,-198.16"/>
</g>
<!-- Node22&#45;&gt;Node13 -->
<g id="edge30" class="edge">
<title>Node22&#45;&gt;Node13</title>
<path fill="none" stroke="midnightblue" d="M664.99,-224.44C645.41,-215.64 614.69,-201.81 592.27,-191.72"/>
<polygon fill="midnightblue" stroke="midnightblue" points="593.48,-188.43 582.93,-187.52 590.61,-194.81 593.48,-188.43"/>
</g>
<!-- Node23&#45;&gt;Node13 -->
<g id="edge33" class="edge">
<title>Node23&#45;&gt;Node13</title>
<path fill="none" stroke="midnightblue" d="M768.5,-224.44C725.82,-214.96 656.98,-199.66 611.12,-189.47"/>
<polygon fill="midnightblue" stroke="midnightblue" points="611.65,-186 601.13,-187.25 610.13,-192.84 611.65,-186"/>
</g>
</g>
</svg>
        <g id="navigator" transform="translate(0 0)" fill="#404254">
                <rect fill="#f2f5e9" fill-opacity="0.5" stroke="#606060" stroke-width=".5" x="0" y="0" width="60" height="60"/>
                <use id="zoomplus" xlink:href="#zoomPlus" x="17" y="9" onmousedown="handleZoom(evt,'in')"/>
                <use id="zoomminus" xlink:href="#zoomMin" x="42" y="9" onmousedown="handleZoom(evt,'out')"/>
                <use id="reset" xlink:href="#resetDef" x="30" y="36" onmousedown="handleReset()"/>
                <g id="arrowUp" xlink:href="#dirArrow" transform="translate(30 24)" onmousedown="handlePan(0,-1)">
                  <use xlink:href="#rim" fill="#404040">
                        <set attributeName="fill" to="#808080" begin="arrowUp.mouseover" end="arrowUp.mouseout"/>
                  </use>
                  <path fill="none" stroke="white" stroke-width="1.5" d="M0,-3.0v7 M-2.5,-0.5L0,-3.0L2.5,-0.5"/>
                </g>
                <g id="arrowRight" xlink:href="#dirArrow" transform="rotate(90) translate(36 -43)" onmousedown="handlePan(1,0)">
                  <use xlink:href="#rim" fill="#404040">
                        <set attributeName="fill" to="#808080" begin="arrowRight.mouseover" end="arrowRight.mouseout"/>
                  </use>
                  <path fill="none" stroke="white" stroke-width="1.5" d="M0,-3.0v7 M-2.5,-0.5L0,-3.0L2.5,-0.5"/>
                </g>
                <g id="arrowDown" xlink:href="#dirArrow" transform="rotate(180) translate(-30 -48)" onmousedown="handlePan(0,1)">
                  <use xlink:href="#rim" fill="#404040">
                        <set attributeName="fill" to="#808080" begin="arrowDown.mouseover" end="arrowDown.mouseout"/>
                  </use>
                  <path fill="none" stroke="white" stroke-width="1.5" d="M0,-3.0v7 M-2.5,-0.5L0,-3.0L2.5,-0.5"/>
                </g>
                <g id="arrowLeft" xlink:href="#dirArrow" transform="rotate(270) translate(-36 17)" onmousedown="handlePan(-1,0)">
                  <use xlink:href="#rim" fill="#404040">
                        <set attributeName="fill" to="#808080" begin="arrowLeft.mouseover" end="arrowLeft.mouseout"/>
                  </use>
                  <path fill="none" stroke="white" stroke-width="1.5" d="M0,-3.0v7 M-2.5,-0.5L0,-3.0L2.5,-0.5"/>
                </g>
        </g>
        <svg viewBox="0 0 15 15" width="100%" height="30px" preserveAspectRatio="xMaxYMin meet">
         <g id="arrow_out" transform="scale(0.3 0.3)">
          <a xlink:href="sys_2sem_8h__incl_org.svg" target="_base">
           <rect id="button" ry="5" rx="5" y="6" x="6" height="38" width="38"
                fill="#f2f5e9" fill-opacity="0.5" stroke="#606060" stroke-width="1.0"/>
           <path id="arrow"
             d="M 11.500037,31.436501 C 11.940474,20.09759 22.043105,11.32322 32.158766,21.979434 L 37.068811,17.246167 C 37.068811,17.246167 37.088388,32 37.088388,32 L 22.160133,31.978069 C 22.160133,31.978069 26.997745,27.140456 26.997745,27.140456 C 18.528582,18.264221 13.291696,25.230495 11.500037,31.436501 z"
             style="fill:#404040;"/>
          </a>
         </g>
        </svg>
</svg>
