<?xml version="1.0" encoding="UTF-8" standalone="no"?>
<!DOCTYPE svg PUBLIC "-//W3C//DTD SVG 1.1//EN"
 "http://www.w3.org/Graphics/SVG/1.1/DTD/svg11.dtd">
<!-- Generated by graphviz version 2.44.1 (0)
 -->
<!-- Title: sys/param.h Pages: 1 -->
<!--zoomable 364 -->
<svg id="main" version="1.1" xmlns="http://www.w3.org/2000/svg" xmlns:xlink="http://www.w3.org/1999/xlink" xml:space="preserve" onload="init(evt)">
<style type="text/css"><![CDATA[
.edge:hover path { stroke: red; }
.edge:hover polygon { stroke: red; fill: red; }
]]></style>
<script type="text/javascript"><![CDATA[
var edges = document.getElementsByTagName('g');
if (edges && edges.length) {
  for (var i=0;i<edges.length;i++) {
    if (edges[i].id.substr(0,4)=='edge') {
      edges[i].setAttribute('class','edge');
    }
  }
}
]]></script>
        <defs>
                <circle id="rim" cx="0" cy="0" r="7"/>
                <circle id="rim2" cx="0" cy="0" r="3.5"/>
                <g id="zoomPlus">
                        <use xlink:href="#rim" fill="#404040">
                                <set attributeName="fill" to="#808080" begin="zoomplus.mouseover" end="zoomplus.mouseout"/>
                        </use>
                        <path d="M-4,0h8M0,-4v8" fill="none" stroke="white" stroke-width="1.5" pointer-events="none"/>
                </g>
                <g id="zoomMin">
                        <use xlink:href="#rim" fill="#404040">
                                <set attributeName="fill" to="#808080" begin="zoomminus.mouseover" end="zoomminus.mouseout"/>
                        </use>
                        <path d="M-4,0h8" fill="none" stroke="white" stroke-width="1.5" pointer-events="none"/>
                </g>
                <g id="dirArrow">
                        <path fill="none" stroke="white" stroke-width="1.5" d="M0,-3.0v7 M-2.5,-0.5L0,-3.0L2.5,-0.5"/>
                </g>
               <g id="resetDef">
                       <use xlink:href="#rim2" fill="#404040">
                               <set attributeName="fill" to="#808080" begin="reset.mouseover" end="reset.mouseout"/>
                       </use>
               </g>
        </defs>

<script type="text/javascript">
var viewWidth = 993;
var viewHeight = 364;
var sectionId = 'dynsection-0';
</script>
<script xlink:href="svgpan.js"/>
<svg id="graph" class="graph">
<g id="viewport">
<title>sys/param.h</title>
<polygon fill="white" stroke="transparent" points="-4,4 -4,-360 988.5,-360 988.5,4 -4,4"/>
<!-- Node1 -->
<g id="node1" class="node">
<title>Node1</title>
<g id="a_node1"><a xlink:title=" ">
<polygon fill="#bfbfbf" stroke="black" points="487.5,-336.5 487.5,-355.5 564.5,-355.5 564.5,-336.5 487.5,-336.5"/>
<text text-anchor="middle" x="526" y="-343.5" font-family="Helvetica,sans-Serif" font-size="10.00">sys/param.h</text>
</a>
</g>
</g>
<!-- Node2 -->
<g id="node2" class="node">
<title>Node2</title>
<g id="a_node2"><a xlink:title=" ">
<polygon fill="white" stroke="#bfbfbf" points="0,-224.5 0,-243.5 56,-243.5 56,-224.5 0,-224.5"/>
<text text-anchor="middle" x="28" y="-231.5" font-family="Helvetica,sans-Serif" font-size="10.00">stddef.h</text>
</a>
</g>
</g>
<!-- Node1&#45;&gt;Node2 -->
<g id="edge1" class="edge">
<title>Node1&#45;&gt;Node2</title>
<path fill="none" stroke="midnightblue" d="M487.38,-336.85C409.72,-320.4 228.88,-281.75 66.44,-244.3"/>
<polygon fill="midnightblue" stroke="midnightblue" points="66.8,-240.79 56.27,-241.95 65.22,-247.61 66.8,-240.79"/>
</g>
<!-- Node3 -->
<g id="node3" class="node">
<title>Node3</title>
<g id="a_node3"><a xlink:href="sys_2types_8h.html" target="_top" xlink:title=" ">
<polygon fill="white" stroke="black" points="377,-280.5 377,-299.5 449,-299.5 449,-280.5 377,-280.5"/>
<text text-anchor="middle" x="413" y="-287.5" font-family="Helvetica,sans-Serif" font-size="10.00">sys/types.h</text>
</a>
</g>
</g>
<!-- Node1&#45;&gt;Node3 -->
<g id="edge2" class="edge">
<title>Node1&#45;&gt;Node3</title>
<path fill="none" stroke="midnightblue" d="M508.09,-336.44C489.75,-327.68 460.99,-313.94 439.91,-303.86"/>
<polygon fill="midnightblue" stroke="midnightblue" points="441.35,-300.67 430.82,-299.52 438.33,-306.99 441.35,-300.67"/>
</g>
<!-- Node19 -->
<g id="node19" class="node">
<title>Node19</title>
<g id="a_node19"><a xlink:href="limits_8h.html" target="_top" xlink:title=" ">
<polygon fill="white" stroke="black" points="660.5,-224.5 660.5,-243.5 713.5,-243.5 713.5,-224.5 660.5,-224.5"/>
<text text-anchor="middle" x="687" y="-231.5" font-family="Helvetica,sans-Serif" font-size="10.00">limits.h</text>
</a>
</g>
</g>
<!-- Node1&#45;&gt;Node19 -->
<g id="edge26" class="edge">
<title>Node1&#45;&gt;Node19</title>
<path fill="none" stroke="midnightblue" d="M521.03,-336.42C513.95,-322.94 503.17,-296.64 516,-280 520.18,-274.58 601.5,-254.88 650.47,-243.42"/>
<polygon fill="midnightblue" stroke="midnightblue" points="651.45,-246.79 660.39,-241.11 649.86,-239.97 651.45,-246.79"/>
</g>
<!-- Node21 -->
<g id="node21" class="node">
<title>Node21</title>
<g id="a_node21"><a xlink:title=" ">
<polygon fill="white" stroke="#bfbfbf" points="525.5,-280.5 525.5,-299.5 584.5,-299.5 584.5,-280.5 525.5,-280.5"/>
<text text-anchor="middle" x="555" y="-287.5" font-family="Helvetica,sans-Serif" font-size="10.00">endian.h</text>
</a>
</g>
</g>
<!-- Node1&#45;&gt;Node21 -->
<g id="edge30" class="edge">
<title>Node1&#45;&gt;Node21</title>
<path fill="none" stroke="midnightblue" d="M530.79,-336.08C534.76,-328.69 540.53,-317.95 545.43,-308.81"/>
<polygon fill="midnightblue" stroke="midnightblue" points="548.65,-310.22 550.3,-299.75 542.49,-306.91 548.65,-310.22"/>
</g>
<!-- Node22 -->
<g id="node22" class="node">
<title>Node22</title>
<g id="a_node22"><a xlink:href="sys_2signal_8h.html" target="_top" xlink:title=" ">
<polygon fill="white" stroke="black" points="602.5,-280.5 602.5,-299.5 657.5,-299.5 657.5,-280.5 602.5,-280.5"/>
<text text-anchor="middle" x="630" y="-287.5" font-family="Helvetica,sans-Serif" font-size="10.00">signal.h</text>
</a>
</g>
</g>
<!-- Node1&#45;&gt;Node22 -->
<g id="edge31" class="edge">
<title>Node1&#45;&gt;Node22</title>
<path fill="none" stroke="midnightblue" d="M542.71,-336.32C559.31,-327.7 585,-314.36 604.22,-304.39"/>
<polygon fill="midnightblue" stroke="midnightblue" points="606.07,-307.37 613.33,-299.65 602.84,-301.16 606.07,-307.37"/>
</g>
<!-- Node23 -->
<g id="node23" class="node">
<title>Node23</title>
<g id="a_node23"><a xlink:href="bits_2param_8h.html" target="_top" xlink:title=" ">
<polygon fill="white" stroke="black" points="733,-280.5 733,-299.5 811,-299.5 811,-280.5 733,-280.5"/>
<text text-anchor="middle" x="772" y="-287.5" font-family="Helvetica,sans-Serif" font-size="10.00">bits/param.h</text>
</a>
</g>
</g>
<!-- Node1&#45;&gt;Node23 -->
<g id="edge33" class="edge">
<title>Node1&#45;&gt;Node23</title>
<path fill="none" stroke="midnightblue" d="M564.71,-336.5C607.57,-327.09 676.74,-311.91 723.26,-301.7"/>
<polygon fill="midnightblue" stroke="midnightblue" points="724.09,-305.1 733.11,-299.54 722.59,-298.26 724.09,-305.1"/>
</g>
<!-- Node3&#45;&gt;Node2 -->
<g id="edge23" class="edge">
<title>Node3&#45;&gt;Node2</title>
<path fill="none" stroke="midnightblue" d="M376.98,-285.66C315.31,-279.66 185.41,-265.78 66.24,-244.05"/>
<polygon fill="midnightblue" stroke="midnightblue" points="66.68,-240.58 56.21,-242.2 65.41,-247.46 66.68,-240.58"/>
</g>
<!-- Node4 -->
<g id="node4" class="node">
<title>Node4</title>
<g id="a_node4"><a xlink:href="features_8h.html" target="_top" xlink:title=" ">
<polygon fill="white" stroke="black" points="729,-112.5 729,-131.5 795,-131.5 795,-112.5 729,-112.5"/>
<text text-anchor="middle" x="762" y="-119.5" font-family="Helvetica,sans-Serif" font-size="10.00">features.h</text>
</a>
</g>
</g>
<!-- Node3&#45;&gt;Node4 -->
<g id="edge3" class="edge">
<title>Node3&#45;&gt;Node4</title>
<path fill="none" stroke="midnightblue" d="M449.29,-284.3C486.36,-278.49 544.87,-266.49 591,-244 640.54,-219.85 643.7,-199.4 689,-168 705.06,-156.87 723.84,-145.32 738.33,-136.71"/>
<polygon fill="midnightblue" stroke="midnightblue" points="740.32,-139.6 747.16,-131.51 736.77,-133.57 740.32,-139.6"/>
</g>
<!-- Node11 -->
<g id="node11" class="node">
<title>Node11</title>
<g id="a_node11"><a xlink:href="bits_2types_8h.html" target="_top" xlink:title=" ">
<polygon fill="white" stroke="black" points="408,-168.5 408,-187.5 482,-187.5 482,-168.5 408,-168.5"/>
<text text-anchor="middle" x="445" y="-175.5" font-family="Helvetica,sans-Serif" font-size="10.00">bits/types.h</text>
</a>
</g>
</g>
<!-- Node3&#45;&gt;Node11 -->
<g id="edge11" class="edge">
<title>Node3&#45;&gt;Node11</title>
<path fill="none" stroke="midnightblue" d="M449.13,-284.01C491.81,-277.28 558.96,-263.83 574,-244 598.93,-211.15 538.61,-193.68 492.27,-185.39"/>
<polygon fill="midnightblue" stroke="midnightblue" points="492.78,-181.93 482.34,-183.71 491.61,-188.83 492.78,-181.93"/>
</g>
<!-- Node15 -->
<g id="node15" class="node">
<title>Node15</title>
<g id="a_node15"><a xlink:href="clockid__t_8h.html" target="_top" xlink:title=" ">
<polygon fill="white" stroke="black" points="74,-224.5 74,-243.5 194,-243.5 194,-224.5 74,-224.5"/>
<text text-anchor="middle" x="134" y="-231.5" font-family="Helvetica,sans-Serif" font-size="10.00">bits/types/clockid_t.h</text>
</a>
</g>
</g>
<!-- Node3&#45;&gt;Node15 -->
<g id="edge17" class="edge">
<title>Node3&#45;&gt;Node15</title>
<path fill="none" stroke="midnightblue" d="M376.81,-282C328.79,-272.7 243.59,-256.21 187.96,-245.44"/>
<polygon fill="midnightblue" stroke="midnightblue" points="188.42,-241.97 177.93,-243.5 187.09,-248.84 188.42,-241.97"/>
</g>
<!-- Node16 -->
<g id="node16" class="node">
<title>Node16</title>
<g id="a_node16"><a xlink:href="time__t_8h.html" target="_top" xlink:title=" ">
<polygon fill="white" stroke="black" points="212,-224.5 212,-243.5 320,-243.5 320,-224.5 212,-224.5"/>
<text text-anchor="middle" x="266" y="-231.5" font-family="Helvetica,sans-Serif" font-size="10.00">bits/types/time_t.h</text>
</a>
</g>
</g>
<!-- Node3&#45;&gt;Node16 -->
<g id="edge19" class="edge">
<title>Node3&#45;&gt;Node16</title>
<path fill="none" stroke="midnightblue" d="M389.71,-280.44C365.19,-271.44 326.4,-257.19 298.8,-247.05"/>
<polygon fill="midnightblue" stroke="midnightblue" points="299.78,-243.68 289.18,-243.52 297.36,-250.25 299.78,-243.68"/>
</g>
<!-- Node17 -->
<g id="node17" class="node">
<title>Node17</title>
<g id="a_node17"><a xlink:href="timer__t_8h.html" target="_top" xlink:title=" ">
<polygon fill="white" stroke="black" points="338,-224.5 338,-243.5 450,-243.5 450,-224.5 338,-224.5"/>
<text text-anchor="middle" x="394" y="-231.5" font-family="Helvetica,sans-Serif" font-size="10.00">bits/types/timer_t.h</text>
</a>
</g>
</g>
<!-- Node3&#45;&gt;Node17 -->
<g id="edge21" class="edge">
<title>Node3&#45;&gt;Node17</title>
<path fill="none" stroke="midnightblue" d="M409.86,-280.08C407.32,-272.85 403.64,-262.41 400.47,-253.4"/>
<polygon fill="midnightblue" stroke="midnightblue" points="403.7,-252.02 397.08,-243.75 397.1,-254.35 403.7,-252.02"/>
</g>
<!-- Node18 -->
<g id="node18" class="node">
<title>Node18</title>
<g id="a_node18"><a xlink:href="stdint-intn_8h.html" target="_top" xlink:title=" ">
<polygon fill="white" stroke="black" points="468.5,-224.5 468.5,-243.5 565.5,-243.5 565.5,-224.5 468.5,-224.5"/>
<text text-anchor="middle" x="517" y="-231.5" font-family="Helvetica,sans-Serif" font-size="10.00">bits/stdint&#45;intn.h</text>
</a>
</g>
</g>
<!-- Node3&#45;&gt;Node18 -->
<g id="edge24" class="edge">
<title>Node3&#45;&gt;Node18</title>
<path fill="none" stroke="midnightblue" d="M429.71,-280.32C446.31,-271.7 472,-258.36 491.22,-248.39"/>
<polygon fill="midnightblue" stroke="midnightblue" points="493.07,-251.37 500.33,-243.65 489.84,-245.16 493.07,-251.37"/>
</g>
<!-- Node5 -->
<g id="node5" class="node">
<title>Node5</title>
<g id="a_node5"><a xlink:href="stdc-predef_8h.html" target="_top" xlink:title=" ">
<polygon fill="white" stroke="black" points="698,-56.5 698,-75.5 778,-75.5 778,-56.5 698,-56.5"/>
<text text-anchor="middle" x="738" y="-63.5" font-family="Helvetica,sans-Serif" font-size="10.00">stdc&#45;predef.h</text>
</a>
</g>
</g>
<!-- Node4&#45;&gt;Node5 -->
<g id="edge4" class="edge">
<title>Node4&#45;&gt;Node5</title>
<path fill="none" stroke="midnightblue" d="M758.04,-112.08C754.79,-104.77 750.08,-94.18 746.05,-85.1"/>
<polygon fill="midnightblue" stroke="midnightblue" points="749.15,-83.47 741.89,-75.75 742.75,-86.31 749.15,-83.47"/>
</g>
<!-- Node6 -->
<g id="node6" class="node">
<title>Node6</title>
<g id="a_node6"><a xlink:href="cdefs_8h.html" target="_top" xlink:title=" ">
<polygon fill="white" stroke="black" points="796.5,-56.5 796.5,-75.5 867.5,-75.5 867.5,-56.5 796.5,-56.5"/>
<text text-anchor="middle" x="832" y="-63.5" font-family="Helvetica,sans-Serif" font-size="10.00">sys/cdefs.h</text>
</a>
</g>
</g>
<!-- Node4&#45;&gt;Node6 -->
<g id="edge5" class="edge">
<title>Node4&#45;&gt;Node6</title>
<path fill="none" stroke="midnightblue" d="M768.13,-112.32C777.14,-103.98 793.38,-91.21 807.35,-81.35"/>
<polygon fill="midnightblue" stroke="midnightblue" points="809.4,-84.19 815.67,-75.65 805.44,-78.42 809.4,-84.19"/>
</g>
<!-- Node9 -->
<g id="node9" class="node">
<title>Node9</title>
<g id="a_node9"><a xlink:href="stubs_8h.html" target="_top" xlink:title=" ">
<polygon fill="white" stroke="black" points="897.5,-56.5 897.5,-75.5 970.5,-75.5 970.5,-56.5 897.5,-56.5"/>
<text text-anchor="middle" x="934" y="-63.5" font-family="Helvetica,sans-Serif" font-size="10.00">gnu/stubs.h</text>
</a>
</g>
</g>
<!-- Node4&#45;&gt;Node9 -->
<g id="edge9" class="edge">
<title>Node4&#45;&gt;Node9</title>
<path fill="none" stroke="midnightblue" d="M789.25,-112.44C818.44,-103.28 864.92,-88.69 897.31,-78.52"/>
<polygon fill="midnightblue" stroke="midnightblue" points="898.38,-81.85 906.87,-75.52 896.28,-75.17 898.38,-81.85"/>
</g>
<!-- Node6&#45;&gt;Node4 -->
<g id="edge6" class="edge">
<title>Node6&#45;&gt;Node4</title>
<path fill="none" stroke="midnightblue" d="M825.7,-75.83C816.65,-84.18 800.52,-96.86 786.63,-106.66"/>
<polygon fill="midnightblue" stroke="midnightblue" points="784.63,-103.79 778.36,-112.32 788.59,-109.56 784.63,-103.79"/>
</g>
<!-- Node7 -->
<g id="node7" class="node">
<title>Node7</title>
<g id="a_node7"><a xlink:href="wordsize_8h.html" target="_top" xlink:title=" ">
<polygon fill="white" stroke="black" points="625,-0.5 625,-19.5 715,-19.5 715,-0.5 625,-0.5"/>
<text text-anchor="middle" x="670" y="-7.5" font-family="Helvetica,sans-Serif" font-size="10.00">bits/wordsize.h</text>
</a>
</g>
</g>
<!-- Node6&#45;&gt;Node7 -->
<g id="edge7" class="edge">
<title>Node6&#45;&gt;Node7</title>
<path fill="none" stroke="midnightblue" d="M806.33,-56.44C779.08,-47.36 735.82,-32.94 705.35,-22.78"/>
<polygon fill="midnightblue" stroke="midnightblue" points="706.14,-19.36 695.55,-19.52 703.93,-26 706.14,-19.36"/>
</g>
<!-- Node8 -->
<g id="node8" class="node">
<title>Node8</title>
<g id="a_node8"><a xlink:href="long-double_8h.html" target="_top" xlink:title=" ">
<polygon fill="white" stroke="black" points="773,-0.5 773,-19.5 877,-19.5 877,-0.5 773,-0.5"/>
<text text-anchor="middle" x="825" y="-7.5" font-family="Helvetica,sans-Serif" font-size="10.00">bits/long&#45;double.h</text>
</a>
</g>
</g>
<!-- Node6&#45;&gt;Node8 -->
<g id="edge8" class="edge">
<title>Node6&#45;&gt;Node8</title>
<path fill="none" stroke="midnightblue" d="M830.84,-56.08C829.92,-48.93 828.58,-38.64 827.42,-29.69"/>
<polygon fill="midnightblue" stroke="midnightblue" points="830.89,-29.22 826.13,-19.75 823.95,-30.12 830.89,-29.22"/>
</g>
<!-- Node10 -->
<g id="node10" class="node">
<title>Node10</title>
<g id="a_node10"><a xlink:title=" ">
<polygon fill="white" stroke="#bfbfbf" points="895.5,-0.5 895.5,-19.5 984.5,-19.5 984.5,-0.5 895.5,-0.5"/>
<text text-anchor="middle" x="940" y="-7.5" font-family="Helvetica,sans-Serif" font-size="10.00">gnu/stubs&#45;32.h</text>
</a>
</g>
</g>
<!-- Node9&#45;&gt;Node10 -->
<g id="edge10" class="edge">
<title>Node9&#45;&gt;Node10</title>
<path fill="none" stroke="midnightblue" d="M934.99,-56.08C935.79,-48.93 936.93,-38.64 937.92,-29.69"/>
<polygon fill="midnightblue" stroke="midnightblue" points="941.4,-30.08 939.03,-19.75 934.44,-29.3 941.4,-30.08"/>
</g>
<!-- Node11&#45;&gt;Node4 -->
<g id="edge12" class="edge">
<title>Node11&#45;&gt;Node4</title>
<path fill="none" stroke="midnightblue" d="M482.3,-170.65C541.36,-160.58 656.14,-141.03 718.73,-130.37"/>
<polygon fill="midnightblue" stroke="midnightblue" points="719.41,-133.8 728.68,-128.68 718.24,-126.9 719.41,-133.8"/>
</g>
<!-- Node11&#45;&gt;Node7 -->
<g id="edge13" class="edge">
<title>Node11&#45;&gt;Node7</title>
<path fill="none" stroke="midnightblue" d="M407.85,-170.3C367.06,-161.26 310.18,-142.66 333,-112 366.81,-66.58 528.41,-33.97 614.97,-19.44"/>
<polygon fill="midnightblue" stroke="midnightblue" points="615.59,-22.89 624.89,-17.8 614.45,-15.98 615.59,-22.89"/>
</g>
<!-- Node12 -->
<g id="node12" class="node">
<title>Node12</title>
<g id="a_node12"><a xlink:href="timesize_8h.html" target="_top" xlink:title=" ">
<polygon fill="white" stroke="black" points="342.5,-112.5 342.5,-131.5 431.5,-131.5 431.5,-112.5 342.5,-112.5"/>
<text text-anchor="middle" x="387" y="-119.5" font-family="Helvetica,sans-Serif" font-size="10.00">bits/timesize.h</text>
</a>
</g>
</g>
<!-- Node11&#45;&gt;Node12 -->
<g id="edge14" class="edge">
<title>Node11&#45;&gt;Node12</title>
<path fill="none" stroke="midnightblue" d="M435.68,-168.32C427.11,-160.34 414.19,-148.31 403.81,-138.65"/>
<polygon fill="midnightblue" stroke="midnightblue" points="406.19,-136.09 396.49,-131.83 401.42,-141.21 406.19,-136.09"/>
</g>
<!-- Node13 -->
<g id="node13" class="node">
<title>Node13</title>
<g id="a_node13"><a xlink:href="typesizes_8h.html" target="_top" xlink:title=" ">
<polygon fill="white" stroke="black" points="449.5,-112.5 449.5,-131.5 542.5,-131.5 542.5,-112.5 449.5,-112.5"/>
<text text-anchor="middle" x="496" y="-119.5" font-family="Helvetica,sans-Serif" font-size="10.00">bits/typesizes.h</text>
</a>
</g>
</g>
<!-- Node11&#45;&gt;Node13 -->
<g id="edge15" class="edge">
<title>Node11&#45;&gt;Node13</title>
<path fill="none" stroke="midnightblue" d="M453.42,-168.08C460.85,-160.22 471.85,-148.57 480.81,-139.08"/>
<polygon fill="midnightblue" stroke="midnightblue" points="483.41,-141.42 487.74,-131.75 478.32,-136.62 483.41,-141.42"/>
</g>
<!-- Node14 -->
<g id="node14" class="node">
<title>Node14</title>
<g id="a_node14"><a xlink:href="time64_8h.html" target="_top" xlink:title=" ">
<polygon fill="white" stroke="black" points="560.5,-112.5 560.5,-131.5 641.5,-131.5 641.5,-112.5 560.5,-112.5"/>
<text text-anchor="middle" x="601" y="-119.5" font-family="Helvetica,sans-Serif" font-size="10.00">bits/time64.h</text>
</a>
</g>
</g>
<!-- Node11&#45;&gt;Node14 -->
<g id="edge16" class="edge">
<title>Node11&#45;&gt;Node14</title>
<path fill="none" stroke="midnightblue" d="M469.72,-168.44C495.85,-159.4 537.26,-145.06 566.58,-134.92"/>
<polygon fill="midnightblue" stroke="midnightblue" points="568.09,-138.1 576.4,-131.52 565.8,-131.48 568.09,-138.1"/>
</g>
<!-- Node15&#45;&gt;Node11 -->
<g id="edge18" class="edge">
<title>Node15&#45;&gt;Node11</title>
<path fill="none" stroke="midnightblue" d="M183.28,-224.44C242.09,-214.23 339.74,-197.28 397.68,-187.22"/>
<polygon fill="midnightblue" stroke="midnightblue" points="398.41,-190.64 407.66,-185.48 397.21,-183.75 398.41,-190.64"/>
</g>
<!-- Node16&#45;&gt;Node11 -->
<g id="edge20" class="edge">
<title>Node16&#45;&gt;Node11</title>
<path fill="none" stroke="midnightblue" d="M294.36,-224.44C324.74,-215.28 373.11,-200.69 406.82,-190.52"/>
<polygon fill="midnightblue" stroke="midnightblue" points="408.21,-193.76 416.77,-187.52 406.18,-187.05 408.21,-193.76"/>
</g>
<!-- Node17&#45;&gt;Node11 -->
<g id="edge22" class="edge">
<title>Node17&#45;&gt;Node11</title>
<path fill="none" stroke="midnightblue" d="M402.42,-224.08C409.85,-216.22 420.85,-204.57 429.81,-195.08"/>
<polygon fill="midnightblue" stroke="midnightblue" points="432.41,-197.42 436.74,-187.75 427.32,-192.62 432.41,-197.42"/>
</g>
<!-- Node18&#45;&gt;Node11 -->
<g id="edge25" class="edge">
<title>Node18&#45;&gt;Node11</title>
<path fill="none" stroke="midnightblue" d="M505.43,-224.32C494.58,-216.18 478.12,-203.84 465.12,-194.09"/>
<polygon fill="midnightblue" stroke="midnightblue" points="466.88,-191.03 456.78,-187.83 462.68,-196.63 466.88,-191.03"/>
</g>
<!-- Node19&#45;&gt;Node7 -->
<g id="edge29" class="edge">
<title>Node19&#45;&gt;Node7</title>
<path fill="none" stroke="midnightblue" d="M686.33,-224.3C683.83,-191.63 674.97,-75.87 671.45,-29.96"/>
<polygon fill="midnightblue" stroke="midnightblue" points="674.93,-29.59 670.68,-19.88 667.95,-30.12 674.93,-29.59"/>
</g>
<!-- Node20 -->
<g id="node20" class="node">
<title>Node20</title>
<g id="a_node20"><a xlink:href="libc-header-start_8h.html" target="_top" xlink:title=" ">
<polygon fill="white" stroke="black" points="698,-168.5 698,-187.5 826,-187.5 826,-168.5 698,-168.5"/>
<text text-anchor="middle" x="762" y="-175.5" font-family="Helvetica,sans-Serif" font-size="10.00">bits/libc&#45;header&#45;start.h</text>
</a>
</g>
</g>
<!-- Node19&#45;&gt;Node20 -->
<g id="edge27" class="edge">
<title>Node19&#45;&gt;Node20</title>
<path fill="none" stroke="midnightblue" d="M699.05,-224.32C710.46,-216.11 727.83,-203.6 741.43,-193.81"/>
<polygon fill="midnightblue" stroke="midnightblue" points="743.66,-196.52 749.73,-187.83 739.57,-190.84 743.66,-196.52"/>
</g>
<!-- Node20&#45;&gt;Node4 -->
<g id="edge28" class="edge">
<title>Node20&#45;&gt;Node4</title>
<path fill="none" stroke="midnightblue" d="M762,-168.08C762,-161.01 762,-150.86 762,-141.99"/>
<polygon fill="midnightblue" stroke="midnightblue" points="765.5,-141.75 762,-131.75 758.5,-141.75 765.5,-141.75"/>
</g>
<!-- Node22&#45;&gt;Node22 -->
<g id="edge32" class="edge">
<title>Node22&#45;&gt;Node22</title>
<path fill="none" stroke="midnightblue" d="M649.64,-299.57C662.75,-302.27 675.5,-299.08 675.5,-290 675.5,-283.33 668.62,-279.84 659.78,-279.52"/>
<polygon fill="midnightblue" stroke="midnightblue" points="659.29,-276.05 649.64,-280.43 659.91,-283.03 659.29,-276.05"/>
</g>
<!-- Node24 -->
<g id="node24" class="node">
<title>Node24</title>
<g id="a_node24"><a xlink:title=" ">
<polygon fill="white" stroke="#bfbfbf" points="732,-224.5 732,-243.5 812,-243.5 812,-224.5 732,-224.5"/>
<text text-anchor="middle" x="772" y="-231.5" font-family="Helvetica,sans-Serif" font-size="10.00">linux/limits.h</text>
</a>
</g>
</g>
<!-- Node23&#45;&gt;Node24 -->
<g id="edge34" class="edge">
<title>Node23&#45;&gt;Node24</title>
<path fill="none" stroke="midnightblue" d="M772,-280.08C772,-273.01 772,-262.86 772,-253.99"/>
<polygon fill="midnightblue" stroke="midnightblue" points="775.5,-253.75 772,-243.75 768.5,-253.75 775.5,-253.75"/>
</g>
<!-- Node25 -->
<g id="node25" class="node">
<title>Node25</title>
<g id="a_node25"><a xlink:title=" ">
<polygon fill="white" stroke="#bfbfbf" points="830,-224.5 830,-243.5 914,-243.5 914,-224.5 830,-224.5"/>
<text text-anchor="middle" x="872" y="-231.5" font-family="Helvetica,sans-Serif" font-size="10.00">linux/param.h</text>
</a>
</g>
</g>
<!-- Node23&#45;&gt;Node25 -->
<g id="edge35" class="edge">
<title>Node23&#45;&gt;Node25</title>
<path fill="none" stroke="midnightblue" d="M788.07,-280.32C803.96,-271.74 828.51,-258.49 846.96,-248.52"/>
<polygon fill="midnightblue" stroke="midnightblue" points="848.84,-251.49 855.97,-243.65 845.51,-245.33 848.84,-251.49"/>
</g>
</g>
</svg>
        <g id="navigator" transform="translate(0 0)" fill="#404254">
                <rect fill="#f2f5e9" fill-opacity="0.5" stroke="#606060" stroke-width=".5" x="0" y="0" width="60" height="60"/>
                <use id="zoomplus" xlink:href="#zoomPlus" x="17" y="9" onmousedown="handleZoom(evt,'in')"/>
                <use id="zoomminus" xlink:href="#zoomMin" x="42" y="9" onmousedown="handleZoom(evt,'out')"/>
                <use id="reset" xlink:href="#resetDef" x="30" y="36" onmousedown="handleReset()"/>
                <g id="arrowUp" xlink:href="#dirArrow" transform="translate(30 24)" onmousedown="handlePan(0,-1)">
                  <use xlink:href="#rim" fill="#404040">
                        <set attributeName="fill" to="#808080" begin="arrowUp.mouseover" end="arrowUp.mouseout"/>
                  </use>
                  <path fill="none" stroke="white" stroke-width="1.5" d="M0,-3.0v7 M-2.5,-0.5L0,-3.0L2.5,-0.5"/>
                </g>
                <g id="arrowRight" xlink:href="#dirArrow" transform="rotate(90) translate(36 -43)" onmousedown="handlePan(1,0)">
                  <use xlink:href="#rim" fill="#404040">
                        <set attributeName="fill" to="#808080" begin="arrowRight.mouseover" end="arrowRight.mouseout"/>
                  </use>
                  <path fill="none" stroke="white" stroke-width="1.5" d="M0,-3.0v7 M-2.5,-0.5L0,-3.0L2.5,-0.5"/>
                </g>
                <g id="arrowDown" xlink:href="#dirArrow" transform="rotate(180) translate(-30 -48)" onmousedown="handlePan(0,1)">
                  <use xlink:href="#rim" fill="#404040">
                        <set attributeName="fill" to="#808080" begin="arrowDown.mouseover" end="arrowDown.mouseout"/>
                  </use>
                  <path fill="none" stroke="white" stroke-width="1.5" d="M0,-3.0v7 M-2.5,-0.5L0,-3.0L2.5,-0.5"/>
                </g>
                <g id="arrowLeft" xlink:href="#dirArrow" transform="rotate(270) translate(-36 17)" onmousedown="handlePan(-1,0)">
                  <use xlink:href="#rim" fill="#404040">
                        <set attributeName="fill" to="#808080" begin="arrowLeft.mouseover" end="arrowLeft.mouseout"/>
                  </use>
                  <path fill="none" stroke="white" stroke-width="1.5" d="M0,-3.0v7 M-2.5,-0.5L0,-3.0L2.5,-0.5"/>
                </g>
        </g>
        <svg viewBox="0 0 15 15" width="100%" height="30px" preserveAspectRatio="xMaxYMin meet">
         <g id="arrow_out" transform="scale(0.3 0.3)">
          <a xlink:href="sys_2param_8h__incl_org.svg" target="_base">
           <rect id="button" ry="5" rx="5" y="6" x="6" height="38" width="38"
                fill="#f2f5e9" fill-opacity="0.5" stroke="#606060" stroke-width="1.0"/>
           <path id="arrow"
             d="M 11.500037,31.436501 C 11.940474,20.09759 22.043105,11.32322 32.158766,21.979434 L 37.068811,17.246167 C 37.068811,17.246167 37.088388,32 37.088388,32 L 22.160133,31.978069 C 22.160133,31.978069 26.997745,27.140456 26.997745,27.140456 C 18.528582,18.264221 13.291696,25.230495 11.500037,31.436501 z"
             style="fill:#404040;"/>
          </a>
         </g>
        </svg>
</svg>
