<?xml version="1.0" encoding="UTF-8" standalone="no"?>
<!DOCTYPE svg PUBLIC "-//W3C//DTD SVG 1.1//EN"
 "http://www.w3.org/Graphics/SVG/1.1/DTD/svg11.dtd">
<!-- Generated by graphviz version 2.44.1 (0)
 -->
<!-- Title: syslog.h Pages: 1 -->
<svg width="360pt" height="364pt"
 viewBox="0.00 0.00 360.00 364.00" xmlns="http://www.w3.org/2000/svg" xmlns:xlink="http://www.w3.org/1999/xlink">
<g id="graph0" class="graph" transform="scale(1 1) rotate(0) translate(4 360)">
<title>syslog.h</title>
<polygon fill="white" stroke="transparent" points="-4,4 -4,-360 356,-360 356,4 -4,4"/>
<!-- Node1 -->
<g id="node1" class="node">
<title>Node1</title>
<g id="a_node1"><a xlink:title=" ">
<polygon fill="#bfbfbf" stroke="black" points="107,-336.5 107,-355.5 164,-355.5 164,-336.5 107,-336.5"/>
<text text-anchor="middle" x="135.5" y="-343.5" font-family="Helvetica,sans-Serif" font-size="10.00">syslog.h</text>
</a>
</g>
</g>
<!-- Node2 -->
<g id="node2" class="node">
<title>Node2</title>
<g id="a_node2"><a xlink:href="sys_2syslog_8h.html" target="_top" xlink:title=" ">
<polygon fill="white" stroke="black" points="97,-280.5 97,-299.5 174,-299.5 174,-280.5 97,-280.5"/>
<text text-anchor="middle" x="135.5" y="-287.5" font-family="Helvetica,sans-Serif" font-size="10.00">sys/syslog.h</text>
</a>
</g>
</g>
<!-- Node1&#45;&gt;Node2 -->
<g id="edge1" class="edge">
<title>Node1&#45;&gt;Node2</title>
<path fill="none" stroke="midnightblue" d="M135.5,-336.08C135.5,-329.01 135.5,-318.86 135.5,-309.99"/>
<polygon fill="midnightblue" stroke="midnightblue" points="139,-309.75 135.5,-299.75 132,-309.75 139,-309.75"/>
</g>
<!-- Node3 -->
<g id="node3" class="node">
<title>Node3</title>
<g id="a_node3"><a xlink:href="features_8h.html" target="_top" xlink:title=" ">
<polygon fill="white" stroke="black" points="114.5,-112.5 114.5,-131.5 180.5,-131.5 180.5,-112.5 114.5,-112.5"/>
<text text-anchor="middle" x="147.5" y="-119.5" font-family="Helvetica,sans-Serif" font-size="10.00">features.h</text>
</a>
</g>
</g>
<!-- Node2&#45;&gt;Node3 -->
<g id="edge2" class="edge">
<title>Node2&#45;&gt;Node3</title>
<path fill="none" stroke="midnightblue" d="M101.32,-280.49C82.51,-273.88 60.76,-262.6 49.5,-244 44.9,-236.4 46.16,-232.24 49.5,-224 64.8,-186.25 101.73,-154.84 125.63,-137.52"/>
<polygon fill="midnightblue" stroke="midnightblue" points="127.91,-140.19 134.08,-131.58 123.89,-134.46 127.91,-140.19"/>
</g>
<!-- Node10 -->
<g id="node10" class="node">
<title>Node10</title>
<g id="a_node10"><a xlink:title=" ">
<polygon fill="white" stroke="#bfbfbf" points="58.5,-224.5 58.5,-243.5 114.5,-243.5 114.5,-224.5 58.5,-224.5"/>
<text text-anchor="middle" x="86.5" y="-231.5" font-family="Helvetica,sans-Serif" font-size="10.00">stdarg.h</text>
</a>
</g>
</g>
<!-- Node2&#45;&gt;Node10 -->
<g id="edge10" class="edge">
<title>Node2&#45;&gt;Node10</title>
<path fill="none" stroke="midnightblue" d="M127.41,-280.08C120.34,-272.3 109.91,-260.8 101.35,-251.37"/>
<polygon fill="midnightblue" stroke="midnightblue" points="103.75,-248.8 94.44,-243.75 98.57,-253.51 103.75,-248.8"/>
</g>
<!-- Node11 -->
<g id="node11" class="node">
<title>Node11</title>
<g id="a_node11"><a xlink:href="syslog-path_8h.html" target="_top" xlink:title=" ">
<polygon fill="white" stroke="black" points="132.5,-224.5 132.5,-243.5 236.5,-243.5 236.5,-224.5 132.5,-224.5"/>
<text text-anchor="middle" x="184.5" y="-231.5" font-family="Helvetica,sans-Serif" font-size="10.00">bits/syslog&#45;path.h</text>
</a>
</g>
</g>
<!-- Node2&#45;&gt;Node11 -->
<g id="edge11" class="edge">
<title>Node2&#45;&gt;Node11</title>
<path fill="none" stroke="midnightblue" d="M143.59,-280.08C150.66,-272.3 161.09,-260.8 169.65,-251.37"/>
<polygon fill="midnightblue" stroke="midnightblue" points="172.43,-253.51 176.56,-243.75 167.25,-248.8 172.43,-253.51"/>
</g>
<!-- Node12 -->
<g id="node12" class="node">
<title>Node12</title>
<g id="a_node12"><a xlink:href="floatn_8h.html" target="_top" xlink:title=" ">
<polygon fill="white" stroke="black" points="254.5,-224.5 254.5,-243.5 328.5,-243.5 328.5,-224.5 254.5,-224.5"/>
<text text-anchor="middle" x="291.5" y="-231.5" font-family="Helvetica,sans-Serif" font-size="10.00">bits/floatn.h</text>
</a>
</g>
</g>
<!-- Node2&#45;&gt;Node12 -->
<g id="edge12" class="edge">
<title>Node2&#45;&gt;Node12</title>
<path fill="none" stroke="midnightblue" d="M160.22,-280.44C186.35,-271.4 227.76,-257.06 257.08,-246.92"/>
<polygon fill="midnightblue" stroke="midnightblue" points="258.59,-250.1 266.9,-243.52 256.3,-243.48 258.59,-250.1"/>
</g>
<!-- Node4 -->
<g id="node4" class="node">
<title>Node4</title>
<g id="a_node4"><a xlink:href="stdc-predef_8h.html" target="_top" xlink:title=" ">
<polygon fill="white" stroke="black" points="201.5,-56.5 201.5,-75.5 281.5,-75.5 281.5,-56.5 201.5,-56.5"/>
<text text-anchor="middle" x="241.5" y="-63.5" font-family="Helvetica,sans-Serif" font-size="10.00">stdc&#45;predef.h</text>
</a>
</g>
</g>
<!-- Node3&#45;&gt;Node4 -->
<g id="edge3" class="edge">
<title>Node3&#45;&gt;Node4</title>
<path fill="none" stroke="midnightblue" d="M162.6,-112.32C177.4,-103.82 200.19,-90.73 217.48,-80.8"/>
<polygon fill="midnightblue" stroke="midnightblue" points="219.51,-83.67 226.43,-75.65 216.02,-77.6 219.51,-83.67"/>
</g>
<!-- Node5 -->
<g id="node5" class="node">
<title>Node5</title>
<g id="a_node5"><a xlink:href="cdefs_8h.html" target="_top" xlink:title=" ">
<polygon fill="white" stroke="black" points="112,-56.5 112,-75.5 183,-75.5 183,-56.5 112,-56.5"/>
<text text-anchor="middle" x="147.5" y="-63.5" font-family="Helvetica,sans-Serif" font-size="10.00">sys/cdefs.h</text>
</a>
</g>
</g>
<!-- Node3&#45;&gt;Node5 -->
<g id="edge4" class="edge">
<title>Node3&#45;&gt;Node5</title>
<path fill="none" stroke="midnightblue" d="M142.33,-112.08C140.82,-104.93 140.39,-94.64 141.04,-85.69"/>
<polygon fill="midnightblue" stroke="midnightblue" points="144.52,-86.13 142.37,-75.75 137.58,-85.2 144.52,-86.13"/>
</g>
<!-- Node8 -->
<g id="node8" class="node">
<title>Node8</title>
<g id="a_node8"><a xlink:href="stubs_8h.html" target="_top" xlink:title=" ">
<polygon fill="white" stroke="black" points="17,-56.5 17,-75.5 90,-75.5 90,-56.5 17,-56.5"/>
<text text-anchor="middle" x="53.5" y="-63.5" font-family="Helvetica,sans-Serif" font-size="10.00">gnu/stubs.h</text>
</a>
</g>
</g>
<!-- Node3&#45;&gt;Node8 -->
<g id="edge8" class="edge">
<title>Node3&#45;&gt;Node8</title>
<path fill="none" stroke="midnightblue" d="M132.4,-112.32C117.6,-103.82 94.81,-90.73 77.52,-80.8"/>
<polygon fill="midnightblue" stroke="midnightblue" points="78.98,-77.6 68.57,-75.65 75.49,-83.67 78.98,-77.6"/>
</g>
<!-- Node5&#45;&gt;Node3 -->
<g id="edge5" class="edge">
<title>Node5&#45;&gt;Node3</title>
<path fill="none" stroke="midnightblue" d="M152.63,-75.75C154.16,-82.86 154.6,-93.14 153.97,-102.1"/>
<polygon fill="midnightblue" stroke="midnightblue" points="150.49,-101.71 152.67,-112.08 157.43,-102.62 150.49,-101.71"/>
</g>
<!-- Node6 -->
<g id="node6" class="node">
<title>Node6</title>
<g id="a_node6"><a xlink:href="wordsize_8h.html" target="_top" xlink:title=" ">
<polygon fill="white" stroke="black" points="107.5,-0.5 107.5,-19.5 197.5,-19.5 197.5,-0.5 107.5,-0.5"/>
<text text-anchor="middle" x="152.5" y="-7.5" font-family="Helvetica,sans-Serif" font-size="10.00">bits/wordsize.h</text>
</a>
</g>
</g>
<!-- Node5&#45;&gt;Node6 -->
<g id="edge6" class="edge">
<title>Node5&#45;&gt;Node6</title>
<path fill="none" stroke="midnightblue" d="M148.33,-56.08C148.98,-49.01 149.92,-38.86 150.74,-29.99"/>
<polygon fill="midnightblue" stroke="midnightblue" points="154.25,-30.03 151.69,-19.75 147.28,-29.39 154.25,-30.03"/>
</g>
<!-- Node7 -->
<g id="node7" class="node">
<title>Node7</title>
<g id="a_node7"><a xlink:href="long-double_8h.html" target="_top" xlink:title=" ">
<polygon fill="white" stroke="black" points="236.5,-0.5 236.5,-19.5 340.5,-19.5 340.5,-0.5 236.5,-0.5"/>
<text text-anchor="middle" x="288.5" y="-7.5" font-family="Helvetica,sans-Serif" font-size="10.00">bits/long&#45;double.h</text>
</a>
</g>
</g>
<!-- Node5&#45;&gt;Node7 -->
<g id="edge7" class="edge">
<title>Node5&#45;&gt;Node7</title>
<path fill="none" stroke="midnightblue" d="M169.84,-56.44C193.25,-47.48 230.24,-33.31 256.69,-23.18"/>
<polygon fill="midnightblue" stroke="midnightblue" points="258.18,-26.36 266.26,-19.52 255.67,-19.82 258.18,-26.36"/>
</g>
<!-- Node9 -->
<g id="node9" class="node">
<title>Node9</title>
<g id="a_node9"><a xlink:title=" ">
<polygon fill="white" stroke="#bfbfbf" points="0,-0.5 0,-19.5 89,-19.5 89,-0.5 0,-0.5"/>
<text text-anchor="middle" x="44.5" y="-7.5" font-family="Helvetica,sans-Serif" font-size="10.00">gnu/stubs&#45;32.h</text>
</a>
</g>
</g>
<!-- Node8&#45;&gt;Node9 -->
<g id="edge9" class="edge">
<title>Node8&#45;&gt;Node9</title>
<path fill="none" stroke="midnightblue" d="M52.01,-56.08C50.82,-48.93 49.11,-38.64 47.62,-29.69"/>
<polygon fill="midnightblue" stroke="midnightblue" points="51.05,-29.04 45.96,-19.75 44.15,-30.19 51.05,-29.04"/>
</g>
<!-- Node12&#45;&gt;Node3 -->
<g id="edge13" class="edge">
<title>Node12&#45;&gt;Node3</title>
<path fill="none" stroke="midnightblue" d="M277.11,-224.41C262.88,-215.73 240.66,-201.69 222.5,-188 201.6,-172.25 179.1,-152.31 164.26,-138.69"/>
<polygon fill="midnightblue" stroke="midnightblue" points="166.58,-136.07 156.86,-131.85 161.82,-141.21 166.58,-136.07"/>
</g>
<!-- Node13 -->
<g id="node13" class="node">
<title>Node13</title>
<g id="a_node13"><a xlink:href="floatn-common_8h.html" target="_top" xlink:title=" ">
<polygon fill="white" stroke="black" points="231,-168.5 231,-187.5 352,-187.5 352,-168.5 231,-168.5"/>
<text text-anchor="middle" x="291.5" y="-175.5" font-family="Helvetica,sans-Serif" font-size="10.00">bits/floatn&#45;common.h</text>
</a>
</g>
</g>
<!-- Node12&#45;&gt;Node13 -->
<g id="edge14" class="edge">
<title>Node12&#45;&gt;Node13</title>
<path fill="none" stroke="midnightblue" d="M291.5,-224.08C291.5,-217.01 291.5,-206.86 291.5,-197.99"/>
<polygon fill="midnightblue" stroke="midnightblue" points="295,-197.75 291.5,-187.75 288,-197.75 295,-197.75"/>
</g>
<!-- Node13&#45;&gt;Node3 -->
<g id="edge15" class="edge">
<title>Node13&#45;&gt;Node3</title>
<path fill="none" stroke="midnightblue" d="M268.68,-168.44C244.67,-159.44 206.67,-145.19 179.63,-135.05"/>
<polygon fill="midnightblue" stroke="midnightblue" points="180.8,-131.75 170.21,-131.52 178.34,-138.3 180.8,-131.75"/>
</g>
<!-- Node13&#45;&gt;Node7 -->
<g id="edge16" class="edge">
<title>Node13&#45;&gt;Node7</title>
<path fill="none" stroke="midnightblue" d="M291.54,-168.49C291.59,-148.73 291.61,-98.21 290.5,-56 290.27,-47.39 289.87,-37.86 289.49,-29.8"/>
<polygon fill="midnightblue" stroke="midnightblue" points="292.97,-29.44 288.98,-19.62 285.98,-29.79 292.97,-29.44"/>
</g>
</g>
</svg>
