<?xml version="1.0" encoding="UTF-8" standalone="no"?>
<!DOCTYPE svg PUBLIC "-//W3C//DTD SVG 1.1//EN"
 "http://www.w3.org/Graphics/SVG/1.1/DTD/svg11.dtd">
<!-- Generated by graphviz version 2.44.1 (0)
 -->
<!-- Title: termios.h Pages: 1 -->
<!--zoomable 252 -->
<svg id="main" version="1.1" xmlns="http://www.w3.org/2000/svg" xmlns:xlink="http://www.w3.org/1999/xlink" xml:space="preserve" onload="init(evt)">
<style type="text/css"><![CDATA[
.edge:hover path { stroke: red; }
.edge:hover polygon { stroke: red; fill: red; }
]]></style>
<script type="text/javascript"><![CDATA[
var edges = document.getElementsByTagName('g');
if (edges && edges.length) {
  for (var i=0;i<edges.length;i++) {
    if (edges[i].id.substr(0,4)=='edge') {
      edges[i].setAttribute('class','edge');
    }
  }
}
]]></script>
        <defs>
                <circle id="rim" cx="0" cy="0" r="7"/>
                <circle id="rim2" cx="0" cy="0" r="3.5"/>
                <g id="zoomPlus">
                        <use xlink:href="#rim" fill="#404040">
                                <set attributeName="fill" to="#808080" begin="zoomplus.mouseover" end="zoomplus.mouseout"/>
                        </use>
                        <path d="M-4,0h8M0,-4v8" fill="none" stroke="white" stroke-width="1.5" pointer-events="none"/>
                </g>
                <g id="zoomMin">
                        <use xlink:href="#rim" fill="#404040">
                                <set attributeName="fill" to="#808080" begin="zoomminus.mouseover" end="zoomminus.mouseout"/>
                        </use>
                        <path d="M-4,0h8" fill="none" stroke="white" stroke-width="1.5" pointer-events="none"/>
                </g>
                <g id="dirArrow">
                        <path fill="none" stroke="white" stroke-width="1.5" d="M0,-3.0v7 M-2.5,-0.5L0,-3.0L2.5,-0.5"/>
                </g>
               <g id="resetDef">
                       <use xlink:href="#rim2" fill="#404040">
                               <set attributeName="fill" to="#808080" begin="reset.mouseover" end="reset.mouseout"/>
                       </use>
               </g>
        </defs>

<script type="text/javascript">
var viewWidth = 1762;
var viewHeight = 252;
var sectionId = 'dynsection-0';
</script>
<script xlink:href="svgpan.js"/>
<svg id="graph" class="graph">
<g id="viewport">
<title>termios.h</title>
<polygon fill="white" stroke="transparent" points="-4,4 -4,-248 1757.5,-248 1757.5,4 -4,4"/>
<!-- Node1 -->
<g id="node1" class="node">
<title>Node1</title>
<g id="a_node1"><a xlink:title=" ">
<polygon fill="#bfbfbf" stroke="black" points="694,-224.5 694,-243.5 757,-243.5 757,-224.5 694,-224.5"/>
<text text-anchor="middle" x="725.5" y="-231.5" font-family="Helvetica,sans-Serif" font-size="10.00">termios.h</text>
</a>
</g>
</g>
<!-- Node2 -->
<g id="node2" class="node">
<title>Node2</title>
<g id="a_node2"><a xlink:href="features_8h.html" target="_top" xlink:title=" ">
<polygon fill="white" stroke="black" points="119.5,-112.5 119.5,-131.5 185.5,-131.5 185.5,-112.5 119.5,-112.5"/>
<text text-anchor="middle" x="152.5" y="-119.5" font-family="Helvetica,sans-Serif" font-size="10.00">features.h</text>
</a>
</g>
</g>
<!-- Node1&#45;&gt;Node2 -->
<g id="edge1" class="edge">
<title>Node1&#45;&gt;Node2</title>
<path fill="none" stroke="midnightblue" d="M693.93,-231.53C628.06,-227.98 471.48,-216.97 343.5,-188 285.26,-174.82 219.89,-150.37 182.71,-135.5"/>
<polygon fill="midnightblue" stroke="midnightblue" points="183.58,-132.08 173,-131.58 180.96,-138.57 183.58,-132.08"/>
</g>
<!-- Node9 -->
<g id="node9" class="node">
<title>Node9</title>
<g id="a_node9"><a xlink:href="bits_2types_8h.html" target="_top" xlink:title=" ">
<polygon fill="white" stroke="black" points="352.5,-168.5 352.5,-187.5 426.5,-187.5 426.5,-168.5 352.5,-168.5"/>
<text text-anchor="middle" x="389.5" y="-175.5" font-family="Helvetica,sans-Serif" font-size="10.00">bits/types.h</text>
</a>
</g>
</g>
<!-- Node1&#45;&gt;Node9 -->
<g id="edge9" class="edge">
<title>Node1&#45;&gt;Node9</title>
<path fill="none" stroke="midnightblue" d="M693.89,-227.92C634.61,-218.39 506.46,-197.8 436.84,-186.61"/>
<polygon fill="midnightblue" stroke="midnightblue" points="437.03,-183.09 426.6,-184.96 435.92,-190 437.03,-183.09"/>
</g>
<!-- Node13 -->
<g id="node13" class="node">
<title>Node13</title>
<g id="a_node13"><a xlink:href="bits_2termios_8h.html" target="_top" xlink:title=" ">
<polygon fill="white" stroke="black" points="986.5,-168.5 986.5,-187.5 1070.5,-187.5 1070.5,-168.5 986.5,-168.5"/>
<text text-anchor="middle" x="1028.5" y="-175.5" font-family="Helvetica,sans-Serif" font-size="10.00">bits/termios.h</text>
</a>
</g>
</g>
<!-- Node1&#45;&gt;Node13 -->
<g id="edge15" class="edge">
<title>Node1&#45;&gt;Node13</title>
<path fill="none" stroke="midnightblue" d="M757.07,-227.37C809.05,-218.11 913.15,-199.56 976.25,-188.31"/>
<polygon fill="midnightblue" stroke="midnightblue" points="977.16,-191.71 986.39,-186.51 975.93,-184.81 977.16,-191.71"/>
</g>
<!-- Node23 -->
<g id="node23" class="node">
<title>Node23</title>
<g id="a_node23"><a xlink:href="ttydefaults_8h.html" target="_top" xlink:title=" ">
<polygon fill="white" stroke="black" points="1088.5,-168.5 1088.5,-187.5 1186.5,-187.5 1186.5,-168.5 1088.5,-168.5"/>
<text text-anchor="middle" x="1137.5" y="-175.5" font-family="Helvetica,sans-Serif" font-size="10.00">sys/ttydefaults.h</text>
</a>
</g>
</g>
<!-- Node1&#45;&gt;Node23 -->
<g id="edge25" class="edge">
<title>Node1&#45;&gt;Node23</title>
<path fill="none" stroke="midnightblue" d="M757.27,-229.26C817.66,-222.08 953.39,-205.65 1078.34,-188.13"/>
<polygon fill="midnightblue" stroke="midnightblue" points="1079.05,-191.57 1088.47,-186.71 1078.08,-184.63 1079.05,-191.57"/>
</g>
<!-- Node3 -->
<g id="node3" class="node">
<title>Node3</title>
<g id="a_node3"><a xlink:href="stdc-predef_8h.html" target="_top" xlink:title=" ">
<polygon fill="white" stroke="black" points="206.5,-56.5 206.5,-75.5 286.5,-75.5 286.5,-56.5 206.5,-56.5"/>
<text text-anchor="middle" x="246.5" y="-63.5" font-family="Helvetica,sans-Serif" font-size="10.00">stdc&#45;predef.h</text>
</a>
</g>
</g>
<!-- Node2&#45;&gt;Node3 -->
<g id="edge2" class="edge">
<title>Node2&#45;&gt;Node3</title>
<path fill="none" stroke="midnightblue" d="M167.6,-112.32C182.4,-103.82 205.19,-90.73 222.48,-80.8"/>
<polygon fill="midnightblue" stroke="midnightblue" points="224.51,-83.67 231.43,-75.65 221.02,-77.6 224.51,-83.67"/>
</g>
<!-- Node4 -->
<g id="node4" class="node">
<title>Node4</title>
<g id="a_node4"><a xlink:href="cdefs_8h.html" target="_top" xlink:title=" ">
<polygon fill="white" stroke="black" points="117,-56.5 117,-75.5 188,-75.5 188,-56.5 117,-56.5"/>
<text text-anchor="middle" x="152.5" y="-63.5" font-family="Helvetica,sans-Serif" font-size="10.00">sys/cdefs.h</text>
</a>
</g>
</g>
<!-- Node2&#45;&gt;Node4 -->
<g id="edge3" class="edge">
<title>Node2&#45;&gt;Node4</title>
<path fill="none" stroke="midnightblue" d="M147.33,-112.08C145.82,-104.93 145.39,-94.64 146.04,-85.69"/>
<polygon fill="midnightblue" stroke="midnightblue" points="149.52,-86.13 147.37,-75.75 142.58,-85.2 149.52,-86.13"/>
</g>
<!-- Node7 -->
<g id="node7" class="node">
<title>Node7</title>
<g id="a_node7"><a xlink:href="stubs_8h.html" target="_top" xlink:title=" ">
<polygon fill="white" stroke="black" points="20,-56.5 20,-75.5 93,-75.5 93,-56.5 20,-56.5"/>
<text text-anchor="middle" x="56.5" y="-63.5" font-family="Helvetica,sans-Serif" font-size="10.00">gnu/stubs.h</text>
</a>
</g>
</g>
<!-- Node2&#45;&gt;Node7 -->
<g id="edge7" class="edge">
<title>Node2&#45;&gt;Node7</title>
<path fill="none" stroke="midnightblue" d="M137.08,-112.32C121.96,-103.82 98.68,-90.73 81.03,-80.8"/>
<polygon fill="midnightblue" stroke="midnightblue" points="82.32,-77.51 71.89,-75.65 78.89,-83.61 82.32,-77.51"/>
</g>
<!-- Node4&#45;&gt;Node2 -->
<g id="edge4" class="edge">
<title>Node4&#45;&gt;Node2</title>
<path fill="none" stroke="midnightblue" d="M157.63,-75.75C159.16,-82.86 159.6,-93.14 158.97,-102.1"/>
<polygon fill="midnightblue" stroke="midnightblue" points="155.49,-101.71 157.67,-112.08 162.43,-102.62 155.49,-101.71"/>
</g>
<!-- Node5 -->
<g id="node5" class="node">
<title>Node5</title>
<g id="a_node5"><a xlink:href="wordsize_8h.html" target="_top" xlink:title=" ">
<polygon fill="white" stroke="black" points="304.5,-0.5 304.5,-19.5 394.5,-19.5 394.5,-0.5 304.5,-0.5"/>
<text text-anchor="middle" x="349.5" y="-7.5" font-family="Helvetica,sans-Serif" font-size="10.00">bits/wordsize.h</text>
</a>
</g>
</g>
<!-- Node4&#45;&gt;Node5 -->
<g id="edge5" class="edge">
<title>Node4&#45;&gt;Node5</title>
<path fill="none" stroke="midnightblue" d="M183.72,-56.44C217.43,-47.2 271.3,-32.44 308.43,-22.26"/>
<polygon fill="midnightblue" stroke="midnightblue" points="309.71,-25.54 318.43,-19.52 307.86,-18.78 309.71,-25.54"/>
</g>
<!-- Node6 -->
<g id="node6" class="node">
<title>Node6</title>
<g id="a_node6"><a xlink:href="long-double_8h.html" target="_top" xlink:title=" ">
<polygon fill="white" stroke="black" points="107.5,-0.5 107.5,-19.5 211.5,-19.5 211.5,-0.5 107.5,-0.5"/>
<text text-anchor="middle" x="159.5" y="-7.5" font-family="Helvetica,sans-Serif" font-size="10.00">bits/long&#45;double.h</text>
</a>
</g>
</g>
<!-- Node4&#45;&gt;Node6 -->
<g id="edge6" class="edge">
<title>Node4&#45;&gt;Node6</title>
<path fill="none" stroke="midnightblue" d="M153.66,-56.08C154.58,-48.93 155.92,-38.64 157.08,-29.69"/>
<polygon fill="midnightblue" stroke="midnightblue" points="160.55,-30.12 158.37,-19.75 153.61,-29.22 160.55,-30.12"/>
</g>
<!-- Node8 -->
<g id="node8" class="node">
<title>Node8</title>
<g id="a_node8"><a xlink:title=" ">
<polygon fill="white" stroke="#bfbfbf" points="0,-0.5 0,-19.5 89,-19.5 89,-0.5 0,-0.5"/>
<text text-anchor="middle" x="44.5" y="-7.5" font-family="Helvetica,sans-Serif" font-size="10.00">gnu/stubs&#45;32.h</text>
</a>
</g>
</g>
<!-- Node7&#45;&gt;Node8 -->
<g id="edge8" class="edge">
<title>Node7&#45;&gt;Node8</title>
<path fill="none" stroke="midnightblue" d="M54.52,-56.08C52.93,-48.93 50.64,-38.64 48.65,-29.69"/>
<polygon fill="midnightblue" stroke="midnightblue" points="52.03,-28.75 46.44,-19.75 45.2,-30.27 52.03,-28.75"/>
</g>
<!-- Node9&#45;&gt;Node2 -->
<g id="edge10" class="edge">
<title>Node9&#45;&gt;Node2</title>
<path fill="none" stroke="midnightblue" d="M352.47,-168.56C310.08,-158.9 240.72,-143.1 195.84,-132.88"/>
<polygon fill="midnightblue" stroke="midnightblue" points="196.36,-129.4 185.83,-130.59 194.8,-136.23 196.36,-129.4"/>
</g>
<!-- Node9&#45;&gt;Node5 -->
<g id="edge11" class="edge">
<title>Node9&#45;&gt;Node5</title>
<path fill="none" stroke="midnightblue" d="M394.25,-168.14C400.35,-155.6 409.59,-131.98 404.5,-112 396.33,-79.91 375.66,-47 362.12,-27.81"/>
<polygon fill="midnightblue" stroke="midnightblue" points="364.83,-25.59 356.13,-19.56 359.16,-29.7 364.83,-25.59"/>
</g>
<!-- Node10 -->
<g id="node10" class="node">
<title>Node10</title>
<g id="a_node10"><a xlink:href="timesize_8h.html" target="_top" xlink:title=" ">
<polygon fill="white" stroke="black" points="453,-112.5 453,-131.5 542,-131.5 542,-112.5 453,-112.5"/>
<text text-anchor="middle" x="497.5" y="-119.5" font-family="Helvetica,sans-Serif" font-size="10.00">bits/timesize.h</text>
</a>
</g>
</g>
<!-- Node9&#45;&gt;Node10 -->
<g id="edge12" class="edge">
<title>Node9&#45;&gt;Node10</title>
<path fill="none" stroke="midnightblue" d="M406.85,-168.32C424.17,-159.66 451.02,-146.24 471,-136.25"/>
<polygon fill="midnightblue" stroke="midnightblue" points="472.81,-139.26 480.19,-131.65 469.68,-133 472.81,-139.26"/>
</g>
<!-- Node11 -->
<g id="node11" class="node">
<title>Node11</title>
<g id="a_node11"><a xlink:href="typesizes_8h.html" target="_top" xlink:title=" ">
<polygon fill="white" stroke="black" points="204,-112.5 204,-131.5 297,-131.5 297,-112.5 204,-112.5"/>
<text text-anchor="middle" x="250.5" y="-119.5" font-family="Helvetica,sans-Serif" font-size="10.00">bits/typesizes.h</text>
</a>
</g>
</g>
<!-- Node9&#45;&gt;Node11 -->
<g id="edge13" class="edge">
<title>Node9&#45;&gt;Node11</title>
<path fill="none" stroke="midnightblue" d="M367.48,-168.44C344.4,-159.48 307.94,-145.31 281.86,-135.18"/>
<polygon fill="midnightblue" stroke="midnightblue" points="283.01,-131.88 272.42,-131.52 280.48,-138.4 283.01,-131.88"/>
</g>
<!-- Node12 -->
<g id="node12" class="node">
<title>Node12</title>
<g id="a_node12"><a xlink:href="time64_8h.html" target="_top" xlink:title=" ">
<polygon fill="white" stroke="black" points="315,-112.5 315,-131.5 396,-131.5 396,-112.5 315,-112.5"/>
<text text-anchor="middle" x="355.5" y="-119.5" font-family="Helvetica,sans-Serif" font-size="10.00">bits/time64.h</text>
</a>
</g>
</g>
<!-- Node9&#45;&gt;Node12 -->
<g id="edge14" class="edge">
<title>Node9&#45;&gt;Node12</title>
<path fill="none" stroke="midnightblue" d="M383.89,-168.08C379.13,-160.53 372.18,-149.49 366.35,-140.23"/>
<polygon fill="midnightblue" stroke="midnightblue" points="369.3,-138.35 361.01,-131.75 363.38,-142.08 369.3,-138.35"/>
</g>
<!-- Node14 -->
<g id="node14" class="node">
<title>Node14</title>
<g id="a_node14"><a xlink:href="termios-struct_8h.html" target="_top" xlink:title=" ">
<polygon fill="white" stroke="black" points="1102.5,-112.5 1102.5,-131.5 1218.5,-131.5 1218.5,-112.5 1102.5,-112.5"/>
<text text-anchor="middle" x="1160.5" y="-119.5" font-family="Helvetica,sans-Serif" font-size="10.00">bits/termios&#45;struct.h</text>
</a>
</g>
</g>
<!-- Node13&#45;&gt;Node14 -->
<g id="edge16" class="edge">
<title>Node13&#45;&gt;Node14</title>
<path fill="none" stroke="midnightblue" d="M1049.42,-168.44C1071.24,-159.52 1105.65,-145.44 1130.39,-135.32"/>
<polygon fill="midnightblue" stroke="midnightblue" points="1131.75,-138.54 1139.68,-131.52 1129.1,-132.06 1131.75,-138.54"/>
</g>
<!-- Node15 -->
<g id="node15" class="node">
<title>Node15</title>
<g id="a_node15"><a xlink:href="termios-c__cc_8h.html" target="_top" xlink:title=" ">
<polygon fill="white" stroke="black" points="1237,-112.5 1237,-131.5 1346,-131.5 1346,-112.5 1237,-112.5"/>
<text text-anchor="middle" x="1291.5" y="-119.5" font-family="Helvetica,sans-Serif" font-size="10.00">bits/termios&#45;c_cc.h</text>
</a>
</g>
</g>
<!-- Node13&#45;&gt;Node15 -->
<g id="edge17" class="edge">
<title>Node13&#45;&gt;Node15</title>
<path fill="none" stroke="midnightblue" d="M1070.17,-168.44C1116.25,-158.98 1190.5,-143.74 1240.13,-133.55"/>
<polygon fill="midnightblue" stroke="midnightblue" points="1240.93,-136.96 1250.02,-131.52 1239.52,-130.1 1240.93,-136.96"/>
</g>
<!-- Node16 -->
<g id="node16" class="node">
<title>Node16</title>
<g id="a_node16"><a xlink:href="termios-c__iflag_8h.html" target="_top" xlink:title=" ">
<polygon fill="white" stroke="black" points="1364,-112.5 1364,-131.5 1483,-131.5 1483,-112.5 1364,-112.5"/>
<text text-anchor="middle" x="1423.5" y="-119.5" font-family="Helvetica,sans-Serif" font-size="10.00">bits/termios&#45;c_iflag.h</text>
</a>
</g>
</g>
<!-- Node13&#45;&gt;Node16 -->
<g id="edge18" class="edge">
<title>Node13&#45;&gt;Node16</title>
<path fill="none" stroke="midnightblue" d="M1070.5,-169.43C1073.54,-168.93 1076.57,-168.45 1079.5,-168 1198.55,-149.74 1231.15,-148.19 1353.64,-132.24"/>
<polygon fill="midnightblue" stroke="midnightblue" points="1354.34,-135.68 1363.8,-130.91 1353.43,-128.74 1354.34,-135.68"/>
</g>
<!-- Node17 -->
<g id="node17" class="node">
<title>Node17</title>
<g id="a_node17"><a xlink:href="termios-c__oflag_8h.html" target="_top" xlink:title=" ">
<polygon fill="white" stroke="black" points="1501.5,-112.5 1501.5,-131.5 1623.5,-131.5 1623.5,-112.5 1501.5,-112.5"/>
<text text-anchor="middle" x="1562.5" y="-119.5" font-family="Helvetica,sans-Serif" font-size="10.00">bits/termios&#45;c_oflag.h</text>
</a>
</g>
</g>
<!-- Node13&#45;&gt;Node17 -->
<g id="edge19" class="edge">
<title>Node13&#45;&gt;Node17</title>
<path fill="none" stroke="midnightblue" d="M1070.76,-169.25C1073.71,-168.8 1076.65,-168.38 1079.5,-168 1258.97,-144.39 1307.61,-151.49 1491.44,-132.07"/>
<polygon fill="midnightblue" stroke="midnightblue" points="1491.86,-135.54 1501.43,-131 1491.12,-128.58 1491.86,-135.54"/>
</g>
<!-- Node18 -->
<g id="node18" class="node">
<title>Node18</title>
<g id="a_node18"><a xlink:href="termios-baud_8h.html" target="_top" xlink:title=" ">
<polygon fill="white" stroke="black" points="1641.5,-112.5 1641.5,-131.5 1753.5,-131.5 1753.5,-112.5 1641.5,-112.5"/>
<text text-anchor="middle" x="1697.5" y="-119.5" font-family="Helvetica,sans-Serif" font-size="10.00">bits/termios&#45;baud.h</text>
</a>
</g>
</g>
<!-- Node13&#45;&gt;Node18 -->
<g id="edge20" class="edge">
<title>Node13&#45;&gt;Node18</title>
<path fill="none" stroke="midnightblue" d="M1070.75,-169.18C1073.7,-168.74 1076.64,-168.34 1079.5,-168 1320.69,-138.96 1385.7,-156.41 1630.86,-132.09"/>
<polygon fill="midnightblue" stroke="midnightblue" points="1631.56,-135.54 1641.16,-131.06 1630.86,-128.57 1631.56,-135.54"/>
</g>
<!-- Node19 -->
<g id="node19" class="node">
<title>Node19</title>
<g id="a_node19"><a xlink:href="termios-c__cflag_8h.html" target="_top" xlink:title=" ">
<polygon fill="white" stroke="black" points="560.5,-112.5 560.5,-131.5 682.5,-131.5 682.5,-112.5 560.5,-112.5"/>
<text text-anchor="middle" x="621.5" y="-119.5" font-family="Helvetica,sans-Serif" font-size="10.00">bits/termios&#45;c_cflag.h</text>
</a>
</g>
</g>
<!-- Node13&#45;&gt;Node19 -->
<g id="edge21" class="edge">
<title>Node13&#45;&gt;Node19</title>
<path fill="none" stroke="midnightblue" d="M986.48,-171.42C917.09,-162.22 777.82,-143.74 692.81,-132.46"/>
<polygon fill="midnightblue" stroke="midnightblue" points="693.09,-128.97 682.72,-131.12 692.17,-135.91 693.09,-128.97"/>
</g>
<!-- Node20 -->
<g id="node20" class="node">
<title>Node20</title>
<g id="a_node20"><a xlink:href="termios-c__lflag_8h.html" target="_top" xlink:title=" ">
<polygon fill="white" stroke="black" points="701,-112.5 701,-131.5 820,-131.5 820,-112.5 701,-112.5"/>
<text text-anchor="middle" x="760.5" y="-119.5" font-family="Helvetica,sans-Serif" font-size="10.00">bits/termios&#45;c_lflag.h</text>
</a>
</g>
</g>
<!-- Node13&#45;&gt;Node20 -->
<g id="edge22" class="edge">
<title>Node13&#45;&gt;Node20</title>
<path fill="none" stroke="midnightblue" d="M986.33,-168.5C939.44,-159.06 863.65,-143.78 812.97,-133.57"/>
<polygon fill="midnightblue" stroke="midnightblue" points="813.36,-130.08 802.87,-131.54 811.98,-136.94 813.36,-130.08"/>
</g>
<!-- Node21 -->
<g id="node21" class="node">
<title>Node21</title>
<g id="a_node21"><a xlink:href="termios-tcflow_8h.html" target="_top" xlink:title=" ">
<polygon fill="white" stroke="black" points="838.5,-112.5 838.5,-131.5 954.5,-131.5 954.5,-112.5 838.5,-112.5"/>
<text text-anchor="middle" x="896.5" y="-119.5" font-family="Helvetica,sans-Serif" font-size="10.00">bits/termios&#45;tcflow.h</text>
</a>
</g>
</g>
<!-- Node13&#45;&gt;Node21 -->
<g id="edge23" class="edge">
<title>Node13&#45;&gt;Node21</title>
<path fill="none" stroke="midnightblue" d="M1007.58,-168.44C985.76,-159.52 951.35,-145.44 926.61,-135.32"/>
<polygon fill="midnightblue" stroke="midnightblue" points="927.9,-132.06 917.32,-131.52 925.25,-138.54 927.9,-132.06"/>
</g>
<!-- Node22 -->
<g id="node22" class="node">
<title>Node22</title>
<g id="a_node22"><a xlink:href="termios-misc_8h.html" target="_top" xlink:title=" ">
<polygon fill="white" stroke="black" points="973,-112.5 973,-131.5 1084,-131.5 1084,-112.5 973,-112.5"/>
<text text-anchor="middle" x="1028.5" y="-119.5" font-family="Helvetica,sans-Serif" font-size="10.00">bits/termios&#45;misc.h</text>
</a>
</g>
</g>
<!-- Node13&#45;&gt;Node22 -->
<g id="edge24" class="edge">
<title>Node13&#45;&gt;Node22</title>
<path fill="none" stroke="midnightblue" d="M1028.5,-168.08C1028.5,-161.01 1028.5,-150.86 1028.5,-141.99"/>
<polygon fill="midnightblue" stroke="midnightblue" points="1032,-141.75 1028.5,-131.75 1025,-141.75 1032,-141.75"/>
</g>
</g>
</svg>
        <g id="navigator" transform="translate(0 0)" fill="#404254">
                <rect fill="#f2f5e9" fill-opacity="0.5" stroke="#606060" stroke-width=".5" x="0" y="0" width="60" height="60"/>
                <use id="zoomplus" xlink:href="#zoomPlus" x="17" y="9" onmousedown="handleZoom(evt,'in')"/>
                <use id="zoomminus" xlink:href="#zoomMin" x="42" y="9" onmousedown="handleZoom(evt,'out')"/>
                <use id="reset" xlink:href="#resetDef" x="30" y="36" onmousedown="handleReset()"/>
                <g id="arrowUp" xlink:href="#dirArrow" transform="translate(30 24)" onmousedown="handlePan(0,-1)">
                  <use xlink:href="#rim" fill="#404040">
                        <set attributeName="fill" to="#808080" begin="arrowUp.mouseover" end="arrowUp.mouseout"/>
                  </use>
                  <path fill="none" stroke="white" stroke-width="1.5" d="M0,-3.0v7 M-2.5,-0.5L0,-3.0L2.5,-0.5"/>
                </g>
                <g id="arrowRight" xlink:href="#dirArrow" transform="rotate(90) translate(36 -43)" onmousedown="handlePan(1,0)">
                  <use xlink:href="#rim" fill="#404040">
                        <set attributeName="fill" to="#808080" begin="arrowRight.mouseover" end="arrowRight.mouseout"/>
                  </use>
                  <path fill="none" stroke="white" stroke-width="1.5" d="M0,-3.0v7 M-2.5,-0.5L0,-3.0L2.5,-0.5"/>
                </g>
                <g id="arrowDown" xlink:href="#dirArrow" transform="rotate(180) translate(-30 -48)" onmousedown="handlePan(0,1)">
                  <use xlink:href="#rim" fill="#404040">
                        <set attributeName="fill" to="#808080" begin="arrowDown.mouseover" end="arrowDown.mouseout"/>
                  </use>
                  <path fill="none" stroke="white" stroke-width="1.5" d="M0,-3.0v7 M-2.5,-0.5L0,-3.0L2.5,-0.5"/>
                </g>
                <g id="arrowLeft" xlink:href="#dirArrow" transform="rotate(270) translate(-36 17)" onmousedown="handlePan(-1,0)">
                  <use xlink:href="#rim" fill="#404040">
                        <set attributeName="fill" to="#808080" begin="arrowLeft.mouseover" end="arrowLeft.mouseout"/>
                  </use>
                  <path fill="none" stroke="white" stroke-width="1.5" d="M0,-3.0v7 M-2.5,-0.5L0,-3.0L2.5,-0.5"/>
                </g>
        </g>
        <svg viewBox="0 0 15 15" width="100%" height="30px" preserveAspectRatio="xMaxYMin meet">
         <g id="arrow_out" transform="scale(0.3 0.3)">
          <a xlink:href="termios_8h__incl_org.svg" target="_base">
           <rect id="button" ry="5" rx="5" y="6" x="6" height="38" width="38"
                fill="#f2f5e9" fill-opacity="0.5" stroke="#606060" stroke-width="1.0"/>
           <path id="arrow"
             d="M 11.500037,31.436501 C 11.940474,20.09759 22.043105,11.32322 32.158766,21.979434 L 37.068811,17.246167 C 37.068811,17.246167 37.088388,32 37.088388,32 L 22.160133,31.978069 C 22.160133,31.978069 26.997745,27.140456 26.997745,27.140456 C 18.528582,18.264221 13.291696,25.230495 11.500037,31.436501 z"
             style="fill:#404040;"/>
          </a>
         </g>
        </svg>
</svg>
