<?xml version="1.0" encoding="UTF-8" standalone="no"?>
<!DOCTYPE svg PUBLIC "-//W3C//DTD SVG 1.1//EN"
 "http://www.w3.org/Graphics/SVG/1.1/DTD/svg11.dtd">
<!-- Generated by graphviz version 2.44.1 (0)
 -->
<!-- Title: threads.h Pages: 1 -->
<svg width="1397pt" height="431pt"
 viewBox="0.00 0.00 1397.00 431.00" xmlns="http://www.w3.org/2000/svg" xmlns:xlink="http://www.w3.org/1999/xlink">
<g id="graph0" class="graph" transform="scale(1 1) rotate(0) translate(4 427)">
<title>threads.h</title>
<polygon fill="white" stroke="transparent" points="-4,4 -4,-427 1393,-427 1393,4 -4,4"/>
<!-- Node1 -->
<g id="node1" class="node">
<title>Node1</title>
<g id="a_node1"><a xlink:title=" ">
<polygon fill="#bfbfbf" stroke="black" points="752,-403.5 752,-422.5 814,-422.5 814,-403.5 752,-403.5"/>
<text text-anchor="middle" x="783" y="-410.5" font-family="Helvetica,sans-Serif" font-size="10.00">threads.h</text>
</a>
</g>
</g>
<!-- Node2 -->
<g id="node2" class="node">
<title>Node2</title>
<g id="a_node2"><a xlink:href="features_8h.html" target="_top" xlink:title=" ">
<polygon fill="white" stroke="black" points="101,-112.5 101,-131.5 167,-131.5 167,-112.5 101,-112.5"/>
<text text-anchor="middle" x="134" y="-119.5" font-family="Helvetica,sans-Serif" font-size="10.00">features.h</text>
</a>
</g>
</g>
<!-- Node1&#45;&gt;Node2 -->
<g id="edge1" class="edge">
<title>Node1&#45;&gt;Node2</title>
<path fill="none" stroke="midnightblue" d="M751.95,-410.37C609.69,-402.5 27,-365.68 27,-291 27,-291 27,-291 27,-233 27,-187.41 74.8,-153.62 106.51,-136.23"/>
<polygon fill="midnightblue" stroke="midnightblue" points="108.15,-139.32 115.36,-131.56 104.88,-133.13 108.15,-139.32"/>
</g>
<!-- Node9 -->
<g id="node9" class="node">
<title>Node9</title>
<g id="a_node9"><a xlink:href="time_8h.html" target="_top" xlink:title=" ">
<polygon fill="white" stroke="black" points="480,-342 480,-361 528,-361 528,-342 480,-342"/>
<text text-anchor="middle" x="504" y="-349" font-family="Helvetica,sans-Serif" font-size="10.00">time.h</text>
</a>
</g>
</g>
<!-- Node1&#45;&gt;Node9 -->
<g id="edge9" class="edge">
<title>Node1&#45;&gt;Node9</title>
<path fill="none" stroke="midnightblue" d="M751.81,-405.35C699.04,-394.09 592.59,-371.39 537.99,-359.75"/>
<polygon fill="midnightblue" stroke="midnightblue" points="538.62,-356.3 528.11,-357.64 537.16,-363.15 538.62,-356.3"/>
</g>
<!-- Node19 -->
<g id="node19" class="node">
<title>Node19</title>
<g id="a_node19"><a xlink:href="struct__timespec_8h.html" target="_top" xlink:title=" ">
<polygon fill="white" stroke="black" points="792.5,-224.5 792.5,-243.5 947.5,-243.5 947.5,-224.5 792.5,-224.5"/>
<text text-anchor="middle" x="870" y="-231.5" font-family="Helvetica,sans-Serif" font-size="10.00">bits/types/struct_timespec.h</text>
</a>
</g>
</g>
<!-- Node1&#45;&gt;Node19 -->
<g id="edge43" class="edge">
<title>Node1&#45;&gt;Node19</title>
<path fill="none" stroke="midnightblue" d="M814.24,-408.11C868.09,-399.53 977.1,-373.51 1024,-300 1028.78,-292.51 1029.33,-287.11 1024,-280 1012.69,-264.91 970.26,-253.2 932.8,-245.51"/>
<polygon fill="midnightblue" stroke="midnightblue" points="933.39,-242.05 922.9,-243.54 932.03,-248.92 933.39,-242.05"/>
</g>
<!-- Node27 -->
<g id="node27" class="node">
<title>Node27</title>
<g id="a_node27"><a xlink:href="thread-shared-types_8h.html" target="_top" xlink:title=" ">
<polygon fill="white" stroke="black" points="1111,-336.5 1111,-366.5 1217,-366.5 1217,-336.5 1111,-336.5"/>
<text text-anchor="start" x="1119" y="-354.5" font-family="Helvetica,sans-Serif" font-size="10.00">bits/thread&#45;shared</text>
<text text-anchor="middle" x="1164" y="-343.5" font-family="Helvetica,sans-Serif" font-size="10.00">&#45;types.h</text>
</a>
</g>
</g>
<!-- Node1&#45;&gt;Node27 -->
<g id="edge38" class="edge">
<title>Node1&#45;&gt;Node27</title>
<path fill="none" stroke="midnightblue" d="M814.18,-407.13C876.62,-397.38 1018.1,-375.29 1100.73,-362.38"/>
<polygon fill="midnightblue" stroke="midnightblue" points="1101.41,-365.82 1110.75,-360.82 1100.33,-358.9 1101.41,-365.82"/>
</g>
<!-- Node3 -->
<g id="node3" class="node">
<title>Node3</title>
<g id="a_node3"><a xlink:href="stdc-predef_8h.html" target="_top" xlink:title=" ">
<polygon fill="white" stroke="black" points="0,-56.5 0,-75.5 80,-75.5 80,-56.5 0,-56.5"/>
<text text-anchor="middle" x="40" y="-63.5" font-family="Helvetica,sans-Serif" font-size="10.00">stdc&#45;predef.h</text>
</a>
</g>
</g>
<!-- Node2&#45;&gt;Node3 -->
<g id="edge2" class="edge">
<title>Node2&#45;&gt;Node3</title>
<path fill="none" stroke="midnightblue" d="M118.9,-112.32C104.1,-103.82 81.31,-90.73 64.02,-80.8"/>
<polygon fill="midnightblue" stroke="midnightblue" points="65.48,-77.6 55.07,-75.65 61.99,-83.67 65.48,-77.6"/>
</g>
<!-- Node4 -->
<g id="node4" class="node">
<title>Node4</title>
<g id="a_node4"><a xlink:href="cdefs_8h.html" target="_top" xlink:title=" ">
<polygon fill="white" stroke="black" points="98.5,-56.5 98.5,-75.5 169.5,-75.5 169.5,-56.5 98.5,-56.5"/>
<text text-anchor="middle" x="134" y="-63.5" font-family="Helvetica,sans-Serif" font-size="10.00">sys/cdefs.h</text>
</a>
</g>
</g>
<!-- Node2&#45;&gt;Node4 -->
<g id="edge3" class="edge">
<title>Node2&#45;&gt;Node4</title>
<path fill="none" stroke="midnightblue" d="M128.83,-112.08C127.32,-104.93 126.89,-94.64 127.54,-85.69"/>
<polygon fill="midnightblue" stroke="midnightblue" points="131.02,-86.13 128.87,-75.75 124.08,-85.2 131.02,-86.13"/>
</g>
<!-- Node7 -->
<g id="node7" class="node">
<title>Node7</title>
<g id="a_node7"><a xlink:href="stubs_8h.html" target="_top" xlink:title=" ">
<polygon fill="white" stroke="black" points="199.5,-56.5 199.5,-75.5 272.5,-75.5 272.5,-56.5 199.5,-56.5"/>
<text text-anchor="middle" x="236" y="-63.5" font-family="Helvetica,sans-Serif" font-size="10.00">gnu/stubs.h</text>
</a>
</g>
</g>
<!-- Node2&#45;&gt;Node7 -->
<g id="edge7" class="edge">
<title>Node2&#45;&gt;Node7</title>
<path fill="none" stroke="midnightblue" d="M150.39,-112.32C166.67,-103.7 191.87,-90.36 210.72,-80.39"/>
<polygon fill="midnightblue" stroke="midnightblue" points="212.45,-83.43 219.65,-75.65 209.18,-77.24 212.45,-83.43"/>
</g>
<!-- Node4&#45;&gt;Node2 -->
<g id="edge4" class="edge">
<title>Node4&#45;&gt;Node2</title>
<path fill="none" stroke="midnightblue" d="M139.13,-75.75C140.66,-82.86 141.1,-93.14 140.47,-102.1"/>
<polygon fill="midnightblue" stroke="midnightblue" points="136.99,-101.71 139.17,-112.08 143.93,-102.62 136.99,-101.71"/>
</g>
<!-- Node5 -->
<g id="node5" class="node">
<title>Node5</title>
<g id="a_node5"><a xlink:href="wordsize_8h.html" target="_top" xlink:title=" ">
<polygon fill="white" stroke="black" points="325,-0.5 325,-19.5 415,-19.5 415,-0.5 325,-0.5"/>
<text text-anchor="middle" x="370" y="-7.5" font-family="Helvetica,sans-Serif" font-size="10.00">bits/wordsize.h</text>
</a>
</g>
</g>
<!-- Node4&#45;&gt;Node5 -->
<g id="edge5" class="edge">
<title>Node4&#45;&gt;Node5</title>
<path fill="none" stroke="midnightblue" d="M169.59,-56.86C210.41,-47.52 277.52,-32.16 322.7,-21.82"/>
<polygon fill="midnightblue" stroke="midnightblue" points="323.59,-25.21 332.56,-19.57 322.03,-18.39 323.59,-25.21"/>
</g>
<!-- Node6 -->
<g id="node6" class="node">
<title>Node6</title>
<g id="a_node6"><a xlink:href="long-double_8h.html" target="_top" xlink:title=" ">
<polygon fill="white" stroke="black" points="75,-0.5 75,-19.5 179,-19.5 179,-0.5 75,-0.5"/>
<text text-anchor="middle" x="127" y="-7.5" font-family="Helvetica,sans-Serif" font-size="10.00">bits/long&#45;double.h</text>
</a>
</g>
</g>
<!-- Node4&#45;&gt;Node6 -->
<g id="edge6" class="edge">
<title>Node4&#45;&gt;Node6</title>
<path fill="none" stroke="midnightblue" d="M132.84,-56.08C131.92,-48.93 130.58,-38.64 129.42,-29.69"/>
<polygon fill="midnightblue" stroke="midnightblue" points="132.89,-29.22 128.13,-19.75 125.95,-30.12 132.89,-29.22"/>
</g>
<!-- Node8 -->
<g id="node8" class="node">
<title>Node8</title>
<g id="a_node8"><a xlink:title=" ">
<polygon fill="white" stroke="#bfbfbf" points="197.5,-0.5 197.5,-19.5 286.5,-19.5 286.5,-0.5 197.5,-0.5"/>
<text text-anchor="middle" x="242" y="-7.5" font-family="Helvetica,sans-Serif" font-size="10.00">gnu/stubs&#45;32.h</text>
</a>
</g>
</g>
<!-- Node7&#45;&gt;Node8 -->
<g id="edge8" class="edge">
<title>Node7&#45;&gt;Node8</title>
<path fill="none" stroke="midnightblue" d="M236.99,-56.08C237.79,-48.93 238.93,-38.64 239.92,-29.69"/>
<polygon fill="midnightblue" stroke="midnightblue" points="243.4,-30.08 241.03,-19.75 236.44,-29.3 243.4,-30.08"/>
</g>
<!-- Node9&#45;&gt;Node2 -->
<g id="edge10" class="edge">
<title>Node9&#45;&gt;Node2</title>
<path fill="none" stroke="midnightblue" d="M479.73,-348.24C397.65,-340.04 132.78,-308.85 84,-244 59.08,-210.87 95.05,-163.53 117.79,-139.04"/>
<polygon fill="midnightblue" stroke="midnightblue" points="120.48,-141.3 124.89,-131.67 115.43,-136.45 120.48,-141.3"/>
</g>
<!-- Node10 -->
<g id="node10" class="node">
<title>Node10</title>
<g id="a_node10"><a xlink:title=" ">
<polygon fill="white" stroke="#bfbfbf" points="287,-280.5 287,-299.5 343,-299.5 343,-280.5 287,-280.5"/>
<text text-anchor="middle" x="315" y="-287.5" font-family="Helvetica,sans-Serif" font-size="10.00">stddef.h</text>
</a>
</g>
</g>
<!-- Node9&#45;&gt;Node10 -->
<g id="edge11" class="edge">
<title>Node9&#45;&gt;Node10</title>
<path fill="none" stroke="midnightblue" d="M479.68,-342.84C447.28,-332.64 389.67,-314.51 351.9,-302.62"/>
<polygon fill="midnightblue" stroke="midnightblue" points="352.87,-299.25 342.29,-299.59 350.77,-305.93 352.87,-299.25"/>
</g>
<!-- Node11 -->
<g id="node11" class="node">
<title>Node11</title>
<g id="a_node11"><a xlink:href="bits_2time_8h.html" target="_top" xlink:title=" ">
<polygon fill="white" stroke="black" points="93.5,-224.5 93.5,-243.5 162.5,-243.5 162.5,-224.5 93.5,-224.5"/>
<text text-anchor="middle" x="128" y="-231.5" font-family="Helvetica,sans-Serif" font-size="10.00">bits/time.h</text>
</a>
</g>
</g>
<!-- Node9&#45;&gt;Node11 -->
<g id="edge12" class="edge">
<title>Node9&#45;&gt;Node11</title>
<path fill="none" stroke="midnightblue" d="M481.19,-341.95C456.9,-332.58 417.56,-316.67 385,-300 369.73,-292.19 367.99,-286.21 352,-280 278.53,-251.45 253.33,-259.67 172.83,-244.3"/>
<polygon fill="midnightblue" stroke="midnightblue" points="173.22,-240.81 162.73,-242.3 171.86,-247.67 173.22,-240.81"/>
</g>
<!-- Node16 -->
<g id="node16" class="node">
<title>Node16</title>
<g id="a_node16"><a xlink:href="clock__t_8h.html" target="_top" xlink:title=" ">
<polygon fill="white" stroke="black" points="180.5,-224.5 180.5,-243.5 291.5,-243.5 291.5,-224.5 180.5,-224.5"/>
<text text-anchor="middle" x="236" y="-231.5" font-family="Helvetica,sans-Serif" font-size="10.00">bits/types/clock_t.h</text>
</a>
</g>
</g>
<!-- Node9&#45;&gt;Node16 -->
<g id="edge19" class="edge">
<title>Node9&#45;&gt;Node16</title>
<path fill="none" stroke="midnightblue" d="M490.19,-341.75C463.67,-325.03 406.32,-289.37 385,-280 351.88,-265.45 312.66,-253.81 282.77,-246.02"/>
<polygon fill="midnightblue" stroke="midnightblue" points="283.57,-242.61 273.01,-243.52 281.83,-249.39 283.57,-242.61"/>
</g>
<!-- Node17 -->
<g id="node17" class="node">
<title>Node17</title>
<g id="a_node17"><a xlink:href="time__t_8h.html" target="_top" xlink:title=" ">
<polygon fill="white" stroke="black" points="310,-224.5 310,-243.5 418,-243.5 418,-224.5 310,-224.5"/>
<text text-anchor="middle" x="364" y="-231.5" font-family="Helvetica,sans-Serif" font-size="10.00">bits/types/time_t.h</text>
</a>
</g>
</g>
<!-- Node9&#45;&gt;Node17 -->
<g id="edge21" class="edge">
<title>Node9&#45;&gt;Node17</title>
<path fill="none" stroke="midnightblue" d="M494.45,-341.83C479.47,-328.32 449.44,-301.56 423,-280 410.27,-269.62 395.58,-258.42 384.05,-249.79"/>
<polygon fill="midnightblue" stroke="midnightblue" points="386.04,-246.91 375.93,-243.74 381.86,-252.52 386.04,-246.91"/>
</g>
<!-- Node18 -->
<g id="node18" class="node">
<title>Node18</title>
<g id="a_node18"><a xlink:href="struct__tm_8h.html" target="_top" xlink:title=" ">
<polygon fill="white" stroke="black" points="436.5,-224.5 436.5,-243.5 559.5,-243.5 559.5,-224.5 436.5,-224.5"/>
<text text-anchor="middle" x="498" y="-231.5" font-family="Helvetica,sans-Serif" font-size="10.00">bits/types/struct_tm.h</text>
</a>
</g>
</g>
<!-- Node9&#45;&gt;Node18 -->
<g id="edge23" class="edge">
<title>Node9&#45;&gt;Node18</title>
<path fill="none" stroke="midnightblue" d="M503.55,-341.82C502.58,-323.26 500.3,-279.34 498.99,-253.97"/>
<polygon fill="midnightblue" stroke="midnightblue" points="502.47,-253.59 498.46,-243.78 495.48,-253.95 502.47,-253.59"/>
</g>
<!-- Node9&#45;&gt;Node19 -->
<g id="edge25" class="edge">
<title>Node9&#45;&gt;Node19</title>
<path fill="none" stroke="midnightblue" d="M528.25,-350.31C599.09,-349.26 803.74,-342.53 852,-300 865.02,-288.53 869,-268.55 870.04,-253.76"/>
<polygon fill="midnightblue" stroke="midnightblue" points="873.54,-253.8 870.36,-243.69 866.54,-253.57 873.54,-253.8"/>
</g>
<!-- Node22 -->
<g id="node22" class="node">
<title>Node22</title>
<g id="a_node22"><a xlink:href="clockid__t_8h.html" target="_top" xlink:title=" ">
<polygon fill="white" stroke="black" points="578,-224.5 578,-243.5 698,-243.5 698,-224.5 578,-224.5"/>
<text text-anchor="middle" x="638" y="-231.5" font-family="Helvetica,sans-Serif" font-size="10.00">bits/types/clockid_t.h</text>
</a>
</g>
</g>
<!-- Node9&#45;&gt;Node22 -->
<g id="edge29" class="edge">
<title>Node9&#45;&gt;Node22</title>
<path fill="none" stroke="midnightblue" d="M506.75,-341.55C511.66,-326.93 523.21,-297.77 542,-280 557.83,-265.03 579.55,-254.28 598.32,-247.06"/>
<polygon fill="midnightblue" stroke="midnightblue" points="599.63,-250.3 607.82,-243.59 597.23,-243.73 599.63,-250.3"/>
</g>
<!-- Node23 -->
<g id="node23" class="node">
<title>Node23</title>
<g id="a_node23"><a xlink:href="timer__t_8h.html" target="_top" xlink:title=" ">
<polygon fill="white" stroke="black" points="551,-280.5 551,-299.5 663,-299.5 663,-280.5 551,-280.5"/>
<text text-anchor="middle" x="607" y="-287.5" font-family="Helvetica,sans-Serif" font-size="10.00">bits/types/timer_t.h</text>
</a>
</g>
</g>
<!-- Node9&#45;&gt;Node23 -->
<g id="edge31" class="edge">
<title>Node9&#45;&gt;Node23</title>
<path fill="none" stroke="midnightblue" d="M518.76,-341.98C535.66,-332.21 563.58,-316.08 583.49,-304.58"/>
<polygon fill="midnightblue" stroke="midnightblue" points="585.36,-307.54 592.27,-299.51 581.86,-301.48 585.36,-307.54"/>
</g>
<!-- Node24 -->
<g id="node24" class="node">
<title>Node24</title>
<g id="a_node24"><a xlink:href="struct__itimerspec_8h.html" target="_top" xlink:title=" ">
<polygon fill="white" stroke="black" points="681.5,-280.5 681.5,-299.5 842.5,-299.5 842.5,-280.5 681.5,-280.5"/>
<text text-anchor="middle" x="762" y="-287.5" font-family="Helvetica,sans-Serif" font-size="10.00">bits/types/struct_itimerspec.h</text>
</a>
</g>
</g>
<!-- Node9&#45;&gt;Node24 -->
<g id="edge33" class="edge">
<title>Node9&#45;&gt;Node24</title>
<path fill="none" stroke="midnightblue" d="M528.27,-344.9C570.9,-335.07 659.92,-314.54 714.96,-301.85"/>
<polygon fill="midnightblue" stroke="midnightblue" points="715.86,-305.23 724.82,-299.57 714.29,-298.41 715.86,-305.23"/>
</g>
<!-- Node25 -->
<g id="node25" class="node">
<title>Node25</title>
<g id="a_node25"><a xlink:href="locale__t_8h.html" target="_top" xlink:title=" ">
<polygon fill="white" stroke="black" points="899.5,-280.5 899.5,-299.5 1014.5,-299.5 1014.5,-280.5 899.5,-280.5"/>
<text text-anchor="middle" x="957" y="-287.5" font-family="Helvetica,sans-Serif" font-size="10.00">bits/types/locale_t.h</text>
</a>
</g>
</g>
<!-- Node9&#45;&gt;Node25 -->
<g id="edge36" class="edge">
<title>Node9&#45;&gt;Node25</title>
<path fill="none" stroke="midnightblue" d="M528.04,-347.34C595.13,-338.53 786.24,-313.43 889.25,-299.9"/>
<polygon fill="midnightblue" stroke="midnightblue" points="889.78,-303.36 899.23,-298.59 888.86,-296.42 889.78,-303.36"/>
</g>
<!-- Node12 -->
<g id="node12" class="node">
<title>Node12</title>
<g id="a_node12"><a xlink:href="bits_2types_8h.html" target="_top" xlink:title=" ">
<polygon fill="white" stroke="black" points="461,-168.5 461,-187.5 535,-187.5 535,-168.5 461,-168.5"/>
<text text-anchor="middle" x="498" y="-175.5" font-family="Helvetica,sans-Serif" font-size="10.00">bits/types.h</text>
</a>
</g>
</g>
<!-- Node11&#45;&gt;Node12 -->
<g id="edge13" class="edge">
<title>Node11&#45;&gt;Node12</title>
<path fill="none" stroke="midnightblue" d="M162.69,-225.52C165.5,-224.98 168.29,-224.47 171,-224 269.95,-206.86 386.66,-192.1 450.45,-184.49"/>
<polygon fill="midnightblue" stroke="midnightblue" points="451.08,-187.94 460.6,-183.29 450.26,-180.99 451.08,-187.94"/>
</g>
<!-- Node12&#45;&gt;Node2 -->
<g id="edge14" class="edge">
<title>Node12&#45;&gt;Node2</title>
<path fill="none" stroke="midnightblue" d="M460.76,-171.47C392.88,-161.41 249.43,-140.12 177.31,-129.43"/>
<polygon fill="midnightblue" stroke="midnightblue" points="177.61,-125.93 167.21,-127.93 176.59,-132.86 177.61,-125.93"/>
</g>
<!-- Node12&#45;&gt;Node5 -->
<g id="edge15" class="edge">
<title>Node12&#45;&gt;Node5</title>
<path fill="none" stroke="midnightblue" d="M460.89,-171.01C436.99,-165.17 407.28,-153.81 390,-132 366.51,-102.34 365.99,-55.55 367.88,-29.71"/>
<polygon fill="midnightblue" stroke="midnightblue" points="371.36,-30.02 368.8,-19.73 364.39,-29.37 371.36,-30.02"/>
</g>
<!-- Node13 -->
<g id="node13" class="node">
<title>Node13</title>
<g id="a_node13"><a xlink:href="timesize_8h.html" target="_top" xlink:title=" ">
<polygon fill="white" stroke="black" points="398.5,-112.5 398.5,-131.5 487.5,-131.5 487.5,-112.5 398.5,-112.5"/>
<text text-anchor="middle" x="443" y="-119.5" font-family="Helvetica,sans-Serif" font-size="10.00">bits/timesize.h</text>
</a>
</g>
</g>
<!-- Node12&#45;&gt;Node13 -->
<g id="edge16" class="edge">
<title>Node12&#45;&gt;Node13</title>
<path fill="none" stroke="midnightblue" d="M488.92,-168.08C480.83,-160.14 468.8,-148.34 459.09,-138.8"/>
<polygon fill="midnightblue" stroke="midnightblue" points="461.5,-136.26 451.91,-131.75 456.6,-141.25 461.5,-136.26"/>
</g>
<!-- Node14 -->
<g id="node14" class="node">
<title>Node14</title>
<g id="a_node14"><a xlink:href="typesizes_8h.html" target="_top" xlink:title=" ">
<polygon fill="white" stroke="black" points="505.5,-112.5 505.5,-131.5 598.5,-131.5 598.5,-112.5 505.5,-112.5"/>
<text text-anchor="middle" x="552" y="-119.5" font-family="Helvetica,sans-Serif" font-size="10.00">bits/typesizes.h</text>
</a>
</g>
</g>
<!-- Node12&#45;&gt;Node14 -->
<g id="edge17" class="edge">
<title>Node12&#45;&gt;Node14</title>
<path fill="none" stroke="midnightblue" d="M506.92,-168.08C514.78,-160.22 526.43,-148.57 535.92,-139.08"/>
<polygon fill="midnightblue" stroke="midnightblue" points="538.65,-141.3 543.25,-131.75 533.7,-136.35 538.65,-141.3"/>
</g>
<!-- Node15 -->
<g id="node15" class="node">
<title>Node15</title>
<g id="a_node15"><a xlink:href="time64_8h.html" target="_top" xlink:title=" ">
<polygon fill="white" stroke="black" points="616.5,-112.5 616.5,-131.5 697.5,-131.5 697.5,-112.5 616.5,-112.5"/>
<text text-anchor="middle" x="657" y="-119.5" font-family="Helvetica,sans-Serif" font-size="10.00">bits/time64.h</text>
</a>
</g>
</g>
<!-- Node12&#45;&gt;Node15 -->
<g id="edge18" class="edge">
<title>Node12&#45;&gt;Node15</title>
<path fill="none" stroke="midnightblue" d="M523.19,-168.44C549.94,-159.36 592.4,-144.94 622.31,-134.78"/>
<polygon fill="midnightblue" stroke="midnightblue" points="623.58,-138.05 631.92,-131.52 621.33,-131.42 623.58,-138.05"/>
</g>
<!-- Node16&#45;&gt;Node12 -->
<g id="edge20" class="edge">
<title>Node16&#45;&gt;Node12</title>
<path fill="none" stroke="midnightblue" d="M277.51,-224.44C324.66,-214.73 401.43,-198.9 450.81,-188.73"/>
<polygon fill="midnightblue" stroke="midnightblue" points="451.83,-192.09 460.92,-186.64 450.42,-185.23 451.83,-192.09"/>
</g>
<!-- Node17&#45;&gt;Node12 -->
<g id="edge22" class="edge">
<title>Node17&#45;&gt;Node12</title>
<path fill="none" stroke="midnightblue" d="M385.23,-224.44C407.38,-215.52 442.32,-201.44 467.44,-191.32"/>
<polygon fill="midnightblue" stroke="midnightblue" points="468.9,-194.5 476.87,-187.52 466.28,-188.01 468.9,-194.5"/>
</g>
<!-- Node18&#45;&gt;Node12 -->
<g id="edge24" class="edge">
<title>Node18&#45;&gt;Node12</title>
<path fill="none" stroke="midnightblue" d="M498,-224.08C498,-217.01 498,-206.86 498,-197.99"/>
<polygon fill="midnightblue" stroke="midnightblue" points="501.5,-197.75 498,-187.75 494.5,-197.75 501.5,-197.75"/>
</g>
<!-- Node19&#45;&gt;Node12 -->
<g id="edge26" class="edge">
<title>Node19&#45;&gt;Node12</title>
<path fill="none" stroke="midnightblue" d="M811.06,-224.44C737.4,-213.75 612.81,-195.67 545.15,-185.84"/>
<polygon fill="midnightblue" stroke="midnightblue" points="545.59,-182.37 535.19,-184.4 544.59,-189.3 545.59,-182.37"/>
</g>
<!-- Node20 -->
<g id="node20" class="node">
<title>Node20</title>
<g id="a_node20"><a xlink:href="bits_2endian_8h.html" target="_top" xlink:title=" ">
<polygon fill="white" stroke="black" points="830,-168.5 830,-187.5 910,-187.5 910,-168.5 830,-168.5"/>
<text text-anchor="middle" x="870" y="-175.5" font-family="Helvetica,sans-Serif" font-size="10.00">bits/endian.h</text>
</a>
</g>
</g>
<!-- Node19&#45;&gt;Node20 -->
<g id="edge27" class="edge">
<title>Node19&#45;&gt;Node20</title>
<path fill="none" stroke="midnightblue" d="M870,-224.08C870,-217.01 870,-206.86 870,-197.99"/>
<polygon fill="midnightblue" stroke="midnightblue" points="873.5,-197.75 870,-187.75 866.5,-197.75 873.5,-197.75"/>
</g>
<!-- Node21 -->
<g id="node21" class="node">
<title>Node21</title>
<g id="a_node21"><a xlink:href="endianness_8h.html" target="_top" xlink:title=" ">
<polygon fill="white" stroke="black" points="819,-112.5 819,-131.5 921,-131.5 921,-112.5 819,-112.5"/>
<text text-anchor="middle" x="870" y="-119.5" font-family="Helvetica,sans-Serif" font-size="10.00">bits/endianness.h</text>
</a>
</g>
</g>
<!-- Node20&#45;&gt;Node21 -->
<g id="edge28" class="edge">
<title>Node20&#45;&gt;Node21</title>
<path fill="none" stroke="midnightblue" d="M870,-168.08C870,-161.01 870,-150.86 870,-141.99"/>
<polygon fill="midnightblue" stroke="midnightblue" points="873.5,-141.75 870,-131.75 866.5,-141.75 873.5,-141.75"/>
</g>
<!-- Node22&#45;&gt;Node12 -->
<g id="edge30" class="edge">
<title>Node22&#45;&gt;Node12</title>
<path fill="none" stroke="midnightblue" d="M615.82,-224.44C592.57,-215.48 555.85,-201.31 529.58,-191.18"/>
<polygon fill="midnightblue" stroke="midnightblue" points="530.67,-187.85 520.08,-187.52 528.15,-194.38 530.67,-187.85"/>
</g>
<!-- Node23&#45;&gt;Node12 -->
<g id="edge32" class="edge">
<title>Node23&#45;&gt;Node12</title>
<path fill="none" stroke="midnightblue" d="M643.4,-280.46C680.14,-270.13 728.6,-250.74 707,-224 687.12,-199.38 601,-187.59 545.7,-182.47"/>
<polygon fill="midnightblue" stroke="midnightblue" points="545.69,-178.95 535.42,-181.56 545.07,-185.93 545.69,-178.95"/>
</g>
<!-- Node24&#45;&gt;Node12 -->
<g id="edge34" class="edge">
<title>Node24&#45;&gt;Node12</title>
<path fill="none" stroke="midnightblue" d="M759.33,-280.24C754.53,-266.02 743.01,-238.1 723,-224 694.95,-204.23 602.76,-190.69 545.45,-183.95"/>
<polygon fill="midnightblue" stroke="midnightblue" points="545.52,-180.43 535.18,-182.77 544.72,-187.39 545.52,-180.43"/>
</g>
<!-- Node24&#45;&gt;Node19 -->
<g id="edge35" class="edge">
<title>Node24&#45;&gt;Node19</title>
<path fill="none" stroke="midnightblue" d="M779.35,-280.32C796.67,-271.66 823.52,-258.24 843.5,-248.25"/>
<polygon fill="midnightblue" stroke="midnightblue" points="845.31,-251.26 852.69,-243.65 842.18,-245 845.31,-251.26"/>
</g>
<!-- Node26 -->
<g id="node26" class="node">
<title>Node26</title>
<g id="a_node26"><a xlink:href="____locale__t_8h.html" target="_top" xlink:title=" ">
<polygon fill="white" stroke="black" points="965.5,-224.5 965.5,-243.5 1090.5,-243.5 1090.5,-224.5 965.5,-224.5"/>
<text text-anchor="middle" x="1028" y="-231.5" font-family="Helvetica,sans-Serif" font-size="10.00">bits/types/__locale_t.h</text>
</a>
</g>
</g>
<!-- Node25&#45;&gt;Node26 -->
<g id="edge37" class="edge">
<title>Node25&#45;&gt;Node26</title>
<path fill="none" stroke="midnightblue" d="M968.41,-280.32C979.11,-272.18 995.34,-259.84 1008.16,-250.09"/>
<polygon fill="midnightblue" stroke="midnightblue" points="1010.54,-252.67 1016.39,-243.83 1006.31,-247.1 1010.54,-252.67"/>
</g>
<!-- Node28 -->
<g id="node28" class="node">
<title>Node28</title>
<g id="a_node28"><a xlink:href="pthreadtypes-arch_8h.html" target="_top" xlink:title=" ">
<polygon fill="white" stroke="black" points="989,-168.5 989,-187.5 1125,-187.5 1125,-168.5 989,-168.5"/>
<text text-anchor="middle" x="1057" y="-175.5" font-family="Helvetica,sans-Serif" font-size="10.00">bits/pthreadtypes&#45;arch.h</text>
</a>
</g>
</g>
<!-- Node27&#45;&gt;Node28 -->
<g id="edge39" class="edge">
<title>Node27&#45;&gt;Node28</title>
<path fill="none" stroke="midnightblue" d="M1156.9,-336.19C1140.99,-304.15 1103.57,-229.05 1100,-224 1092.53,-213.44 1082.64,-202.91 1074.23,-194.7"/>
<polygon fill="midnightblue" stroke="midnightblue" points="1076.41,-191.94 1066.75,-187.61 1071.6,-197.02 1076.41,-191.94"/>
</g>
<!-- Node29 -->
<g id="node29" class="node">
<title>Node29</title>
<g id="a_node29"><a xlink:href="struct__mutex_8h.html" target="_top" xlink:title=" ">
<polygon fill="white" stroke="black" points="1147.5,-280.5 1147.5,-299.5 1258.5,-299.5 1258.5,-280.5 1147.5,-280.5"/>
<text text-anchor="middle" x="1203" y="-287.5" font-family="Helvetica,sans-Serif" font-size="10.00">bits/struct_mutex.h</text>
</a>
</g>
</g>
<!-- Node27&#45;&gt;Node29 -->
<g id="edge41" class="edge">
<title>Node27&#45;&gt;Node29</title>
<path fill="none" stroke="midnightblue" d="M1173.24,-336.4C1178.79,-327.93 1185.89,-317.1 1191.77,-308.14"/>
<polygon fill="midnightblue" stroke="midnightblue" points="1194.77,-309.94 1197.33,-299.66 1188.92,-306.1 1194.77,-309.94"/>
</g>
<!-- Node30 -->
<g id="node30" class="node">
<title>Node30</title>
<g id="a_node30"><a xlink:href="struct__rwlock_8h.html" target="_top" xlink:title=" ">
<polygon fill="white" stroke="black" points="1277,-280.5 1277,-299.5 1389,-299.5 1389,-280.5 1277,-280.5"/>
<text text-anchor="middle" x="1333" y="-287.5" font-family="Helvetica,sans-Serif" font-size="10.00">bits/struct_rwlock.h</text>
</a>
</g>
</g>
<!-- Node27&#45;&gt;Node30 -->
<g id="edge42" class="edge">
<title>Node27&#45;&gt;Node30</title>
<path fill="none" stroke="midnightblue" d="M1204.05,-336.4C1232.91,-326.24 1271.45,-312.67 1298.85,-303.02"/>
<polygon fill="midnightblue" stroke="midnightblue" points="1300.14,-306.28 1308.41,-299.66 1297.81,-299.68 1300.14,-306.28"/>
</g>
<!-- Node28&#45;&gt;Node5 -->
<g id="edge40" class="edge">
<title>Node28&#45;&gt;Node5</title>
<path fill="none" stroke="midnightblue" d="M1043.5,-168.38C1020.91,-154.38 973.65,-126.74 930,-112 751.06,-51.56 527.06,-25.06 425.1,-15.52"/>
<polygon fill="midnightblue" stroke="midnightblue" points="425.32,-12.03 415.04,-14.6 424.68,-19 425.32,-12.03"/>
</g>
</g>
</svg>
