<?xml version="1.0" encoding="UTF-8" standalone="no"?>
<!DOCTYPE svg PUBLIC "-//W3C//DTD SVG 1.1//EN"
 "http://www.w3.org/Graphics/SVG/1.1/DTD/svg11.dtd">
<!-- Generated by graphviz version 2.44.1 (0)
 -->
<!-- Title: thread_db.h Pages: 1 -->
<!--zoomable 498 -->
<svg id="main" version="1.1" xmlns="http://www.w3.org/2000/svg" xmlns:xlink="http://www.w3.org/1999/xlink" xml:space="preserve" onload="init(evt)">
<style type="text/css"><![CDATA[
.edge:hover path { stroke: red; }
.edge:hover polygon { stroke: red; fill: red; }
]]></style>
<script type="text/javascript"><![CDATA[
var edges = document.getElementsByTagName('g');
if (edges && edges.length) {
  for (var i=0;i<edges.length;i++) {
    if (edges[i].id.substr(0,4)=='edge') {
      edges[i].setAttribute('class','edge');
    }
  }
}
]]></script>
        <defs>
                <circle id="rim" cx="0" cy="0" r="7"/>
                <circle id="rim2" cx="0" cy="0" r="3.5"/>
                <g id="zoomPlus">
                        <use xlink:href="#rim" fill="#404040">
                                <set attributeName="fill" to="#808080" begin="zoomplus.mouseover" end="zoomplus.mouseout"/>
                        </use>
                        <path d="M-4,0h8M0,-4v8" fill="none" stroke="white" stroke-width="1.5" pointer-events="none"/>
                </g>
                <g id="zoomMin">
                        <use xlink:href="#rim" fill="#404040">
                                <set attributeName="fill" to="#808080" begin="zoomminus.mouseover" end="zoomminus.mouseout"/>
                        </use>
                        <path d="M-4,0h8" fill="none" stroke="white" stroke-width="1.5" pointer-events="none"/>
                </g>
                <g id="dirArrow">
                        <path fill="none" stroke="white" stroke-width="1.5" d="M0,-3.0v7 M-2.5,-0.5L0,-3.0L2.5,-0.5"/>
                </g>
               <g id="resetDef">
                       <use xlink:href="#rim2" fill="#404040">
                               <set attributeName="fill" to="#808080" begin="reset.mouseover" end="reset.mouseout"/>
                       </use>
               </g>
        </defs>

<script type="text/javascript">
var viewWidth = 2761;
var viewHeight = 498;
var sectionId = 'dynsection-0';
</script>
<script xlink:href="svgpan.js"/>
<svg id="graph" class="graph">
<g id="viewport">
<title>thread_db.h</title>
<polygon fill="white" stroke="transparent" points="-4,4 -4,-494 2756.98,-494 2756.98,4 -4,4"/>
<!-- Node1 -->
<g id="node1" class="node">
<title>Node1</title>
<g id="a_node1"><a xlink:title=" ">
<polygon fill="#bfbfbf" stroke="black" points="1574.57,-470.5 1574.57,-489.5 1648.57,-489.5 1648.57,-470.5 1574.57,-470.5"/>
<text text-anchor="middle" x="1611.57" y="-477.5" font-family="Helvetica,sans-Serif" font-size="10.00">thread_db.h</text>
</a>
</g>
</g>
<!-- Node2 -->
<g id="node2" class="node">
<title>Node2</title>
<g id="a_node2"><a xlink:href="pthread_8h.html" target="_top" xlink:title=" ">
<polygon fill="white" stroke="black" points="572.07,-414.5 572.07,-433.5 635.07,-433.5 635.07,-414.5 572.07,-414.5"/>
<text text-anchor="middle" x="603.57" y="-421.5" font-family="Helvetica,sans-Serif" font-size="10.00">pthread.h</text>
</a>
</g>
</g>
<!-- Node1&#45;&gt;Node2 -->
<g id="edge1" class="edge">
<title>Node1&#45;&gt;Node2</title>
<path fill="none" stroke="midnightblue" d="M1574.5,-477.01C1417.92,-468.63 811.23,-436.12 645.57,-427.25"/>
<polygon fill="midnightblue" stroke="midnightblue" points="645.48,-423.74 635.3,-426.7 645.1,-430.73 645.48,-423.74"/>
</g>
<!-- Node39 -->
<g id="node36" class="node">
<title>Node39</title>
<g id="a_node36"><a xlink:href="stdint_8h.html" target="_top" xlink:title=" ">
<polygon fill="white" stroke="black" points="1715.07,-297 1715.07,-316 1768.07,-316 1768.07,-297 1715.07,-297"/>
<text text-anchor="middle" x="1741.57" y="-304" font-family="Helvetica,sans-Serif" font-size="10.00">stdint.h</text>
</a>
</g>
</g>
<!-- Node1&#45;&gt;Node39 -->
<g id="edge56" class="edge">
<title>Node1&#45;&gt;Node39</title>
<path fill="none" stroke="midnightblue" d="M1618.19,-470.26C1638.8,-443.08 1701.99,-359.71 1729.06,-324.01"/>
<polygon fill="midnightblue" stroke="midnightblue" points="1731.86,-326.1 1735.11,-316.02 1726.28,-321.87 1731.86,-326.1"/>
</g>
<!-- Node44 -->
<g id="node41" class="node">
<title>Node44</title>
<g id="a_node41"><a xlink:href="sys_2types_8h.html" target="_top" xlink:title=" ">
<polygon fill="white" stroke="black" points="1386.57,-297 1386.57,-316 1458.57,-316 1458.57,-297 1386.57,-297"/>
<text text-anchor="middle" x="1422.57" y="-304" font-family="Helvetica,sans-Serif" font-size="10.00">sys/types.h</text>
</a>
</g>
</g>
<!-- Node1&#45;&gt;Node44 -->
<g id="edge66" class="edge">
<title>Node1&#45;&gt;Node44</title>
<path fill="none" stroke="midnightblue" d="M1602.2,-470.5C1572.28,-443.35 1478.77,-358.5 1439.84,-323.17"/>
<polygon fill="midnightblue" stroke="midnightblue" points="1441.75,-320.18 1432,-316.06 1437.05,-325.37 1441.75,-320.18"/>
</g>
<!-- Node45 -->
<g id="node42" class="node">
<title>Node45</title>
<g id="a_node42"><a xlink:href="sys_2procfs_8h.html" target="_top" xlink:title=" ">
<polygon fill="white" stroke="black" points="2277.07,-414.5 2277.07,-433.5 2352.07,-433.5 2352.07,-414.5 2277.07,-414.5"/>
<text text-anchor="middle" x="2314.57" y="-421.5" font-family="Helvetica,sans-Serif" font-size="10.00">sys/procfs.h</text>
</a>
</g>
</g>
<!-- Node1&#45;&gt;Node45 -->
<g id="edge74" class="edge">
<title>Node1&#45;&gt;Node45</title>
<path fill="none" stroke="midnightblue" d="M1648.87,-476.13C1767.29,-467.04 2134.73,-438.81 2266.73,-428.67"/>
<polygon fill="midnightblue" stroke="midnightblue" points="2267.23,-432.15 2276.93,-427.89 2266.69,-425.17 2267.23,-432.15"/>
</g>
<!-- Node3 -->
<g id="node3" class="node">
<title>Node3</title>
<g id="a_node3"><a xlink:href="features_8h.html" target="_top" xlink:title=" ">
<polygon fill="white" stroke="black" points="2118.57,-112.5 2118.57,-131.5 2184.57,-131.5 2184.57,-112.5 2118.57,-112.5"/>
<text text-anchor="middle" x="2151.57" y="-119.5" font-family="Helvetica,sans-Serif" font-size="10.00">features.h</text>
</a>
</g>
</g>
<!-- Node2&#45;&gt;Node3 -->
<g id="edge2" class="edge">
<title>Node2&#45;&gt;Node3</title>
<path fill="none" stroke="midnightblue" d="M635.36,-422.97C842.39,-422.63 1995.11,-418.93 2145.57,-378 2151.81,-376.3 2242.65,-326.2 2247.57,-322 2276.24,-297.53 2286.4,-290.32 2299.57,-255 2313.08,-218.75 2325.69,-199.02 2302.57,-168 2277.94,-134.96 2230.02,-125.23 2194.74,-122.81"/>
<polygon fill="midnightblue" stroke="midnightblue" points="2194.86,-119.31 2184.69,-122.29 2194.5,-126.3 2194.86,-119.31"/>
</g>
<!-- Node6 -->
<g id="node6" class="node">
<title>Node6</title>
<g id="a_node6"><a xlink:href="wordsize_8h.html" target="_top" xlink:title=" ">
<polygon fill="white" stroke="black" points="1266.57,-0.5 1266.57,-19.5 1356.57,-19.5 1356.57,-0.5 1266.57,-0.5"/>
<text text-anchor="middle" x="1311.57" y="-7.5" font-family="Helvetica,sans-Serif" font-size="10.00">bits/wordsize.h</text>
</a>
</g>
</g>
<!-- Node2&#45;&gt;Node6 -->
<g id="edge53" class="edge">
<title>Node2&#45;&gt;Node6</title>
<path fill="none" stroke="midnightblue" d="M571.92,-421.15C474.02,-414.57 182.57,-388.22 182.57,-307.5 182.57,-307.5 182.57,-307.5 182.57,-121 182.57,-11.84 1029.43,-9.25 1256.25,-10.52"/>
<polygon fill="midnightblue" stroke="midnightblue" points="1256.24,-14.02 1266.26,-10.58 1256.28,-7.02 1256.24,-14.02"/>
</g>
<!-- Node10 -->
<g id="node10" class="node">
<title>Node10</title>
<g id="a_node10"><a xlink:href="sched_8h.html" target="_top" xlink:title=" ">
<polygon fill="white" stroke="black" points="995.57,-297 995.57,-316 1049.57,-316 1049.57,-297 995.57,-297"/>
<text text-anchor="middle" x="1022.57" y="-304" font-family="Helvetica,sans-Serif" font-size="10.00">sched.h</text>
</a>
</g>
</g>
<!-- Node2&#45;&gt;Node10 -->
<g id="edge10" class="edge">
<title>Node2&#45;&gt;Node10</title>
<path fill="none" stroke="midnightblue" d="M635.28,-422.05C690.62,-419.55 807.8,-410.52 900.57,-378 939.29,-364.43 979.64,-338.37 1002.87,-322.02"/>
<polygon fill="midnightblue" stroke="midnightblue" points="1005.08,-324.75 1011.17,-316.08 1001,-319.06 1005.08,-324.75"/>
</g>
<!-- Node17 -->
<g id="node17" class="node">
<title>Node17</title>
<g id="a_node17"><a xlink:href="struct__timespec_8h.html" target="_top" xlink:title=" ">
<polygon fill="white" stroke="black" points="392.07,-235.5 392.07,-254.5 547.07,-254.5 547.07,-235.5 392.07,-235.5"/>
<text text-anchor="middle" x="469.57" y="-242.5" font-family="Helvetica,sans-Serif" font-size="10.00">bits/types/struct_timespec.h</text>
</a>
</g>
</g>
<!-- Node2&#45;&gt;Node17 -->
<g id="edge54" class="edge">
<title>Node2&#45;&gt;Node17</title>
<path fill="none" stroke="midnightblue" d="M573.27,-414.41C534.26,-401.53 468.1,-373.09 439.57,-322 428.71,-302.56 442.44,-278.4 454.69,-262.6"/>
<polygon fill="midnightblue" stroke="midnightblue" points="457.49,-264.71 461.18,-254.77 452.1,-260.24 457.49,-264.71"/>
</g>
<!-- Node18 -->
<g id="node18" class="node">
<title>Node18</title>
<g id="a_node18"><a xlink:href="bits_2endian_8h.html" target="_top" xlink:title=" ">
<polygon fill="white" stroke="black" points="325.57,-174 325.57,-193 405.57,-193 405.57,-174 325.57,-174"/>
<text text-anchor="middle" x="365.57" y="-181" font-family="Helvetica,sans-Serif" font-size="10.00">bits/endian.h</text>
</a>
</g>
</g>
<!-- Node2&#45;&gt;Node18 -->
<g id="edge48" class="edge">
<title>Node2&#45;&gt;Node18</title>
<path fill="none" stroke="midnightblue" d="M572.01,-419.1C491.24,-408.4 280.45,-375.77 239.57,-322 216.17,-291.22 217.9,-267.03 239.57,-235 256.56,-209.88 288.31,-197.25 315.69,-190.91"/>
<polygon fill="midnightblue" stroke="midnightblue" points="316.47,-194.32 325.54,-188.84 315.04,-187.47 316.47,-194.32"/>
</g>
<!-- Node23 -->
<g id="node23" class="node">
<title>Node23</title>
<g id="a_node23"><a xlink:href="time_8h.html" target="_top" xlink:title=" ">
<polygon fill="white" stroke="black" points="843.57,-358.5 843.57,-377.5 891.57,-377.5 891.57,-358.5 843.57,-358.5"/>
<text text-anchor="middle" x="867.57" y="-365.5" font-family="Helvetica,sans-Serif" font-size="10.00">time.h</text>
</a>
</g>
</g>
<!-- Node2&#45;&gt;Node23 -->
<g id="edge28" class="edge">
<title>Node2&#45;&gt;Node23</title>
<path fill="none" stroke="midnightblue" d="M635.15,-416.54C685.09,-406.33 781.88,-386.53 833.39,-375.99"/>
<polygon fill="midnightblue" stroke="midnightblue" points="834.26,-379.38 843.36,-373.95 832.86,-372.53 834.26,-379.38"/>
</g>
<!-- Node32 -->
<g id="node32" class="node">
<title>Node32</title>
<g id="a_node32"><a xlink:href="pthreadtypes_8h.html" target="_top" xlink:title=" ">
<polygon fill="white" stroke="black" points="1122.07,-358.5 1122.07,-377.5 1233.07,-377.5 1233.07,-358.5 1122.07,-358.5"/>
<text text-anchor="middle" x="1177.57" y="-365.5" font-family="Helvetica,sans-Serif" font-size="10.00">bits/pthreadtypes.h</text>
</a>
</g>
</g>
<!-- Node2&#45;&gt;Node32 -->
<g id="edge49" class="edge">
<title>Node2&#45;&gt;Node32</title>
<path fill="none" stroke="midnightblue" d="M635.25,-420.02C726,-411.48 988.34,-386.8 1111.82,-375.19"/>
<polygon fill="midnightblue" stroke="midnightblue" points="1112.27,-378.66 1121.9,-374.24 1111.62,-371.69 1112.27,-378.66"/>
</g>
<!-- Node37 -->
<g id="node34" class="node">
<title>Node37</title>
<g id="a_node34"><a xlink:href="bits_2setjmp_8h.html" target="_top" xlink:title=" ">
<polygon fill="white" stroke="black" points="17.57,-174 17.57,-193 97.57,-193 97.57,-174 17.57,-174"/>
<text text-anchor="middle" x="57.57" y="-181" font-family="Helvetica,sans-Serif" font-size="10.00">bits/setjmp.h</text>
</a>
</g>
</g>
<!-- Node2&#45;&gt;Node37 -->
<g id="edge51" class="edge">
<title>Node2&#45;&gt;Node37</title>
<path fill="none" stroke="midnightblue" d="M571.68,-423.01C455.15,-422.71 57.26,-418.71 19.57,-378 -26.55,-328.19 21.57,-239.46 45.61,-201.98"/>
<polygon fill="midnightblue" stroke="midnightblue" points="48.8,-203.49 51.39,-193.22 42.96,-199.64 48.8,-203.49"/>
</g>
<!-- Node38 -->
<g id="node35" class="node">
<title>Node38</title>
<g id="a_node35"><a xlink:href="____sigset__t_8h.html" target="_top" xlink:title=" ">
<polygon fill="white" stroke="black" points="29.07,-358.5 29.07,-377.5 154.07,-377.5 154.07,-358.5 29.07,-358.5"/>
<text text-anchor="middle" x="91.57" y="-365.5" font-family="Helvetica,sans-Serif" font-size="10.00">bits/types/__sigset_t.h</text>
</a>
</g>
</g>
<!-- Node2&#45;&gt;Node38 -->
<g id="edge55" class="edge">
<title>Node2&#45;&gt;Node38</title>
<path fill="none" stroke="midnightblue" d="M571.9,-419.87C500.1,-412.74 319.5,-394.63 168.57,-378 167.1,-377.84 165.63,-377.67 164.14,-377.51"/>
<polygon fill="midnightblue" stroke="midnightblue" points="164.5,-374.03 154.17,-376.39 163.72,-380.98 164.5,-374.03"/>
</g>
<!-- Node4 -->
<g id="node4" class="node">
<title>Node4</title>
<g id="a_node4"><a xlink:href="stdc-predef_8h.html" target="_top" xlink:title=" ">
<polygon fill="white" stroke="black" points="2017.57,-56.5 2017.57,-75.5 2097.57,-75.5 2097.57,-56.5 2017.57,-56.5"/>
<text text-anchor="middle" x="2057.57" y="-63.5" font-family="Helvetica,sans-Serif" font-size="10.00">stdc&#45;predef.h</text>
</a>
</g>
</g>
<!-- Node3&#45;&gt;Node4 -->
<g id="edge3" class="edge">
<title>Node3&#45;&gt;Node4</title>
<path fill="none" stroke="midnightblue" d="M2136.47,-112.32C2121.66,-103.82 2098.87,-90.73 2081.59,-80.8"/>
<polygon fill="midnightblue" stroke="midnightblue" points="2083.05,-77.6 2072.63,-75.65 2079.56,-83.67 2083.05,-77.6"/>
</g>
<!-- Node5 -->
<g id="node5" class="node">
<title>Node5</title>
<g id="a_node5"><a xlink:href="cdefs_8h.html" target="_top" xlink:title=" ">
<polygon fill="white" stroke="black" points="2116.07,-56.5 2116.07,-75.5 2187.07,-75.5 2187.07,-56.5 2116.07,-56.5"/>
<text text-anchor="middle" x="2151.57" y="-63.5" font-family="Helvetica,sans-Serif" font-size="10.00">sys/cdefs.h</text>
</a>
</g>
</g>
<!-- Node3&#45;&gt;Node5 -->
<g id="edge4" class="edge">
<title>Node3&#45;&gt;Node5</title>
<path fill="none" stroke="midnightblue" d="M2146.4,-112.08C2144.89,-104.93 2144.46,-94.64 2145.11,-85.69"/>
<polygon fill="midnightblue" stroke="midnightblue" points="2148.58,-86.13 2146.44,-75.75 2141.64,-85.2 2148.58,-86.13"/>
</g>
<!-- Node8 -->
<g id="node8" class="node">
<title>Node8</title>
<g id="a_node8"><a xlink:href="stubs_8h.html" target="_top" xlink:title=" ">
<polygon fill="white" stroke="black" points="2217.07,-56.5 2217.07,-75.5 2290.07,-75.5 2290.07,-56.5 2217.07,-56.5"/>
<text text-anchor="middle" x="2253.57" y="-63.5" font-family="Helvetica,sans-Serif" font-size="10.00">gnu/stubs.h</text>
</a>
</g>
</g>
<!-- Node3&#45;&gt;Node8 -->
<g id="edge8" class="edge">
<title>Node3&#45;&gt;Node8</title>
<path fill="none" stroke="midnightblue" d="M2167.96,-112.32C2184.24,-103.7 2209.44,-90.36 2228.28,-80.39"/>
<polygon fill="midnightblue" stroke="midnightblue" points="2230.02,-83.43 2237.22,-75.65 2226.74,-77.24 2230.02,-83.43"/>
</g>
<!-- Node5&#45;&gt;Node3 -->
<g id="edge5" class="edge">
<title>Node5&#45;&gt;Node3</title>
<path fill="none" stroke="midnightblue" d="M2156.7,-75.75C2158.23,-82.86 2158.67,-93.14 2158.04,-102.1"/>
<polygon fill="midnightblue" stroke="midnightblue" points="2154.56,-101.71 2156.73,-112.08 2161.5,-102.62 2154.56,-101.71"/>
</g>
<!-- Node5&#45;&gt;Node6 -->
<g id="edge6" class="edge">
<title>Node5&#45;&gt;Node6</title>
<path fill="none" stroke="midnightblue" d="M2115.78,-57.37C2112.67,-56.85 2109.57,-56.38 2106.57,-56 1830.2,-20.72 1496.24,-13.1 1366.67,-11.45"/>
<polygon fill="midnightblue" stroke="midnightblue" points="1366.64,-7.95 1356.6,-11.33 1366.55,-14.95 1366.64,-7.95"/>
</g>
<!-- Node7 -->
<g id="node7" class="node">
<title>Node7</title>
<g id="a_node7"><a xlink:href="long-double_8h.html" target="_top" xlink:title=" ">
<polygon fill="white" stroke="black" points="2092.57,-0.5 2092.57,-19.5 2196.57,-19.5 2196.57,-0.5 2092.57,-0.5"/>
<text text-anchor="middle" x="2144.57" y="-7.5" font-family="Helvetica,sans-Serif" font-size="10.00">bits/long&#45;double.h</text>
</a>
</g>
</g>
<!-- Node5&#45;&gt;Node7 -->
<g id="edge7" class="edge">
<title>Node5&#45;&gt;Node7</title>
<path fill="none" stroke="midnightblue" d="M2150.41,-56.08C2149.48,-48.93 2148.15,-38.64 2146.99,-29.69"/>
<polygon fill="midnightblue" stroke="midnightblue" points="2150.46,-29.22 2145.7,-19.75 2143.52,-30.12 2150.46,-29.22"/>
</g>
<!-- Node9 -->
<g id="node9" class="node">
<title>Node9</title>
<g id="a_node9"><a xlink:title=" ">
<polygon fill="white" stroke="#bfbfbf" points="2215.07,-0.5 2215.07,-19.5 2304.07,-19.5 2304.07,-0.5 2215.07,-0.5"/>
<text text-anchor="middle" x="2259.57" y="-7.5" font-family="Helvetica,sans-Serif" font-size="10.00">gnu/stubs&#45;32.h</text>
</a>
</g>
</g>
<!-- Node8&#45;&gt;Node9 -->
<g id="edge9" class="edge">
<title>Node8&#45;&gt;Node9</title>
<path fill="none" stroke="midnightblue" d="M2254.56,-56.08C2255.35,-48.93 2256.5,-38.64 2257.49,-29.69"/>
<polygon fill="midnightblue" stroke="midnightblue" points="2260.97,-30.08 2258.6,-19.75 2254.01,-29.3 2260.97,-30.08"/>
</g>
<!-- Node10&#45;&gt;Node3 -->
<g id="edge11" class="edge">
<title>Node10&#45;&gt;Node3</title>
<path fill="none" stroke="midnightblue" d="M1010.66,-297C992.46,-283.01 961.63,-254.73 979.57,-235 999,-213.62 1898.97,-142.59 2108.36,-126.33"/>
<polygon fill="midnightblue" stroke="midnightblue" points="2108.67,-129.82 2118.37,-125.56 2108.13,-122.84 2108.67,-129.82"/>
</g>
<!-- Node11 -->
<g id="node11" class="node">
<title>Node11</title>
<g id="a_node11"><a xlink:href="bits_2types_8h.html" target="_top" xlink:title=" ">
<polygon fill="white" stroke="black" points="1152.57,-174 1152.57,-193 1226.57,-193 1226.57,-174 1152.57,-174"/>
<text text-anchor="middle" x="1189.57" y="-181" font-family="Helvetica,sans-Serif" font-size="10.00">bits/types.h</text>
</a>
</g>
</g>
<!-- Node10&#45;&gt;Node11 -->
<g id="edge12" class="edge">
<title>Node10&#45;&gt;Node11</title>
<path fill="none" stroke="midnightblue" d="M1003.26,-296.99C997.64,-294.77 991.43,-292.57 985.57,-291 880.18,-262.79 673.92,-316.4 746.57,-235 759.64,-220.35 1030.42,-197.19 1142.07,-188.22"/>
<polygon fill="midnightblue" stroke="midnightblue" points="1142.68,-191.68 1152.37,-187.4 1142.12,-184.7 1142.68,-191.68"/>
</g>
<!-- Node15 -->
<g id="node15" class="node">
<title>Node15</title>
<g id="a_node15"><a xlink:title=" ">
<polygon fill="white" stroke="#bfbfbf" points="988.57,-235.5 988.57,-254.5 1044.57,-254.5 1044.57,-235.5 988.57,-235.5"/>
<text text-anchor="middle" x="1016.57" y="-242.5" font-family="Helvetica,sans-Serif" font-size="10.00">stddef.h</text>
</a>
</g>
</g>
<!-- Node10&#45;&gt;Node15 -->
<g id="edge18" class="edge">
<title>Node10&#45;&gt;Node15</title>
<path fill="none" stroke="midnightblue" d="M1021.71,-296.98C1020.86,-288.58 1019.54,-275.48 1018.45,-264.66"/>
<polygon fill="midnightblue" stroke="midnightblue" points="1021.91,-264.11 1017.43,-254.51 1014.95,-264.81 1021.91,-264.11"/>
</g>
<!-- Node16 -->
<g id="node16" class="node">
<title>Node16</title>
<g id="a_node16"><a xlink:href="time__t_8h.html" target="_top" xlink:title=" ">
<polygon fill="white" stroke="black" points="1368.57,-235.5 1368.57,-254.5 1476.57,-254.5 1476.57,-235.5 1368.57,-235.5"/>
<text text-anchor="middle" x="1422.57" y="-242.5" font-family="Helvetica,sans-Serif" font-size="10.00">bits/types/time_t.h</text>
</a>
</g>
</g>
<!-- Node10&#45;&gt;Node16 -->
<g id="edge19" class="edge">
<title>Node10&#45;&gt;Node16</title>
<path fill="none" stroke="midnightblue" d="M1049.75,-301.46C1112.65,-292.1 1269.64,-268.75 1358.54,-255.52"/>
<polygon fill="midnightblue" stroke="midnightblue" points="1359.13,-258.97 1368.51,-254.04 1358.1,-252.05 1359.13,-258.97"/>
</g>
<!-- Node10&#45;&gt;Node17 -->
<g id="edge21" class="edge">
<title>Node10&#45;&gt;Node17</title>
<path fill="none" stroke="midnightblue" d="M1003.7,-296.9C997.98,-294.63 991.61,-292.42 985.57,-291 906.69,-272.51 683.22,-257.76 557.78,-250.64"/>
<polygon fill="midnightblue" stroke="midnightblue" points="557.62,-247.12 547.44,-250.06 557.22,-254.11 557.62,-247.12"/>
</g>
<!-- Node20 -->
<g id="node20" class="node">
<title>Node20</title>
<g id="a_node20"><a xlink:href="bits_2sched_8h.html" target="_top" xlink:title=" ">
<polygon fill="white" stroke="black" points="857.07,-235.5 857.07,-254.5 932.07,-254.5 932.07,-235.5 857.07,-235.5"/>
<text text-anchor="middle" x="894.57" y="-242.5" font-family="Helvetica,sans-Serif" font-size="10.00">bits/sched.h</text>
</a>
</g>
</g>
<!-- Node10&#45;&gt;Node20 -->
<g id="edge25" class="edge">
<title>Node10&#45;&gt;Node20</title>
<path fill="none" stroke="midnightblue" d="M1004.23,-296.98C982.75,-286.99 946.95,-270.35 922.12,-258.81"/>
<polygon fill="midnightblue" stroke="midnightblue" points="923.42,-255.55 912.87,-254.51 920.47,-261.9 923.42,-255.55"/>
</g>
<!-- Node22 -->
<g id="node22" class="node">
<title>Node22</title>
<g id="a_node22"><a xlink:href="cpu-set_8h.html" target="_top" xlink:title=" ">
<polygon fill="white" stroke="black" points="756.07,-235.5 756.07,-254.5 839.07,-254.5 839.07,-235.5 756.07,-235.5"/>
<text text-anchor="middle" x="797.57" y="-242.5" font-family="Helvetica,sans-Serif" font-size="10.00">bits/cpu&#45;set.h</text>
</a>
</g>
</g>
<!-- Node10&#45;&gt;Node22 -->
<g id="edge27" class="edge">
<title>Node10&#45;&gt;Node22</title>
<path fill="none" stroke="midnightblue" d="M1002.01,-296.86C996.7,-294.79 990.97,-292.69 985.57,-291 940.01,-276.7 887.02,-264.39 848.93,-256.28"/>
<polygon fill="midnightblue" stroke="midnightblue" points="849.6,-252.85 839.09,-254.21 848.16,-259.7 849.6,-252.85"/>
</g>
<!-- Node11&#45;&gt;Node3 -->
<g id="edge13" class="edge">
<title>Node11&#45;&gt;Node3</title>
<path fill="none" stroke="midnightblue" d="M1215.25,-173.97C1223.27,-171.64 1232.21,-169.38 1240.57,-168 1410.68,-139.99 1950.49,-127.07 2108.02,-123.84"/>
<polygon fill="midnightblue" stroke="midnightblue" points="2108.34,-127.33 2118.26,-123.63 2108.19,-120.33 2108.34,-127.33"/>
</g>
<!-- Node11&#45;&gt;Node6 -->
<g id="edge14" class="edge">
<title>Node11&#45;&gt;Node6</title>
<path fill="none" stroke="midnightblue" d="M1213.23,-173.84C1240.4,-163.42 1282.52,-145.62 1292.57,-132 1314.89,-101.72 1315.44,-55.51 1313.64,-29.84"/>
<polygon fill="midnightblue" stroke="midnightblue" points="1317.1,-29.27 1312.72,-19.63 1310.13,-29.9 1317.1,-29.27"/>
</g>
<!-- Node12 -->
<g id="node12" class="node">
<title>Node12</title>
<g id="a_node12"><a xlink:href="timesize_8h.html" target="_top" xlink:title=" ">
<polygon fill="white" stroke="black" points="984.07,-112.5 984.07,-131.5 1073.07,-131.5 1073.07,-112.5 984.07,-112.5"/>
<text text-anchor="middle" x="1028.57" y="-119.5" font-family="Helvetica,sans-Serif" font-size="10.00">bits/timesize.h</text>
</a>
</g>
</g>
<!-- Node11&#45;&gt;Node12 -->
<g id="edge15" class="edge">
<title>Node11&#45;&gt;Node12</title>
<path fill="none" stroke="midnightblue" d="M1166.5,-173.98C1138.88,-163.77 1092.45,-146.61 1061.17,-135.05"/>
<polygon fill="midnightblue" stroke="midnightblue" points="1062.19,-131.69 1051.59,-131.51 1059.76,-138.26 1062.19,-131.69"/>
</g>
<!-- Node13 -->
<g id="node13" class="node">
<title>Node13</title>
<g id="a_node13"><a xlink:href="typesizes_8h.html" target="_top" xlink:title=" ">
<polygon fill="white" stroke="black" points="1091.07,-112.5 1091.07,-131.5 1184.07,-131.5 1184.07,-112.5 1091.07,-112.5"/>
<text text-anchor="middle" x="1137.57" y="-119.5" font-family="Helvetica,sans-Serif" font-size="10.00">bits/typesizes.h</text>
</a>
</g>
</g>
<!-- Node11&#45;&gt;Node13 -->
<g id="edge16" class="edge">
<title>Node11&#45;&gt;Node13</title>
<path fill="none" stroke="midnightblue" d="M1182.12,-173.98C1174.24,-164.96 1161.62,-150.52 1151.82,-139.31"/>
<polygon fill="midnightblue" stroke="midnightblue" points="1154.22,-136.74 1145,-131.51 1148.95,-141.34 1154.22,-136.74"/>
</g>
<!-- Node14 -->
<g id="node14" class="node">
<title>Node14</title>
<g id="a_node14"><a xlink:href="time64_8h.html" target="_top" xlink:title=" ">
<polygon fill="white" stroke="black" points="1202.07,-112.5 1202.07,-131.5 1283.07,-131.5 1283.07,-112.5 1202.07,-112.5"/>
<text text-anchor="middle" x="1242.57" y="-119.5" font-family="Helvetica,sans-Serif" font-size="10.00">bits/time64.h</text>
</a>
</g>
</g>
<!-- Node11&#45;&gt;Node14 -->
<g id="edge17" class="edge">
<title>Node11&#45;&gt;Node14</title>
<path fill="none" stroke="midnightblue" d="M1197.16,-173.98C1205.27,-164.87 1218.3,-150.24 1228.33,-138.98"/>
<polygon fill="midnightblue" stroke="midnightblue" points="1230.95,-141.3 1234.99,-131.51 1225.72,-136.65 1230.95,-141.3"/>
</g>
<!-- Node16&#45;&gt;Node11 -->
<g id="edge20" class="edge">
<title>Node16&#45;&gt;Node11</title>
<path fill="none" stroke="midnightblue" d="M1389.18,-235.48C1348.01,-224.96 1277.92,-207.06 1232.7,-195.51"/>
<polygon fill="midnightblue" stroke="midnightblue" points="1233.44,-192.09 1222.89,-193.01 1231.71,-198.87 1233.44,-192.09"/>
</g>
<!-- Node17&#45;&gt;Node11 -->
<g id="edge22" class="edge">
<title>Node17&#45;&gt;Node11</title>
<path fill="none" stroke="midnightblue" d="M547.36,-236.29C552.17,-235.85 556.93,-235.41 561.57,-235 778.29,-215.69 1037.38,-195.9 1142.15,-188.03"/>
<polygon fill="midnightblue" stroke="midnightblue" points="1142.68,-191.5 1152.39,-187.26 1142.15,-184.52 1142.68,-191.5"/>
</g>
<!-- Node17&#45;&gt;Node18 -->
<g id="edge23" class="edge">
<title>Node17&#45;&gt;Node18</title>
<path fill="none" stroke="midnightblue" d="M454.67,-235.48C437.6,-225.71 409.41,-209.58 389.31,-198.08"/>
<polygon fill="midnightblue" stroke="midnightblue" points="390.86,-194.94 380.44,-193.01 387.38,-201.01 390.86,-194.94"/>
</g>
<!-- Node19 -->
<g id="node19" class="node">
<title>Node19</title>
<g id="a_node19"><a xlink:href="endianness_8h.html" target="_top" xlink:title=" ">
<polygon fill="white" stroke="black" points="314.57,-112.5 314.57,-131.5 416.57,-131.5 416.57,-112.5 314.57,-112.5"/>
<text text-anchor="middle" x="365.57" y="-119.5" font-family="Helvetica,sans-Serif" font-size="10.00">bits/endianness.h</text>
</a>
</g>
</g>
<!-- Node18&#45;&gt;Node19 -->
<g id="edge24" class="edge">
<title>Node18&#45;&gt;Node19</title>
<path fill="none" stroke="midnightblue" d="M365.57,-173.98C365.57,-165.58 365.57,-152.48 365.57,-141.66"/>
<polygon fill="midnightblue" stroke="midnightblue" points="369.07,-141.51 365.57,-131.51 362.07,-141.51 369.07,-141.51"/>
</g>
<!-- Node21 -->
<g id="node21" class="node">
<title>Node21</title>
<g id="a_node21"><a xlink:href="struct__sched__param_8h.html" target="_top" xlink:title=" ">
<polygon fill="white" stroke="black" points="830.07,-168.5 830.07,-198.5 959.07,-198.5 959.07,-168.5 830.07,-168.5"/>
<text text-anchor="start" x="838.07" y="-186.5" font-family="Helvetica,sans-Serif" font-size="10.00">bits/types/struct_sched</text>
<text text-anchor="middle" x="894.57" y="-175.5" font-family="Helvetica,sans-Serif" font-size="10.00">_param.h</text>
</a>
</g>
</g>
<!-- Node20&#45;&gt;Node21 -->
<g id="edge26" class="edge">
<title>Node20&#45;&gt;Node21</title>
<path fill="none" stroke="midnightblue" d="M894.57,-235.48C894.57,-228.47 894.57,-218.19 894.57,-208.7"/>
<polygon fill="midnightblue" stroke="midnightblue" points="898.07,-208.52 894.57,-198.52 891.07,-208.52 898.07,-208.52"/>
</g>
<!-- Node23&#45;&gt;Node3 -->
<g id="edge29" class="edge">
<title>Node23&#45;&gt;Node3</title>
<path fill="none" stroke="midnightblue" d="M891.66,-366.1C935.71,-364.47 1032.21,-360.9 1113.57,-358 1171.07,-355.95 2103.53,-357.8 2148.57,-322 2202.85,-278.86 2189.2,-235.56 2173.57,-168 2171.34,-158.36 2166.75,-148.41 2162.33,-140.31"/>
<polygon fill="midnightblue" stroke="midnightblue" points="2165.26,-138.4 2157.21,-131.52 2159.22,-141.92 2165.26,-138.4"/>
</g>
<!-- Node23&#45;&gt;Node15 -->
<g id="edge30" class="edge">
<title>Node23&#45;&gt;Node15</title>
<path fill="none" stroke="midnightblue" d="M891.78,-364.95C938.43,-360.46 1038,-347.97 1058.57,-322 1073.82,-302.73 1052.62,-277.18 1035.2,-261.17"/>
<polygon fill="midnightblue" stroke="midnightblue" points="1037.44,-258.48 1027.61,-254.53 1032.84,-263.75 1037.44,-258.48"/>
</g>
<!-- Node23&#45;&gt;Node16 -->
<g id="edge35" class="edge">
<title>Node23&#45;&gt;Node16</title>
<path fill="none" stroke="midnightblue" d="M891.93,-365.67C941.54,-362.4 1057.39,-351.96 1149.57,-322 1178.49,-312.6 1181.89,-301.13 1210.57,-291 1258.85,-273.94 1315.71,-262.3 1358.38,-255.14"/>
<polygon fill="midnightblue" stroke="midnightblue" points="1359.06,-258.58 1368.36,-253.5 1357.92,-251.67 1359.06,-258.58"/>
</g>
<!-- Node23&#45;&gt;Node17 -->
<g id="edge38" class="edge">
<title>Node23&#45;&gt;Node17</title>
<path fill="none" stroke="midnightblue" d="M843.56,-366.25C758.62,-363.34 476.06,-351.49 449.57,-322 434.95,-305.73 446.49,-280.03 457.15,-263.1"/>
<polygon fill="midnightblue" stroke="midnightblue" points="460.12,-264.95 462.81,-254.7 454.32,-261.04 460.12,-264.95"/>
</g>
<!-- Node24 -->
<g id="node24" class="node">
<title>Node24</title>
<g id="a_node24"><a xlink:href="bits_2time_8h.html" target="_top" xlink:title=" ">
<polygon fill="white" stroke="black" points="779.07,-297 779.07,-316 848.07,-316 848.07,-297 779.07,-297"/>
<text text-anchor="middle" x="813.57" y="-304" font-family="Helvetica,sans-Serif" font-size="10.00">bits/time.h</text>
</a>
</g>
</g>
<!-- Node23&#45;&gt;Node24 -->
<g id="edge31" class="edge">
<title>Node23&#45;&gt;Node24</title>
<path fill="none" stroke="midnightblue" d="M859.83,-358.48C851.57,-349.37 838.29,-334.74 828.07,-323.48"/>
<polygon fill="midnightblue" stroke="midnightblue" points="830.6,-321.06 821.29,-316.01 825.42,-325.77 830.6,-321.06"/>
</g>
<!-- Node25 -->
<g id="node25" class="node">
<title>Node25</title>
<g id="a_node25"><a xlink:href="clock__t_8h.html" target="_top" xlink:title=" ">
<polygon fill="white" stroke="black" points="866.07,-297 866.07,-316 977.07,-316 977.07,-297 866.07,-297"/>
<text text-anchor="middle" x="921.57" y="-304" font-family="Helvetica,sans-Serif" font-size="10.00">bits/types/clock_t.h</text>
</a>
</g>
</g>
<!-- Node23&#45;&gt;Node25 -->
<g id="edge33" class="edge">
<title>Node23&#45;&gt;Node25</title>
<path fill="none" stroke="midnightblue" d="M875.3,-358.48C883.57,-349.37 896.84,-334.74 907.06,-323.48"/>
<polygon fill="midnightblue" stroke="midnightblue" points="909.72,-325.77 913.85,-316.01 904.53,-321.06 909.72,-325.77"/>
</g>
<!-- Node26 -->
<g id="node26" class="node">
<title>Node26</title>
<g id="a_node26"><a xlink:href="struct__tm_8h.html" target="_top" xlink:title=" ">
<polygon fill="white" stroke="black" points="638.07,-297 638.07,-316 761.07,-316 761.07,-297 638.07,-297"/>
<text text-anchor="middle" x="699.57" y="-304" font-family="Helvetica,sans-Serif" font-size="10.00">bits/types/struct_tm.h</text>
</a>
</g>
</g>
<!-- Node23&#45;&gt;Node26 -->
<g id="edge36" class="edge">
<title>Node23&#45;&gt;Node26</title>
<path fill="none" stroke="midnightblue" d="M843.5,-358.48C814.55,-348.22 765.81,-330.96 733.17,-319.4"/>
<polygon fill="midnightblue" stroke="midnightblue" points="734.19,-316.05 723.59,-316.01 731.85,-322.65 734.19,-316.05"/>
</g>
<!-- Node27 -->
<g id="node27" class="node">
<title>Node27</title>
<g id="a_node27"><a xlink:href="clockid__t_8h.html" target="_top" xlink:title=" ">
<polygon fill="white" stroke="black" points="1062.57,-235.5 1062.57,-254.5 1182.57,-254.5 1182.57,-235.5 1062.57,-235.5"/>
<text text-anchor="middle" x="1122.57" y="-242.5" font-family="Helvetica,sans-Serif" font-size="10.00">bits/types/clockid_t.h</text>
</a>
</g>
</g>
<!-- Node23&#45;&gt;Node27 -->
<g id="edge39" class="edge">
<title>Node23&#45;&gt;Node27</title>
<path fill="none" stroke="midnightblue" d="M891.64,-367.55C932.84,-367.33 1017.93,-361.65 1074.57,-322 1094.89,-307.77 1108.49,-281.9 1115.87,-264.34"/>
<polygon fill="midnightblue" stroke="midnightblue" points="1119.28,-265.24 1119.67,-254.65 1112.76,-262.68 1119.28,-265.24"/>
</g>
<!-- Node28 -->
<g id="node28" class="node">
<title>Node28</title>
<g id="a_node28"><a xlink:href="timer__t_8h.html" target="_top" xlink:title=" ">
<polygon fill="white" stroke="black" points="1200.57,-235.5 1200.57,-254.5 1312.57,-254.5 1312.57,-235.5 1200.57,-235.5"/>
<text text-anchor="middle" x="1256.57" y="-242.5" font-family="Helvetica,sans-Serif" font-size="10.00">bits/types/timer_t.h</text>
</a>
</g>
</g>
<!-- Node23&#45;&gt;Node28 -->
<g id="edge41" class="edge">
<title>Node23&#45;&gt;Node28</title>
<path fill="none" stroke="midnightblue" d="M891.68,-364.5C934.72,-359.58 1027.23,-346.88 1101.57,-322 1150.55,-305.61 1203.83,-276.84 1233.42,-259.79"/>
<polygon fill="midnightblue" stroke="midnightblue" points="1235.29,-262.76 1242.16,-254.7 1231.76,-256.71 1235.29,-262.76"/>
</g>
<!-- Node29 -->
<g id="node29" class="node">
<title>Node29</title>
<g id="a_node29"><a xlink:href="struct__itimerspec_8h.html" target="_top" xlink:title=" ">
<polygon fill="white" stroke="black" points="459.07,-297 459.07,-316 620.07,-316 620.07,-297 459.07,-297"/>
<text text-anchor="middle" x="539.57" y="-304" font-family="Helvetica,sans-Serif" font-size="10.00">bits/types/struct_itimerspec.h</text>
</a>
</g>
</g>
<!-- Node23&#45;&gt;Node29 -->
<g id="edge43" class="edge">
<title>Node23&#45;&gt;Node29</title>
<path fill="none" stroke="midnightblue" d="M843.45,-362.62C791.8,-353.26 669.32,-331.04 596.61,-317.85"/>
<polygon fill="midnightblue" stroke="midnightblue" points="597.15,-314.39 586.69,-316.05 595.9,-321.28 597.15,-314.39"/>
</g>
<!-- Node30 -->
<g id="node30" class="node">
<title>Node30</title>
<g id="a_node30"><a xlink:href="locale__t_8h.html" target="_top" xlink:title=" ">
<polygon fill="white" stroke="black" points="249.07,-297 249.07,-316 364.07,-316 364.07,-297 249.07,-297"/>
<text text-anchor="middle" x="306.57" y="-304" font-family="Helvetica,sans-Serif" font-size="10.00">bits/types/locale_t.h</text>
</a>
</g>
</g>
<!-- Node23&#45;&gt;Node30 -->
<g id="edge46" class="edge">
<title>Node23&#45;&gt;Node30</title>
<path fill="none" stroke="midnightblue" d="M843.09,-364.83C775.27,-358.77 579.15,-340.82 416.57,-322 402.86,-320.41 388.22,-318.58 374.23,-316.76"/>
<polygon fill="midnightblue" stroke="midnightblue" points="374.56,-313.27 364.19,-315.44 373.65,-320.21 374.56,-313.27"/>
</g>
<!-- Node24&#45;&gt;Node11 -->
<g id="edge32" class="edge">
<title>Node24&#45;&gt;Node11</title>
<path fill="none" stroke="midnightblue" d="M785.87,-296.92C751.19,-284.81 699,-261.25 722.57,-235 736.5,-219.48 1026.39,-196.52 1142.29,-187.92"/>
<polygon fill="midnightblue" stroke="midnightblue" points="1142.58,-191.4 1152.3,-187.18 1142.07,-184.42 1142.58,-191.4"/>
</g>
<!-- Node25&#45;&gt;Node11 -->
<g id="edge34" class="edge">
<title>Node25&#45;&gt;Node11</title>
<path fill="none" stroke="midnightblue" d="M884.56,-296.94C830.38,-284.22 735.34,-261.2 730.57,-255 725.14,-247.96 724.64,-241.62 730.57,-235 744.22,-219.77 1027.93,-196.72 1142.35,-188"/>
<polygon fill="midnightblue" stroke="midnightblue" points="1142.85,-191.48 1152.56,-187.23 1142.32,-184.5 1142.85,-191.48"/>
</g>
<!-- Node26&#45;&gt;Node11 -->
<g id="edge37" class="edge">
<title>Node26&#45;&gt;Node11</title>
<path fill="none" stroke="midnightblue" d="M698.34,-296.57C696.82,-281.43 696.25,-250.82 713.57,-235 729.29,-220.63 1025.24,-196.88 1142.4,-188"/>
<polygon fill="midnightblue" stroke="midnightblue" points="1142.8,-191.48 1152.5,-187.23 1142.27,-184.5 1142.8,-191.48"/>
</g>
<!-- Node27&#45;&gt;Node11 -->
<g id="edge40" class="edge">
<title>Node27&#45;&gt;Node11</title>
<path fill="none" stroke="midnightblue" d="M1132.17,-235.48C1142.62,-226.2 1159.54,-211.17 1172.3,-199.83"/>
<polygon fill="midnightblue" stroke="midnightblue" points="1174.83,-202.27 1179.99,-193.01 1170.18,-197.03 1174.83,-202.27"/>
</g>
<!-- Node28&#45;&gt;Node11 -->
<g id="edge42" class="edge">
<title>Node28&#45;&gt;Node11</title>
<path fill="none" stroke="midnightblue" d="M1246.97,-235.48C1236.52,-226.2 1219.6,-211.17 1206.83,-199.83"/>
<polygon fill="midnightblue" stroke="midnightblue" points="1208.95,-197.03 1199.15,-193.01 1204.3,-202.27 1208.95,-197.03"/>
</g>
<!-- Node29&#45;&gt;Node11 -->
<g id="edge44" class="edge">
<title>Node29&#45;&gt;Node11</title>
<path fill="none" stroke="midnightblue" d="M554.77,-296.8C582.39,-281.44 643.12,-249.74 698.57,-235 781.62,-212.91 1035.93,-194.44 1142.16,-187.47"/>
<polygon fill="midnightblue" stroke="midnightblue" points="1142.52,-190.96 1152.27,-186.81 1142.06,-183.97 1142.52,-190.96"/>
</g>
<!-- Node29&#45;&gt;Node17 -->
<g id="edge45" class="edge">
<title>Node29&#45;&gt;Node17</title>
<path fill="none" stroke="midnightblue" d="M529.54,-296.98C518.52,-287.61 500.61,-272.38 487.22,-261.01"/>
<polygon fill="midnightblue" stroke="midnightblue" points="489.46,-258.32 479.58,-254.51 484.93,-263.65 489.46,-258.32"/>
</g>
<!-- Node31 -->
<g id="node31" class="node">
<title>Node31</title>
<g id="a_node31"><a xlink:href="____locale__t_8h.html" target="_top" xlink:title=" ">
<polygon fill="white" stroke="black" points="249.07,-235.5 249.07,-254.5 374.07,-254.5 374.07,-235.5 249.07,-235.5"/>
<text text-anchor="middle" x="311.57" y="-242.5" font-family="Helvetica,sans-Serif" font-size="10.00">bits/types/__locale_t.h</text>
</a>
</g>
</g>
<!-- Node30&#45;&gt;Node31 -->
<g id="edge47" class="edge">
<title>Node30&#45;&gt;Node31</title>
<path fill="none" stroke="midnightblue" d="M307.28,-296.98C307.99,-288.58 309.09,-275.48 310,-264.66"/>
<polygon fill="midnightblue" stroke="midnightblue" points="313.5,-264.77 310.85,-254.51 306.53,-264.18 313.5,-264.77"/>
</g>
<!-- Node33 -->
<g id="node33" class="node">
<title>Node33</title>
<g id="a_node33"><a xlink:href="thread-shared-types_8h.html" target="_top" xlink:title=" ">
<polygon fill="white" stroke="red" points="1219.57,-291.5 1219.57,-321.5 1325.57,-321.5 1325.57,-291.5 1219.57,-291.5"/>
<text text-anchor="start" x="1227.57" y="-309.5" font-family="Helvetica,sans-Serif" font-size="10.00">bits/thread&#45;shared</text>
<text text-anchor="middle" x="1272.57" y="-298.5" font-family="Helvetica,sans-Serif" font-size="10.00">&#45;types.h</text>
</a>
</g>
</g>
<!-- Node32&#45;&gt;Node33 -->
<g id="edge50" class="edge">
<title>Node32&#45;&gt;Node33</title>
<path fill="none" stroke="midnightblue" d="M1191.18,-358.48C1204.29,-350.27 1224.58,-337.56 1241.62,-326.88"/>
<polygon fill="midnightblue" stroke="midnightblue" points="1243.56,-329.8 1250.18,-321.52 1239.85,-323.86 1243.56,-329.8"/>
</g>
<!-- Node37&#45;&gt;Node6 -->
<g id="edge52" class="edge">
<title>Node37&#45;&gt;Node6</title>
<path fill="none" stroke="midnightblue" d="M61.84,-173.93C74.35,-149.97 113.45,-82.28 168.57,-56 267.22,-8.96 1041.45,-9.54 1256.39,-10.63"/>
<polygon fill="midnightblue" stroke="midnightblue" points="1256.47,-14.13 1266.49,-10.69 1256.51,-7.13 1256.47,-14.13"/>
</g>
<!-- Node39&#45;&gt;Node6 -->
<g id="edge61" class="edge">
<title>Node39&#45;&gt;Node6</title>
<path fill="none" stroke="midnightblue" d="M1768.26,-304.02C1802.01,-300.69 1859.68,-289.91 1892.57,-255 1914.82,-231.38 1911.57,-216.95 1911.57,-184.5 1911.57,-184.5 1911.57,-184.5 1911.57,-121 1911.57,-65.93 1515.44,-27.73 1366.92,-15.34"/>
<polygon fill="midnightblue" stroke="midnightblue" points="1366.92,-11.83 1356.67,-14.49 1366.34,-18.81 1366.92,-11.83"/>
</g>
<!-- Node39&#45;&gt;Node11 -->
<g id="edge59" class="edge">
<title>Node39&#45;&gt;Node11</title>
<path fill="none" stroke="midnightblue" d="M1742.1,-296.96C1742.52,-281.84 1740.97,-250.53 1722.57,-235 1685.86,-204.02 1360.87,-190.14 1237.13,-185.95"/>
<polygon fill="midnightblue" stroke="midnightblue" points="1236.94,-182.44 1226.83,-185.61 1236.71,-189.44 1236.94,-182.44"/>
</g>
<!-- Node40 -->
<g id="node37" class="node">
<title>Node40</title>
<g id="a_node37"><a xlink:href="libc-header-start_8h.html" target="_top" xlink:title=" ">
<polygon fill="white" stroke="black" points="2006.57,-174 2006.57,-193 2134.57,-193 2134.57,-174 2006.57,-174"/>
<text text-anchor="middle" x="2070.57" y="-181" font-family="Helvetica,sans-Serif" font-size="10.00">bits/libc&#45;header&#45;start.h</text>
</a>
</g>
</g>
<!-- Node39&#45;&gt;Node40 -->
<g id="edge57" class="edge">
<title>Node39&#45;&gt;Node40</title>
<path fill="none" stroke="midnightblue" d="M1768.26,-299.81C1804.5,-291.71 1871.01,-275.55 1925.57,-255 1937.49,-250.51 2005.8,-216.75 2044.26,-197.62"/>
<polygon fill="midnightblue" stroke="midnightblue" points="2045.95,-200.69 2053.34,-193.1 2042.83,-194.42 2045.95,-200.69"/>
</g>
<!-- Node41 -->
<g id="node38" class="node">
<title>Node41</title>
<g id="a_node38"><a xlink:href="bits_2wchar_8h.html" target="_top" xlink:title=" ">
<polygon fill="white" stroke="black" points="1808.07,-235.5 1808.07,-254.5 1883.07,-254.5 1883.07,-235.5 1808.07,-235.5"/>
<text text-anchor="middle" x="1845.57" y="-242.5" font-family="Helvetica,sans-Serif" font-size="10.00">bits/wchar.h</text>
</a>
</g>
</g>
<!-- Node39&#45;&gt;Node41 -->
<g id="edge60" class="edge">
<title>Node39&#45;&gt;Node41</title>
<path fill="none" stroke="midnightblue" d="M1756.47,-296.98C1773.54,-287.21 1801.73,-271.08 1821.83,-259.58"/>
<polygon fill="midnightblue" stroke="midnightblue" points="1823.75,-262.51 1830.69,-254.51 1820.28,-256.44 1823.75,-262.51"/>
</g>
<!-- Node42 -->
<g id="node39" class="node">
<title>Node42</title>
<g id="a_node39"><a xlink:href="stdint-intn_8h.html" target="_top" xlink:title=" ">
<polygon fill="white" stroke="black" points="1495.07,-235.5 1495.07,-254.5 1592.07,-254.5 1592.07,-235.5 1495.07,-235.5"/>
<text text-anchor="middle" x="1543.57" y="-242.5" font-family="Helvetica,sans-Serif" font-size="10.00">bits/stdint&#45;intn.h</text>
</a>
</g>
</g>
<!-- Node39&#45;&gt;Node42 -->
<g id="edge62" class="edge">
<title>Node39&#45;&gt;Node42</title>
<path fill="none" stroke="midnightblue" d="M1714.86,-297.48C1680.59,-287.17 1620.88,-269.23 1581.79,-257.49"/>
<polygon fill="midnightblue" stroke="midnightblue" points="1582.67,-254.1 1572.09,-254.57 1580.66,-260.8 1582.67,-254.1"/>
</g>
<!-- Node43 -->
<g id="node40" class="node">
<title>Node43</title>
<g id="a_node40"><a xlink:href="stdint-uintn_8h.html" target="_top" xlink:title=" ">
<polygon fill="white" stroke="black" points="1610.07,-235.5 1610.07,-254.5 1713.07,-254.5 1713.07,-235.5 1610.07,-235.5"/>
<text text-anchor="middle" x="1661.57" y="-242.5" font-family="Helvetica,sans-Serif" font-size="10.00">bits/stdint&#45;uintn.h</text>
</a>
</g>
</g>
<!-- Node39&#45;&gt;Node43 -->
<g id="edge64" class="edge">
<title>Node39&#45;&gt;Node43</title>
<path fill="none" stroke="midnightblue" d="M1730.11,-296.98C1717.39,-287.52 1696.66,-272.1 1681.32,-260.69"/>
<polygon fill="midnightblue" stroke="midnightblue" points="1683.12,-257.67 1673.01,-254.51 1678.94,-263.29 1683.12,-257.67"/>
</g>
<!-- Node40&#45;&gt;Node3 -->
<g id="edge58" class="edge">
<title>Node40&#45;&gt;Node3</title>
<path fill="none" stroke="midnightblue" d="M2082.17,-173.98C2095.04,-164.52 2116.04,-149.1 2131.57,-137.69"/>
<polygon fill="midnightblue" stroke="midnightblue" points="2134,-140.25 2139.98,-131.51 2129.85,-134.61 2134,-140.25"/>
</g>
<!-- Node42&#45;&gt;Node11 -->
<g id="edge63" class="edge">
<title>Node42&#45;&gt;Node11</title>
<path fill="none" stroke="midnightblue" d="M1494.72,-235.79C1426.52,-224.33 1303.63,-203.67 1236.48,-192.39"/>
<polygon fill="midnightblue" stroke="midnightblue" points="1237.04,-188.93 1226.6,-190.72 1235.88,-195.83 1237.04,-188.93"/>
</g>
<!-- Node43&#45;&gt;Node11 -->
<g id="edge65" class="edge">
<title>Node43&#45;&gt;Node11</title>
<path fill="none" stroke="midnightblue" d="M1609.87,-236.16C1607.06,-235.76 1604.28,-235.37 1601.57,-235 1469.78,-217.04 1313.86,-198.73 1237.12,-189.91"/>
<polygon fill="midnightblue" stroke="midnightblue" points="1237.16,-186.39 1226.82,-188.73 1236.36,-193.34 1237.16,-186.39"/>
</g>
<!-- Node44&#45;&gt;Node3 -->
<g id="edge67" class="edge">
<title>Node44&#45;&gt;Node3</title>
<path fill="none" stroke="midnightblue" d="M1458.92,-301.05C1515.68,-293.73 1628.61,-277.65 1722.57,-255 1847.19,-224.95 1874.93,-205.31 1997.57,-168 2036.4,-156.18 2080.93,-143.24 2112.08,-134.28"/>
<polygon fill="midnightblue" stroke="midnightblue" points="2113.05,-137.64 2121.7,-131.52 2111.12,-130.91 2113.05,-137.64"/>
</g>
<!-- Node44&#45;&gt;Node11 -->
<g id="edge68" class="edge">
<title>Node44&#45;&gt;Node11</title>
<path fill="none" stroke="midnightblue" d="M1412.21,-296.98C1394.51,-282.71 1356.9,-253.73 1321.57,-235 1291.19,-218.9 1254.53,-205.3 1227.56,-196.28"/>
<polygon fill="midnightblue" stroke="midnightblue" points="1228.32,-192.85 1217.73,-193.05 1226.14,-199.5 1228.32,-192.85"/>
</g>
<!-- Node44&#45;&gt;Node15 -->
<g id="edge72" class="edge">
<title>Node44&#45;&gt;Node15</title>
<path fill="none" stroke="midnightblue" d="M1386.22,-299.21C1370.38,-296.55 1351.57,-293.49 1334.57,-291 1213.15,-273.22 1179.09,-277.67 1054.69,-255.03"/>
<polygon fill="midnightblue" stroke="midnightblue" points="1055.25,-251.57 1044.78,-253.2 1053.98,-258.46 1055.25,-251.57"/>
</g>
<!-- Node44&#45;&gt;Node16 -->
<g id="edge70" class="edge">
<title>Node44&#45;&gt;Node16</title>
<path fill="none" stroke="midnightblue" d="M1422.57,-296.98C1422.57,-288.58 1422.57,-275.48 1422.57,-264.66"/>
<polygon fill="midnightblue" stroke="midnightblue" points="1426.07,-264.51 1422.57,-254.51 1419.07,-264.51 1426.07,-264.51"/>
</g>
<!-- Node44&#45;&gt;Node27 -->
<g id="edge69" class="edge">
<title>Node44&#45;&gt;Node27</title>
<path fill="none" stroke="midnightblue" d="M1386.38,-298.32C1333.94,-287.92 1236.46,-268.59 1175.81,-256.56"/>
<polygon fill="midnightblue" stroke="midnightblue" points="1176.16,-253.06 1165.67,-254.55 1174.79,-259.93 1176.16,-253.06"/>
</g>
<!-- Node44&#45;&gt;Node28 -->
<g id="edge71" class="edge">
<title>Node44&#45;&gt;Node28</title>
<path fill="none" stroke="midnightblue" d="M1398.78,-296.98C1370.19,-286.72 1322.02,-269.46 1289.77,-257.9"/>
<polygon fill="midnightblue" stroke="midnightblue" points="1290.9,-254.59 1280.31,-254.51 1288.54,-261.18 1290.9,-254.59"/>
</g>
<!-- Node44&#45;&gt;Node42 -->
<g id="edge73" class="edge">
<title>Node44&#45;&gt;Node42</title>
<path fill="none" stroke="midnightblue" d="M1439.9,-296.98C1460.12,-287.03 1493.75,-270.49 1517.21,-258.96"/>
<polygon fill="midnightblue" stroke="midnightblue" points="1518.83,-262.06 1526.26,-254.51 1515.75,-255.78 1518.83,-262.06"/>
</g>
<!-- Node45&#45;&gt;Node3 -->
<g id="edge75" class="edge">
<title>Node45&#45;&gt;Node3</title>
<path fill="none" stroke="midnightblue" d="M2352.2,-421.35C2449.51,-416.75 2703.93,-402.49 2732.57,-378 2757.23,-356.91 2751.57,-339.95 2751.57,-307.5 2751.57,-307.5 2751.57,-307.5 2751.57,-244 2751.57,-130.34 2332.58,-122.14 2194.86,-122.52"/>
<polygon fill="midnightblue" stroke="midnightblue" points="2194.67,-119.02 2184.68,-122.57 2194.7,-126.02 2194.67,-119.02"/>
</g>
<!-- Node45&#45;&gt;Node44 -->
<g id="edge87" class="edge">
<title>Node45&#45;&gt;Node44</title>
<path fill="none" stroke="midnightblue" d="M2276.81,-418.11C2133.86,-399.6 1626.03,-333.85 1469.11,-313.53"/>
<polygon fill="midnightblue" stroke="midnightblue" points="1469.22,-310.01 1458.86,-312.2 1468.32,-316.95 1469.22,-310.01"/>
</g>
<!-- Node46 -->
<g id="node43" class="node">
<title>Node46</title>
<g id="a_node43"><a xlink:href="sys_2time_8h.html" target="_top" xlink:title=" ">
<polygon fill="white" stroke="black" points="2068.57,-358.5 2068.57,-377.5 2136.57,-377.5 2136.57,-358.5 2068.57,-358.5"/>
<text text-anchor="middle" x="2102.57" y="-365.5" font-family="Helvetica,sans-Serif" font-size="10.00">sys/time.h</text>
</a>
</g>
</g>
<!-- Node45&#45;&gt;Node46 -->
<g id="edge76" class="edge">
<title>Node45&#45;&gt;Node46</title>
<path fill="none" stroke="midnightblue" d="M2280.98,-414.44C2244.38,-405.12 2185.73,-390.18 2145.74,-380"/>
<polygon fill="midnightblue" stroke="midnightblue" points="2146.56,-376.59 2136,-377.52 2144.83,-383.38 2146.56,-376.59"/>
</g>
<!-- Node51 -->
<g id="node46" class="node">
<title>Node51</title>
<g id="a_node46"><a xlink:href="user_8h.html" target="_top" xlink:title=" ">
<polygon fill="white" stroke="black" points="2193.07,-358.5 2193.07,-377.5 2258.07,-377.5 2258.07,-358.5 2193.07,-358.5"/>
<text text-anchor="middle" x="2225.57" y="-365.5" font-family="Helvetica,sans-Serif" font-size="10.00">sys/user.h</text>
</a>
</g>
</g>
<!-- Node45&#45;&gt;Node51 -->
<g id="edge88" class="edge">
<title>Node45&#45;&gt;Node51</title>
<path fill="none" stroke="midnightblue" d="M2300.27,-414.32C2286.38,-405.9 2265.08,-392.97 2248.76,-383.07"/>
<polygon fill="midnightblue" stroke="midnightblue" points="2250.2,-379.85 2239.83,-377.65 2246.57,-385.83 2250.2,-379.85"/>
</g>
<!-- Node52 -->
<g id="node47" class="node">
<title>Node52</title>
<g id="a_node47"><a xlink:href="bits_2procfs_8h.html" target="_top" xlink:title=" ">
<polygon fill="white" stroke="black" points="2276.07,-358.5 2276.07,-377.5 2353.07,-377.5 2353.07,-358.5 2276.07,-358.5"/>
<text text-anchor="middle" x="2314.57" y="-365.5" font-family="Helvetica,sans-Serif" font-size="10.00">bits/procfs.h</text>
</a>
</g>
</g>
<!-- Node45&#45;&gt;Node52 -->
<g id="edge89" class="edge">
<title>Node45&#45;&gt;Node52</title>
<path fill="none" stroke="midnightblue" d="M2314.57,-414.08C2314.57,-407.01 2314.57,-396.86 2314.57,-387.99"/>
<polygon fill="midnightblue" stroke="midnightblue" points="2318.07,-387.75 2314.57,-377.75 2311.07,-387.75 2318.07,-387.75"/>
</g>
<!-- Node53 -->
<g id="node48" class="node">
<title>Node53</title>
<g id="a_node48"><a xlink:href="procfs-id_8h.html" target="_top" xlink:title=" ">
<polygon fill="white" stroke="black" points="2371.07,-358.5 2371.07,-377.5 2460.07,-377.5 2460.07,-358.5 2371.07,-358.5"/>
<text text-anchor="middle" x="2415.57" y="-365.5" font-family="Helvetica,sans-Serif" font-size="10.00">bits/procfs&#45;id.h</text>
</a>
</g>
</g>
<!-- Node45&#45;&gt;Node53 -->
<g id="edge90" class="edge">
<title>Node45&#45;&gt;Node53</title>
<path fill="none" stroke="midnightblue" d="M2330.8,-414.32C2346.92,-405.7 2371.87,-392.36 2390.53,-382.39"/>
<polygon fill="midnightblue" stroke="midnightblue" points="2392.21,-385.46 2399.38,-377.65 2388.91,-379.28 2392.21,-385.46"/>
</g>
<!-- Node54 -->
<g id="node49" class="node">
<title>Node54</title>
<g id="a_node49"><a xlink:href="procfs-prregset_8h.html" target="_top" xlink:title=" ">
<polygon fill="white" stroke="black" points="2478.07,-358.5 2478.07,-377.5 2599.07,-377.5 2599.07,-358.5 2478.07,-358.5"/>
<text text-anchor="middle" x="2538.57" y="-365.5" font-family="Helvetica,sans-Serif" font-size="10.00">bits/procfs&#45;prregset.h</text>
</a>
</g>
</g>
<!-- Node45&#45;&gt;Node54 -->
<g id="edge91" class="edge">
<title>Node45&#45;&gt;Node54</title>
<path fill="none" stroke="midnightblue" d="M2350.06,-414.44C2388.89,-405.08 2451.22,-390.06 2493.49,-379.87"/>
<polygon fill="midnightblue" stroke="midnightblue" points="2494.34,-383.26 2503.24,-377.52 2492.7,-376.46 2494.34,-383.26"/>
</g>
<!-- Node55 -->
<g id="node50" class="node">
<title>Node55</title>
<g id="a_node50"><a xlink:href="procfs-extra_8h.html" target="_top" xlink:title=" ">
<polygon fill="white" stroke="black" points="2617.57,-358.5 2617.57,-377.5 2723.57,-377.5 2723.57,-358.5 2617.57,-358.5"/>
<text text-anchor="middle" x="2670.57" y="-365.5" font-family="Helvetica,sans-Serif" font-size="10.00">bits/procfs&#45;extra.h</text>
</a>
</g>
</g>
<!-- Node45&#45;&gt;Node55 -->
<g id="edge92" class="edge">
<title>Node45&#45;&gt;Node55</title>
<path fill="none" stroke="midnightblue" d="M2352.33,-417.27C2413.09,-408.06 2533.21,-389.83 2607.25,-378.6"/>
<polygon fill="midnightblue" stroke="midnightblue" points="2608.01,-382.03 2617.38,-377.07 2606.96,-375.11 2608.01,-382.03"/>
</g>
<!-- Node46&#45;&gt;Node3 -->
<g id="edge77" class="edge">
<title>Node46&#45;&gt;Node3</title>
<path fill="none" stroke="midnightblue" d="M2132.43,-358.39C2174.51,-344.47 2249.68,-312.56 2281.57,-255 2300.3,-221.18 2304,-199.5 2281.57,-168 2262.05,-140.59 2224.64,-129.72 2194.94,-125.49"/>
<polygon fill="midnightblue" stroke="midnightblue" points="2195.15,-121.99 2184.8,-124.25 2194.31,-128.94 2195.15,-121.99"/>
</g>
<!-- Node46&#45;&gt;Node11 -->
<g id="edge78" class="edge">
<title>Node46&#45;&gt;Node11</title>
<path fill="none" stroke="midnightblue" d="M2115.8,-358.45C2126.81,-350.5 2141.75,-337.55 2148.57,-322 2164.1,-286.58 2177.19,-263.06 2150.57,-235 2118.81,-201.53 1426.02,-188.22 1236.9,-185.2"/>
<polygon fill="midnightblue" stroke="midnightblue" points="1236.77,-181.7 1226.72,-185.04 1236.66,-188.7 1236.77,-181.7"/>
</g>
<!-- Node46&#45;&gt;Node16 -->
<g id="edge79" class="edge">
<title>Node46&#45;&gt;Node16</title>
<path fill="none" stroke="midnightblue" d="M2068.41,-364.83C1999.51,-360.08 1839.13,-347.13 1706.57,-322 1616.35,-304.9 1512.68,-274.3 1459.01,-257.62"/>
<polygon fill="midnightblue" stroke="midnightblue" points="1459.87,-254.22 1449.28,-254.58 1457.78,-260.9 1459.87,-254.22"/>
</g>
<!-- Node47 -->
<g id="node44" class="node">
<title>Node47</title>
<g id="a_node44"><a xlink:href="struct__timeval_8h.html" target="_top" xlink:title=" ">
<polygon fill="white" stroke="black" points="1978.07,-235.5 1978.07,-254.5 2125.07,-254.5 2125.07,-235.5 1978.07,-235.5"/>
<text text-anchor="middle" x="2051.57" y="-242.5" font-family="Helvetica,sans-Serif" font-size="10.00">bits/types/struct_timeval.h</text>
</a>
</g>
</g>
<!-- Node46&#45;&gt;Node47 -->
<g id="edge80" class="edge">
<title>Node46&#45;&gt;Node47</title>
<path fill="none" stroke="midnightblue" d="M2089.47,-358.39C2078.55,-350.4 2063.66,-337.43 2056.57,-322 2048.3,-304.02 2047.99,-281.09 2049.16,-265.14"/>
<polygon fill="midnightblue" stroke="midnightblue" points="2052.67,-265.23 2050.18,-254.93 2045.7,-264.53 2052.67,-265.23"/>
</g>
<!-- Node48 -->
<g id="node45" class="node">
<title>Node48</title>
<g id="a_node45"><a xlink:href="sys_2select_8h.html" target="_top" xlink:title=" ">
<polygon fill="white" stroke="red" points="2065.57,-297 2065.57,-316 2139.57,-316 2139.57,-297 2065.57,-297"/>
<text text-anchor="middle" x="2102.57" y="-304" font-family="Helvetica,sans-Serif" font-size="10.00">sys/select.h</text>
</a>
</g>
</g>
<!-- Node46&#45;&gt;Node48 -->
<g id="edge82" class="edge">
<title>Node46&#45;&gt;Node48</title>
<path fill="none" stroke="midnightblue" d="M2102.57,-358.48C2102.57,-350.08 2102.57,-336.98 2102.57,-326.16"/>
<polygon fill="midnightblue" stroke="midnightblue" points="2106.07,-326.01 2102.57,-316.01 2099.07,-326.01 2106.07,-326.01"/>
</g>
<!-- Node47&#45;&gt;Node11 -->
<g id="edge81" class="edge">
<title>Node47&#45;&gt;Node11</title>
<path fill="none" stroke="midnightblue" d="M1977.7,-238.9C1805.25,-227 1379.96,-197.64 1237.18,-187.79"/>
<polygon fill="midnightblue" stroke="midnightblue" points="1237.22,-184.28 1227,-187.08 1236.74,-191.26 1237.22,-184.28"/>
</g>
<!-- Node48&#45;&gt;Node3 -->
<g id="edge83" class="edge">
<title>Node48&#45;&gt;Node3</title>
<path fill="none" stroke="midnightblue" d="M2115.14,-296.76C2126.8,-287.8 2143.41,-272.72 2150.57,-255 2165.82,-217.24 2160.38,-168.3 2155.62,-141.89"/>
<polygon fill="midnightblue" stroke="midnightblue" points="2158.99,-140.9 2153.63,-131.76 2152.13,-142.25 2158.99,-140.9"/>
</g>
<!-- Node48&#45;&gt;Node11 -->
<g id="edge84" class="edge">
<title>Node48&#45;&gt;Node11</title>
<path fill="none" stroke="midnightblue" d="M2112.3,-296.64C2127.08,-282.14 2151.77,-253.14 2134.57,-235 2103.38,-202.11 1423.6,-188.39 1236.73,-185.24"/>
<polygon fill="midnightblue" stroke="midnightblue" points="1236.73,-181.74 1226.67,-185.07 1236.61,-188.74 1236.73,-181.74"/>
</g>
<!-- Node48&#45;&gt;Node16 -->
<g id="edge85" class="edge">
<title>Node48&#45;&gt;Node16</title>
<path fill="none" stroke="midnightblue" d="M2065.35,-303.2C1970.74,-297.2 1713.15,-279.86 1486.74,-254.95"/>
<polygon fill="midnightblue" stroke="midnightblue" points="1486.99,-251.45 1476.66,-253.83 1486.22,-258.41 1486.99,-251.45"/>
</g>
<!-- Node48&#45;&gt;Node47 -->
<g id="edge86" class="edge">
<title>Node48&#45;&gt;Node47</title>
<path fill="none" stroke="midnightblue" d="M2095.26,-296.98C2087.53,-287.96 2075.16,-273.52 2065.55,-262.31"/>
<polygon fill="midnightblue" stroke="midnightblue" points="2068.03,-259.82 2058.86,-254.51 2062.71,-264.38 2068.03,-259.82"/>
</g>
</g>
</svg>
        <g id="navigator" transform="translate(0 0)" fill="#404254">
                <rect fill="#f2f5e9" fill-opacity="0.5" stroke="#606060" stroke-width=".5" x="0" y="0" width="60" height="60"/>
                <use id="zoomplus" xlink:href="#zoomPlus" x="17" y="9" onmousedown="handleZoom(evt,'in')"/>
                <use id="zoomminus" xlink:href="#zoomMin" x="42" y="9" onmousedown="handleZoom(evt,'out')"/>
                <use id="reset" xlink:href="#resetDef" x="30" y="36" onmousedown="handleReset()"/>
                <g id="arrowUp" xlink:href="#dirArrow" transform="translate(30 24)" onmousedown="handlePan(0,-1)">
                  <use xlink:href="#rim" fill="#404040">
                        <set attributeName="fill" to="#808080" begin="arrowUp.mouseover" end="arrowUp.mouseout"/>
                  </use>
                  <path fill="none" stroke="white" stroke-width="1.5" d="M0,-3.0v7 M-2.5,-0.5L0,-3.0L2.5,-0.5"/>
                </g>
                <g id="arrowRight" xlink:href="#dirArrow" transform="rotate(90) translate(36 -43)" onmousedown="handlePan(1,0)">
                  <use xlink:href="#rim" fill="#404040">
                        <set attributeName="fill" to="#808080" begin="arrowRight.mouseover" end="arrowRight.mouseout"/>
                  </use>
                  <path fill="none" stroke="white" stroke-width="1.5" d="M0,-3.0v7 M-2.5,-0.5L0,-3.0L2.5,-0.5"/>
                </g>
                <g id="arrowDown" xlink:href="#dirArrow" transform="rotate(180) translate(-30 -48)" onmousedown="handlePan(0,1)">
                  <use xlink:href="#rim" fill="#404040">
                        <set attributeName="fill" to="#808080" begin="arrowDown.mouseover" end="arrowDown.mouseout"/>
                  </use>
                  <path fill="none" stroke="white" stroke-width="1.5" d="M0,-3.0v7 M-2.5,-0.5L0,-3.0L2.5,-0.5"/>
                </g>
                <g id="arrowLeft" xlink:href="#dirArrow" transform="rotate(270) translate(-36 17)" onmousedown="handlePan(-1,0)">
                  <use xlink:href="#rim" fill="#404040">
                        <set attributeName="fill" to="#808080" begin="arrowLeft.mouseover" end="arrowLeft.mouseout"/>
                  </use>
                  <path fill="none" stroke="white" stroke-width="1.5" d="M0,-3.0v7 M-2.5,-0.5L0,-3.0L2.5,-0.5"/>
                </g>
        </g>
        <svg viewBox="0 0 15 15" width="100%" height="30px" preserveAspectRatio="xMaxYMin meet">
         <g id="arrow_out" transform="scale(0.3 0.3)">
          <a xlink:href="thread__db_8h__incl_org.svg" target="_base">
           <rect id="button" ry="5" rx="5" y="6" x="6" height="38" width="38"
                fill="#f2f5e9" fill-opacity="0.5" stroke="#606060" stroke-width="1.0"/>
           <path id="arrow"
             d="M 11.500037,31.436501 C 11.940474,20.09759 22.043105,11.32322 32.158766,21.979434 L 37.068811,17.246167 C 37.068811,17.246167 37.088388,32 37.088388,32 L 22.160133,31.978069 C 22.160133,31.978069 26.997745,27.140456 26.997745,27.140456 C 18.528582,18.264221 13.291696,25.230495 11.500037,31.436501 z"
             style="fill:#404040;"/>
          </a>
         </g>
        </svg>
</svg>
