<?xml version="1.0" encoding="UTF-8" standalone="no"?>
<!DOCTYPE svg PUBLIC "-//W3C//DTD SVG 1.1//EN"
 "http://www.w3.org/Graphics/SVG/1.1/DTD/svg11.dtd">
<!-- Generated by graphviz version 2.44.1 (0)
 -->
<!-- Title: bits/time64.h Pages: 1 -->
<!--zoomable 263 -->
<svg id="main" version="1.1" xmlns="http://www.w3.org/2000/svg" xmlns:xlink="http://www.w3.org/1999/xlink" xml:space="preserve" onload="init(evt)">
<style type="text/css"><![CDATA[
.edge:hover path { stroke: red; }
.edge:hover polygon { stroke: red; fill: red; }
]]></style>
<script type="text/javascript"><![CDATA[
var edges = document.getElementsByTagName('g');
if (edges && edges.length) {
  for (var i=0;i<edges.length;i++) {
    if (edges[i].id.substr(0,4)=='edge') {
      edges[i].setAttribute('class','edge');
    }
  }
}
]]></script>
        <defs>
                <circle id="rim" cx="0" cy="0" r="7"/>
                <circle id="rim2" cx="0" cy="0" r="3.5"/>
                <g id="zoomPlus">
                        <use xlink:href="#rim" fill="#404040">
                                <set attributeName="fill" to="#808080" begin="zoomplus.mouseover" end="zoomplus.mouseout"/>
                        </use>
                        <path d="M-4,0h8M0,-4v8" fill="none" stroke="white" stroke-width="1.5" pointer-events="none"/>
                </g>
                <g id="zoomMin">
                        <use xlink:href="#rim" fill="#404040">
                                <set attributeName="fill" to="#808080" begin="zoomminus.mouseover" end="zoomminus.mouseout"/>
                        </use>
                        <path d="M-4,0h8" fill="none" stroke="white" stroke-width="1.5" pointer-events="none"/>
                </g>
                <g id="dirArrow">
                        <path fill="none" stroke="white" stroke-width="1.5" d="M0,-3.0v7 M-2.5,-0.5L0,-3.0L2.5,-0.5"/>
                </g>
               <g id="resetDef">
                       <use xlink:href="#rim2" fill="#404040">
                               <set attributeName="fill" to="#808080" begin="reset.mouseover" end="reset.mouseout"/>
                       </use>
               </g>
        </defs>

<script type="text/javascript">
var viewWidth = 4551;
var viewHeight = 263;
var sectionId = 'dynsection-0';
</script>
<script xlink:href="svgpan.js"/>
<svg id="graph" class="graph">
<g id="viewport">
<title>bits/time64.h</title>
<polygon fill="white" stroke="transparent" points="-4,4 -4,-259 4546.65,-259 4546.65,4 -4,4"/>
<!-- Node1 -->
<g id="node1" class="node">
<title>Node1</title>
<g id="a_node1"><a xlink:title=" ">
<polygon fill="#bfbfbf" stroke="black" points="2092.15,-235.5 2092.15,-254.5 2173.15,-254.5 2173.15,-235.5 2092.15,-235.5"/>
<text text-anchor="middle" x="2132.65" y="-242.5" font-family="Helvetica,sans-Serif" font-size="10.00">bits/time64.h</text>
</a>
</g>
</g>
<!-- Node2 -->
<g id="node2" class="node">
<title>Node2</title>
<g id="a_node2"><a xlink:href="bits_2types_8h.html" target="_top" xlink:title=" ">
<polygon fill="white" stroke="red" points="2095.65,-179.5 2095.65,-198.5 2169.65,-198.5 2169.65,-179.5 2095.65,-179.5"/>
<text text-anchor="middle" x="2132.65" y="-186.5" font-family="Helvetica,sans-Serif" font-size="10.00">bits/types.h</text>
</a>
</g>
</g>
<!-- Node1&#45;&gt;Node2 -->
<g id="edge1" class="edge">
<title>Node1&#45;&gt;Node2</title>
<path fill="none" stroke="midnightblue" d="M2132.65,-224.8C2132.65,-215.91 2132.65,-205.78 2132.65,-198.75"/>
<polygon fill="midnightblue" stroke="midnightblue" points="2129.15,-225.08 2132.65,-235.08 2136.15,-225.08 2129.15,-225.08"/>
</g>
<!-- Node3 -->
<g id="node3" class="node">
<title>Node3</title>
<g id="a_node3"><a xlink:href="bits_2byteswap_8h.html" target="_top" xlink:title=" ">
<polygon fill="white" stroke="red" points="15.65,-118 15.65,-137 109.65,-137 109.65,-118 15.65,-118"/>
<text text-anchor="middle" x="62.65" y="-125" font-family="Helvetica,sans-Serif" font-size="10.00">bits/byteswap.h</text>
</a>
</g>
</g>
<!-- Node2&#45;&gt;Node3 -->
<g id="edge2" class="edge">
<title>Node2&#45;&gt;Node3</title>
<path fill="none" stroke="midnightblue" d="M2085.08,-187.6C1799.53,-185.08 318.85,-170.77 118.65,-143 109.3,-141.7 99.27,-139.4 90.31,-137.01"/>
<polygon fill="midnightblue" stroke="midnightblue" points="2085.46,-191.1 2095.49,-187.69 2085.52,-184.1 2085.46,-191.1"/>
</g>
<!-- Node6 -->
<g id="node4" class="node">
<title>Node6</title>
<g id="a_node4"><a xlink:href="netinet_2in_8h.html" target="_top" xlink:title=" ">
<polygon fill="white" stroke="red" points="87.65,-56.5 87.65,-75.5 159.65,-75.5 159.65,-56.5 87.65,-56.5"/>
<text text-anchor="middle" x="123.65" y="-63.5" font-family="Helvetica,sans-Serif" font-size="10.00">netinet/in.h</text>
</a>
</g>
</g>
<!-- Node2&#45;&gt;Node6 -->
<g id="edge63" class="edge">
<title>Node2&#45;&gt;Node6</title>
<path fill="none" stroke="midnightblue" d="M2085.12,-187.91C1774.37,-187.18 44.26,-181.41 6.65,-143 -2.98,-133.16 -1.15,-123.36 6.65,-112 24.64,-85.81 60.17,-74.85 87.38,-70.28"/>
<polygon fill="midnightblue" stroke="midnightblue" points="2085.56,-191.41 2095.57,-187.93 2085.57,-184.41 2085.56,-191.41"/>
</g>
<!-- Node15 -->
<g id="node5" class="node">
<title>Node15</title>
<g id="a_node5"><a xlink:href="bits_2ipc_8h.html" target="_top" xlink:title=" ">
<polygon fill="white" stroke="red" points="532.15,-118 532.15,-137 593.15,-137 593.15,-118 532.15,-118"/>
<text text-anchor="middle" x="562.65" y="-125" font-family="Helvetica,sans-Serif" font-size="10.00">bits/ipc.h</text>
</a>
</g>
</g>
<!-- Node2&#45;&gt;Node15 -->
<g id="edge4" class="edge">
<title>Node2&#45;&gt;Node15</title>
<path fill="none" stroke="midnightblue" d="M2085.09,-187.5C1842.76,-184.83 751.03,-171.32 602.65,-143 595.83,-141.7 588.63,-139.4 582.24,-137.01"/>
<polygon fill="midnightblue" stroke="midnightblue" points="2085.29,-191 2095.33,-187.61 2085.37,-184 2085.29,-191"/>
</g>
<!-- Node20 -->
<g id="node6" class="node">
<title>Node20</title>
<g id="a_node6"><a xlink:href="bits_2mqueue_8h.html" target="_top" xlink:title=" ">
<polygon fill="white" stroke="red" points="611.65,-118 611.65,-137 697.65,-137 697.65,-118 611.65,-118"/>
<text text-anchor="middle" x="654.65" y="-125" font-family="Helvetica,sans-Serif" font-size="10.00">bits/mqueue.h</text>
</a>
</g>
</g>
<!-- Node2&#45;&gt;Node20 -->
<g id="edge5" class="edge">
<title>Node2&#45;&gt;Node20</title>
<path fill="none" stroke="midnightblue" d="M2085.53,-188.03C1870.55,-187.95 981.43,-185.02 706.65,-143 698.04,-141.68 688.82,-139.41 680.57,-137.05"/>
<polygon fill="midnightblue" stroke="midnightblue" points="2085.55,-191.53 2095.55,-188.03 2085.55,-184.53 2085.55,-191.53"/>
</g>
<!-- Node22 -->
<g id="node7" class="node">
<title>Node22</title>
<g id="a_node7"><a xlink:href="msq_8h.html" target="_top" xlink:title=" ">
<polygon fill="white" stroke="red" points="715.65,-118 715.65,-137 783.65,-137 783.65,-118 715.65,-118"/>
<text text-anchor="middle" x="749.65" y="-125" font-family="Helvetica,sans-Serif" font-size="10.00">bits/msq.h</text>
</a>
</g>
</g>
<!-- Node2&#45;&gt;Node22 -->
<g id="edge6" class="edge">
<title>Node2&#45;&gt;Node22</title>
<path fill="none" stroke="midnightblue" d="M2085.35,-188.25C1878.01,-189.09 1048.45,-189.39 792.65,-143 785.52,-141.71 777.96,-139.47 771.21,-137.14"/>
<polygon fill="midnightblue" stroke="midnightblue" points="2085.61,-191.75 2095.6,-188.21 2085.58,-184.75 2085.61,-191.75"/>
</g>
<!-- Node23 -->
<g id="node8" class="node">
<title>Node23</title>
<g id="a_node8"><a xlink:href="sigcontext_8h.html" target="_top" xlink:title=" ">
<polygon fill="white" stroke="black" points="977.65,-118 977.65,-137 1075.65,-137 1075.65,-118 977.65,-118"/>
<text text-anchor="middle" x="1026.65" y="-125" font-family="Helvetica,sans-Serif" font-size="10.00">bits/sigcontext.h</text>
</a>
</g>
</g>
<!-- Node2&#45;&gt;Node23 -->
<g id="edge7" class="edge">
<title>Node2&#45;&gt;Node23</title>
<path fill="none" stroke="midnightblue" d="M2085.41,-187.24C1908.02,-184.19 1281.91,-171.59 1084.65,-143 1075.2,-141.63 1065.06,-139.37 1055.93,-137.04"/>
<polygon fill="midnightblue" stroke="midnightblue" points="2085.41,-190.74 2095.47,-187.41 2085.53,-183.74 2085.41,-190.74"/>
</g>
<!-- Node24 -->
<g id="node9" class="node">
<title>Node24</title>
<g id="a_node9"><a xlink:href="signal_8h.html" target="_top" xlink:title=" ">
<polygon fill="white" stroke="black" points="1067.15,-56.5 1067.15,-75.5 1122.15,-75.5 1122.15,-56.5 1067.15,-56.5"/>
<text text-anchor="middle" x="1094.65" y="-63.5" font-family="Helvetica,sans-Serif" font-size="10.00">signal.h</text>
</a>
</g>
</g>
<!-- Node2&#45;&gt;Node24 -->
<g id="edge66" class="edge">
<title>Node2&#45;&gt;Node24</title>
<path fill="none" stroke="midnightblue" d="M2085.1,-187.98C1871.31,-187.66 1007.95,-183.85 968.65,-143 935,-108.02 1020.71,-83.1 1067.14,-72.58"/>
<polygon fill="midnightblue" stroke="midnightblue" points="2085.36,-191.48 2095.36,-187.99 2085.36,-184.48 2085.36,-191.48"/>
</g>
<!-- Node25 -->
<g id="node10" class="node">
<title>Node25</title>
<g id="a_node10"><a xlink:href="bits_2resource_8h.html" target="_top" xlink:title=" ">
<polygon fill="white" stroke="red" points="1915.15,-0.5 1915.15,-19.5 2004.15,-19.5 2004.15,-0.5 1915.15,-0.5"/>
<text text-anchor="middle" x="1959.65" y="-7.5" font-family="Helvetica,sans-Serif" font-size="10.00">bits/resource.h</text>
</a>
</g>
</g>
<!-- Node2&#45;&gt;Node25 -->
<g id="edge9" class="edge">
<title>Node2&#45;&gt;Node25</title>
<path fill="none" stroke="midnightblue" d="M2085.59,-183.72C2027.9,-177.61 1934.47,-164.68 1907.65,-143 1875.96,-117.38 1857.98,-91.13 1878.65,-56 1889.42,-37.7 1910.62,-26.31 1928.63,-19.56"/>
<polygon fill="midnightblue" stroke="midnightblue" points="2085.27,-187.2 2095.58,-184.75 2085.99,-180.24 2085.27,-187.2"/>
</g>
<!-- Node27 -->
<g id="node11" class="node">
<title>Node27</title>
<g id="a_node11"><a xlink:href="stdint-intn_8h.html" target="_top" xlink:title=" ">
<polygon fill="white" stroke="red" points="417.15,-118 417.15,-137 514.15,-137 514.15,-118 417.15,-118"/>
<text text-anchor="middle" x="465.65" y="-125" font-family="Helvetica,sans-Serif" font-size="10.00">bits/stdint&#45;intn.h</text>
</a>
</g>
</g>
<!-- Node2&#45;&gt;Node27 -->
<g id="edge10" class="edge">
<title>Node2&#45;&gt;Node27</title>
<path fill="none" stroke="midnightblue" d="M2085.24,-188.09C1853.22,-188.3 835.98,-186.68 522.65,-143 513.25,-141.69 503.15,-139.42 494.11,-137.05"/>
<polygon fill="midnightblue" stroke="midnightblue" points="2085.38,-191.59 2095.38,-188.08 2085.37,-184.59 2085.38,-191.59"/>
</g>
<!-- Node28 -->
<g id="node12" class="node">
<title>Node28</title>
<g id="a_node12"><a xlink:href="stdint_8h.html" target="_top" xlink:title=" ">
<polygon fill="white" stroke="red" points="362.15,-56.5 362.15,-75.5 415.15,-75.5 415.15,-56.5 362.15,-56.5"/>
<text text-anchor="middle" x="388.65" y="-63.5" font-family="Helvetica,sans-Serif" font-size="10.00">stdint.h</text>
</a>
</g>
</g>
<!-- Node2&#45;&gt;Node28 -->
<g id="edge67" class="edge">
<title>Node2&#45;&gt;Node28</title>
<path fill="none" stroke="midnightblue" d="M2085.41,-187.55C1811.78,-184.85 441.31,-169.99 407.65,-143 387.28,-126.66 386.78,-92.08 387.8,-75.81"/>
<polygon fill="midnightblue" stroke="midnightblue" points="2085.38,-191.05 2095.41,-187.65 2085.45,-184.05 2085.38,-191.05"/>
</g>
<!-- Node93 -->
<g id="node13" class="node">
<title>Node93</title>
<g id="a_node13"><a xlink:href="bits_2shm_8h.html" target="_top" xlink:title=" ">
<polygon fill="white" stroke="red" points="2129.65,-118 2129.65,-137 2197.65,-137 2197.65,-118 2129.65,-118"/>
<text text-anchor="middle" x="2163.65" y="-125" font-family="Helvetica,sans-Serif" font-size="10.00">bits/shm.h</text>
</a>
</g>
</g>
<!-- Node2&#45;&gt;Node93 -->
<g id="edge12" class="edge">
<title>Node2&#45;&gt;Node93</title>
<path fill="none" stroke="midnightblue" d="M2141.86,-170.33C2147.59,-159.33 2154.71,-145.66 2159.22,-137.01"/>
<polygon fill="midnightblue" stroke="midnightblue" points="2138.61,-168.99 2137.1,-179.48 2144.82,-172.22 2138.61,-168.99"/>
</g>
<!-- Node94 -->
<g id="node14" class="node">
<title>Node94</title>
<g id="a_node14"><a xlink:href="stdint-uintn_8h.html" target="_top" xlink:title=" ">
<polygon fill="white" stroke="red" points="257.15,-118 257.15,-137 360.15,-137 360.15,-118 257.15,-118"/>
<text text-anchor="middle" x="308.65" y="-125" font-family="Helvetica,sans-Serif" font-size="10.00">bits/stdint&#45;uintn.h</text>
</a>
</g>
</g>
<!-- Node2&#45;&gt;Node94 -->
<g id="edge13" class="edge">
<title>Node2&#45;&gt;Node94</title>
<path fill="none" stroke="midnightblue" d="M2085.33,-188.01C1840.92,-187.87 719.58,-184.92 374.65,-143 363.82,-141.68 352.15,-139.41 341.68,-137.05"/>
<polygon fill="midnightblue" stroke="midnightblue" points="2085.65,-191.51 2095.65,-188.01 2085.65,-184.51 2085.65,-191.51"/>
</g>
<!-- Node95 -->
<g id="node15" class="node">
<title>Node95</title>
<g id="a_node15"><a xlink:href="bits_2statfs_8h.html" target="_top" xlink:title=" ">
<polygon fill="white" stroke="red" points="2215.65,-118 2215.65,-137 2289.65,-137 2289.65,-118 2215.65,-118"/>
<text text-anchor="middle" x="2252.65" y="-125" font-family="Helvetica,sans-Serif" font-size="10.00">bits/statfs.h</text>
</a>
</g>
</g>
<!-- Node2&#45;&gt;Node95 -->
<g id="edge16" class="edge">
<title>Node2&#45;&gt;Node95</title>
<path fill="none" stroke="midnightblue" d="M2158.83,-175.02C2182.1,-163.48 2215.46,-146.94 2235.49,-137.01"/>
<polygon fill="midnightblue" stroke="midnightblue" points="2157.25,-171.9 2149.85,-179.48 2160.36,-178.17 2157.25,-171.9"/>
</g>
<!-- Node98 -->
<g id="node16" class="node">
<title>Node98</title>
<g id="a_node16"><a xlink:href="bits_2statvfs_8h.html" target="_top" xlink:title=" ">
<polygon fill="white" stroke="red" points="2307.65,-118 2307.65,-137 2387.65,-137 2387.65,-118 2307.65,-118"/>
<text text-anchor="middle" x="2347.65" y="-125" font-family="Helvetica,sans-Serif" font-size="10.00">bits/statvfs.h</text>
</a>
</g>
</g>
<!-- Node2&#45;&gt;Node98 -->
<g id="edge17" class="edge">
<title>Node2&#45;&gt;Node98</title>
<path fill="none" stroke="midnightblue" d="M2175.1,-176.78C2208.68,-167.84 2256.74,-154.88 2298.65,-143 2305.31,-141.11 2312.46,-139.03 2319.19,-137.04"/>
<polygon fill="midnightblue" stroke="midnightblue" points="2173.92,-173.47 2165.16,-179.42 2175.72,-180.24 2173.92,-173.47"/>
</g>
<!-- Node100 -->
<g id="node17" class="node">
<title>Node100</title>
<g id="a_node17"><a xlink:href="____fpos64__t_8h.html" target="_top" xlink:title=" ">
<polygon fill="white" stroke="black" points="2444.15,-118 2444.15,-137 2573.15,-137 2573.15,-118 2444.15,-118"/>
<text text-anchor="middle" x="2508.65" y="-125" font-family="Helvetica,sans-Serif" font-size="10.00">bits/types/__fpos64_t.h</text>
</a>
</g>
</g>
<!-- Node2&#45;&gt;Node100 -->
<g id="edge18" class="edge">
<title>Node2&#45;&gt;Node100</title>
<path fill="none" stroke="midnightblue" d="M2179.82,-181.32C2238.47,-172.9 2341.59,-157.75 2429.65,-143 2440.66,-141.16 2452.5,-139.05 2463.58,-137.02"/>
<polygon fill="midnightblue" stroke="midnightblue" points="2179.16,-177.88 2169.76,-182.76 2180.15,-184.8 2179.16,-177.88"/>
</g>
<!-- Node101 -->
<g id="node18" class="node">
<title>Node101</title>
<g id="a_node18"><a xlink:href="stdio_8h.html" target="_top" xlink:title=" ">
<polygon fill="white" stroke="red" points="2553.65,-56.5 2553.65,-75.5 2603.65,-75.5 2603.65,-56.5 2553.65,-56.5"/>
<text text-anchor="middle" x="2578.65" y="-63.5" font-family="Helvetica,sans-Serif" font-size="10.00">stdio.h</text>
</a>
</g>
</g>
<!-- Node2&#45;&gt;Node101 -->
<g id="edge68" class="edge">
<title>Node2&#45;&gt;Node101</title>
<path fill="none" stroke="midnightblue" d="M2179.88,-187.15C2234.41,-184.56 2325.67,-175.26 2396.65,-143 2416.5,-133.98 2415.46,-122.33 2434.65,-112 2473.64,-91.03 2523.91,-78.13 2553.57,-71.79"/>
<polygon fill="midnightblue" stroke="midnightblue" points="2179.66,-183.65 2169.82,-187.57 2179.95,-190.65 2179.66,-183.65"/>
</g>
<!-- Node105 -->
<g id="node19" class="node">
<title>Node105</title>
<g id="a_node19"><a xlink:href="____fpos__t_8h.html" target="_top" xlink:title=" ">
<polygon fill="white" stroke="black" points="2591.15,-118 2591.15,-137 2708.15,-137 2708.15,-118 2591.15,-118"/>
<text text-anchor="middle" x="2649.65" y="-125" font-family="Helvetica,sans-Serif" font-size="10.00">bits/types/__fpos_t.h</text>
</a>
</g>
</g>
<!-- Node2&#45;&gt;Node105 -->
<g id="edge20" class="edge">
<title>Node2&#45;&gt;Node105</title>
<path fill="none" stroke="midnightblue" d="M2179.91,-185.05C2262.13,-179.51 2436.69,-166.02 2582.65,-143 2592.88,-141.39 2603.9,-139.2 2613.98,-137.01"/>
<polygon fill="midnightblue" stroke="midnightblue" points="2179.62,-181.56 2169.88,-185.71 2180.09,-188.54 2179.62,-181.56"/>
</g>
<!-- Node106 -->
<g id="node20" class="node">
<title>Node106</title>
<g id="a_node20"><a xlink:href="clock__t_8h.html" target="_top" xlink:title=" ">
<polygon fill="white" stroke="red" points="2875.15,-118 2875.15,-137 2986.15,-137 2986.15,-118 2875.15,-118"/>
<text text-anchor="middle" x="2930.65" y="-125" font-family="Helvetica,sans-Serif" font-size="10.00">bits/types/clock_t.h</text>
</a>
</g>
</g>
<!-- Node2&#45;&gt;Node106 -->
<g id="edge22" class="edge">
<title>Node2&#45;&gt;Node106</title>
<path fill="none" stroke="midnightblue" d="M2179.9,-187.68C2296.78,-186.33 2608.62,-179.33 2865.65,-143 2875.96,-141.54 2887.05,-139.32 2897.1,-137.05"/>
<polygon fill="midnightblue" stroke="midnightblue" points="2179.82,-184.18 2169.86,-187.79 2179.89,-191.18 2179.82,-184.18"/>
</g>
<!-- Node111 -->
<g id="node21" class="node">
<title>Node111</title>
<g id="a_node21"><a xlink:href="clockid__t_8h.html" target="_top" xlink:title=" ">
<polygon fill="white" stroke="red" points="3004.65,-118 3004.65,-137 3124.65,-137 3124.65,-118 3004.65,-118"/>
<text text-anchor="middle" x="3064.65" y="-125" font-family="Helvetica,sans-Serif" font-size="10.00">bits/types/clockid_t.h</text>
</a>
</g>
</g>
<!-- Node2&#45;&gt;Node111 -->
<g id="edge23" class="edge">
<title>Node2&#45;&gt;Node111</title>
<path fill="none" stroke="midnightblue" d="M2179.9,-188.1C2310.37,-187.83 2686.4,-183.31 2995.65,-143 3006.7,-141.56 3018.61,-139.31 3029.38,-137.01"/>
<polygon fill="midnightblue" stroke="midnightblue" points="2179.85,-184.6 2169.85,-188.11 2179.86,-191.6 2179.85,-184.6"/>
</g>
<!-- Node112 -->
<g id="node22" class="node">
<title>Node112</title>
<g id="a_node22"><a xlink:href="bits_2time_8h.html" target="_top" xlink:title=" ">
<polygon fill="white" stroke="red" points="3143.15,-118 3143.15,-137 3212.15,-137 3212.15,-118 3143.15,-118"/>
<text text-anchor="middle" x="3177.65" y="-125" font-family="Helvetica,sans-Serif" font-size="10.00">bits/time.h</text>
</a>
</g>
</g>
<!-- Node2&#45;&gt;Node112 -->
<g id="edge24" class="edge">
<title>Node2&#45;&gt;Node112</title>
<path fill="none" stroke="midnightblue" d="M2179.84,-187.58C2352.16,-185.8 2947.12,-177.26 3133.65,-143 3140.93,-141.66 3148.66,-139.41 3155.58,-137.08"/>
<polygon fill="midnightblue" stroke="midnightblue" points="2179.78,-184.09 2169.81,-187.69 2179.85,-191.08 2179.78,-184.09"/>
</g>
<!-- Node113 -->
<g id="node23" class="node">
<title>Node113</title>
<g id="a_node23"><a xlink:href="sig__atomic__t_8h.html" target="_top" xlink:title=" ">
<polygon fill="white" stroke="black" points="1094.15,-118 1094.15,-137 1233.15,-137 1233.15,-118 1094.15,-118"/>
<text text-anchor="middle" x="1163.65" y="-125" font-family="Helvetica,sans-Serif" font-size="10.00">bits/types/sig_atomic_t.h</text>
</a>
</g>
</g>
<!-- Node2&#45;&gt;Node113 -->
<g id="edge25" class="edge">
<title>Node2&#45;&gt;Node113</title>
<path fill="none" stroke="midnightblue" d="M2085.39,-187.79C1952.3,-186.71 1563.21,-180.36 1242.65,-143 1230.19,-141.55 1216.72,-139.32 1204.5,-137.05"/>
<polygon fill="midnightblue" stroke="midnightblue" points="2085.61,-191.29 2095.63,-187.86 2085.66,-184.29 2085.61,-191.29"/>
</g>
<!-- Node114 -->
<g id="node24" class="node">
<title>Node114</title>
<g id="a_node24"><a xlink:href="sigevent__t_8h.html" target="_top" xlink:title=" ">
<polygon fill="white" stroke="red" points="1251.65,-118 1251.65,-137 1379.65,-137 1379.65,-118 1251.65,-118"/>
<text text-anchor="middle" x="1315.65" y="-125" font-family="Helvetica,sans-Serif" font-size="10.00">bits/types/sigevent_t.h</text>
</a>
</g>
</g>
<!-- Node2&#45;&gt;Node114 -->
<g id="edge27" class="edge">
<title>Node2&#45;&gt;Node114</title>
<path fill="none" stroke="midnightblue" d="M2085.52,-187.14C1968.19,-184.56 1653.72,-174.97 1393.65,-143 1381.49,-141.5 1368.35,-139.3 1356.39,-137.05"/>
<polygon fill="midnightblue" stroke="midnightblue" points="2085.53,-190.64 2095.6,-187.35 2085.68,-183.64 2085.53,-190.64"/>
</g>
<!-- Node115 -->
<g id="node25" class="node">
<title>Node115</title>
<g id="a_node25"><a xlink:href="siginfo__t_8h.html" target="_top" xlink:title=" ">
<polygon fill="white" stroke="black" points="802.15,-118 802.15,-137 921.15,-137 921.15,-118 802.15,-118"/>
<text text-anchor="middle" x="861.65" y="-125" font-family="Helvetica,sans-Serif" font-size="10.00">bits/types/siginfo_t.h</text>
</a>
</g>
</g>
<!-- Node2&#45;&gt;Node115 -->
<g id="edge29" class="edge">
<title>Node2&#45;&gt;Node115</title>
<path fill="none" stroke="midnightblue" d="M2085.57,-187.21C1892.94,-183.83 1164.36,-169.54 935.65,-143 923.69,-141.61 910.77,-139.35 899.12,-137.02"/>
<polygon fill="midnightblue" stroke="midnightblue" points="2085.59,-190.71 2095.65,-187.39 2085.71,-183.71 2085.59,-190.71"/>
</g>
<!-- Node116 -->
<g id="node26" class="node">
<title>Node116</title>
<g id="a_node26"><a xlink:href="cookie__io__functions__t_8h.html" target="_top" xlink:title=" ">
<polygon fill="white" stroke="black" points="3230.65,-112.5 3230.65,-142.5 3344.65,-142.5 3344.65,-112.5 3230.65,-112.5"/>
<text text-anchor="start" x="3238.65" y="-130.5" font-family="Helvetica,sans-Serif" font-size="10.00">bits/types/cookie_io</text>
<text text-anchor="middle" x="3287.65" y="-119.5" font-family="Helvetica,sans-Serif" font-size="10.00">_functions_t.h</text>
</a>
</g>
</g>
<!-- Node2&#45;&gt;Node116 -->
<g id="edge31" class="edge">
<title>Node2&#45;&gt;Node116</title>
<path fill="none" stroke="midnightblue" d="M2179.92,-187.15C2361.66,-183.7 3015.6,-169.68 3221.65,-143 3224.56,-142.62 3227.53,-142.18 3230.52,-141.69"/>
<polygon fill="midnightblue" stroke="midnightblue" points="2179.81,-183.65 2169.87,-187.34 2179.94,-190.65 2179.81,-183.65"/>
</g>
<!-- Node117 -->
<g id="node27" class="node">
<title>Node117</title>
<g id="a_node27"><a xlink:href="struct__FILE_8h.html" target="_top" xlink:title=" ">
<polygon fill="white" stroke="black" points="2726.65,-118 2726.65,-137 2856.65,-137 2856.65,-118 2726.65,-118"/>
<text text-anchor="middle" x="2791.65" y="-125" font-family="Helvetica,sans-Serif" font-size="10.00">bits/types/struct_FILE.h</text>
</a>
</g>
</g>
<!-- Node2&#45;&gt;Node117 -->
<g id="edge32" class="edge">
<title>Node2&#45;&gt;Node117</title>
<path fill="none" stroke="midnightblue" d="M2179.82,-186.24C2279.51,-182.11 2518.79,-170.04 2717.65,-143 2729.07,-141.45 2741.38,-139.25 2752.62,-137.03"/>
<polygon fill="midnightblue" stroke="midnightblue" points="2179.62,-182.75 2169.77,-186.65 2179.91,-189.74 2179.62,-182.75"/>
</g>
<!-- Node118 -->
<g id="node28" class="node">
<title>Node118</title>
<g id="a_node28"><a xlink:href="struct__rusage_8h.html" target="_top" xlink:title=" ">
<polygon fill="white" stroke="black" points="1888.15,-56.5 1888.15,-75.5 2031.15,-75.5 2031.15,-56.5 1888.15,-56.5"/>
<text text-anchor="middle" x="1959.65" y="-63.5" font-family="Helvetica,sans-Serif" font-size="10.00">bits/types/struct_rusage.h</text>
</a>
</g>
</g>
<!-- Node2&#45;&gt;Node118 -->
<g id="edge34" class="edge">
<title>Node2&#45;&gt;Node118</title>
<path fill="none" stroke="midnightblue" d="M2085.14,-184.92C2028.09,-180.12 1937.47,-168.6 1916.65,-143 1898.67,-120.89 1930.29,-90.27 1948.36,-75.56"/>
<polygon fill="midnightblue" stroke="midnightblue" points="2085.13,-188.43 2095.37,-185.74 2085.69,-181.46 2085.13,-188.43"/>
</g>
<!-- Node119 -->
<g id="node29" class="node">
<title>Node119</title>
<g id="a_node29"><a xlink:href="struct__timeval_8h.html" target="_top" xlink:title=" ">
<polygon fill="white" stroke="red" points="1926.15,-118 1926.15,-137 2073.15,-137 2073.15,-118 1926.15,-118"/>
<text text-anchor="middle" x="1999.65" y="-125" font-family="Helvetica,sans-Serif" font-size="10.00">bits/types/struct_timeval.h</text>
</a>
</g>
</g>
<!-- Node2&#45;&gt;Node119 -->
<g id="edge36" class="edge">
<title>Node2&#45;&gt;Node119</title>
<path fill="none" stroke="midnightblue" d="M2104.33,-175.33C2078.51,-163.78 2041.08,-147.03 2018.67,-137.01"/>
<polygon fill="midnightblue" stroke="midnightblue" points="2103.04,-178.59 2113.6,-179.48 2105.9,-172.2 2103.04,-178.59"/>
</g>
<!-- Node120 -->
<g id="node30" class="node">
<title>Node120</title>
<g id="a_node30"><a xlink:href="bits_2timex_8h.html" target="_top" xlink:title=" ">
<polygon fill="white" stroke="red" points="2088.15,-56.5 2088.15,-75.5 2163.15,-75.5 2163.15,-56.5 2088.15,-56.5"/>
<text text-anchor="middle" x="2125.65" y="-63.5" font-family="Helvetica,sans-Serif" font-size="10.00">bits/timex.h</text>
</a>
</g>
</g>
<!-- Node2&#45;&gt;Node120 -->
<g id="edge50" class="edge">
<title>Node2&#45;&gt;Node120</title>
<path fill="none" stroke="midnightblue" d="M2126.52,-169.39C2124.19,-161.37 2121.81,-151.82 2120.65,-143 2117.49,-118.88 2121.46,-90.17 2123.94,-75.93"/>
<polygon fill="midnightblue" stroke="midnightblue" points="2123.26,-170.66 2129.57,-179.17 2129.94,-168.58 2123.26,-170.66"/>
</g>
<!-- Node122 -->
<g id="node31" class="node">
<title>Node122</title>
<g id="a_node31"><a xlink:href="sys_2select_8h.html" target="_top" xlink:title=" ">
<polygon fill="white" stroke="red" points="1757.65,-56.5 1757.65,-75.5 1831.65,-75.5 1831.65,-56.5 1757.65,-56.5"/>
<text text-anchor="middle" x="1794.65" y="-63.5" font-family="Helvetica,sans-Serif" font-size="10.00">sys/select.h</text>
</a>
</g>
</g>
<!-- Node2&#45;&gt;Node122 -->
<g id="edge71" class="edge">
<title>Node2&#45;&gt;Node122</title>
<path fill="none" stroke="midnightblue" d="M2085.44,-185.16C2014.5,-180.15 1884.57,-167.81 1845.65,-143 1819.93,-126.6 1804.1,-92.05 1797.8,-75.8"/>
<polygon fill="midnightblue" stroke="midnightblue" points="2085.25,-188.66 2095.47,-185.85 2085.73,-181.67 2085.25,-188.66"/>
</g>
<!-- Node127 -->
<g id="node32" class="node">
<title>Node127</title>
<g id="a_node32"><a xlink:href="struct__timespec_8h.html" target="_top" xlink:title=" ">
<polygon fill="white" stroke="red" points="1436.15,-118 1436.15,-137 1591.15,-137 1591.15,-118 1436.15,-118"/>
<text text-anchor="middle" x="1513.65" y="-125" font-family="Helvetica,sans-Serif" font-size="10.00">bits/types/struct_timespec.h</text>
</a>
</g>
</g>
<!-- Node2&#45;&gt;Node127 -->
<g id="edge41" class="edge">
<title>Node2&#45;&gt;Node127</title>
<path fill="none" stroke="midnightblue" d="M2085.36,-185.09C1992.96,-179.17 1782.08,-164.41 1605.65,-143 1592.01,-141.34 1577.28,-139.19 1563.7,-137.05"/>
<polygon fill="midnightblue" stroke="midnightblue" points="2085.3,-188.6 2095.5,-185.74 2085.75,-181.61 2085.3,-188.6"/>
</g>
<!-- Node128 -->
<g id="node33" class="node">
<title>Node128</title>
<g id="a_node33"><a xlink:href="struct__itimerspec_8h.html" target="_top" xlink:title=" ">
<polygon fill="white" stroke="red" points="1342.15,-56.5 1342.15,-75.5 1503.15,-75.5 1503.15,-56.5 1342.15,-56.5"/>
<text text-anchor="middle" x="1422.65" y="-63.5" font-family="Helvetica,sans-Serif" font-size="10.00">bits/types/struct_itimerspec.h</text>
</a>
</g>
</g>
<!-- Node2&#45;&gt;Node128 -->
<g id="edge53" class="edge">
<title>Node2&#45;&gt;Node128</title>
<path fill="none" stroke="midnightblue" d="M2085.33,-188.54C1934.59,-189.78 1472.83,-189.69 1426.65,-143 1408.91,-125.06 1415.42,-91.58 1419.87,-75.74"/>
<polygon fill="midnightblue" stroke="midnightblue" points="2085.67,-192.04 2095.64,-188.45 2085.61,-185.04 2085.67,-192.04"/>
</g>
<!-- Node129 -->
<g id="node34" class="node">
<title>Node129</title>
<g id="a_node34"><a xlink:href="fcntl_8h.html" target="_top" xlink:title=" ">
<polygon fill="white" stroke="red" points="1536.15,-56.5 1536.15,-75.5 1583.15,-75.5 1583.15,-56.5 1536.15,-56.5"/>
<text text-anchor="middle" x="1559.65" y="-63.5" font-family="Helvetica,sans-Serif" font-size="10.00">fcntl.h</text>
</a>
</g>
</g>
<!-- Node2&#45;&gt;Node129 -->
<g id="edge59" class="edge">
<title>Node2&#45;&gt;Node129</title>
<path fill="none" stroke="midnightblue" d="M2085.18,-186.89C1980.63,-183.91 1733.71,-173.73 1656.65,-143 1618.1,-127.63 1582.28,-91.91 1567.18,-75.51"/>
<polygon fill="midnightblue" stroke="midnightblue" points="2085.34,-190.4 2095.43,-187.17 2085.53,-183.4 2085.34,-190.4"/>
</g>
<!-- Node130 -->
<g id="node35" class="node">
<title>Node130</title>
<g id="a_node35"><a xlink:href="sched_8h.html" target="_top" xlink:title=" ">
<polygon fill="white" stroke="red" points="1630.65,-56.5 1630.65,-75.5 1684.65,-75.5 1684.65,-56.5 1630.65,-56.5"/>
<text text-anchor="middle" x="1657.65" y="-63.5" font-family="Helvetica,sans-Serif" font-size="10.00">sched.h</text>
</a>
</g>
</g>
<!-- Node2&#45;&gt;Node130 -->
<g id="edge65" class="edge">
<title>Node2&#45;&gt;Node130</title>
<path fill="none" stroke="midnightblue" d="M2085.18,-186.37C1974.64,-182.15 1707.14,-169.31 1676.65,-143 1656.89,-125.94 1656.08,-91.72 1656.92,-75.68"/>
<polygon fill="midnightblue" stroke="midnightblue" points="2085.25,-189.88 2095.37,-186.75 2085.51,-182.88 2085.25,-189.88"/>
</g>
<!-- Node131 -->
<g id="node36" class="node">
<title>Node131</title>
<g id="a_node36"><a xlink:href="time__t_8h.html" target="_top" xlink:title=" ">
<polygon fill="white" stroke="red" points="1685.65,-118 1685.65,-137 1793.65,-137 1793.65,-118 1685.65,-118"/>
<text text-anchor="middle" x="1739.65" y="-125" font-family="Helvetica,sans-Serif" font-size="10.00">bits/types/time_t.h</text>
</a>
</g>
</g>
<!-- Node2&#45;&gt;Node131 -->
<g id="edge46" class="edge">
<title>Node2&#45;&gt;Node131</title>
<path fill="none" stroke="midnightblue" d="M2085.39,-182.55C2021.98,-174.98 1905.97,-160.27 1807.65,-143 1797.79,-141.27 1787.17,-139.13 1777.33,-137.04"/>
<polygon fill="midnightblue" stroke="midnightblue" points="2085.13,-186.04 2095.48,-183.74 2085.96,-179.09 2085.13,-186.04"/>
</g>
<!-- Node135 -->
<g id="node37" class="node">
<title>Node135</title>
<g id="a_node37"><a xlink:href="timer__t_8h.html" target="_top" xlink:title=" ">
<polygon fill="white" stroke="red" points="3362.65,-118 3362.65,-137 3474.65,-137 3474.65,-118 3362.65,-118"/>
<text text-anchor="middle" x="3418.65" y="-125" font-family="Helvetica,sans-Serif" font-size="10.00">bits/types/timer_t.h</text>
</a>
</g>
</g>
<!-- Node2&#45;&gt;Node135 -->
<g id="edge49" class="edge">
<title>Node2&#45;&gt;Node135</title>
<path fill="none" stroke="midnightblue" d="M2180.05,-187.41C2375.62,-184.8 3120.47,-173.05 3353.65,-143 3364.2,-141.64 3375.57,-139.39 3385.79,-137.05"/>
<polygon fill="midnightblue" stroke="midnightblue" points="2179.78,-183.91 2169.82,-187.55 2179.87,-190.91 2179.78,-183.91"/>
</g>
<!-- Node136 -->
<g id="node38" class="node">
<title>Node136</title>
<g id="a_node38"><a xlink:href="uintn-identity_8h.html" target="_top" xlink:title=" ">
<polygon fill="white" stroke="red" points="128.15,-118 128.15,-137 239.15,-137 239.15,-118 128.15,-118"/>
<text text-anchor="middle" x="183.65" y="-125" font-family="Helvetica,sans-Serif" font-size="10.00">bits/uintn&#45;identity.h</text>
</a>
</g>
</g>
<!-- Node2&#45;&gt;Node136 -->
<g id="edge51" class="edge">
<title>Node2&#45;&gt;Node136</title>
<path fill="none" stroke="midnightblue" d="M2085.61,-188.14C1831.34,-188.74 619.14,-189.05 247.65,-143 237.14,-141.7 225.82,-139.43 215.66,-137.06"/>
<polygon fill="midnightblue" stroke="midnightblue" points="2085.63,-191.64 2095.62,-188.12 2085.61,-184.65 2085.63,-191.64"/>
</g>
<!-- Node137 -->
<g id="node39" class="node">
<title>Node137</title>
<g id="a_node39"><a xlink:href="struct__tm_8h.html" target="_top" xlink:title=" ">
<polygon fill="white" stroke="red" points="3493.15,-118 3493.15,-137 3616.15,-137 3616.15,-118 3493.15,-118"/>
<text text-anchor="middle" x="3554.65" y="-125" font-family="Helvetica,sans-Serif" font-size="10.00">bits/types/struct_tm.h</text>
</a>
</g>
</g>
<!-- Node2&#45;&gt;Node137 -->
<g id="edge54" class="edge">
<title>Node2&#45;&gt;Node137</title>
<path fill="none" stroke="midnightblue" d="M2180.23,-187.49C2388.78,-185.08 3223.36,-173.69 3483.65,-143 3495.15,-141.64 3507.55,-139.39 3518.73,-137.06"/>
<polygon fill="midnightblue" stroke="midnightblue" points="2179.88,-183.99 2169.93,-187.61 2179.96,-190.99 2179.88,-183.99"/>
</g>
<!-- Node124 -->
<g id="node40" class="node">
<title>Node124</title>
<g id="a_node40"><a xlink:href="bits_2utmpx_8h.html" target="_top" xlink:title=" ">
<polygon fill="white" stroke="red" points="3634.65,-118 3634.65,-137 3712.65,-137 3712.65,-118 3634.65,-118"/>
<text text-anchor="middle" x="3673.65" y="-125" font-family="Helvetica,sans-Serif" font-size="10.00">bits/utmpx.h</text>
</a>
</g>
</g>
<!-- Node2&#45;&gt;Node124 -->
<g id="edge55" class="edge">
<title>Node2&#45;&gt;Node124</title>
<path fill="none" stroke="midnightblue" d="M2180.18,-188.25C2402.08,-189.14 3337.65,-190 3625.65,-143 3633.56,-141.71 3641.98,-139.47 3649.53,-137.14"/>
<polygon fill="midnightblue" stroke="midnightblue" points="2179.87,-184.75 2169.85,-188.2 2179.84,-191.74 2179.87,-184.75"/>
</g>
<!-- Node138 -->
<g id="node41" class="node">
<title>Node138</title>
<g id="a_node41"><a xlink:href="ctype_8h.html" target="_top" xlink:title=" ">
<polygon fill="white" stroke="red" points="3731.15,-118 3731.15,-137 3784.15,-137 3784.15,-118 3731.15,-118"/>
<text text-anchor="middle" x="3757.65" y="-125" font-family="Helvetica,sans-Serif" font-size="10.00">ctype.h</text>
</a>
</g>
</g>
<!-- Node2&#45;&gt;Node138 -->
<g id="edge56" class="edge">
<title>Node2&#45;&gt;Node138</title>
<path fill="none" stroke="midnightblue" d="M2180.08,-187.65C2427.8,-185.72 3567.68,-175.11 3721.65,-143 3727.85,-141.71 3734.36,-139.41 3740.1,-137.02"/>
<polygon fill="midnightblue" stroke="midnightblue" points="2179.93,-184.16 2169.96,-187.73 2179.99,-191.16 2179.93,-184.16"/>
</g>
<!-- Node139 -->
<g id="node42" class="node">
<title>Node139</title>
<g id="a_node42"><a xlink:href="wctype-wchar_8h.html" target="_top" xlink:title=" ">
<polygon fill="white" stroke="red" points="3802.65,-118 3802.65,-137 3916.65,-137 3916.65,-118 3802.65,-118"/>
<text text-anchor="middle" x="3859.65" y="-125" font-family="Helvetica,sans-Serif" font-size="10.00">bits/wctype&#45;wchar.h</text>
</a>
</g>
</g>
<!-- Node2&#45;&gt;Node139 -->
<g id="edge57" class="edge">
<title>Node2&#45;&gt;Node139</title>
<path fill="none" stroke="midnightblue" d="M2179.99,-187.93C2416.21,-187.38 3468.99,-182.7 3793.65,-143 3804.48,-141.68 3816.16,-139.4 3826.63,-137.04"/>
<polygon fill="midnightblue" stroke="midnightblue" points="2179.68,-184.43 2169.68,-187.95 2179.69,-191.43 2179.68,-184.43"/>
</g>
<!-- Node141 -->
<g id="node43" class="node">
<title>Node141</title>
<g id="a_node43"><a xlink:href="dirent_8h.html" target="_top" xlink:title=" ">
<polygon fill="white" stroke="black" points="3934.65,-118 3934.65,-137 3988.65,-137 3988.65,-118 3934.65,-118"/>
<text text-anchor="middle" x="3961.65" y="-125" font-family="Helvetica,sans-Serif" font-size="10.00">dirent.h</text>
</a>
</g>
</g>
<!-- Node2&#45;&gt;Node141 -->
<g id="edge58" class="edge">
<title>Node2&#45;&gt;Node141</title>
<path fill="none" stroke="midnightblue" d="M2180.06,-187.82C2446.37,-186.67 3750.56,-179.22 3925.65,-143 3931.86,-141.72 3938.36,-139.42 3944.1,-137.03"/>
<polygon fill="midnightblue" stroke="midnightblue" points="2179.93,-184.32 2169.95,-187.86 2179.96,-191.32 2179.93,-184.32"/>
</g>
<!-- Node142 -->
<g id="node44" class="node">
<title>Node142</title>
<g id="a_node44"><a xlink:href="grp_8h.html" target="_top" xlink:title=" ">
<polygon fill="white" stroke="black" points="4007.15,-118 4007.15,-137 4048.15,-137 4048.15,-118 4007.15,-118"/>
<text text-anchor="middle" x="4027.65" y="-125" font-family="Helvetica,sans-Serif" font-size="10.00">grp.h</text>
</a>
</g>
</g>
<!-- Node2&#45;&gt;Node142 -->
<g id="edge60" class="edge">
<title>Node2&#45;&gt;Node142</title>
<path fill="none" stroke="midnightblue" d="M2180.23,-188.06C2453.41,-188.21 3816.5,-186.79 3997.65,-143 4002.94,-141.72 4008.39,-139.43 4013.17,-137.04"/>
<polygon fill="midnightblue" stroke="midnightblue" points="2179.88,-184.56 2169.87,-188.05 2179.87,-191.56 2179.88,-184.56"/>
</g>
<!-- Node143 -->
<g id="node45" class="node">
<title>Node143</title>
<g id="a_node45"><a xlink:href="math_8h.html" target="_top" xlink:title=" ">
<polygon fill="white" stroke="red" points="4066.15,-118 4066.15,-137 4117.15,-137 4117.15,-118 4066.15,-118"/>
<text text-anchor="middle" x="4091.65" y="-125" font-family="Helvetica,sans-Serif" font-size="10.00">math.h</text>
</a>
</g>
</g>
<!-- Node2&#45;&gt;Node143 -->
<g id="edge61" class="edge">
<title>Node2&#45;&gt;Node143</title>
<path fill="none" stroke="midnightblue" d="M2179.97,-187.96C2457.6,-187.61 3869.25,-183.8 4057.65,-143 4063.55,-141.72 4069.7,-139.43 4075.12,-137.04"/>
<polygon fill="midnightblue" stroke="midnightblue" points="2179.82,-184.46 2169.83,-187.98 2179.83,-191.46 2179.82,-184.46"/>
</g>
<!-- Node145 -->
<g id="node46" class="node">
<title>Node145</title>
<g id="a_node46"><a xlink:href="monetary_8h.html" target="_top" xlink:title=" ">
<polygon fill="white" stroke="black" points="4135.15,-118 4135.15,-137 4206.15,-137 4206.15,-118 4135.15,-118"/>
<text text-anchor="middle" x="4170.65" y="-125" font-family="Helvetica,sans-Serif" font-size="10.00">monetary.h</text>
</a>
</g>
</g>
<!-- Node2&#45;&gt;Node145 -->
<g id="edge62" class="edge">
<title>Node2&#45;&gt;Node145</title>
<path fill="none" stroke="midnightblue" d="M2180.24,-187.77C2464.23,-186.27 3929.56,-176.92 4126.65,-143 4134.11,-141.72 4142.02,-139.42 4149.05,-137.03"/>
<polygon fill="midnightblue" stroke="midnightblue" points="2179.86,-184.27 2169.88,-187.82 2179.9,-191.27 2179.86,-184.27"/>
</g>
<!-- Node146 -->
<g id="node47" class="node">
<title>Node146</title>
<g id="a_node47"><a xlink:href="pwd_8h.html" target="_top" xlink:title=" ">
<polygon fill="white" stroke="black" points="4224.65,-118 4224.65,-137 4270.65,-137 4270.65,-118 4224.65,-118"/>
<text text-anchor="middle" x="4247.65" y="-125" font-family="Helvetica,sans-Serif" font-size="10.00">pwd.h</text>
</a>
</g>
</g>
<!-- Node2&#45;&gt;Node146 -->
<g id="edge64" class="edge">
<title>Node2&#45;&gt;Node146</title>
<path fill="none" stroke="midnightblue" d="M2180.11,-188.12C2471.38,-188.68 4011.4,-189.43 4215.65,-143 4221.25,-141.73 4227.04,-139.44 4232.15,-137.04"/>
<polygon fill="midnightblue" stroke="midnightblue" points="2179.89,-184.62 2169.89,-188.1 2179.88,-191.62 2179.89,-184.62"/>
</g>
<!-- Node147 -->
<g id="node48" class="node">
<title>Node147</title>
<g id="a_node48"><a xlink:href="sys_2mman_8h.html" target="_top" xlink:title=" ">
<polygon fill="white" stroke="black" points="4289.15,-118 4289.15,-137 4366.15,-137 4366.15,-118 4289.15,-118"/>
<text text-anchor="middle" x="4327.65" y="-125" font-family="Helvetica,sans-Serif" font-size="10.00">sys/mman.h</text>
</a>
</g>
</g>
<!-- Node2&#45;&gt;Node147 -->
<g id="edge69" class="edge">
<title>Node2&#45;&gt;Node147</title>
<path fill="none" stroke="midnightblue" d="M2180.07,-187.78C2476.19,-186.3 4066.07,-176.85 4279.65,-143 4287.74,-141.72 4296.36,-139.42 4304.03,-137.03"/>
<polygon fill="midnightblue" stroke="midnightblue" points="2179.67,-184.28 2169.68,-187.83 2179.7,-191.28 2179.67,-184.28"/>
</g>
<!-- Node148 -->
<g id="node49" class="node">
<title>Node148</title>
<g id="a_node49"><a xlink:href="ptrace_8h.html" target="_top" xlink:title=" ">
<polygon fill="white" stroke="black" points="4384.65,-118 4384.65,-137 4460.65,-137 4460.65,-118 4384.65,-118"/>
<text text-anchor="middle" x="4422.65" y="-125" font-family="Helvetica,sans-Serif" font-size="10.00">sys/ptrace.h</text>
</a>
</g>
</g>
<!-- Node2&#45;&gt;Node148 -->
<g id="edge70" class="edge">
<title>Node2&#45;&gt;Node148</title>
<path fill="none" stroke="midnightblue" d="M2180.26,-187.84C2484.62,-186.72 4152.15,-178.99 4375.65,-143 4383.58,-141.72 4392.02,-139.43 4399.53,-137.04"/>
<polygon fill="midnightblue" stroke="midnightblue" points="2180,-184.34 2170.02,-187.88 2180.03,-191.34 2180,-184.34"/>
</g>
<!-- Node149 -->
<g id="node50" class="node">
<title>Node149</title>
<g id="a_node50"><a xlink:href="sys_2stat_8h.html" target="_top" xlink:title=" ">
<polygon fill="white" stroke="red" points="4478.65,-118 4478.65,-137 4542.65,-137 4542.65,-118 4478.65,-118"/>
<text text-anchor="middle" x="4510.65" y="-125" font-family="Helvetica,sans-Serif" font-size="10.00">sys/stat.h</text>
</a>
</g>
</g>
<!-- Node2&#45;&gt;Node149 -->
<g id="edge72" class="edge">
<title>Node2&#45;&gt;Node149</title>
<path fill="none" stroke="midnightblue" d="M2179.81,-188C2490.39,-187.87 4236.97,-185.24 4469.65,-143 4476.64,-141.73 4484.02,-139.44 4490.57,-137.05"/>
<polygon fill="midnightblue" stroke="midnightblue" points="2179.79,-184.5 2169.79,-188 2179.79,-191.5 2179.79,-184.5"/>
</g>
<!-- Node3&#45;&gt;Node6 -->
<g id="edge3" class="edge">
<title>Node3&#45;&gt;Node6</title>
<path fill="none" stroke="midnightblue" d="M78.73,-110.82C90.31,-99.52 105.52,-84.69 114.93,-75.51"/>
<polygon fill="midnightblue" stroke="midnightblue" points="76.11,-108.49 71.39,-117.98 81,-113.5 76.11,-108.49"/>
</g>
<!-- Node23&#45;&gt;Node24 -->
<g id="edge8" class="edge">
<title>Node23&#45;&gt;Node24</title>
<path fill="none" stroke="midnightblue" d="M1044.2,-111.15C1057.16,-99.81 1074.33,-84.78 1084.93,-75.51"/>
<polygon fill="midnightblue" stroke="midnightblue" points="1041.62,-108.76 1036.4,-117.98 1046.23,-114.02 1041.62,-108.76"/>
</g>
<!-- Node27&#45;&gt;Node28 -->
<g id="edge11" class="edge">
<title>Node27&#45;&gt;Node28</title>
<path fill="none" stroke="midnightblue" d="M446.62,-111.79C431.85,-100.38 411.89,-84.96 399.67,-75.51"/>
<polygon fill="midnightblue" stroke="midnightblue" points="444.57,-114.63 454.62,-117.98 448.85,-109.09 444.57,-114.63"/>
</g>
<!-- Node94&#45;&gt;Node6 -->
<g id="edge14" class="edge">
<title>Node94&#45;&gt;Node6</title>
<path fill="none" stroke="midnightblue" d="M272.53,-114.88C236.57,-103.32 182.23,-85.84 150.11,-75.51"/>
<polygon fill="midnightblue" stroke="midnightblue" points="271.56,-118.25 282.15,-117.98 273.7,-111.58 271.56,-118.25"/>
</g>
<!-- Node94&#45;&gt;Node28 -->
<g id="edge15" class="edge">
<title>Node94&#45;&gt;Node28</title>
<path fill="none" stroke="midnightblue" d="M328.43,-111.79C343.77,-100.38 364.51,-84.96 377.21,-75.51"/>
<polygon fill="midnightblue" stroke="midnightblue" points="326.05,-109.2 320.12,-117.98 330.23,-114.82 326.05,-109.2"/>
</g>
<!-- Node100&#45;&gt;Node101 -->
<g id="edge19" class="edge">
<title>Node100&#45;&gt;Node101</title>
<path fill="none" stroke="midnightblue" d="M2526.33,-111.47C2539.72,-100.09 2557.63,-84.87 2568.64,-75.51"/>
<polygon fill="midnightblue" stroke="midnightblue" points="2524.04,-108.83 2518.68,-117.98 2528.57,-114.17 2524.04,-108.83"/>
</g>
<!-- Node105&#45;&gt;Node101 -->
<g id="edge21" class="edge">
<title>Node105&#45;&gt;Node101</title>
<path fill="none" stroke="midnightblue" d="M2631.72,-111.47C2618.14,-100.09 2599.98,-84.87 2588.81,-75.51"/>
<polygon fill="midnightblue" stroke="midnightblue" points="2629.57,-114.23 2639.48,-117.98 2634.07,-108.87 2629.57,-114.23"/>
</g>
<!-- Node113&#45;&gt;Node24 -->
<g id="edge26" class="edge">
<title>Node113&#45;&gt;Node24</title>
<path fill="none" stroke="midnightblue" d="M1145.85,-111.15C1132.7,-99.81 1115.27,-84.78 1104.52,-75.51"/>
<polygon fill="midnightblue" stroke="midnightblue" points="1143.91,-114.1 1153.77,-117.98 1148.48,-108.79 1143.91,-114.1"/>
</g>
<!-- Node114&#45;&gt;Node24 -->
<g id="edge28" class="edge">
<title>Node114&#45;&gt;Node24</title>
<path fill="none" stroke="midnightblue" d="M1274.1,-115.31C1229.71,-103.36 1160.63,-84.76 1122.42,-74.47"/>
<polygon fill="midnightblue" stroke="midnightblue" points="1273.42,-118.75 1283.99,-117.98 1275.24,-112 1273.42,-118.75"/>
</g>
<!-- Node115&#45;&gt;Node24 -->
<g id="edge30" class="edge">
<title>Node115&#45;&gt;Node24</title>
<path fill="none" stroke="midnightblue" d="M904.99,-115.43C952.32,-103.35 1026.7,-84.35 1066.8,-74.11"/>
<polygon fill="midnightblue" stroke="midnightblue" points="903.86,-112.11 895.04,-117.98 905.59,-118.89 903.86,-112.11"/>
</g>
<!-- Node117&#45;&gt;Node101 -->
<g id="edge33" class="edge">
<title>Node117&#45;&gt;Node101</title>
<path fill="none" stroke="midnightblue" d="M2751.46,-115.27C2708.05,-103.14 2640.22,-84.2 2603.79,-74.02"/>
<polygon fill="midnightblue" stroke="midnightblue" points="2750.56,-118.66 2761.14,-117.98 2752.45,-111.91 2750.56,-118.66"/>
</g>
<!-- Node118&#45;&gt;Node25 -->
<g id="edge35" class="edge">
<title>Node118&#45;&gt;Node25</title>
<path fill="none" stroke="midnightblue" d="M1959.65,-45.8C1959.65,-36.91 1959.65,-26.78 1959.65,-19.75"/>
<polygon fill="midnightblue" stroke="midnightblue" points="1956.15,-46.08 1959.65,-56.08 1963.15,-46.08 1956.15,-46.08"/>
</g>
<!-- Node119&#45;&gt;Node25 -->
<g id="edge37" class="edge">
<title>Node119&#45;&gt;Node25</title>
<path fill="none" stroke="midnightblue" d="M2018.32,-111.26C2033.5,-96.94 2050.73,-74.93 2039.65,-56 2028.95,-37.71 2007.78,-26.27 1989.9,-19.51"/>
<polygon fill="midnightblue" stroke="midnightblue" points="2015.89,-108.74 2010.73,-117.99 2020.53,-113.98 2015.89,-108.74"/>
</g>
<!-- Node119&#45;&gt;Node118 -->
<g id="edge38" class="edge">
<title>Node119&#45;&gt;Node118</title>
<path fill="none" stroke="midnightblue" d="M1988.23,-109.51C1980.76,-98.39 1971.31,-84.34 1965.37,-75.51"/>
<polygon fill="midnightblue" stroke="midnightblue" points="1985.44,-111.63 1993.92,-117.98 1991.25,-107.72 1985.44,-111.63"/>
</g>
<!-- Node119&#45;&gt;Node120 -->
<g id="edge39" class="edge">
<title>Node119&#45;&gt;Node120</title>
<path fill="none" stroke="midnightblue" d="M2026.81,-113.67C2051.26,-102.13 2086.5,-85.49 2107.64,-75.51"/>
<polygon fill="midnightblue" stroke="midnightblue" points="2025.26,-110.54 2017.71,-117.98 2028.24,-116.87 2025.26,-110.54"/>
</g>
<!-- Node119&#45;&gt;Node122 -->
<g id="edge40" class="edge">
<title>Node119&#45;&gt;Node122</title>
<path fill="none" stroke="midnightblue" d="M1960.64,-115.18C1920.81,-103.61 1859.87,-85.93 1823.97,-75.51"/>
<polygon fill="midnightblue" stroke="midnightblue" points="1959.7,-118.55 1970.28,-117.98 1961.65,-111.83 1959.7,-118.55"/>
</g>
<!-- Node127&#45;&gt;Node24 -->
<g id="edge45" class="edge">
<title>Node127&#45;&gt;Node24</title>
<path fill="none" stroke="midnightblue" d="M1443.64,-116.56C1349.79,-103.23 1187.5,-80.18 1122.63,-70.97"/>
<polygon fill="midnightblue" stroke="midnightblue" points="1443.23,-120.03 1453.62,-117.98 1444.21,-113.1 1443.23,-120.03"/>
</g>
<!-- Node127&#45;&gt;Node128 -->
<g id="edge42" class="edge">
<title>Node127&#45;&gt;Node128</title>
<path fill="none" stroke="midnightblue" d="M1492.13,-112.43C1474.59,-100.96 1450.39,-85.13 1435.67,-75.51"/>
<polygon fill="midnightblue" stroke="midnightblue" points="1490.33,-115.43 1500.62,-117.98 1494.16,-109.57 1490.33,-115.43"/>
</g>
<!-- Node127&#45;&gt;Node129 -->
<g id="edge43" class="edge">
<title>Node127&#45;&gt;Node129</title>
<path fill="none" stroke="midnightblue" d="M1526.54,-109.84C1535.17,-98.67 1546.18,-84.43 1553.08,-75.51"/>
<polygon fill="midnightblue" stroke="midnightblue" points="1523.59,-107.92 1520.25,-117.98 1529.13,-112.2 1523.59,-107.92"/>
</g>
<!-- Node127&#45;&gt;Node130 -->
<g id="edge44" class="edge">
<title>Node127&#45;&gt;Node130</title>
<path fill="none" stroke="midnightblue" d="M1543.59,-114.13C1571.56,-102.57 1612.59,-85.62 1637.06,-75.51"/>
<polygon fill="midnightblue" stroke="midnightblue" points="1542.19,-110.92 1534.29,-117.98 1544.86,-117.39 1542.19,-110.92"/>
</g>
<!-- Node131&#45;&gt;Node122 -->
<g id="edge48" class="edge">
<title>Node131&#45;&gt;Node122</title>
<path fill="none" stroke="midnightblue" d="M1754.45,-110.5C1764.86,-99.24 1778.38,-84.6 1786.79,-75.51"/>
<polygon fill="midnightblue" stroke="midnightblue" points="1751.75,-108.26 1747.53,-117.98 1756.89,-113.01 1751.75,-108.26"/>
</g>
<!-- Node131&#45;&gt;Node130 -->
<g id="edge47" class="edge">
<title>Node131&#45;&gt;Node130</title>
<path fill="none" stroke="midnightblue" d="M1719.39,-111.79C1703.66,-100.38 1682.4,-84.96 1669.38,-75.51"/>
<polygon fill="midnightblue" stroke="midnightblue" points="1717.76,-114.93 1727.91,-117.98 1721.87,-109.27 1717.76,-114.93"/>
</g>
<!-- Node136&#45;&gt;Node6 -->
<g id="edge52" class="edge">
<title>Node136&#45;&gt;Node6</title>
<path fill="none" stroke="midnightblue" d="M167.85,-110.82C156.45,-99.52 141.5,-84.69 132.24,-75.51"/>
<polygon fill="midnightblue" stroke="midnightblue" points="165.49,-113.42 175.06,-117.98 170.42,-108.45 165.49,-113.42"/>
</g>
</g>
</svg>
        <g id="navigator" transform="translate(0 0)" fill="#404254">
                <rect fill="#f2f5e9" fill-opacity="0.5" stroke="#606060" stroke-width=".5" x="0" y="0" width="60" height="60"/>
                <use id="zoomplus" xlink:href="#zoomPlus" x="17" y="9" onmousedown="handleZoom(evt,'in')"/>
                <use id="zoomminus" xlink:href="#zoomMin" x="42" y="9" onmousedown="handleZoom(evt,'out')"/>
                <use id="reset" xlink:href="#resetDef" x="30" y="36" onmousedown="handleReset()"/>
                <g id="arrowUp" xlink:href="#dirArrow" transform="translate(30 24)" onmousedown="handlePan(0,-1)">
                  <use xlink:href="#rim" fill="#404040">
                        <set attributeName="fill" to="#808080" begin="arrowUp.mouseover" end="arrowUp.mouseout"/>
                  </use>
                  <path fill="none" stroke="white" stroke-width="1.5" d="M0,-3.0v7 M-2.5,-0.5L0,-3.0L2.5,-0.5"/>
                </g>
                <g id="arrowRight" xlink:href="#dirArrow" transform="rotate(90) translate(36 -43)" onmousedown="handlePan(1,0)">
                  <use xlink:href="#rim" fill="#404040">
                        <set attributeName="fill" to="#808080" begin="arrowRight.mouseover" end="arrowRight.mouseout"/>
                  </use>
                  <path fill="none" stroke="white" stroke-width="1.5" d="M0,-3.0v7 M-2.5,-0.5L0,-3.0L2.5,-0.5"/>
                </g>
                <g id="arrowDown" xlink:href="#dirArrow" transform="rotate(180) translate(-30 -48)" onmousedown="handlePan(0,1)">
                  <use xlink:href="#rim" fill="#404040">
                        <set attributeName="fill" to="#808080" begin="arrowDown.mouseover" end="arrowDown.mouseout"/>
                  </use>
                  <path fill="none" stroke="white" stroke-width="1.5" d="M0,-3.0v7 M-2.5,-0.5L0,-3.0L2.5,-0.5"/>
                </g>
                <g id="arrowLeft" xlink:href="#dirArrow" transform="rotate(270) translate(-36 17)" onmousedown="handlePan(-1,0)">
                  <use xlink:href="#rim" fill="#404040">
                        <set attributeName="fill" to="#808080" begin="arrowLeft.mouseover" end="arrowLeft.mouseout"/>
                  </use>
                  <path fill="none" stroke="white" stroke-width="1.5" d="M0,-3.0v7 M-2.5,-0.5L0,-3.0L2.5,-0.5"/>
                </g>
        </g>
        <svg viewBox="0 0 15 15" width="100%" height="30px" preserveAspectRatio="xMaxYMin meet">
         <g id="arrow_out" transform="scale(0.3 0.3)">
          <a xlink:href="time64_8h__dep__incl_org.svg" target="_base">
           <rect id="button" ry="5" rx="5" y="6" x="6" height="38" width="38"
                fill="#f2f5e9" fill-opacity="0.5" stroke="#606060" stroke-width="1.0"/>
           <path id="arrow"
             d="M 11.500037,31.436501 C 11.940474,20.09759 22.043105,11.32322 32.158766,21.979434 L 37.068811,17.246167 C 37.068811,17.246167 37.088388,32 37.088388,32 L 22.160133,31.978069 C 22.160133,31.978069 26.997745,27.140456 26.997745,27.140456 C 18.528582,18.264221 13.291696,25.230495 11.500037,31.436501 z"
             style="fill:#404040;"/>
          </a>
         </g>
        </svg>
</svg>
