<?xml version="1.0" encoding="UTF-8" standalone="no"?>
<!DOCTYPE svg PUBLIC "-//W3C//DTD SVG 1.1//EN"
 "http://www.w3.org/Graphics/SVG/1.1/DTD/svg11.dtd">
<!-- Generated by graphviz version 2.44.1 (0)
 -->
<!-- Title: protocols/timed.h Pages: 1 -->
<!--zoomable 420 -->
<svg id="main" version="1.1" xmlns="http://www.w3.org/2000/svg" xmlns:xlink="http://www.w3.org/1999/xlink" xml:space="preserve" onload="init(evt)">
<style type="text/css"><![CDATA[
.edge:hover path { stroke: red; }
.edge:hover polygon { stroke: red; fill: red; }
]]></style>
<script type="text/javascript"><![CDATA[
var edges = document.getElementsByTagName('g');
if (edges && edges.length) {
  for (var i=0;i<edges.length;i++) {
    if (edges[i].id.substr(0,4)=='edge') {
      edges[i].setAttribute('class','edge');
    }
  }
}
]]></script>
        <defs>
                <circle id="rim" cx="0" cy="0" r="7"/>
                <circle id="rim2" cx="0" cy="0" r="3.5"/>
                <g id="zoomPlus">
                        <use xlink:href="#rim" fill="#404040">
                                <set attributeName="fill" to="#808080" begin="zoomplus.mouseover" end="zoomplus.mouseout"/>
                        </use>
                        <path d="M-4,0h8M0,-4v8" fill="none" stroke="white" stroke-width="1.5" pointer-events="none"/>
                </g>
                <g id="zoomMin">
                        <use xlink:href="#rim" fill="#404040">
                                <set attributeName="fill" to="#808080" begin="zoomminus.mouseover" end="zoomminus.mouseout"/>
                        </use>
                        <path d="M-4,0h8" fill="none" stroke="white" stroke-width="1.5" pointer-events="none"/>
                </g>
                <g id="dirArrow">
                        <path fill="none" stroke="white" stroke-width="1.5" d="M0,-3.0v7 M-2.5,-0.5L0,-3.0L2.5,-0.5"/>
                </g>
               <g id="resetDef">
                       <use xlink:href="#rim2" fill="#404040">
                               <set attributeName="fill" to="#808080" begin="reset.mouseover" end="reset.mouseout"/>
                       </use>
               </g>
        </defs>

<script type="text/javascript">
var viewWidth = 1190;
var viewHeight = 420;
var sectionId = 'dynsection-0';
</script>
<script xlink:href="svgpan.js"/>
<svg id="graph" class="graph">
<g id="viewport">
<title>protocols/timed.h</title>
<polygon fill="white" stroke="transparent" points="-4,4 -4,-416 1185.64,-416 1185.64,4 -4,4"/>
<!-- Node1 -->
<g id="node1" class="node">
<title>Node1</title>
<g id="a_node1"><a xlink:title=" ">
<polygon fill="#bfbfbf" stroke="black" points="480.64,-392.5 480.64,-411.5 582.64,-411.5 582.64,-392.5 480.64,-392.5"/>
<text text-anchor="middle" x="531.64" y="-399.5" font-family="Helvetica,sans-Serif" font-size="10.00">protocols/timed.h</text>
</a>
</g>
</g>
<!-- Node2 -->
<g id="node2" class="node">
<title>Node2</title>
<g id="a_node2"><a xlink:href="sys_2types_8h.html" target="_top" xlink:title=" ">
<polygon fill="white" stroke="black" points="750.64,-280.5 750.64,-299.5 822.64,-299.5 822.64,-280.5 750.64,-280.5"/>
<text text-anchor="middle" x="786.64" y="-287.5" font-family="Helvetica,sans-Serif" font-size="10.00">sys/types.h</text>
</a>
</g>
</g>
<!-- Node1&#45;&gt;Node2 -->
<g id="edge1" class="edge">
<title>Node1&#45;&gt;Node2</title>
<path fill="none" stroke="midnightblue" d="M551.65,-392.37C596.44,-373.05 704.91,-326.26 757.32,-303.65"/>
<polygon fill="midnightblue" stroke="midnightblue" points="758.93,-306.77 766.73,-299.59 756.16,-300.34 758.93,-306.77"/>
</g>
<!-- Node19 -->
<g id="node19" class="node">
<title>Node19</title>
<g id="a_node19"><a xlink:href="sys_2time_8h.html" target="_top" xlink:title=" ">
<polygon fill="white" stroke="black" points="466.64,-336.5 466.64,-355.5 534.64,-355.5 534.64,-336.5 466.64,-336.5"/>
<text text-anchor="middle" x="500.64" y="-343.5" font-family="Helvetica,sans-Serif" font-size="10.00">sys/time.h</text>
</a>
</g>
</g>
<!-- Node1&#45;&gt;Node19 -->
<g id="edge25" class="edge">
<title>Node1&#45;&gt;Node19</title>
<path fill="none" stroke="midnightblue" d="M526.53,-392.08C522.24,-384.61 515.99,-373.72 510.7,-364.52"/>
<polygon fill="midnightblue" stroke="midnightblue" points="513.68,-362.68 505.67,-355.75 507.61,-366.17 513.68,-362.68"/>
</g>
<!-- Node3 -->
<g id="node3" class="node">
<title>Node3</title>
<g id="a_node3"><a xlink:href="features_8h.html" target="_top" xlink:title=" ">
<polygon fill="white" stroke="black" points="379.64,-112.5 379.64,-131.5 445.64,-131.5 445.64,-112.5 379.64,-112.5"/>
<text text-anchor="middle" x="412.64" y="-119.5" font-family="Helvetica,sans-Serif" font-size="10.00">features.h</text>
</a>
</g>
</g>
<!-- Node2&#45;&gt;Node3 -->
<g id="edge2" class="edge">
<title>Node2&#45;&gt;Node3</title>
<path fill="none" stroke="midnightblue" d="M767.32,-280.42C705.89,-253.16 514.81,-168.35 441.6,-135.85"/>
<polygon fill="midnightblue" stroke="midnightblue" points="442.63,-132.48 432.07,-131.62 439.79,-138.88 442.63,-132.48"/>
</g>
<!-- Node10 -->
<g id="node10" class="node">
<title>Node10</title>
<g id="a_node10"><a xlink:href="bits_2types_8h.html" target="_top" xlink:title=" ">
<polygon fill="white" stroke="black" points="665.64,-168.5 665.64,-187.5 739.64,-187.5 739.64,-168.5 665.64,-168.5"/>
<text text-anchor="middle" x="702.64" y="-175.5" font-family="Helvetica,sans-Serif" font-size="10.00">bits/types.h</text>
</a>
</g>
</g>
<!-- Node2&#45;&gt;Node10 -->
<g id="edge10" class="edge">
<title>Node2&#45;&gt;Node10</title>
<path fill="none" stroke="midnightblue" d="M822.65,-287.28C880.67,-283.66 990.75,-273.07 1014.64,-244 1020.29,-237.13 1020.46,-230.72 1014.64,-224 980.95,-185.1 828.4,-179.07 749.79,-178.61"/>
<polygon fill="midnightblue" stroke="midnightblue" points="749.68,-175.11 739.67,-178.58 749.66,-182.11 749.68,-175.11"/>
</g>
<!-- Node14 -->
<g id="node14" class="node">
<title>Node14</title>
<g id="a_node14"><a xlink:href="clockid__t_8h.html" target="_top" xlink:title=" ">
<polygon fill="white" stroke="black" points="1061.64,-224.5 1061.64,-243.5 1181.64,-243.5 1181.64,-224.5 1061.64,-224.5"/>
<text text-anchor="middle" x="1121.64" y="-231.5" font-family="Helvetica,sans-Serif" font-size="10.00">bits/types/clockid_t.h</text>
</a>
</g>
</g>
<!-- Node2&#45;&gt;Node14 -->
<g id="edge16" class="edge">
<title>Node2&#45;&gt;Node14</title>
<path fill="none" stroke="midnightblue" d="M822.81,-283.17C879.33,-274.06 989.32,-256.33 1058.94,-245.11"/>
<polygon fill="midnightblue" stroke="midnightblue" points="1059.59,-248.55 1068.9,-243.5 1058.47,-241.64 1059.59,-248.55"/>
</g>
<!-- Node15 -->
<g id="node15" class="node">
<title>Node15</title>
<g id="a_node15"><a xlink:href="time__t_8h.html" target="_top" xlink:title=" ">
<polygon fill="white" stroke="black" points="501.64,-224.5 501.64,-243.5 609.64,-243.5 609.64,-224.5 501.64,-224.5"/>
<text text-anchor="middle" x="555.64" y="-231.5" font-family="Helvetica,sans-Serif" font-size="10.00">bits/types/time_t.h</text>
</a>
</g>
</g>
<!-- Node2&#45;&gt;Node15 -->
<g id="edge18" class="edge">
<title>Node2&#45;&gt;Node15</title>
<path fill="none" stroke="midnightblue" d="M750.55,-280.56C710.52,-271.21 645.84,-256.08 602.07,-245.85"/>
<polygon fill="midnightblue" stroke="midnightblue" points="602.78,-242.42 592.25,-243.56 601.19,-249.24 602.78,-242.42"/>
</g>
<!-- Node16 -->
<g id="node16" class="node">
<title>Node16</title>
<g id="a_node16"><a xlink:href="timer__t_8h.html" target="_top" xlink:title=" ">
<polygon fill="white" stroke="black" points="777.64,-224.5 777.64,-243.5 889.64,-243.5 889.64,-224.5 777.64,-224.5"/>
<text text-anchor="middle" x="833.64" y="-231.5" font-family="Helvetica,sans-Serif" font-size="10.00">bits/types/timer_t.h</text>
</a>
</g>
</g>
<!-- Node2&#45;&gt;Node16 -->
<g id="edge20" class="edge">
<title>Node2&#45;&gt;Node16</title>
<path fill="none" stroke="midnightblue" d="M794.41,-280.08C801.18,-272.3 811.19,-260.8 819.4,-251.37"/>
<polygon fill="midnightblue" stroke="midnightblue" points="822.1,-253.59 826.03,-243.75 816.82,-249 822.1,-253.59"/>
</g>
<!-- Node17 -->
<g id="node17" class="node">
<title>Node17</title>
<g id="a_node17"><a xlink:title=" ">
<polygon fill="white" stroke="#bfbfbf" points="703.64,-224.5 703.64,-243.5 759.64,-243.5 759.64,-224.5 703.64,-224.5"/>
<text text-anchor="middle" x="731.64" y="-231.5" font-family="Helvetica,sans-Serif" font-size="10.00">stddef.h</text>
</a>
</g>
</g>
<!-- Node2&#45;&gt;Node17 -->
<g id="edge22" class="edge">
<title>Node2&#45;&gt;Node17</title>
<path fill="none" stroke="midnightblue" d="M777.56,-280.08C769.47,-272.14 757.45,-260.34 747.73,-250.8"/>
<polygon fill="midnightblue" stroke="midnightblue" points="750.14,-248.26 740.56,-243.75 745.24,-253.25 750.14,-248.26"/>
</g>
<!-- Node18 -->
<g id="node18" class="node">
<title>Node18</title>
<g id="a_node18"><a xlink:href="stdint-intn_8h.html" target="_top" xlink:title=" ">
<polygon fill="white" stroke="black" points="908.14,-224.5 908.14,-243.5 1005.14,-243.5 1005.14,-224.5 908.14,-224.5"/>
<text text-anchor="middle" x="956.64" y="-231.5" font-family="Helvetica,sans-Serif" font-size="10.00">bits/stdint&#45;intn.h</text>
</a>
</g>
</g>
<!-- Node2&#45;&gt;Node18 -->
<g id="edge23" class="edge">
<title>Node2&#45;&gt;Node18</title>
<path fill="none" stroke="midnightblue" d="M813.58,-280.44C842.3,-271.32 887.97,-256.81 919.97,-246.65"/>
<polygon fill="midnightblue" stroke="midnightblue" points="921.36,-249.88 929.83,-243.52 919.24,-243.21 921.36,-249.88"/>
</g>
<!-- Node4 -->
<g id="node4" class="node">
<title>Node4</title>
<g id="a_node4"><a xlink:href="stdc-predef_8h.html" target="_top" xlink:title=" ">
<polygon fill="white" stroke="black" points="466.64,-56.5 466.64,-75.5 546.64,-75.5 546.64,-56.5 466.64,-56.5"/>
<text text-anchor="middle" x="506.64" y="-63.5" font-family="Helvetica,sans-Serif" font-size="10.00">stdc&#45;predef.h</text>
</a>
</g>
</g>
<!-- Node3&#45;&gt;Node4 -->
<g id="edge3" class="edge">
<title>Node3&#45;&gt;Node4</title>
<path fill="none" stroke="midnightblue" d="M427.75,-112.32C442.55,-103.82 465.34,-90.73 482.63,-80.8"/>
<polygon fill="midnightblue" stroke="midnightblue" points="484.65,-83.67 491.58,-75.65 481.16,-77.6 484.65,-83.67"/>
</g>
<!-- Node5 -->
<g id="node5" class="node">
<title>Node5</title>
<g id="a_node5"><a xlink:href="cdefs_8h.html" target="_top" xlink:title=" ">
<polygon fill="white" stroke="black" points="377.14,-56.5 377.14,-75.5 448.14,-75.5 448.14,-56.5 377.14,-56.5"/>
<text text-anchor="middle" x="412.64" y="-63.5" font-family="Helvetica,sans-Serif" font-size="10.00">sys/cdefs.h</text>
</a>
</g>
</g>
<!-- Node3&#45;&gt;Node5 -->
<g id="edge4" class="edge">
<title>Node3&#45;&gt;Node5</title>
<path fill="none" stroke="midnightblue" d="M407.48,-112.08C405.97,-104.93 405.54,-94.64 406.19,-85.69"/>
<polygon fill="midnightblue" stroke="midnightblue" points="409.66,-86.13 407.51,-75.75 402.72,-85.2 409.66,-86.13"/>
</g>
<!-- Node8 -->
<g id="node8" class="node">
<title>Node8</title>
<g id="a_node8"><a xlink:href="stubs_8h.html" target="_top" xlink:title=" ">
<polygon fill="white" stroke="black" points="280.14,-56.5 280.14,-75.5 353.14,-75.5 353.14,-56.5 280.14,-56.5"/>
<text text-anchor="middle" x="316.64" y="-63.5" font-family="Helvetica,sans-Serif" font-size="10.00">gnu/stubs.h</text>
</a>
</g>
</g>
<!-- Node3&#45;&gt;Node8 -->
<g id="edge8" class="edge">
<title>Node3&#45;&gt;Node8</title>
<path fill="none" stroke="midnightblue" d="M397.22,-112.32C382.1,-103.82 358.83,-90.73 341.17,-80.8"/>
<polygon fill="midnightblue" stroke="midnightblue" points="342.46,-77.51 332.03,-75.65 339.03,-83.61 342.46,-77.51"/>
</g>
<!-- Node5&#45;&gt;Node3 -->
<g id="edge5" class="edge">
<title>Node5&#45;&gt;Node3</title>
<path fill="none" stroke="midnightblue" d="M417.78,-75.75C419.3,-82.86 419.75,-93.14 419.12,-102.1"/>
<polygon fill="midnightblue" stroke="midnightblue" points="415.64,-101.71 417.81,-112.08 422.58,-102.62 415.64,-101.71"/>
</g>
<!-- Node6 -->
<g id="node6" class="node">
<title>Node6</title>
<g id="a_node6"><a xlink:href="wordsize_8h.html" target="_top" xlink:title=" ">
<polygon fill="white" stroke="black" points="509.64,-0.5 509.64,-19.5 599.64,-19.5 599.64,-0.5 509.64,-0.5"/>
<text text-anchor="middle" x="554.64" y="-7.5" font-family="Helvetica,sans-Serif" font-size="10.00">bits/wordsize.h</text>
</a>
</g>
</g>
<!-- Node5&#45;&gt;Node6 -->
<g id="edge6" class="edge">
<title>Node5&#45;&gt;Node6</title>
<path fill="none" stroke="midnightblue" d="M435.14,-56.44C458.72,-47.48 495.97,-33.31 522.61,-23.18"/>
<polygon fill="midnightblue" stroke="midnightblue" points="524.15,-26.34 532.25,-19.52 521.66,-19.8 524.15,-26.34"/>
</g>
<!-- Node7 -->
<g id="node7" class="node">
<title>Node7</title>
<g id="a_node7"><a xlink:href="long-double_8h.html" target="_top" xlink:title=" ">
<polygon fill="white" stroke="black" points="367.64,-0.5 367.64,-19.5 471.64,-19.5 471.64,-0.5 367.64,-0.5"/>
<text text-anchor="middle" x="419.64" y="-7.5" font-family="Helvetica,sans-Serif" font-size="10.00">bits/long&#45;double.h</text>
</a>
</g>
</g>
<!-- Node5&#45;&gt;Node7 -->
<g id="edge7" class="edge">
<title>Node5&#45;&gt;Node7</title>
<path fill="none" stroke="midnightblue" d="M413.8,-56.08C414.73,-48.93 416.06,-38.64 417.22,-29.69"/>
<polygon fill="midnightblue" stroke="midnightblue" points="420.69,-30.12 418.51,-19.75 413.75,-29.22 420.69,-30.12"/>
</g>
<!-- Node9 -->
<g id="node9" class="node">
<title>Node9</title>
<g id="a_node9"><a xlink:title=" ">
<polygon fill="white" stroke="#bfbfbf" points="260.14,-0.5 260.14,-19.5 349.14,-19.5 349.14,-0.5 260.14,-0.5"/>
<text text-anchor="middle" x="304.64" y="-7.5" font-family="Helvetica,sans-Serif" font-size="10.00">gnu/stubs&#45;32.h</text>
</a>
</g>
</g>
<!-- Node8&#45;&gt;Node9 -->
<g id="edge9" class="edge">
<title>Node8&#45;&gt;Node9</title>
<path fill="none" stroke="midnightblue" d="M314.66,-56.08C313.07,-48.93 310.79,-38.64 308.8,-29.69"/>
<polygon fill="midnightblue" stroke="midnightblue" points="312.17,-28.75 306.59,-19.75 305.34,-30.27 312.17,-28.75"/>
</g>
<!-- Node10&#45;&gt;Node3 -->
<g id="edge11" class="edge">
<title>Node10&#45;&gt;Node3</title>
<path fill="none" stroke="midnightblue" d="M665.62,-170.11C612,-160.12 512.94,-141.68 455.99,-131.07"/>
<polygon fill="midnightblue" stroke="midnightblue" points="456.33,-127.58 445.86,-129.19 455.05,-134.46 456.33,-127.58"/>
</g>
<!-- Node10&#45;&gt;Node6 -->
<g id="edge12" class="edge">
<title>Node10&#45;&gt;Node6</title>
<path fill="none" stroke="midnightblue" d="M665.57,-169.82C642.3,-163.52 613.29,-152.11 594.64,-132 567.78,-103.03 558.93,-55.6 556.04,-29.56"/>
<polygon fill="midnightblue" stroke="midnightblue" points="559.51,-29.17 555.1,-19.53 552.54,-29.81 559.51,-29.17"/>
</g>
<!-- Node11 -->
<g id="node11" class="node">
<title>Node11</title>
<g id="a_node11"><a xlink:href="timesize_8h.html" target="_top" xlink:title=" ">
<polygon fill="white" stroke="black" points="603.14,-112.5 603.14,-131.5 692.14,-131.5 692.14,-112.5 603.14,-112.5"/>
<text text-anchor="middle" x="647.64" y="-119.5" font-family="Helvetica,sans-Serif" font-size="10.00">bits/timesize.h</text>
</a>
</g>
</g>
<!-- Node10&#45;&gt;Node11 -->
<g id="edge13" class="edge">
<title>Node10&#45;&gt;Node11</title>
<path fill="none" stroke="midnightblue" d="M693.56,-168.08C685.47,-160.14 673.45,-148.34 663.73,-138.8"/>
<polygon fill="midnightblue" stroke="midnightblue" points="666.14,-136.26 656.56,-131.75 661.24,-141.25 666.14,-136.26"/>
</g>
<!-- Node12 -->
<g id="node12" class="node">
<title>Node12</title>
<g id="a_node12"><a xlink:href="typesizes_8h.html" target="_top" xlink:title=" ">
<polygon fill="white" stroke="black" points="710.14,-112.5 710.14,-131.5 803.14,-131.5 803.14,-112.5 710.14,-112.5"/>
<text text-anchor="middle" x="756.64" y="-119.5" font-family="Helvetica,sans-Serif" font-size="10.00">bits/typesizes.h</text>
</a>
</g>
</g>
<!-- Node10&#45;&gt;Node12 -->
<g id="edge14" class="edge">
<title>Node10&#45;&gt;Node12</title>
<path fill="none" stroke="midnightblue" d="M711.56,-168.08C719.42,-160.22 731.08,-148.57 740.56,-139.08"/>
<polygon fill="midnightblue" stroke="midnightblue" points="743.3,-141.3 747.89,-131.75 738.35,-136.35 743.3,-141.3"/>
</g>
<!-- Node13 -->
<g id="node13" class="node">
<title>Node13</title>
<g id="a_node13"><a xlink:href="time64_8h.html" target="_top" xlink:title=" ">
<polygon fill="white" stroke="black" points="821.14,-112.5 821.14,-131.5 902.14,-131.5 902.14,-112.5 821.14,-112.5"/>
<text text-anchor="middle" x="861.64" y="-119.5" font-family="Helvetica,sans-Serif" font-size="10.00">bits/time64.h</text>
</a>
</g>
</g>
<!-- Node10&#45;&gt;Node13 -->
<g id="edge15" class="edge">
<title>Node10&#45;&gt;Node13</title>
<path fill="none" stroke="midnightblue" d="M727.84,-168.44C754.59,-159.36 797.05,-144.94 826.95,-134.78"/>
<polygon fill="midnightblue" stroke="midnightblue" points="828.22,-138.05 836.57,-131.52 825.97,-131.42 828.22,-138.05"/>
</g>
<!-- Node14&#45;&gt;Node10 -->
<g id="edge17" class="edge">
<title>Node14&#45;&gt;Node10</title>
<path fill="none" stroke="midnightblue" d="M1061.61,-225.26C977.65,-214.44 826.85,-195.01 750.19,-185.13"/>
<polygon fill="midnightblue" stroke="midnightblue" points="750.25,-181.61 739.88,-183.8 749.35,-188.55 750.25,-181.61"/>
</g>
<!-- Node15&#45;&gt;Node10 -->
<g id="edge19" class="edge">
<title>Node15&#45;&gt;Node10</title>
<path fill="none" stroke="midnightblue" d="M578.94,-224.44C603.45,-215.44 642.24,-201.19 669.84,-191.05"/>
<polygon fill="midnightblue" stroke="midnightblue" points="671.28,-194.25 679.46,-187.52 668.87,-187.68 671.28,-194.25"/>
</g>
<!-- Node16&#45;&gt;Node10 -->
<g id="edge21" class="edge">
<title>Node16&#45;&gt;Node10</title>
<path fill="none" stroke="midnightblue" d="M812.89,-224.44C791.33,-215.56 757.38,-201.56 732.85,-191.45"/>
<polygon fill="midnightblue" stroke="midnightblue" points="733.88,-188.09 723.3,-187.52 731.22,-194.56 733.88,-188.09"/>
</g>
<!-- Node18&#45;&gt;Node10 -->
<g id="edge24" class="edge">
<title>Node18&#45;&gt;Node10</title>
<path fill="none" stroke="midnightblue" d="M916.4,-224.44C871.08,-214.81 797.53,-199.17 749.63,-188.99"/>
<polygon fill="midnightblue" stroke="midnightblue" points="750.32,-185.56 739.81,-186.9 748.86,-192.4 750.32,-185.56"/>
</g>
<!-- Node19&#45;&gt;Node3 -->
<g id="edge26" class="edge">
<title>Node19&#45;&gt;Node3</title>
<path fill="none" stroke="midnightblue" d="M466.53,-342.95C366.98,-336.2 80.12,-311.19 20.64,-244 -1.81,-218.63 -7.93,-193.27 14.64,-168 37.97,-141.89 270.95,-129.01 369.25,-124.7"/>
<polygon fill="midnightblue" stroke="midnightblue" points="369.6,-128.19 379.44,-124.27 369.3,-121.2 369.6,-128.19"/>
</g>
<!-- Node19&#45;&gt;Node10 -->
<g id="edge27" class="edge">
<title>Node19&#45;&gt;Node10</title>
<path fill="none" stroke="midnightblue" d="M511.22,-336.31C543.81,-309.53 642.98,-228.03 684.28,-194.09"/>
<polygon fill="midnightblue" stroke="midnightblue" points="686.67,-196.66 692.17,-187.61 682.22,-191.25 686.67,-196.66"/>
</g>
<!-- Node19&#45;&gt;Node15 -->
<g id="edge28" class="edge">
<title>Node19&#45;&gt;Node15</title>
<path fill="none" stroke="midnightblue" d="M504.96,-336.37C513.96,-318.38 534.87,-276.55 546.83,-252.63"/>
<polygon fill="midnightblue" stroke="midnightblue" points="550.01,-254.1 551.35,-243.59 543.75,-250.97 550.01,-254.1"/>
</g>
<!-- Node20 -->
<g id="node20" class="node">
<title>Node20</title>
<g id="a_node20"><a xlink:href="struct__timeval_8h.html" target="_top" xlink:title=" ">
<polygon fill="white" stroke="black" points="336.14,-224.5 336.14,-243.5 483.14,-243.5 483.14,-224.5 336.14,-224.5"/>
<text text-anchor="middle" x="409.64" y="-231.5" font-family="Helvetica,sans-Serif" font-size="10.00">bits/types/struct_timeval.h</text>
</a>
</g>
</g>
<!-- Node19&#45;&gt;Node20 -->
<g id="edge29" class="edge">
<title>Node19&#45;&gt;Node20</title>
<path fill="none" stroke="midnightblue" d="M493.5,-336.37C478.35,-318.05 442.78,-275.05 423.18,-251.36"/>
<polygon fill="midnightblue" stroke="midnightblue" points="425.82,-249.07 416.75,-243.59 420.43,-253.53 425.82,-249.07"/>
</g>
<!-- Node21 -->
<g id="node21" class="node">
<title>Node21</title>
<g id="a_node21"><a xlink:href="sys_2select_8h.html" target="_top" xlink:title=" ">
<polygon fill="white" stroke="black" points="270.64,-280.5 270.64,-299.5 344.64,-299.5 344.64,-280.5 270.64,-280.5"/>
<text text-anchor="middle" x="307.64" y="-287.5" font-family="Helvetica,sans-Serif" font-size="10.00">sys/select.h</text>
</a>
</g>
</g>
<!-- Node19&#45;&gt;Node21 -->
<g id="edge31" class="edge">
<title>Node19&#45;&gt;Node21</title>
<path fill="none" stroke="midnightblue" d="M470.06,-336.44C437.03,-327.2 384.26,-312.44 347.88,-302.26"/>
<polygon fill="midnightblue" stroke="midnightblue" points="348.66,-298.84 338.08,-299.52 346.77,-305.58 348.66,-298.84"/>
</g>
<!-- Node20&#45;&gt;Node10 -->
<g id="edge30" class="edge">
<title>Node20&#45;&gt;Node10</title>
<path fill="none" stroke="midnightblue" d="M456.07,-224.44C510.49,-214.41 600.21,-197.88 655.11,-187.76"/>
<polygon fill="midnightblue" stroke="midnightblue" points="656.07,-191.14 665.27,-185.89 654.8,-184.26 656.07,-191.14"/>
</g>
<!-- Node21&#45;&gt;Node3 -->
<g id="edge32" class="edge">
<title>Node21&#45;&gt;Node3</title>
<path fill="none" stroke="midnightblue" d="M270.59,-282.82C230.23,-274.34 173.99,-256.33 194.64,-224 233.17,-163.69 317.97,-138.86 369.71,-129.03"/>
<polygon fill="midnightblue" stroke="midnightblue" points="370.37,-132.47 379.6,-127.26 369.14,-125.58 370.37,-132.47"/>
</g>
<!-- Node21&#45;&gt;Node10 -->
<g id="edge33" class="edge">
<title>Node21&#45;&gt;Node10</title>
<path fill="none" stroke="midnightblue" d="M307.39,-280.25C307.49,-266.04 309.96,-238.13 326.64,-224 375.2,-182.87 565.33,-178.21 655.15,-178.39"/>
<polygon fill="midnightblue" stroke="midnightblue" points="655.32,-181.89 665.33,-178.43 655.35,-174.89 655.32,-181.89"/>
</g>
<!-- Node21&#45;&gt;Node15 -->
<g id="edge37" class="edge">
<title>Node21&#45;&gt;Node15</title>
<path fill="none" stroke="midnightblue" d="M344.77,-280.92C387.79,-271.55 458.84,-256.08 506.43,-245.72"/>
<polygon fill="midnightblue" stroke="midnightblue" points="507.18,-249.13 516.21,-243.59 505.69,-242.29 507.18,-249.13"/>
</g>
<!-- Node21&#45;&gt;Node20 -->
<g id="edge38" class="edge">
<title>Node21&#45;&gt;Node20</title>
<path fill="none" stroke="midnightblue" d="M324.03,-280.32C340.32,-271.7 365.51,-258.36 384.36,-248.39"/>
<polygon fill="midnightblue" stroke="midnightblue" points="386.1,-251.43 393.3,-243.65 382.82,-245.24 386.1,-251.43"/>
</g>
<!-- Node22 -->
<g id="node22" class="node">
<title>Node22</title>
<g id="a_node22"><a xlink:href="bits_2select_8h.html" target="_top" xlink:title=" ">
<polygon fill="white" stroke="black" points="203.64,-224.5 203.64,-243.5 279.64,-243.5 279.64,-224.5 203.64,-224.5"/>
<text text-anchor="middle" x="241.64" y="-231.5" font-family="Helvetica,sans-Serif" font-size="10.00">bits/select.h</text>
</a>
</g>
</g>
<!-- Node21&#45;&gt;Node22 -->
<g id="edge34" class="edge">
<title>Node21&#45;&gt;Node22</title>
<path fill="none" stroke="midnightblue" d="M297.04,-280.32C287.19,-272.26 272.29,-260.08 260.43,-250.37"/>
<polygon fill="midnightblue" stroke="midnightblue" points="262.4,-247.46 252.44,-243.83 257.96,-252.88 262.4,-247.46"/>
</g>
<!-- Node23 -->
<g id="node23" class="node">
<title>Node23</title>
<g id="a_node23"><a xlink:href="sigset__t_8h.html" target="_top" xlink:title=" ">
<polygon fill="white" stroke="black" points="30.14,-224.5 30.14,-243.5 145.14,-243.5 145.14,-224.5 30.14,-224.5"/>
<text text-anchor="middle" x="87.64" y="-231.5" font-family="Helvetica,sans-Serif" font-size="10.00">bits/types/sigset_t.h</text>
</a>
</g>
</g>
<!-- Node21&#45;&gt;Node23 -->
<g id="edge35" class="edge">
<title>Node21&#45;&gt;Node23</title>
<path fill="none" stroke="midnightblue" d="M272.78,-280.44C234.73,-271.1 173.69,-256.12 132.18,-245.93"/>
<polygon fill="midnightblue" stroke="midnightblue" points="132.89,-242.5 122.34,-243.52 131.22,-249.3 132.89,-242.5"/>
</g>
<!-- Node24 -->
<g id="node24" class="node">
<title>Node24</title>
<g id="a_node24"><a xlink:href="____sigset__t_8h.html" target="_top" xlink:title=" ">
<polygon fill="white" stroke="black" points="24.14,-168.5 24.14,-187.5 149.14,-187.5 149.14,-168.5 24.14,-168.5"/>
<text text-anchor="middle" x="86.64" y="-175.5" font-family="Helvetica,sans-Serif" font-size="10.00">bits/types/__sigset_t.h</text>
</a>
</g>
</g>
<!-- Node23&#45;&gt;Node24 -->
<g id="edge36" class="edge">
<title>Node23&#45;&gt;Node24</title>
<path fill="none" stroke="midnightblue" d="M87.48,-224.08C87.35,-217.01 87.16,-206.86 87,-197.99"/>
<polygon fill="midnightblue" stroke="midnightblue" points="90.49,-197.68 86.81,-187.75 83.49,-197.81 90.49,-197.68"/>
</g>
</g>
</svg>
        <g id="navigator" transform="translate(0 0)" fill="#404254">
                <rect fill="#f2f5e9" fill-opacity="0.5" stroke="#606060" stroke-width=".5" x="0" y="0" width="60" height="60"/>
                <use id="zoomplus" xlink:href="#zoomPlus" x="17" y="9" onmousedown="handleZoom(evt,'in')"/>
                <use id="zoomminus" xlink:href="#zoomMin" x="42" y="9" onmousedown="handleZoom(evt,'out')"/>
                <use id="reset" xlink:href="#resetDef" x="30" y="36" onmousedown="handleReset()"/>
                <g id="arrowUp" xlink:href="#dirArrow" transform="translate(30 24)" onmousedown="handlePan(0,-1)">
                  <use xlink:href="#rim" fill="#404040">
                        <set attributeName="fill" to="#808080" begin="arrowUp.mouseover" end="arrowUp.mouseout"/>
                  </use>
                  <path fill="none" stroke="white" stroke-width="1.5" d="M0,-3.0v7 M-2.5,-0.5L0,-3.0L2.5,-0.5"/>
                </g>
                <g id="arrowRight" xlink:href="#dirArrow" transform="rotate(90) translate(36 -43)" onmousedown="handlePan(1,0)">
                  <use xlink:href="#rim" fill="#404040">
                        <set attributeName="fill" to="#808080" begin="arrowRight.mouseover" end="arrowRight.mouseout"/>
                  </use>
                  <path fill="none" stroke="white" stroke-width="1.5" d="M0,-3.0v7 M-2.5,-0.5L0,-3.0L2.5,-0.5"/>
                </g>
                <g id="arrowDown" xlink:href="#dirArrow" transform="rotate(180) translate(-30 -48)" onmousedown="handlePan(0,1)">
                  <use xlink:href="#rim" fill="#404040">
                        <set attributeName="fill" to="#808080" begin="arrowDown.mouseover" end="arrowDown.mouseout"/>
                  </use>
                  <path fill="none" stroke="white" stroke-width="1.5" d="M0,-3.0v7 M-2.5,-0.5L0,-3.0L2.5,-0.5"/>
                </g>
                <g id="arrowLeft" xlink:href="#dirArrow" transform="rotate(270) translate(-36 17)" onmousedown="handlePan(-1,0)">
                  <use xlink:href="#rim" fill="#404040">
                        <set attributeName="fill" to="#808080" begin="arrowLeft.mouseover" end="arrowLeft.mouseout"/>
                  </use>
                  <path fill="none" stroke="white" stroke-width="1.5" d="M0,-3.0v7 M-2.5,-0.5L0,-3.0L2.5,-0.5"/>
                </g>
        </g>
        <svg viewBox="0 0 15 15" width="100%" height="30px" preserveAspectRatio="xMaxYMin meet">
         <g id="arrow_out" transform="scale(0.3 0.3)">
          <a xlink:href="timed_8h__incl_org.svg" target="_base">
           <rect id="button" ry="5" rx="5" y="6" x="6" height="38" width="38"
                fill="#f2f5e9" fill-opacity="0.5" stroke="#606060" stroke-width="1.0"/>
           <path id="arrow"
             d="M 11.500037,31.436501 C 11.940474,20.09759 22.043105,11.32322 32.158766,21.979434 L 37.068811,17.246167 C 37.068811,17.246167 37.088388,32 37.088388,32 L 22.160133,31.978069 C 22.160133,31.978069 26.997745,27.140456 26.997745,27.140456 C 18.528582,18.264221 13.291696,25.230495 11.500037,31.436501 z"
             style="fill:#404040;"/>
          </a>
         </g>
        </svg>
</svg>
