<?xml version="1.0" encoding="UTF-8" standalone="no"?>
<!DOCTYPE svg PUBLIC "-//W3C//DTD SVG 1.1//EN"
 "http://www.w3.org/Graphics/SVG/1.1/DTD/svg11.dtd">
<!-- Generated by graphviz version 2.44.1 (0)
 -->
<!-- Title: netinet/udp.h Pages: 1 -->
<!--zoomable 364 -->
<svg id="main" version="1.1" xmlns="http://www.w3.org/2000/svg" xmlns:xlink="http://www.w3.org/1999/xlink" xml:space="preserve" onload="init(evt)">
<style type="text/css"><![CDATA[
.edge:hover path { stroke: red; }
.edge:hover polygon { stroke: red; fill: red; }
]]></style>
<script type="text/javascript"><![CDATA[
var edges = document.getElementsByTagName('g');
if (edges && edges.length) {
  for (var i=0;i<edges.length;i++) {
    if (edges[i].id.substr(0,4)=='edge') {
      edges[i].setAttribute('class','edge');
    }
  }
}
]]></script>
        <defs>
                <circle id="rim" cx="0" cy="0" r="7"/>
                <circle id="rim2" cx="0" cy="0" r="3.5"/>
                <g id="zoomPlus">
                        <use xlink:href="#rim" fill="#404040">
                                <set attributeName="fill" to="#808080" begin="zoomplus.mouseover" end="zoomplus.mouseout"/>
                        </use>
                        <path d="M-4,0h8M0,-4v8" fill="none" stroke="white" stroke-width="1.5" pointer-events="none"/>
                </g>
                <g id="zoomMin">
                        <use xlink:href="#rim" fill="#404040">
                                <set attributeName="fill" to="#808080" begin="zoomminus.mouseover" end="zoomminus.mouseout"/>
                        </use>
                        <path d="M-4,0h8" fill="none" stroke="white" stroke-width="1.5" pointer-events="none"/>
                </g>
                <g id="dirArrow">
                        <path fill="none" stroke="white" stroke-width="1.5" d="M0,-3.0v7 M-2.5,-0.5L0,-3.0L2.5,-0.5"/>
                </g>
               <g id="resetDef">
                       <use xlink:href="#rim2" fill="#404040">
                               <set attributeName="fill" to="#808080" begin="reset.mouseover" end="reset.mouseout"/>
                       </use>
               </g>
        </defs>

<script type="text/javascript">
var viewWidth = 946;
var viewHeight = 364;
var sectionId = 'dynsection-0';
</script>
<script xlink:href="svgpan.js"/>
<svg id="graph" class="graph">
<g id="viewport">
<title>netinet/udp.h</title>
<polygon fill="white" stroke="transparent" points="-4,4 -4,-360 941.95,-360 941.95,4 -4,4"/>
<!-- Node1 -->
<g id="node1" class="node">
<title>Node1</title>
<g id="a_node1"><a xlink:title=" ">
<polygon fill="#bfbfbf" stroke="black" points="414.74,-336.5 414.74,-355.5 495.74,-355.5 495.74,-336.5 414.74,-336.5"/>
<text text-anchor="middle" x="455.24" y="-343.5" font-family="Helvetica,sans-Serif" font-size="10.00">netinet/udp.h</text>
</a>
</g>
</g>
<!-- Node2 -->
<g id="node2" class="node">
<title>Node2</title>
<g id="a_node2"><a xlink:href="sys_2types_8h.html" target="_top" xlink:title=" ">
<polygon fill="white" stroke="black" points="215.24,-280.5 215.24,-299.5 287.24,-299.5 287.24,-280.5 215.24,-280.5"/>
<text text-anchor="middle" x="251.24" y="-287.5" font-family="Helvetica,sans-Serif" font-size="10.00">sys/types.h</text>
</a>
</g>
</g>
<!-- Node1&#45;&gt;Node2 -->
<g id="edge1" class="edge">
<title>Node1&#45;&gt;Node2</title>
<path fill="none" stroke="midnightblue" d="M422.91,-336.44C387.85,-327.16 331.74,-312.31 293.27,-302.13"/>
<polygon fill="midnightblue" stroke="midnightblue" points="293.97,-298.69 283.41,-299.52 292.18,-305.46 293.97,-298.69"/>
</g>
<!-- Node19 -->
<g id="node19" class="node">
<title>Node19</title>
<g id="a_node19"><a xlink:href="stdint_8h.html" target="_top" xlink:title=" ">
<polygon fill="white" stroke="black" points="698.74,-280.5 698.74,-299.5 751.74,-299.5 751.74,-280.5 698.74,-280.5"/>
<text text-anchor="middle" x="725.24" y="-287.5" font-family="Helvetica,sans-Serif" font-size="10.00">stdint.h</text>
</a>
</g>
</g>
<!-- Node1&#45;&gt;Node19 -->
<g id="edge25" class="edge">
<title>Node1&#45;&gt;Node19</title>
<path fill="none" stroke="midnightblue" d="M495.95,-336.86C548.22,-326.4 638.14,-308.42 688.43,-298.36"/>
<polygon fill="midnightblue" stroke="midnightblue" points="689.42,-301.73 698.54,-296.34 688.05,-294.87 689.42,-301.73"/>
</g>
<!-- Node3 -->
<g id="node3" class="node">
<title>Node3</title>
<g id="a_node3"><a xlink:href="features_8h.html" target="_top" xlink:title=" ">
<polygon fill="white" stroke="black" points="426.24,-112.5 426.24,-131.5 492.24,-131.5 492.24,-112.5 426.24,-112.5"/>
<text text-anchor="middle" x="459.24" y="-119.5" font-family="Helvetica,sans-Serif" font-size="10.00">features.h</text>
</a>
</g>
</g>
<!-- Node2&#45;&gt;Node3 -->
<g id="edge2" class="edge">
<title>Node2&#45;&gt;Node3</title>
<path fill="none" stroke="midnightblue" d="M214.76,-287.87C152.68,-285.08 30.62,-275.63 4.24,-244 -1.46,-237.17 -1.32,-230.93 4.24,-224 5.88,-221.96 302.46,-157.16 415.85,-132.45"/>
<polygon fill="midnightblue" stroke="midnightblue" points="416.89,-135.8 425.92,-130.25 415.4,-128.96 416.89,-135.8"/>
</g>
<!-- Node10 -->
<g id="node10" class="node">
<title>Node10</title>
<g id="a_node10"><a xlink:href="bits_2types_8h.html" target="_top" xlink:title=" ">
<polygon fill="white" stroke="black" points="470.24,-168.5 470.24,-187.5 544.24,-187.5 544.24,-168.5 470.24,-168.5"/>
<text text-anchor="middle" x="507.24" y="-175.5" font-family="Helvetica,sans-Serif" font-size="10.00">bits/types.h</text>
</a>
</g>
</g>
<!-- Node2&#45;&gt;Node10 -->
<g id="edge10" class="edge">
<title>Node2&#45;&gt;Node10</title>
<path fill="none" stroke="midnightblue" d="M215.2,-284.58C165.37,-277.09 84.91,-259.14 116.24,-224 138.77,-198.72 360.86,-185.61 459.94,-180.98"/>
<polygon fill="midnightblue" stroke="midnightblue" points="460.15,-184.47 469.98,-180.52 459.83,-177.48 460.15,-184.47"/>
</g>
<!-- Node14 -->
<g id="node14" class="node">
<title>Node14</title>
<g id="a_node14"><a xlink:href="clockid__t_8h.html" target="_top" xlink:title=" ">
<polygon fill="white" stroke="black" points="125.24,-224.5 125.24,-243.5 245.24,-243.5 245.24,-224.5 125.24,-224.5"/>
<text text-anchor="middle" x="185.24" y="-231.5" font-family="Helvetica,sans-Serif" font-size="10.00">bits/types/clockid_t.h</text>
</a>
</g>
</g>
<!-- Node2&#45;&gt;Node14 -->
<g id="edge16" class="edge">
<title>Node2&#45;&gt;Node14</title>
<path fill="none" stroke="midnightblue" d="M240.63,-280.32C230.78,-272.26 215.89,-260.08 204.02,-250.37"/>
<polygon fill="midnightblue" stroke="midnightblue" points="205.99,-247.46 196.03,-243.83 201.56,-252.88 205.99,-247.46"/>
</g>
<!-- Node15 -->
<g id="node15" class="node">
<title>Node15</title>
<g id="a_node15"><a xlink:href="time__t_8h.html" target="_top" xlink:title=" ">
<polygon fill="white" stroke="black" points="263.24,-224.5 263.24,-243.5 371.24,-243.5 371.24,-224.5 263.24,-224.5"/>
<text text-anchor="middle" x="317.24" y="-231.5" font-family="Helvetica,sans-Serif" font-size="10.00">bits/types/time_t.h</text>
</a>
</g>
</g>
<!-- Node2&#45;&gt;Node15 -->
<g id="edge18" class="edge">
<title>Node2&#45;&gt;Node15</title>
<path fill="none" stroke="midnightblue" d="M261.84,-280.32C271.69,-272.26 286.59,-260.08 298.45,-250.37"/>
<polygon fill="midnightblue" stroke="midnightblue" points="300.92,-252.88 306.44,-243.83 296.48,-247.46 300.92,-252.88"/>
</g>
<!-- Node16 -->
<g id="node16" class="node">
<title>Node16</title>
<g id="a_node16"><a xlink:href="timer__t_8h.html" target="_top" xlink:title=" ">
<polygon fill="white" stroke="black" points="389.24,-224.5 389.24,-243.5 501.24,-243.5 501.24,-224.5 389.24,-224.5"/>
<text text-anchor="middle" x="445.24" y="-231.5" font-family="Helvetica,sans-Serif" font-size="10.00">bits/types/timer_t.h</text>
</a>
</g>
</g>
<!-- Node2&#45;&gt;Node16 -->
<g id="edge20" class="edge">
<title>Node2&#45;&gt;Node16</title>
<path fill="none" stroke="midnightblue" d="M281.98,-280.44C315.18,-271.2 368.23,-256.44 404.8,-246.26"/>
<polygon fill="midnightblue" stroke="midnightblue" points="405.95,-249.57 414.64,-243.52 404.07,-242.83 405.95,-249.57"/>
</g>
<!-- Node17 -->
<g id="node17" class="node">
<title>Node17</title>
<g id="a_node17"><a xlink:title=" ">
<polygon fill="white" stroke="#bfbfbf" points="13.24,-224.5 13.24,-243.5 69.24,-243.5 69.24,-224.5 13.24,-224.5"/>
<text text-anchor="middle" x="41.24" y="-231.5" font-family="Helvetica,sans-Serif" font-size="10.00">stddef.h</text>
</a>
</g>
</g>
<!-- Node2&#45;&gt;Node17 -->
<g id="edge22" class="edge">
<title>Node2&#45;&gt;Node17</title>
<path fill="none" stroke="midnightblue" d="M217.96,-280.44C180.19,-270.73 118.71,-254.92 79.13,-244.74"/>
<polygon fill="midnightblue" stroke="midnightblue" points="79.87,-241.32 69.32,-242.22 78.13,-248.1 79.87,-241.32"/>
</g>
<!-- Node18 -->
<g id="node18" class="node">
<title>Node18</title>
<g id="a_node18"><a xlink:href="stdint-intn_8h.html" target="_top" xlink:title=" ">
<polygon fill="white" stroke="black" points="519.74,-224.5 519.74,-243.5 616.74,-243.5 616.74,-224.5 519.74,-224.5"/>
<text text-anchor="middle" x="568.24" y="-231.5" font-family="Helvetica,sans-Serif" font-size="10.00">bits/stdint&#45;intn.h</text>
</a>
</g>
</g>
<!-- Node2&#45;&gt;Node18 -->
<g id="edge23" class="edge">
<title>Node2&#45;&gt;Node18</title>
<path fill="none" stroke="midnightblue" d="M287.29,-282.86C341.44,-273.63 444.32,-256.11 509.43,-245.02"/>
<polygon fill="midnightblue" stroke="midnightblue" points="510.27,-248.43 519.54,-243.3 509.09,-241.52 510.27,-248.43"/>
</g>
<!-- Node4 -->
<g id="node4" class="node">
<title>Node4</title>
<g id="a_node4"><a xlink:href="stdc-predef_8h.html" target="_top" xlink:title=" ">
<polygon fill="white" stroke="black" points="324.24,-56.5 324.24,-75.5 404.24,-75.5 404.24,-56.5 324.24,-56.5"/>
<text text-anchor="middle" x="364.24" y="-63.5" font-family="Helvetica,sans-Serif" font-size="10.00">stdc&#45;predef.h</text>
</a>
</g>
</g>
<!-- Node3&#45;&gt;Node4 -->
<g id="edge3" class="edge">
<title>Node3&#45;&gt;Node4</title>
<path fill="none" stroke="midnightblue" d="M443.97,-112.32C429.02,-103.82 405.98,-90.73 388.51,-80.8"/>
<polygon fill="midnightblue" stroke="midnightblue" points="389.89,-77.55 379.46,-75.65 386.43,-83.64 389.89,-77.55"/>
</g>
<!-- Node5 -->
<g id="node5" class="node">
<title>Node5</title>
<g id="a_node5"><a xlink:href="cdefs_8h.html" target="_top" xlink:title=" ">
<polygon fill="white" stroke="black" points="520.74,-56.5 520.74,-75.5 591.74,-75.5 591.74,-56.5 520.74,-56.5"/>
<text text-anchor="middle" x="556.24" y="-63.5" font-family="Helvetica,sans-Serif" font-size="10.00">sys/cdefs.h</text>
</a>
</g>
</g>
<!-- Node3&#45;&gt;Node5 -->
<g id="edge4" class="edge">
<title>Node3&#45;&gt;Node5</title>
<path fill="none" stroke="midnightblue" d="M469.71,-112.32C483.39,-103.66 507.24,-90.24 526.54,-80.25"/>
<polygon fill="midnightblue" stroke="midnightblue" points="528.25,-83.3 535.58,-75.65 525.08,-77.06 528.25,-83.3"/>
</g>
<!-- Node8 -->
<g id="node8" class="node">
<title>Node8</title>
<g id="a_node8"><a xlink:href="stubs_8h.html" target="_top" xlink:title=" ">
<polygon fill="white" stroke="black" points="422.74,-56.5 422.74,-75.5 495.74,-75.5 495.74,-56.5 422.74,-56.5"/>
<text text-anchor="middle" x="459.24" y="-63.5" font-family="Helvetica,sans-Serif" font-size="10.00">gnu/stubs.h</text>
</a>
</g>
</g>
<!-- Node3&#45;&gt;Node8 -->
<g id="edge8" class="edge">
<title>Node3&#45;&gt;Node8</title>
<path fill="none" stroke="midnightblue" d="M459.24,-112.08C459.24,-105.01 459.24,-94.86 459.24,-85.99"/>
<polygon fill="midnightblue" stroke="midnightblue" points="462.74,-85.75 459.24,-75.75 455.74,-85.75 462.74,-85.75"/>
</g>
<!-- Node5&#45;&gt;Node3 -->
<g id="edge5" class="edge">
<title>Node5&#45;&gt;Node3</title>
<path fill="none" stroke="midnightblue" d="M545.8,-75.65C532.14,-84.31 508.3,-97.73 488.99,-107.73"/>
<polygon fill="midnightblue" stroke="midnightblue" points="487.27,-104.67 479.94,-112.32 490.44,-110.91 487.27,-104.67"/>
</g>
<!-- Node6 -->
<g id="node6" class="node">
<title>Node6</title>
<g id="a_node6"><a xlink:href="wordsize_8h.html" target="_top" xlink:title=" ">
<polygon fill="white" stroke="black" points="694.24,-0.5 694.24,-19.5 784.24,-19.5 784.24,-0.5 694.24,-0.5"/>
<text text-anchor="middle" x="739.24" y="-7.5" font-family="Helvetica,sans-Serif" font-size="10.00">bits/wordsize.h</text>
</a>
</g>
</g>
<!-- Node5&#45;&gt;Node6 -->
<g id="edge6" class="edge">
<title>Node5&#45;&gt;Node6</title>
<path fill="none" stroke="midnightblue" d="M585.23,-56.44C616.42,-47.24 666.17,-32.56 700.65,-22.39"/>
<polygon fill="midnightblue" stroke="midnightblue" points="701.78,-25.7 710.38,-19.52 699.79,-18.99 701.78,-25.7"/>
</g>
<!-- Node7 -->
<g id="node7" class="node">
<title>Node7</title>
<g id="a_node7"><a xlink:href="long-double_8h.html" target="_top" xlink:title=" ">
<polygon fill="white" stroke="black" points="516.24,-0.5 516.24,-19.5 620.24,-19.5 620.24,-0.5 516.24,-0.5"/>
<text text-anchor="middle" x="568.24" y="-7.5" font-family="Helvetica,sans-Serif" font-size="10.00">bits/long&#45;double.h</text>
</a>
</g>
</g>
<!-- Node5&#45;&gt;Node7 -->
<g id="edge7" class="edge">
<title>Node5&#45;&gt;Node7</title>
<path fill="none" stroke="midnightblue" d="M558.22,-56.08C559.81,-48.93 562.1,-38.64 564.08,-29.69"/>
<polygon fill="midnightblue" stroke="midnightblue" points="567.54,-30.27 566.29,-19.75 560.71,-28.75 567.54,-30.27"/>
</g>
<!-- Node9 -->
<g id="node9" class="node">
<title>Node9</title>
<g id="a_node9"><a xlink:title=" ">
<polygon fill="white" stroke="#bfbfbf" points="408.74,-0.5 408.74,-19.5 497.74,-19.5 497.74,-0.5 408.74,-0.5"/>
<text text-anchor="middle" x="453.24" y="-7.5" font-family="Helvetica,sans-Serif" font-size="10.00">gnu/stubs&#45;32.h</text>
</a>
</g>
</g>
<!-- Node8&#45;&gt;Node9 -->
<g id="edge9" class="edge">
<title>Node8&#45;&gt;Node9</title>
<path fill="none" stroke="midnightblue" d="M458.25,-56.08C457.45,-48.93 456.31,-38.64 455.31,-29.69"/>
<polygon fill="midnightblue" stroke="midnightblue" points="458.79,-29.3 454.21,-19.75 451.84,-30.08 458.79,-29.3"/>
</g>
<!-- Node10&#45;&gt;Node3 -->
<g id="edge11" class="edge">
<title>Node10&#45;&gt;Node3</title>
<path fill="none" stroke="midnightblue" d="M499.31,-168.08C492.39,-160.3 482.17,-148.8 473.79,-139.37"/>
<polygon fill="midnightblue" stroke="midnightblue" points="476.28,-136.9 467.02,-131.75 471.04,-141.55 476.28,-136.9"/>
</g>
<!-- Node10&#45;&gt;Node6 -->
<g id="edge12" class="edge">
<title>Node10&#45;&gt;Node6</title>
<path fill="none" stroke="midnightblue" d="M544.41,-174.15C598.89,-169.17 696.56,-156.95 720.24,-132 746.38,-104.45 745.29,-56.46 742.25,-29.95"/>
<polygon fill="midnightblue" stroke="midnightblue" points="745.67,-29.16 740.85,-19.73 738.74,-30.11 745.67,-29.16"/>
</g>
<!-- Node11 -->
<g id="node11" class="node">
<title>Node11</title>
<g id="a_node11"><a xlink:href="timesize_8h.html" target="_top" xlink:title=" ">
<polygon fill="white" stroke="black" points="510.74,-112.5 510.74,-131.5 599.74,-131.5 599.74,-112.5 510.74,-112.5"/>
<text text-anchor="middle" x="555.24" y="-119.5" font-family="Helvetica,sans-Serif" font-size="10.00">bits/timesize.h</text>
</a>
</g>
</g>
<!-- Node10&#45;&gt;Node11 -->
<g id="edge13" class="edge">
<title>Node10&#45;&gt;Node11</title>
<path fill="none" stroke="midnightblue" d="M515.16,-168.08C522.08,-160.3 532.3,-148.8 540.69,-139.37"/>
<polygon fill="midnightblue" stroke="midnightblue" points="543.43,-141.55 547.46,-131.75 538.2,-136.9 543.43,-141.55"/>
</g>
<!-- Node12 -->
<g id="node12" class="node">
<title>Node12</title>
<g id="a_node12"><a xlink:href="typesizes_8h.html" target="_top" xlink:title=" ">
<polygon fill="white" stroke="black" points="617.74,-112.5 617.74,-131.5 710.74,-131.5 710.74,-112.5 617.74,-112.5"/>
<text text-anchor="middle" x="664.24" y="-119.5" font-family="Helvetica,sans-Serif" font-size="10.00">bits/typesizes.h</text>
</a>
</g>
</g>
<!-- Node10&#45;&gt;Node12 -->
<g id="edge14" class="edge">
<title>Node10&#45;&gt;Node12</title>
<path fill="none" stroke="midnightblue" d="M532.11,-168.44C558.53,-159.36 600.45,-144.94 629.98,-134.78"/>
<polygon fill="midnightblue" stroke="midnightblue" points="631.16,-138.08 639.48,-131.52 628.88,-131.46 631.16,-138.08"/>
</g>
<!-- Node13 -->
<g id="node13" class="node">
<title>Node13</title>
<g id="a_node13"><a xlink:href="time64_8h.html" target="_top" xlink:title=" ">
<polygon fill="white" stroke="black" points="326.74,-112.5 326.74,-131.5 407.74,-131.5 407.74,-112.5 326.74,-112.5"/>
<text text-anchor="middle" x="367.24" y="-119.5" font-family="Helvetica,sans-Serif" font-size="10.00">bits/time64.h</text>
</a>
</g>
</g>
<!-- Node10&#45;&gt;Node13 -->
<g id="edge15" class="edge">
<title>Node10&#45;&gt;Node13</title>
<path fill="none" stroke="midnightblue" d="M485.05,-168.44C461.81,-159.48 425.09,-145.31 398.82,-135.18"/>
<polygon fill="midnightblue" stroke="midnightblue" points="399.91,-131.85 389.32,-131.52 397.39,-138.38 399.91,-131.85"/>
</g>
<!-- Node14&#45;&gt;Node10 -->
<g id="edge17" class="edge">
<title>Node14&#45;&gt;Node10</title>
<path fill="none" stroke="midnightblue" d="M236.26,-224.44C297.78,-214.13 400.35,-196.93 460.09,-186.91"/>
<polygon fill="midnightblue" stroke="midnightblue" points="460.72,-190.35 470.01,-185.24 459.57,-183.45 460.72,-190.35"/>
</g>
<!-- Node15&#45;&gt;Node10 -->
<g id="edge19" class="edge">
<title>Node15&#45;&gt;Node10</title>
<path fill="none" stroke="midnightblue" d="M347.34,-224.44C379.86,-215.2 431.82,-200.44 467.63,-190.26"/>
<polygon fill="midnightblue" stroke="midnightblue" points="468.61,-193.62 477.27,-187.52 466.7,-186.88 468.61,-193.62"/>
</g>
<!-- Node16&#45;&gt;Node10 -->
<g id="edge21" class="edge">
<title>Node16&#45;&gt;Node10</title>
<path fill="none" stroke="midnightblue" d="M455.2,-224.32C464.36,-216.34 478.18,-204.31 489.27,-194.65"/>
<polygon fill="midnightblue" stroke="midnightblue" points="491.85,-197.04 497.1,-187.83 487.26,-191.76 491.85,-197.04"/>
</g>
<!-- Node18&#45;&gt;Node10 -->
<g id="edge24" class="edge">
<title>Node18&#45;&gt;Node10</title>
<path fill="none" stroke="midnightblue" d="M558.44,-224.32C549.42,-216.34 535.83,-204.31 524.92,-194.65"/>
<polygon fill="midnightblue" stroke="midnightblue" points="527.02,-191.84 517.22,-187.83 522.38,-197.08 527.02,-191.84"/>
</g>
<!-- Node19&#45;&gt;Node6 -->
<g id="edge30" class="edge">
<title>Node19&#45;&gt;Node6</title>
<path fill="none" stroke="midnightblue" d="M752,-286.09C799.18,-280.44 894.43,-266.52 918.24,-244 940.1,-223.31 937.24,-209.1 937.24,-179 937.24,-179 937.24,-179 937.24,-121 937.24,-55.39 853.13,-28.58 794.55,-17.86"/>
<polygon fill="midnightblue" stroke="midnightblue" points="795.11,-14.4 784.66,-16.16 793.92,-21.3 795.11,-14.4"/>
</g>
<!-- Node19&#45;&gt;Node10 -->
<g id="edge28" class="edge">
<title>Node19&#45;&gt;Node10</title>
<path fill="none" stroke="midnightblue" d="M713.86,-280.33C695.95,-266.96 659.76,-241.08 626.24,-224 599.89,-210.58 568.56,-198.89 544.66,-190.79"/>
<polygon fill="midnightblue" stroke="midnightblue" points="545.5,-187.38 534.91,-187.54 543.29,-194.02 545.5,-187.38"/>
</g>
<!-- Node19&#45;&gt;Node18 -->
<g id="edge31" class="edge">
<title>Node19&#45;&gt;Node18</title>
<path fill="none" stroke="midnightblue" d="M700.36,-280.44C673.95,-271.36 632.02,-256.94 602.5,-246.78"/>
<polygon fill="midnightblue" stroke="midnightblue" points="603.59,-243.46 593,-243.52 601.32,-250.08 603.59,-243.46"/>
</g>
<!-- Node20 -->
<g id="node20" class="node">
<title>Node20</title>
<g id="a_node20"><a xlink:href="libc-header-start_8h.html" target="_top" xlink:title=" ">
<polygon fill="white" stroke="black" points="652.24,-168.5 652.24,-187.5 780.24,-187.5 780.24,-168.5 652.24,-168.5"/>
<text text-anchor="middle" x="716.24" y="-175.5" font-family="Helvetica,sans-Serif" font-size="10.00">bits/libc&#45;header&#45;start.h</text>
</a>
</g>
</g>
<!-- Node19&#45;&gt;Node20 -->
<g id="edge26" class="edge">
<title>Node19&#45;&gt;Node20</title>
<path fill="none" stroke="midnightblue" d="M744.36,-280.34C766.7,-268.92 799.07,-247.5 786.24,-224 778.42,-209.68 763.88,-199.24 750.06,-192.04"/>
<polygon fill="midnightblue" stroke="midnightblue" points="751.24,-188.72 740.71,-187.56 748.22,-195.03 751.24,-188.72"/>
</g>
<!-- Node21 -->
<g id="node21" class="node">
<title>Node21</title>
<g id="a_node21"><a xlink:href="bits_2wchar_8h.html" target="_top" xlink:title=" ">
<polygon fill="white" stroke="black" points="833.74,-224.5 833.74,-243.5 908.74,-243.5 908.74,-224.5 833.74,-224.5"/>
<text text-anchor="middle" x="871.24" y="-231.5" font-family="Helvetica,sans-Serif" font-size="10.00">bits/wchar.h</text>
</a>
</g>
</g>
<!-- Node19&#45;&gt;Node21 -->
<g id="edge29" class="edge">
<title>Node19&#45;&gt;Node21</title>
<path fill="none" stroke="midnightblue" d="M748.37,-280.44C772.72,-271.44 811.25,-257.19 838.66,-247.05"/>
<polygon fill="midnightblue" stroke="midnightblue" points="840.05,-250.27 848.21,-243.52 837.62,-243.7 840.05,-250.27"/>
</g>
<!-- Node22 -->
<g id="node22" class="node">
<title>Node22</title>
<g id="a_node22"><a xlink:href="stdint-uintn_8h.html" target="_top" xlink:title=" ">
<polygon fill="white" stroke="black" points="673.74,-224.5 673.74,-243.5 776.74,-243.5 776.74,-224.5 673.74,-224.5"/>
<text text-anchor="middle" x="725.24" y="-231.5" font-family="Helvetica,sans-Serif" font-size="10.00">bits/stdint&#45;uintn.h</text>
</a>
</g>
</g>
<!-- Node19&#45;&gt;Node22 -->
<g id="edge32" class="edge">
<title>Node19&#45;&gt;Node22</title>
<path fill="none" stroke="midnightblue" d="M725.24,-280.08C725.24,-273.01 725.24,-262.86 725.24,-253.99"/>
<polygon fill="midnightblue" stroke="midnightblue" points="728.74,-253.75 725.24,-243.75 721.74,-253.75 728.74,-253.75"/>
</g>
<!-- Node20&#45;&gt;Node3 -->
<g id="edge27" class="edge">
<title>Node20&#45;&gt;Node3</title>
<path fill="none" stroke="midnightblue" d="M675.52,-168.44C628.21,-158.5 550.5,-142.18 502.24,-132.04"/>
<polygon fill="midnightblue" stroke="midnightblue" points="502.92,-128.6 492.41,-129.97 501.48,-135.45 502.92,-128.6"/>
</g>
<!-- Node22&#45;&gt;Node10 -->
<g id="edge33" class="edge">
<title>Node22&#45;&gt;Node10</title>
<path fill="none" stroke="midnightblue" d="M690.7,-224.44C652.98,-215.1 592.5,-200.12 551.37,-189.93"/>
<polygon fill="midnightblue" stroke="midnightblue" points="552.17,-186.52 541.62,-187.52 550.48,-193.32 552.17,-186.52"/>
</g>
</g>
</svg>
        <g id="navigator" transform="translate(0 0)" fill="#404254">
                <rect fill="#f2f5e9" fill-opacity="0.5" stroke="#606060" stroke-width=".5" x="0" y="0" width="60" height="60"/>
                <use id="zoomplus" xlink:href="#zoomPlus" x="17" y="9" onmousedown="handleZoom(evt,'in')"/>
                <use id="zoomminus" xlink:href="#zoomMin" x="42" y="9" onmousedown="handleZoom(evt,'out')"/>
                <use id="reset" xlink:href="#resetDef" x="30" y="36" onmousedown="handleReset()"/>
                <g id="arrowUp" xlink:href="#dirArrow" transform="translate(30 24)" onmousedown="handlePan(0,-1)">
                  <use xlink:href="#rim" fill="#404040">
                        <set attributeName="fill" to="#808080" begin="arrowUp.mouseover" end="arrowUp.mouseout"/>
                  </use>
                  <path fill="none" stroke="white" stroke-width="1.5" d="M0,-3.0v7 M-2.5,-0.5L0,-3.0L2.5,-0.5"/>
                </g>
                <g id="arrowRight" xlink:href="#dirArrow" transform="rotate(90) translate(36 -43)" onmousedown="handlePan(1,0)">
                  <use xlink:href="#rim" fill="#404040">
                        <set attributeName="fill" to="#808080" begin="arrowRight.mouseover" end="arrowRight.mouseout"/>
                  </use>
                  <path fill="none" stroke="white" stroke-width="1.5" d="M0,-3.0v7 M-2.5,-0.5L0,-3.0L2.5,-0.5"/>
                </g>
                <g id="arrowDown" xlink:href="#dirArrow" transform="rotate(180) translate(-30 -48)" onmousedown="handlePan(0,1)">
                  <use xlink:href="#rim" fill="#404040">
                        <set attributeName="fill" to="#808080" begin="arrowDown.mouseover" end="arrowDown.mouseout"/>
                  </use>
                  <path fill="none" stroke="white" stroke-width="1.5" d="M0,-3.0v7 M-2.5,-0.5L0,-3.0L2.5,-0.5"/>
                </g>
                <g id="arrowLeft" xlink:href="#dirArrow" transform="rotate(270) translate(-36 17)" onmousedown="handlePan(-1,0)">
                  <use xlink:href="#rim" fill="#404040">
                        <set attributeName="fill" to="#808080" begin="arrowLeft.mouseover" end="arrowLeft.mouseout"/>
                  </use>
                  <path fill="none" stroke="white" stroke-width="1.5" d="M0,-3.0v7 M-2.5,-0.5L0,-3.0L2.5,-0.5"/>
                </g>
        </g>
        <svg viewBox="0 0 15 15" width="100%" height="30px" preserveAspectRatio="xMaxYMin meet">
         <g id="arrow_out" transform="scale(0.3 0.3)">
          <a xlink:href="udp_8h__incl_org.svg" target="_base">
           <rect id="button" ry="5" rx="5" y="6" x="6" height="38" width="38"
                fill="#f2f5e9" fill-opacity="0.5" stroke="#606060" stroke-width="1.0"/>
           <path id="arrow"
             d="M 11.500037,31.436501 C 11.940474,20.09759 22.043105,11.32322 32.158766,21.979434 L 37.068811,17.246167 C 37.068811,17.246167 37.088388,32 37.088388,32 L 22.160133,31.978069 C 22.160133,31.978069 26.997745,27.140456 26.997745,27.140456 C 18.528582,18.264221 13.291696,25.230495 11.500037,31.436501 z"
             style="fill:#404040;"/>
          </a>
         </g>
        </svg>
</svg>
