<?xml version="1.0" encoding="UTF-8" standalone="no"?>
<!DOCTYPE svg PUBLIC "-//W3C//DTD SVG 1.1//EN"
 "http://www.w3.org/Graphics/SVG/1.1/DTD/svg11.dtd">
<!-- Generated by graphviz version 2.44.1 (0)
 -->
<!-- Title: bits/uintn&#45;identity.h Pages: 1 -->
<svg width="713pt" height="196pt"
 viewBox="0.00 0.00 712.50 196.00" xmlns="http://www.w3.org/2000/svg" xmlns:xlink="http://www.w3.org/1999/xlink">
<g id="graph0" class="graph" transform="scale(1 1) rotate(0) translate(4 192)">
<title>bits/uintn&#45;identity.h</title>
<polygon fill="white" stroke="transparent" points="-4,4 -4,-192 708.5,-192 708.5,4 -4,4"/>
<!-- Node1 -->
<g id="node1" class="node">
<title>Node1</title>
<g id="a_node1"><a xlink:title=" ">
<polygon fill="#bfbfbf" stroke="black" points="253,-168.5 253,-187.5 364,-187.5 364,-168.5 253,-168.5"/>
<text text-anchor="middle" x="308.5" y="-175.5" font-family="Helvetica,sans-Serif" font-size="10.00">bits/uintn&#45;identity.h</text>
</a>
</g>
</g>
<!-- Node2 -->
<g id="node2" class="node">
<title>Node2</title>
<g id="a_node2"><a xlink:href="endian_8h.html" target="_top" xlink:title=" ">
<polygon fill="white" stroke="black" points="237,-112.5 237,-131.5 296,-131.5 296,-112.5 237,-112.5"/>
<text text-anchor="middle" x="266.5" y="-119.5" font-family="Helvetica,sans-Serif" font-size="10.00">endian.h</text>
</a>
</g>
</g>
<!-- Node1&#45;&gt;Node2 -->
<g id="edge1" class="edge">
<title>Node1&#45;&gt;Node2</title>
<path fill="none" stroke="midnightblue" d="M295.39,-160.14C288.07,-150.74 279.26,-139.4 273.31,-131.75"/>
<polygon fill="midnightblue" stroke="midnightblue" points="292.66,-162.34 301.56,-168.08 298.19,-158.04 292.66,-162.34"/>
</g>
<!-- Node3 -->
<g id="node3" class="node">
<title>Node3</title>
<g id="a_node3"><a xlink:href="netinet_2in_8h.html" target="_top" xlink:title=" ">
<polygon fill="white" stroke="black" points="314.5,-112.5 314.5,-131.5 386.5,-131.5 386.5,-112.5 314.5,-112.5"/>
<text text-anchor="middle" x="350.5" y="-119.5" font-family="Helvetica,sans-Serif" font-size="10.00">netinet/in.h</text>
</a>
</g>
</g>
<!-- Node1&#45;&gt;Node3 -->
<g id="edge2" class="edge">
<title>Node1&#45;&gt;Node3</title>
<path fill="none" stroke="midnightblue" d="M321.61,-160.14C328.93,-150.74 337.74,-139.4 343.69,-131.75"/>
<polygon fill="midnightblue" stroke="midnightblue" points="318.81,-158.04 315.44,-168.08 324.34,-162.34 318.81,-158.04"/>
</g>
<!-- Node4 -->
<g id="node4" class="node">
<title>Node4</title>
<g id="a_node4"><a xlink:href="inet_8h.html" target="_top" xlink:title=" ">
<polygon fill="white" stroke="black" points="0,-56.5 0,-75.5 69,-75.5 69,-56.5 0,-56.5"/>
<text text-anchor="middle" x="34.5" y="-63.5" font-family="Helvetica,sans-Serif" font-size="10.00">arpa/inet.h</text>
</a>
</g>
</g>
<!-- Node3&#45;&gt;Node4 -->
<g id="edge3" class="edge">
<title>Node3&#45;&gt;Node4</title>
<path fill="none" stroke="midnightblue" d="M304.17,-111.82C203.26,-93.98 175.87,-93.67 78.5,-76 75.43,-75.44 72.25,-74.84 69.06,-74.22"/>
<polygon fill="midnightblue" stroke="midnightblue" points="303.72,-115.3 314.17,-113.6 304.94,-108.4 303.72,-115.3"/>
</g>
<!-- Node5 -->
<g id="node5" class="node">
<title>Node5</title>
<g id="a_node5"><a xlink:href="res__state_8h.html" target="_top" xlink:title=" ">
<polygon fill="white" stroke="black" points="87.5,-56.5 87.5,-75.5 209.5,-75.5 209.5,-56.5 87.5,-56.5"/>
<text text-anchor="middle" x="148.5" y="-63.5" font-family="Helvetica,sans-Serif" font-size="10.00">bits/types/res_state.h</text>
</a>
</g>
</g>
<!-- Node3&#45;&gt;Node5 -->
<g id="edge4" class="edge">
<title>Node3&#45;&gt;Node5</title>
<path fill="none" stroke="midnightblue" d="M308.71,-109.83C270.57,-99.63 215.02,-84.78 180.36,-75.52"/>
<polygon fill="midnightblue" stroke="midnightblue" points="307.93,-113.24 318.49,-112.44 309.74,-106.48 307.93,-113.24"/>
</g>
<!-- Node6 -->
<g id="node6" class="node">
<title>Node6</title>
<g id="a_node6"><a xlink:href="resolv_8h.html" target="_top" xlink:title=" ">
<polygon fill="white" stroke="black" points="165,-0.5 165,-19.5 220,-19.5 220,-0.5 165,-0.5"/>
<text text-anchor="middle" x="192.5" y="-7.5" font-family="Helvetica,sans-Serif" font-size="10.00">resolv.h</text>
</a>
</g>
</g>
<!-- Node3&#45;&gt;Node6 -->
<g id="edge11" class="edge">
<title>Node3&#45;&gt;Node6</title>
<path fill="none" stroke="midnightblue" d="M317.52,-108.54C298.75,-100.66 275.31,-89.42 256.5,-76 232.78,-59.07 210.1,-32.9 199.21,-19.52"/>
<polygon fill="midnightblue" stroke="midnightblue" points="316.28,-111.81 326.86,-112.35 318.92,-105.33 316.28,-111.81"/>
</g>
<!-- Node7 -->
<g id="node7" class="node">
<title>Node7</title>
<g id="a_node7"><a xlink:href="route_8h.html" target="_top" xlink:title=" ">
<polygon fill="white" stroke="black" points="265.5,-56.5 265.5,-75.5 335.5,-75.5 335.5,-56.5 265.5,-56.5"/>
<text text-anchor="middle" x="300.5" y="-63.5" font-family="Helvetica,sans-Serif" font-size="10.00">net/route.h</text>
</a>
</g>
</g>
<!-- Node3&#45;&gt;Node7 -->
<g id="edge6" class="edge">
<title>Node3&#45;&gt;Node7</title>
<path fill="none" stroke="midnightblue" d="M335.42,-104.72C326.61,-95.2 315.83,-83.56 308.6,-75.75"/>
<polygon fill="midnightblue" stroke="midnightblue" points="332.88,-107.12 342.24,-112.08 338.02,-102.37 332.88,-107.12"/>
</g>
<!-- Node8 -->
<g id="node8" class="node">
<title>Node8</title>
<g id="a_node8"><a xlink:href="icmp6_8h.html" target="_top" xlink:title=" ">
<polygon fill="white" stroke="black" points="354,-56.5 354,-75.5 447,-75.5 447,-56.5 354,-56.5"/>
<text text-anchor="middle" x="400.5" y="-63.5" font-family="Helvetica,sans-Serif" font-size="10.00">netinet/icmp6.h</text>
</a>
</g>
</g>
<!-- Node3&#45;&gt;Node8 -->
<g id="edge7" class="edge">
<title>Node3&#45;&gt;Node8</title>
<path fill="none" stroke="midnightblue" d="M365.58,-104.72C374.39,-95.2 385.17,-83.56 392.4,-75.75"/>
<polygon fill="midnightblue" stroke="midnightblue" points="362.98,-102.37 358.76,-112.08 368.12,-107.12 362.98,-102.37"/>
</g>
<!-- Node9 -->
<g id="node9" class="node">
<title>Node9</title>
<g id="a_node9"><a xlink:href="netdb_8h.html" target="_top" xlink:title=" ">
<polygon fill="white" stroke="black" points="465,-56.5 465,-75.5 518,-75.5 518,-56.5 465,-56.5"/>
<text text-anchor="middle" x="491.5" y="-63.5" font-family="Helvetica,sans-Serif" font-size="10.00">netdb.h</text>
</a>
</g>
</g>
<!-- Node3&#45;&gt;Node9 -->
<g id="edge8" class="edge">
<title>Node3&#45;&gt;Node9</title>
<path fill="none" stroke="midnightblue" d="M382.43,-108.77C408.91,-98.63 445.89,-84.47 469.26,-75.52"/>
<polygon fill="midnightblue" stroke="midnightblue" points="380.93,-105.6 372.84,-112.44 383.43,-112.14 380.93,-105.6"/>
</g>
<!-- Node10 -->
<g id="node10" class="node">
<title>Node10</title>
<g id="a_node10"><a xlink:href="ip_8h.html" target="_top" xlink:title=" ">
<polygon fill="white" stroke="black" points="536.5,-56.5 536.5,-75.5 608.5,-75.5 608.5,-56.5 536.5,-56.5"/>
<text text-anchor="middle" x="572.5" y="-63.5" font-family="Helvetica,sans-Serif" font-size="10.00">netinet/ip.h</text>
</a>
</g>
</g>
<!-- Node3&#45;&gt;Node10 -->
<g id="edge9" class="edge">
<title>Node3&#45;&gt;Node10</title>
<path fill="none" stroke="midnightblue" d="M395.62,-110.02C437.56,-99.82 499.15,-84.84 537.49,-75.52"/>
<polygon fill="midnightblue" stroke="midnightblue" points="394.57,-106.68 385.68,-112.44 396.22,-113.48 394.57,-106.68"/>
</g>
<!-- Node11 -->
<g id="node11" class="node">
<title>Node11</title>
<g id="a_node11"><a xlink:href="ip6_8h.html" target="_top" xlink:title=" ">
<polygon fill="white" stroke="black" points="626.5,-56.5 626.5,-75.5 704.5,-75.5 704.5,-56.5 626.5,-56.5"/>
<text text-anchor="middle" x="665.5" y="-63.5" font-family="Helvetica,sans-Serif" font-size="10.00">netinet/ip6.h</text>
</a>
</g>
</g>
<!-- Node3&#45;&gt;Node11 -->
<g id="edge10" class="edge">
<title>Node3&#45;&gt;Node11</title>
<path fill="none" stroke="midnightblue" d="M396.97,-113.43C450.27,-104.69 540.27,-89.75 617.5,-76 620.42,-75.48 623.44,-74.93 626.48,-74.38"/>
<polygon fill="midnightblue" stroke="midnightblue" points="396.12,-110.03 386.81,-115.1 397.25,-116.93 396.12,-110.03"/>
</g>
<!-- Node5&#45;&gt;Node6 -->
<g id="edge5" class="edge">
<title>Node5&#45;&gt;Node6</title>
<path fill="none" stroke="midnightblue" d="M162.23,-48.14C169.9,-38.74 179.13,-27.4 185.37,-19.75"/>
<polygon fill="midnightblue" stroke="midnightblue" points="159.37,-46.12 155.77,-56.08 164.8,-50.54 159.37,-46.12"/>
</g>
</g>
</svg>
