<?xml version="1.0" encoding="UTF-8" standalone="no"?>
<!DOCTYPE svg PUBLIC "-//W3C//DTD SVG 1.1//EN"
 "http://www.w3.org/Graphics/SVG/1.1/DTD/svg11.dtd">
<!-- Generated by graphviz version 2.44.1 (0)
 -->
<!-- Title: pthread_mutex_t Pages: 1 -->
<svg width="180pt" height="386pt"
 viewBox="0.00 0.00 179.50 386.00" xmlns="http://www.w3.org/2000/svg" xmlns:xlink="http://www.w3.org/1999/xlink">
<g id="graph0" class="graph" transform="scale(1 1) rotate(0) translate(4 382)">
<title>pthread_mutex_t</title>
<polygon fill="white" stroke="transparent" points="-4,4 -4,-382 175.5,-382 175.5,4 -4,4"/>
<!-- Node1 -->
<g id="node1" class="node">
<title>Node1</title>
<g id="a_node1"><a xlink:title=" ">
<polygon fill="#bfbfbf" stroke="black" points="6,-0.5 6,-68.5 106,-68.5 106,-0.5 6,-0.5"/>
<text text-anchor="middle" x="56" y="-56.5" font-family="Helvetica,sans-Serif" font-size="10.00">pthread_mutex_t</text>
<polyline fill="none" stroke="black" points="6,-49.5 106,-49.5 "/>
<text text-anchor="start" x="14" y="-37.5" font-family="Helvetica,sans-Serif" font-size="10.00">+ __size</text>
<text text-anchor="start" x="14" y="-26.5" font-family="Helvetica,sans-Serif" font-size="10.00">+ __align</text>
<polyline fill="none" stroke="black" points="6,-19.5 106,-19.5 "/>
<text text-anchor="middle" x="56" y="-7.5" font-family="Helvetica,sans-Serif" font-size="10.00"> </text>
</a>
</g>
</g>
<!-- Node2 -->
<g id="node2" class="node">
<title>Node2</title>
<g id="a_node2"><a xlink:href="struct____pthread__mutex__s.html" target="_top" xlink:title=" ">
<polygon fill="white" stroke="black" points="0,-116.5 0,-261.5 112,-261.5 112,-116.5 0,-116.5"/>
<text text-anchor="middle" x="56" y="-249.5" font-family="Helvetica,sans-Serif" font-size="10.00">__pthread_mutex_s</text>
<polyline fill="none" stroke="black" points="0,-242.5 112,-242.5 "/>
<text text-anchor="start" x="8" y="-230.5" font-family="Helvetica,sans-Serif" font-size="10.00">+ __lock</text>
<text text-anchor="start" x="8" y="-219.5" font-family="Helvetica,sans-Serif" font-size="10.00">+ __count</text>
<text text-anchor="start" x="8" y="-208.5" font-family="Helvetica,sans-Serif" font-size="10.00">+ __owner</text>
<text text-anchor="start" x="8" y="-197.5" font-family="Helvetica,sans-Serif" font-size="10.00">+ __kind</text>
<text text-anchor="start" x="8" y="-186.5" font-family="Helvetica,sans-Serif" font-size="10.00">+ __nusers</text>
<text text-anchor="start" x="8" y="-175.5" font-family="Helvetica,sans-Serif" font-size="10.00">+ __espins</text>
<text text-anchor="start" x="8" y="-164.5" font-family="Helvetica,sans-Serif" font-size="10.00">+ __eelision</text>
<text text-anchor="start" x="8" y="-153.5" font-family="Helvetica,sans-Serif" font-size="10.00">+ __elision_data</text>
<text text-anchor="start" x="8" y="-142.5" font-family="Helvetica,sans-Serif" font-size="10.00">+ @1</text>
<polyline fill="none" stroke="black" points="0,-135.5 112,-135.5 "/>
<text text-anchor="middle" x="56" y="-123.5" font-family="Helvetica,sans-Serif" font-size="10.00"> </text>
</a>
</g>
</g>
<!-- Node2&#45;&gt;Node1 -->
<g id="edge1" class="edge">
<title>Node2&#45;&gt;Node1</title>
<path fill="none" stroke="#404040" d="M56,-116.22C56,-104.09 56,-91.82 56,-80.62"/>
<polygon fill="none" stroke="#404040" points="56,-80.51 52,-74.51 56,-68.51 60,-74.51 56,-80.51"/>
<text text-anchor="middle" x="78" y="-90" font-family="Helvetica,sans-Serif" font-size="10.00"> +__data</text>
</g>
<!-- Node3 -->
<g id="node3" class="node">
<title>Node3</title>
<g id="a_node3"><a xlink:href="struct____pthread__internal__slist.html" target="_top" xlink:title=" ">
<polygon fill="white" stroke="black" points="2.5,-309.5 2.5,-377.5 109.5,-377.5 109.5,-309.5 2.5,-309.5"/>
<text text-anchor="start" x="10.5" y="-365.5" font-family="Helvetica,sans-Serif" font-size="10.00">__pthread_internal</text>
<text text-anchor="middle" x="56" y="-354.5" font-family="Helvetica,sans-Serif" font-size="10.00">_slist</text>
<polyline fill="none" stroke="black" points="2.5,-347.5 109.5,-347.5 "/>
<text text-anchor="middle" x="56" y="-335.5" font-family="Helvetica,sans-Serif" font-size="10.00"> </text>
<polyline fill="none" stroke="black" points="2.5,-328.5 109.5,-328.5 "/>
<text text-anchor="middle" x="56" y="-316.5" font-family="Helvetica,sans-Serif" font-size="10.00"> </text>
</a>
</g>
</g>
<!-- Node3&#45;&gt;Node2 -->
<g id="edge2" class="edge">
<title>Node3&#45;&gt;Node2</title>
<path fill="none" stroke="#404040" d="M56,-309.41C56,-298.72 56,-286.35 56,-273.7"/>
<polygon fill="none" stroke="#404040" points="56,-273.53 52,-267.53 56,-261.53 60,-267.53 56,-273.53"/>
<text text-anchor="middle" x="74.5" y="-283" font-family="Helvetica,sans-Serif" font-size="10.00"> +__list</text>
</g>
<!-- Node3&#45;&gt;Node3 -->
<g id="edge3" class="edge">
<title>Node3&#45;&gt;Node3</title>
<path fill="none" stroke="#404040" d="M109.63,-353.89C120.08,-352.68 127.5,-349.22 127.5,-343.5 127.5,-340.37 125.28,-337.92 121.56,-336.14"/>
<polygon fill="none" stroke="#404040" points="121.26,-336.06 114.46,-338.46 109.63,-333.11 116.43,-330.71 121.26,-336.06"/>
<text text-anchor="middle" x="149.5" y="-341" font-family="Helvetica,sans-Serif" font-size="10.00"> +__next</text>
</g>
</g>
</svg>
