<?xml version="1.0" encoding="UTF-8" standalone="no"?>
<!DOCTYPE svg PUBLIC "-//W3C//DTD SVG 1.1//EN"
 "http://www.w3.org/Graphics/SVG/1.1/DTD/svg11.dtd">
<!-- Generated by graphviz version 2.44.1 (0)
 -->
<!-- Title: unistd.h Pages: 1 -->
<svg width="1104pt" height="252pt"
 viewBox="0.00 0.00 1103.50 252.00" xmlns="http://www.w3.org/2000/svg" xmlns:xlink="http://www.w3.org/1999/xlink">
<g id="graph0" class="graph" transform="scale(1 1) rotate(0) translate(4 248)">
<title>unistd.h</title>
<polygon fill="white" stroke="transparent" points="-4,4 -4,-248 1099.5,-248 1099.5,4 -4,4"/>
<!-- Node1 -->
<g id="node1" class="node">
<title>Node1</title>
<g id="a_node1"><a xlink:title=" ">
<polygon fill="#bfbfbf" stroke="black" points="653.5,-224.5 653.5,-243.5 709.5,-243.5 709.5,-224.5 653.5,-224.5"/>
<text text-anchor="middle" x="681.5" y="-231.5" font-family="Helvetica,sans-Serif" font-size="10.00">unistd.h</text>
</a>
</g>
</g>
<!-- Node2 -->
<g id="node2" class="node">
<title>Node2</title>
<g id="a_node2"><a xlink:href="features_8h.html" target="_top" xlink:title=" ">
<polygon fill="white" stroke="black" points="200.5,-112.5 200.5,-131.5 266.5,-131.5 266.5,-112.5 200.5,-112.5"/>
<text text-anchor="middle" x="233.5" y="-119.5" font-family="Helvetica,sans-Serif" font-size="10.00">features.h</text>
</a>
</g>
</g>
<!-- Node1&#45;&gt;Node2 -->
<g id="edge1" class="edge">
<title>Node1&#45;&gt;Node2</title>
<path fill="none" stroke="midnightblue" d="M653.33,-231.63C577.94,-227.65 373.13,-214.63 311.5,-188 285.83,-176.91 262.03,-154.61 247.63,-139.24"/>
<polygon fill="midnightblue" stroke="midnightblue" points="249.96,-136.6 240.65,-131.54 244.77,-141.3 249.96,-136.6"/>
</g>
<!-- Node9 -->
<g id="node9" class="node">
<title>Node9</title>
<g id="a_node9"><a xlink:href="posix__opt_8h.html" target="_top" xlink:title=" ">
<polygon fill="white" stroke="black" points="320.5,-168.5 320.5,-187.5 414.5,-187.5 414.5,-168.5 320.5,-168.5"/>
<text text-anchor="middle" x="367.5" y="-175.5" font-family="Helvetica,sans-Serif" font-size="10.00">bits/posix_opt.h</text>
</a>
</g>
</g>
<!-- Node1&#45;&gt;Node9 -->
<g id="edge9" class="edge">
<title>Node1&#45;&gt;Node9</title>
<path fill="none" stroke="midnightblue" d="M653.36,-228.16C602.03,-219.33 492.27,-200.46 424.69,-188.83"/>
<polygon fill="midnightblue" stroke="midnightblue" points="425.07,-185.35 414.62,-187.1 423.89,-192.25 425.07,-185.35"/>
</g>
<!-- Node10 -->
<g id="node10" class="node">
<title>Node10</title>
<g id="a_node10"><a xlink:href="environments_8h.html" target="_top" xlink:title=" ">
<polygon fill="white" stroke="black" points="460.5,-56.5 460.5,-75.5 574.5,-75.5 574.5,-56.5 460.5,-56.5"/>
<text text-anchor="middle" x="517.5" y="-63.5" font-family="Helvetica,sans-Serif" font-size="10.00">bits/environments.h</text>
</a>
</g>
</g>
<!-- Node1&#45;&gt;Node10 -->
<g id="edge10" class="edge">
<title>Node1&#45;&gt;Node10</title>
<path fill="none" stroke="midnightblue" d="M679.12,-224.3C672.15,-199.43 651.26,-128.7 634.5,-112 618.06,-95.61 595.01,-85.07 573.71,-78.34"/>
<polygon fill="midnightblue" stroke="midnightblue" points="574.65,-74.98 564.07,-75.52 572.68,-81.69 574.65,-74.98"/>
</g>
<!-- Node11 -->
<g id="node11" class="node">
<title>Node11</title>
<g id="a_node11"><a xlink:href="bits_2types_8h.html" target="_top" xlink:title=" ">
<polygon fill="white" stroke="black" points="432.5,-168.5 432.5,-187.5 506.5,-187.5 506.5,-168.5 432.5,-168.5"/>
<text text-anchor="middle" x="469.5" y="-175.5" font-family="Helvetica,sans-Serif" font-size="10.00">bits/types.h</text>
</a>
</g>
</g>
<!-- Node1&#45;&gt;Node11 -->
<g id="edge12" class="edge">
<title>Node1&#45;&gt;Node11</title>
<path fill="none" stroke="midnightblue" d="M653.35,-225.83C617.45,-216.69 555,-200.78 512.97,-190.07"/>
<polygon fill="midnightblue" stroke="midnightblue" points="513.57,-186.61 503.02,-187.54 511.84,-193.4 513.57,-186.61"/>
</g>
<!-- Node15 -->
<g id="node15" class="node">
<title>Node15</title>
<g id="a_node15"><a xlink:title=" ">
<polygon fill="white" stroke="#bfbfbf" points="681.5,-168.5 681.5,-187.5 737.5,-187.5 737.5,-168.5 681.5,-168.5"/>
<text text-anchor="middle" x="709.5" y="-175.5" font-family="Helvetica,sans-Serif" font-size="10.00">stddef.h</text>
</a>
</g>
</g>
<!-- Node1&#45;&gt;Node15 -->
<g id="edge18" class="edge">
<title>Node1&#45;&gt;Node15</title>
<path fill="none" stroke="midnightblue" d="M686.12,-224.08C689.96,-216.69 695.52,-205.95 700.26,-196.81"/>
<polygon fill="midnightblue" stroke="midnightblue" points="703.47,-198.24 704.96,-187.75 697.25,-195.02 703.47,-198.24"/>
</g>
<!-- Node16 -->
<g id="node16" class="node">
<title>Node16</title>
<g id="a_node16"><a xlink:href="confname_8h.html" target="_top" xlink:title=" ">
<polygon fill="white" stroke="black" points="756,-168.5 756,-187.5 851,-187.5 851,-168.5 756,-168.5"/>
<text text-anchor="middle" x="803.5" y="-175.5" font-family="Helvetica,sans-Serif" font-size="10.00">bits/confname.h</text>
</a>
</g>
</g>
<!-- Node1&#45;&gt;Node16 -->
<g id="edge19" class="edge">
<title>Node1&#45;&gt;Node16</title>
<path fill="none" stroke="midnightblue" d="M700.83,-224.44C720.82,-215.6 752.24,-201.69 775.06,-191.59"/>
<polygon fill="midnightblue" stroke="midnightblue" points="776.53,-194.76 784.26,-187.52 773.7,-188.36 776.53,-194.76"/>
</g>
<!-- Node17 -->
<g id="node17" class="node">
<title>Node17</title>
<g id="a_node17"><a xlink:href="getopt__posix_8h.html" target="_top" xlink:title=" ">
<polygon fill="white" stroke="black" points="869.5,-168.5 869.5,-187.5 979.5,-187.5 979.5,-168.5 869.5,-168.5"/>
<text text-anchor="middle" x="924.5" y="-175.5" font-family="Helvetica,sans-Serif" font-size="10.00">bits/getopt_posix.h</text>
</a>
</g>
</g>
<!-- Node1&#45;&gt;Node17 -->
<g id="edge20" class="edge">
<title>Node1&#45;&gt;Node17</title>
<path fill="none" stroke="midnightblue" d="M709.85,-226.7C750.61,-217.64 826.33,-200.82 876.06,-189.76"/>
<polygon fill="midnightblue" stroke="midnightblue" points="876.95,-193.15 885.95,-187.57 875.43,-186.32 876.95,-193.15"/>
</g>
<!-- Node19 -->
<g id="node19" class="node">
<title>Node19</title>
<g id="a_node19"><a xlink:href="unistd__ext_8h.html" target="_top" xlink:title=" ">
<polygon fill="white" stroke="black" points="997.5,-168.5 997.5,-187.5 1095.5,-187.5 1095.5,-168.5 997.5,-168.5"/>
<text text-anchor="middle" x="1046.5" y="-175.5" font-family="Helvetica,sans-Serif" font-size="10.00">bits/unistd_ext.h</text>
</a>
</g>
</g>
<!-- Node1&#45;&gt;Node19 -->
<g id="edge22" class="edge">
<title>Node1&#45;&gt;Node19</title>
<path fill="none" stroke="midnightblue" d="M709.87,-228.92C762.4,-221.36 878.64,-204.53 987.3,-188.17"/>
<polygon fill="midnightblue" stroke="midnightblue" points="988.09,-191.59 997.46,-186.64 987.05,-184.67 988.09,-191.59"/>
</g>
<!-- Node3 -->
<g id="node3" class="node">
<title>Node3</title>
<g id="a_node3"><a xlink:href="stdc-predef_8h.html" target="_top" xlink:title=" ">
<polygon fill="white" stroke="black" points="99.5,-56.5 99.5,-75.5 179.5,-75.5 179.5,-56.5 99.5,-56.5"/>
<text text-anchor="middle" x="139.5" y="-63.5" font-family="Helvetica,sans-Serif" font-size="10.00">stdc&#45;predef.h</text>
</a>
</g>
</g>
<!-- Node2&#45;&gt;Node3 -->
<g id="edge2" class="edge">
<title>Node2&#45;&gt;Node3</title>
<path fill="none" stroke="midnightblue" d="M218.4,-112.32C203.6,-103.82 180.81,-90.73 163.52,-80.8"/>
<polygon fill="midnightblue" stroke="midnightblue" points="164.98,-77.6 154.57,-75.65 161.49,-83.67 164.98,-77.6"/>
</g>
<!-- Node4 -->
<g id="node4" class="node">
<title>Node4</title>
<g id="a_node4"><a xlink:href="cdefs_8h.html" target="_top" xlink:title=" ">
<polygon fill="white" stroke="black" points="198,-56.5 198,-75.5 269,-75.5 269,-56.5 198,-56.5"/>
<text text-anchor="middle" x="233.5" y="-63.5" font-family="Helvetica,sans-Serif" font-size="10.00">sys/cdefs.h</text>
</a>
</g>
</g>
<!-- Node2&#45;&gt;Node4 -->
<g id="edge3" class="edge">
<title>Node2&#45;&gt;Node4</title>
<path fill="none" stroke="midnightblue" d="M228.33,-112.08C226.82,-104.93 226.39,-94.64 227.04,-85.69"/>
<polygon fill="midnightblue" stroke="midnightblue" points="230.52,-86.13 228.37,-75.75 223.58,-85.2 230.52,-86.13"/>
</g>
<!-- Node7 -->
<g id="node7" class="node">
<title>Node7</title>
<g id="a_node7"><a xlink:href="stubs_8h.html" target="_top" xlink:title=" ">
<polygon fill="white" stroke="black" points="8,-56.5 8,-75.5 81,-75.5 81,-56.5 8,-56.5"/>
<text text-anchor="middle" x="44.5" y="-63.5" font-family="Helvetica,sans-Serif" font-size="10.00">gnu/stubs.h</text>
</a>
</g>
</g>
<!-- Node2&#45;&gt;Node7 -->
<g id="edge7" class="edge">
<title>Node2&#45;&gt;Node7</title>
<path fill="none" stroke="midnightblue" d="M203.55,-112.44C171.34,-103.24 119.97,-88.56 84.36,-78.39"/>
<polygon fill="midnightblue" stroke="midnightblue" points="84.88,-74.9 74.31,-75.52 82.96,-81.63 84.88,-74.9"/>
</g>
<!-- Node4&#45;&gt;Node2 -->
<g id="edge4" class="edge">
<title>Node4&#45;&gt;Node2</title>
<path fill="none" stroke="midnightblue" d="M238.63,-75.75C240.16,-82.86 240.6,-93.14 239.97,-102.1"/>
<polygon fill="midnightblue" stroke="midnightblue" points="236.49,-101.71 238.67,-112.08 243.43,-102.62 236.49,-101.71"/>
</g>
<!-- Node5 -->
<g id="node5" class="node">
<title>Node5</title>
<g id="a_node5"><a xlink:href="wordsize_8h.html" target="_top" xlink:title=" ">
<polygon fill="white" stroke="black" points="277.5,-0.5 277.5,-19.5 367.5,-19.5 367.5,-0.5 277.5,-0.5"/>
<text text-anchor="middle" x="322.5" y="-7.5" font-family="Helvetica,sans-Serif" font-size="10.00">bits/wordsize.h</text>
</a>
</g>
</g>
<!-- Node4&#45;&gt;Node5 -->
<g id="edge5" class="edge">
<title>Node4&#45;&gt;Node5</title>
<path fill="none" stroke="midnightblue" d="M247.8,-56.32C261.68,-47.9 282.99,-34.97 299.3,-25.07"/>
<polygon fill="midnightblue" stroke="midnightblue" points="301.5,-27.83 308.24,-19.65 297.87,-21.85 301.5,-27.83"/>
</g>
<!-- Node6 -->
<g id="node6" class="node">
<title>Node6</title>
<g id="a_node6"><a xlink:href="long-double_8h.html" target="_top" xlink:title=" ">
<polygon fill="white" stroke="black" points="155.5,-0.5 155.5,-19.5 259.5,-19.5 259.5,-0.5 155.5,-0.5"/>
<text text-anchor="middle" x="207.5" y="-7.5" font-family="Helvetica,sans-Serif" font-size="10.00">bits/long&#45;double.h</text>
</a>
</g>
</g>
<!-- Node4&#45;&gt;Node6 -->
<g id="edge6" class="edge">
<title>Node4&#45;&gt;Node6</title>
<path fill="none" stroke="midnightblue" d="M229.21,-56.08C225.65,-48.69 220.48,-37.95 216.08,-28.81"/>
<polygon fill="midnightblue" stroke="midnightblue" points="219.21,-27.24 211.71,-19.75 212.9,-30.28 219.21,-27.24"/>
</g>
<!-- Node8 -->
<g id="node8" class="node">
<title>Node8</title>
<g id="a_node8"><a xlink:title=" ">
<polygon fill="white" stroke="#bfbfbf" points="0,-0.5 0,-19.5 89,-19.5 89,-0.5 0,-0.5"/>
<text text-anchor="middle" x="44.5" y="-7.5" font-family="Helvetica,sans-Serif" font-size="10.00">gnu/stubs&#45;32.h</text>
</a>
</g>
</g>
<!-- Node7&#45;&gt;Node8 -->
<g id="edge8" class="edge">
<title>Node7&#45;&gt;Node8</title>
<path fill="none" stroke="midnightblue" d="M44.5,-56.08C44.5,-49.01 44.5,-38.86 44.5,-29.99"/>
<polygon fill="midnightblue" stroke="midnightblue" points="48,-29.75 44.5,-19.75 41,-29.75 48,-29.75"/>
</g>
<!-- Node10&#45;&gt;Node5 -->
<g id="edge11" class="edge">
<title>Node10&#45;&gt;Node5</title>
<path fill="none" stroke="midnightblue" d="M486.6,-56.44C453.23,-47.2 399.91,-32.44 363.15,-22.26"/>
<polygon fill="midnightblue" stroke="midnightblue" points="363.83,-18.81 353.25,-19.52 361.96,-25.56 363.83,-18.81"/>
</g>
<!-- Node11&#45;&gt;Node2 -->
<g id="edge13" class="edge">
<title>Node11&#45;&gt;Node2</title>
<path fill="none" stroke="midnightblue" d="M432.37,-168.5C390.1,-158.83 321.15,-143.06 276.56,-132.85"/>
<polygon fill="midnightblue" stroke="midnightblue" points="277.14,-129.39 266.61,-130.58 275.58,-136.22 277.14,-129.39"/>
</g>
<!-- Node11&#45;&gt;Node5 -->
<g id="edge14" class="edge">
<title>Node11&#45;&gt;Node5</title>
<path fill="none" stroke="midnightblue" d="M432.44,-168.55C389.47,-158.37 323.59,-141.48 316.5,-132 294.01,-101.94 305.8,-54.97 315,-29.29"/>
<polygon fill="midnightblue" stroke="midnightblue" points="318.36,-30.29 318.68,-19.7 311.83,-27.78 318.36,-30.29"/>
</g>
<!-- Node12 -->
<g id="node12" class="node">
<title>Node12</title>
<g id="a_node12"><a xlink:href="timesize_8h.html" target="_top" xlink:title=" ">
<polygon fill="white" stroke="black" points="425,-112.5 425,-131.5 514,-131.5 514,-112.5 425,-112.5"/>
<text text-anchor="middle" x="469.5" y="-119.5" font-family="Helvetica,sans-Serif" font-size="10.00">bits/timesize.h</text>
</a>
</g>
</g>
<!-- Node11&#45;&gt;Node12 -->
<g id="edge15" class="edge">
<title>Node11&#45;&gt;Node12</title>
<path fill="none" stroke="midnightblue" d="M469.5,-168.08C469.5,-161.01 469.5,-150.86 469.5,-141.99"/>
<polygon fill="midnightblue" stroke="midnightblue" points="473,-141.75 469.5,-131.75 466,-141.75 473,-141.75"/>
</g>
<!-- Node13 -->
<g id="node13" class="node">
<title>Node13</title>
<g id="a_node13"><a xlink:href="typesizes_8h.html" target="_top" xlink:title=" ">
<polygon fill="white" stroke="black" points="532,-112.5 532,-131.5 625,-131.5 625,-112.5 532,-112.5"/>
<text text-anchor="middle" x="578.5" y="-119.5" font-family="Helvetica,sans-Serif" font-size="10.00">bits/typesizes.h</text>
</a>
</g>
</g>
<!-- Node11&#45;&gt;Node13 -->
<g id="edge16" class="edge">
<title>Node11&#45;&gt;Node13</title>
<path fill="none" stroke="midnightblue" d="M487.01,-168.32C504.57,-159.62 531.83,-146.12 552.03,-136.11"/>
<polygon fill="midnightblue" stroke="midnightblue" points="553.62,-139.23 561.03,-131.65 550.52,-132.96 553.62,-139.23"/>
</g>
<!-- Node14 -->
<g id="node14" class="node">
<title>Node14</title>
<g id="a_node14"><a xlink:href="time64_8h.html" target="_top" xlink:title=" ">
<polygon fill="white" stroke="black" points="326,-112.5 326,-131.5 407,-131.5 407,-112.5 326,-112.5"/>
<text text-anchor="middle" x="366.5" y="-119.5" font-family="Helvetica,sans-Serif" font-size="10.00">bits/time64.h</text>
</a>
</g>
</g>
<!-- Node11&#45;&gt;Node14 -->
<g id="edge17" class="edge">
<title>Node11&#45;&gt;Node14</title>
<path fill="none" stroke="midnightblue" d="M452.95,-168.32C436.51,-159.7 411.07,-146.36 392.03,-136.39"/>
<polygon fill="midnightblue" stroke="midnightblue" points="393.49,-133.2 383.01,-131.65 390.24,-139.4 393.49,-133.2"/>
</g>
<!-- Node18 -->
<g id="node18" class="node">
<title>Node18</title>
<g id="a_node18"><a xlink:href="getopt__core_8h.html" target="_top" xlink:title=" ">
<polygon fill="white" stroke="black" points="872.5,-112.5 872.5,-131.5 976.5,-131.5 976.5,-112.5 872.5,-112.5"/>
<text text-anchor="middle" x="924.5" y="-119.5" font-family="Helvetica,sans-Serif" font-size="10.00">bits/getopt_core.h</text>
</a>
</g>
</g>
<!-- Node17&#45;&gt;Node18 -->
<g id="edge21" class="edge">
<title>Node17&#45;&gt;Node18</title>
<path fill="none" stroke="midnightblue" d="M924.5,-168.08C924.5,-161.01 924.5,-150.86 924.5,-141.99"/>
<polygon fill="midnightblue" stroke="midnightblue" points="928,-141.75 924.5,-131.75 921,-141.75 928,-141.75"/>
</g>
</g>
</svg>
