<?xml version="1.0" encoding="UTF-8" standalone="no"?>
<!DOCTYPE svg PUBLIC "-//W3C//DTD SVG 1.1//EN"
 "http://www.w3.org/Graphics/SVG/1.1/DTD/svg11.dtd">
<!-- Generated by graphviz version 2.44.1 (0)
 -->
<!-- Title: wchar.h Pages: 1 -->
<svg width="866pt" height="308pt"
 viewBox="0.00 0.00 866.00 308.00" xmlns="http://www.w3.org/2000/svg" xmlns:xlink="http://www.w3.org/1999/xlink">
<g id="graph0" class="graph" transform="scale(1 1) rotate(0) translate(4 304)">
<title>wchar.h</title>
<polygon fill="white" stroke="transparent" points="-4,4 -4,-304 862,-304 862,4 -4,4"/>
<!-- Node1 -->
<g id="node1" class="node">
<title>Node1</title>
<g id="a_node1"><a xlink:title=" ">
<polygon fill="#bfbfbf" stroke="black" points="356.5,-280.5 356.5,-299.5 410.5,-299.5 410.5,-280.5 356.5,-280.5"/>
<text text-anchor="middle" x="383.5" y="-287.5" font-family="Helvetica,sans-Serif" font-size="10.00">wchar.h</text>
</a>
</g>
</g>
<!-- Node2 -->
<g id="node2" class="node">
<title>Node2</title>
<g id="a_node2"><a xlink:href="libc-header-start_8h.html" target="_top" xlink:title=" ">
<polygon fill="white" stroke="black" points="28.5,-168.5 28.5,-187.5 156.5,-187.5 156.5,-168.5 28.5,-168.5"/>
<text text-anchor="middle" x="92.5" y="-175.5" font-family="Helvetica,sans-Serif" font-size="10.00">bits/libc&#45;header&#45;start.h</text>
</a>
</g>
</g>
<!-- Node1&#45;&gt;Node2 -->
<g id="edge1" class="edge">
<title>Node1&#45;&gt;Node2</title>
<path fill="none" stroke="midnightblue" d="M356.18,-286.58C300.13,-281.22 174.4,-266.93 138.5,-244 120.89,-232.76 108.04,-212.14 100.47,-197.13"/>
<polygon fill="midnightblue" stroke="midnightblue" points="103.51,-195.37 96.08,-187.82 97.18,-198.36 103.51,-195.37"/>
</g>
<!-- Node10 -->
<g id="node10" class="node">
<title>Node10</title>
<g id="a_node10"><a xlink:href="floatn_8h.html" target="_top" xlink:title=" ">
<polygon fill="white" stroke="black" points="147.5,-224.5 147.5,-243.5 221.5,-243.5 221.5,-224.5 147.5,-224.5"/>
<text text-anchor="middle" x="184.5" y="-231.5" font-family="Helvetica,sans-Serif" font-size="10.00">bits/floatn.h</text>
</a>
</g>
</g>
<!-- Node1&#45;&gt;Node10 -->
<g id="edge10" class="edge">
<title>Node1&#45;&gt;Node10</title>
<path fill="none" stroke="midnightblue" d="M356.25,-281.6C322.56,-272.46 264.91,-256.82 225.78,-246.2"/>
<polygon fill="midnightblue" stroke="midnightblue" points="226.58,-242.79 216.01,-243.55 224.75,-249.55 226.58,-242.79"/>
</g>
<!-- Node12 -->
<g id="node12" class="node">
<title>Node12</title>
<g id="a_node12"><a xlink:title=" ">
<polygon fill="white" stroke="#bfbfbf" points="239.5,-224.5 239.5,-243.5 295.5,-243.5 295.5,-224.5 239.5,-224.5"/>
<text text-anchor="middle" x="267.5" y="-231.5" font-family="Helvetica,sans-Serif" font-size="10.00">stddef.h</text>
</a>
</g>
</g>
<!-- Node1&#45;&gt;Node12 -->
<g id="edge15" class="edge">
<title>Node1&#45;&gt;Node12</title>
<path fill="none" stroke="midnightblue" d="M365.12,-280.44C346.28,-271.68 316.77,-257.94 295.12,-247.86"/>
<polygon fill="midnightblue" stroke="midnightblue" points="296.34,-244.56 285.79,-243.52 293.38,-250.91 296.34,-244.56"/>
</g>
<!-- Node13 -->
<g id="node13" class="node">
<title>Node13</title>
<g id="a_node13"><a xlink:title=" ">
<polygon fill="white" stroke="#bfbfbf" points="313.5,-224.5 313.5,-243.5 369.5,-243.5 369.5,-224.5 313.5,-224.5"/>
<text text-anchor="middle" x="341.5" y="-231.5" font-family="Helvetica,sans-Serif" font-size="10.00">stdarg.h</text>
</a>
</g>
</g>
<!-- Node1&#45;&gt;Node13 -->
<g id="edge16" class="edge">
<title>Node1&#45;&gt;Node13</title>
<path fill="none" stroke="midnightblue" d="M376.56,-280.08C370.57,-272.38 361.75,-261.03 354.45,-251.65"/>
<polygon fill="midnightblue" stroke="midnightblue" points="357.21,-249.5 348.31,-243.75 351.68,-253.79 357.21,-249.5"/>
</g>
<!-- Node14 -->
<g id="node14" class="node">
<title>Node14</title>
<g id="a_node14"><a xlink:href="bits_2wchar_8h.html" target="_top" xlink:title=" ">
<polygon fill="white" stroke="black" points="388,-224.5 388,-243.5 463,-243.5 463,-224.5 388,-224.5"/>
<text text-anchor="middle" x="425.5" y="-231.5" font-family="Helvetica,sans-Serif" font-size="10.00">bits/wchar.h</text>
</a>
</g>
</g>
<!-- Node1&#45;&gt;Node14 -->
<g id="edge17" class="edge">
<title>Node1&#45;&gt;Node14</title>
<path fill="none" stroke="midnightblue" d="M390.44,-280.08C396.43,-272.38 405.25,-261.03 412.55,-251.65"/>
<polygon fill="midnightblue" stroke="midnightblue" points="415.32,-253.79 418.69,-243.75 409.79,-249.5 415.32,-253.79"/>
</g>
<!-- Node15 -->
<g id="node15" class="node">
<title>Node15</title>
<g id="a_node15"><a xlink:href="wint__t_8h.html" target="_top" xlink:title=" ">
<polygon fill="white" stroke="black" points="481,-224.5 481,-243.5 588,-243.5 588,-224.5 481,-224.5"/>
<text text-anchor="middle" x="534.5" y="-231.5" font-family="Helvetica,sans-Serif" font-size="10.00">bits/types/wint_t.h</text>
</a>
</g>
</g>
<!-- Node1&#45;&gt;Node15 -->
<g id="edge18" class="edge">
<title>Node1&#45;&gt;Node15</title>
<path fill="none" stroke="midnightblue" d="M407.43,-280.44C432.72,-271.4 472.8,-257.06 501.18,-246.92"/>
<polygon fill="midnightblue" stroke="midnightblue" points="502.45,-250.18 510.69,-243.52 500.09,-243.59 502.45,-250.18"/>
</g>
<!-- Node16 -->
<g id="node16" class="node">
<title>Node16</title>
<g id="a_node16"><a xlink:href="mbstate__t_8h.html" target="_top" xlink:title=" ">
<polygon fill="white" stroke="black" points="606.5,-224.5 606.5,-243.5 732.5,-243.5 732.5,-224.5 606.5,-224.5"/>
<text text-anchor="middle" x="669.5" y="-231.5" font-family="Helvetica,sans-Serif" font-size="10.00">bits/types/mbstate_t.h</text>
</a>
</g>
</g>
<!-- Node1&#45;&gt;Node16 -->
<g id="edge19" class="edge">
<title>Node1&#45;&gt;Node16</title>
<path fill="none" stroke="midnightblue" d="M410.66,-283.87C457.29,-275.07 553.41,-256.92 614.5,-245.39"/>
<polygon fill="midnightblue" stroke="midnightblue" points="615.18,-248.82 624.36,-243.52 613.88,-241.94 615.18,-248.82"/>
</g>
<!-- Node18 -->
<g id="node18" class="node">
<title>Node18</title>
<g id="a_node18"><a xlink:href="____FILE_8h.html" target="_top" xlink:title=" ">
<polygon fill="white" stroke="black" points="751,-224.5 751,-243.5 858,-243.5 858,-224.5 751,-224.5"/>
<text text-anchor="middle" x="804.5" y="-231.5" font-family="Helvetica,sans-Serif" font-size="10.00">bits/types/__FILE.h</text>
</a>
</g>
</g>
<!-- Node1&#45;&gt;Node18 -->
<g id="edge21" class="edge">
<title>Node1&#45;&gt;Node18</title>
<path fill="none" stroke="midnightblue" d="M410.92,-285.71C469.38,-278.67 610.83,-261.45 740.76,-244.08"/>
<polygon fill="midnightblue" stroke="midnightblue" points="741.45,-247.52 750.89,-242.72 740.52,-240.58 741.45,-247.52"/>
</g>
<!-- Node3 -->
<g id="node3" class="node">
<title>Node3</title>
<g id="a_node3"><a xlink:href="features_8h.html" target="_top" xlink:title=" ">
<polygon fill="white" stroke="black" points="114.5,-112.5 114.5,-131.5 180.5,-131.5 180.5,-112.5 114.5,-112.5"/>
<text text-anchor="middle" x="147.5" y="-119.5" font-family="Helvetica,sans-Serif" font-size="10.00">features.h</text>
</a>
</g>
</g>
<!-- Node2&#45;&gt;Node3 -->
<g id="edge2" class="edge">
<title>Node2&#45;&gt;Node3</title>
<path fill="none" stroke="midnightblue" d="M101.58,-168.08C109.67,-160.14 121.7,-148.34 131.41,-138.8"/>
<polygon fill="midnightblue" stroke="midnightblue" points="133.9,-141.25 138.59,-131.75 129,-136.26 133.9,-141.25"/>
</g>
<!-- Node4 -->
<g id="node4" class="node">
<title>Node4</title>
<g id="a_node4"><a xlink:href="stdc-predef_8h.html" target="_top" xlink:title=" ">
<polygon fill="white" stroke="black" points="201.5,-56.5 201.5,-75.5 281.5,-75.5 281.5,-56.5 201.5,-56.5"/>
<text text-anchor="middle" x="241.5" y="-63.5" font-family="Helvetica,sans-Serif" font-size="10.00">stdc&#45;predef.h</text>
</a>
</g>
</g>
<!-- Node3&#45;&gt;Node4 -->
<g id="edge3" class="edge">
<title>Node3&#45;&gt;Node4</title>
<path fill="none" stroke="midnightblue" d="M162.6,-112.32C177.4,-103.82 200.19,-90.73 217.48,-80.8"/>
<polygon fill="midnightblue" stroke="midnightblue" points="219.51,-83.67 226.43,-75.65 216.02,-77.6 219.51,-83.67"/>
</g>
<!-- Node5 -->
<g id="node5" class="node">
<title>Node5</title>
<g id="a_node5"><a xlink:href="cdefs_8h.html" target="_top" xlink:title=" ">
<polygon fill="white" stroke="black" points="112,-56.5 112,-75.5 183,-75.5 183,-56.5 112,-56.5"/>
<text text-anchor="middle" x="147.5" y="-63.5" font-family="Helvetica,sans-Serif" font-size="10.00">sys/cdefs.h</text>
</a>
</g>
</g>
<!-- Node3&#45;&gt;Node5 -->
<g id="edge4" class="edge">
<title>Node3&#45;&gt;Node5</title>
<path fill="none" stroke="midnightblue" d="M142.33,-112.08C140.82,-104.93 140.39,-94.64 141.04,-85.69"/>
<polygon fill="midnightblue" stroke="midnightblue" points="144.52,-86.13 142.37,-75.75 137.58,-85.2 144.52,-86.13"/>
</g>
<!-- Node8 -->
<g id="node8" class="node">
<title>Node8</title>
<g id="a_node8"><a xlink:href="stubs_8h.html" target="_top" xlink:title=" ">
<polygon fill="white" stroke="black" points="17,-56.5 17,-75.5 90,-75.5 90,-56.5 17,-56.5"/>
<text text-anchor="middle" x="53.5" y="-63.5" font-family="Helvetica,sans-Serif" font-size="10.00">gnu/stubs.h</text>
</a>
</g>
</g>
<!-- Node3&#45;&gt;Node8 -->
<g id="edge8" class="edge">
<title>Node3&#45;&gt;Node8</title>
<path fill="none" stroke="midnightblue" d="M132.4,-112.32C117.6,-103.82 94.81,-90.73 77.52,-80.8"/>
<polygon fill="midnightblue" stroke="midnightblue" points="78.98,-77.6 68.57,-75.65 75.49,-83.67 78.98,-77.6"/>
</g>
<!-- Node5&#45;&gt;Node3 -->
<g id="edge5" class="edge">
<title>Node5&#45;&gt;Node3</title>
<path fill="none" stroke="midnightblue" d="M152.63,-75.75C154.16,-82.86 154.6,-93.14 153.97,-102.1"/>
<polygon fill="midnightblue" stroke="midnightblue" points="150.49,-101.71 152.67,-112.08 157.43,-102.62 150.49,-101.71"/>
</g>
<!-- Node6 -->
<g id="node6" class="node">
<title>Node6</title>
<g id="a_node6"><a xlink:href="wordsize_8h.html" target="_top" xlink:title=" ">
<polygon fill="white" stroke="black" points="107.5,-0.5 107.5,-19.5 197.5,-19.5 197.5,-0.5 107.5,-0.5"/>
<text text-anchor="middle" x="152.5" y="-7.5" font-family="Helvetica,sans-Serif" font-size="10.00">bits/wordsize.h</text>
</a>
</g>
</g>
<!-- Node5&#45;&gt;Node6 -->
<g id="edge6" class="edge">
<title>Node5&#45;&gt;Node6</title>
<path fill="none" stroke="midnightblue" d="M148.33,-56.08C148.98,-49.01 149.92,-38.86 150.74,-29.99"/>
<polygon fill="midnightblue" stroke="midnightblue" points="154.25,-30.03 151.69,-19.75 147.28,-29.39 154.25,-30.03"/>
</g>
<!-- Node7 -->
<g id="node7" class="node">
<title>Node7</title>
<g id="a_node7"><a xlink:href="long-double_8h.html" target="_top" xlink:title=" ">
<polygon fill="white" stroke="black" points="236.5,-0.5 236.5,-19.5 340.5,-19.5 340.5,-0.5 236.5,-0.5"/>
<text text-anchor="middle" x="288.5" y="-7.5" font-family="Helvetica,sans-Serif" font-size="10.00">bits/long&#45;double.h</text>
</a>
</g>
</g>
<!-- Node5&#45;&gt;Node7 -->
<g id="edge7" class="edge">
<title>Node5&#45;&gt;Node7</title>
<path fill="none" stroke="midnightblue" d="M169.84,-56.44C193.25,-47.48 230.24,-33.31 256.69,-23.18"/>
<polygon fill="midnightblue" stroke="midnightblue" points="258.18,-26.36 266.26,-19.52 255.67,-19.82 258.18,-26.36"/>
</g>
<!-- Node9 -->
<g id="node9" class="node">
<title>Node9</title>
<g id="a_node9"><a xlink:title=" ">
<polygon fill="white" stroke="#bfbfbf" points="0,-0.5 0,-19.5 89,-19.5 89,-0.5 0,-0.5"/>
<text text-anchor="middle" x="44.5" y="-7.5" font-family="Helvetica,sans-Serif" font-size="10.00">gnu/stubs&#45;32.h</text>
</a>
</g>
</g>
<!-- Node8&#45;&gt;Node9 -->
<g id="edge9" class="edge">
<title>Node8&#45;&gt;Node9</title>
<path fill="none" stroke="midnightblue" d="M52.01,-56.08C50.82,-48.93 49.11,-38.64 47.62,-29.69"/>
<polygon fill="midnightblue" stroke="midnightblue" points="51.05,-29.04 45.96,-19.75 44.15,-30.19 51.05,-29.04"/>
</g>
<!-- Node10&#45;&gt;Node3 -->
<g id="edge11" class="edge">
<title>Node10&#45;&gt;Node3</title>
<path fill="none" stroke="midnightblue" d="M182.19,-224.08C178.85,-211.48 172.33,-187.78 165.5,-168 162.37,-158.94 158.46,-149.03 155.09,-140.83"/>
<polygon fill="midnightblue" stroke="midnightblue" points="158.29,-139.41 151.2,-131.53 151.83,-142.11 158.29,-139.41"/>
</g>
<!-- Node11 -->
<g id="node11" class="node">
<title>Node11</title>
<g id="a_node11"><a xlink:href="floatn-common_8h.html" target="_top" xlink:title=" ">
<polygon fill="white" stroke="black" points="213,-168.5 213,-187.5 334,-187.5 334,-168.5 213,-168.5"/>
<text text-anchor="middle" x="273.5" y="-175.5" font-family="Helvetica,sans-Serif" font-size="10.00">bits/floatn&#45;common.h</text>
</a>
</g>
</g>
<!-- Node10&#45;&gt;Node11 -->
<g id="edge12" class="edge">
<title>Node10&#45;&gt;Node11</title>
<path fill="none" stroke="midnightblue" d="M198.8,-224.32C212.68,-215.9 233.99,-202.97 250.3,-193.07"/>
<polygon fill="midnightblue" stroke="midnightblue" points="252.5,-195.83 259.24,-187.65 248.87,-189.85 252.5,-195.83"/>
</g>
<!-- Node11&#45;&gt;Node3 -->
<g id="edge13" class="edge">
<title>Node11&#45;&gt;Node3</title>
<path fill="none" stroke="midnightblue" d="M253.53,-168.44C232.89,-159.6 200.44,-145.69 176.87,-135.59"/>
<polygon fill="midnightblue" stroke="midnightblue" points="177.94,-132.24 167.37,-131.52 175.18,-138.67 177.94,-132.24"/>
</g>
<!-- Node11&#45;&gt;Node7 -->
<g id="edge14" class="edge">
<title>Node11&#45;&gt;Node7</title>
<path fill="none" stroke="midnightblue" d="M275.44,-168.41C279.26,-151.07 287.61,-110.55 290.5,-76 291.24,-67.14 290.7,-64.89 290.5,-56 290.31,-47.39 289.91,-37.86 289.52,-29.8"/>
<polygon fill="midnightblue" stroke="midnightblue" points="293.01,-29.43 289,-19.62 286.02,-29.79 293.01,-29.43"/>
</g>
<!-- Node17 -->
<g id="node17" class="node">
<title>Node17</title>
<g id="a_node17"><a xlink:href="____mbstate__t_8h.html" target="_top" xlink:title=" ">
<polygon fill="white" stroke="black" points="601,-168.5 601,-187.5 738,-187.5 738,-168.5 601,-168.5"/>
<text text-anchor="middle" x="669.5" y="-175.5" font-family="Helvetica,sans-Serif" font-size="10.00">bits/types/__mbstate_t.h</text>
</a>
</g>
</g>
<!-- Node16&#45;&gt;Node17 -->
<g id="edge20" class="edge">
<title>Node16&#45;&gt;Node17</title>
<path fill="none" stroke="midnightblue" d="M669.5,-224.08C669.5,-217.01 669.5,-206.86 669.5,-197.99"/>
<polygon fill="midnightblue" stroke="midnightblue" points="673,-197.75 669.5,-187.75 666,-197.75 673,-197.75"/>
</g>
</g>
</svg>
