<?xml version="1.0" encoding="UTF-8" standalone="no"?>
<!DOCTYPE svg PUBLIC "-//W3C//DTD SVG 1.1//EN"
 "http://www.w3.org/Graphics/SVG/1.1/DTD/svg11.dtd">
<!-- Generated by graphviz version 2.44.1 (0)
 -->
<!-- Title: bits/wordsize.h Pages: 1 -->
<!--zoomable 263 -->
<svg id="main" version="1.1" xmlns="http://www.w3.org/2000/svg" xmlns:xlink="http://www.w3.org/1999/xlink" xml:space="preserve" onload="init(evt)">
<style type="text/css"><![CDATA[
.edge:hover path { stroke: red; }
.edge:hover polygon { stroke: red; fill: red; }
]]></style>
<script type="text/javascript"><![CDATA[
var edges = document.getElementsByTagName('g');
if (edges && edges.length) {
  for (var i=0;i<edges.length;i++) {
    if (edges[i].id.substr(0,4)=='edge') {
      edges[i].setAttribute('class','edge');
    }
  }
}
]]></script>
        <defs>
                <circle id="rim" cx="0" cy="0" r="7"/>
                <circle id="rim2" cx="0" cy="0" r="3.5"/>
                <g id="zoomPlus">
                        <use xlink:href="#rim" fill="#404040">
                                <set attributeName="fill" to="#808080" begin="zoomplus.mouseover" end="zoomplus.mouseout"/>
                        </use>
                        <path d="M-4,0h8M0,-4v8" fill="none" stroke="white" stroke-width="1.5" pointer-events="none"/>
                </g>
                <g id="zoomMin">
                        <use xlink:href="#rim" fill="#404040">
                                <set attributeName="fill" to="#808080" begin="zoomminus.mouseover" end="zoomminus.mouseout"/>
                        </use>
                        <path d="M-4,0h8" fill="none" stroke="white" stroke-width="1.5" pointer-events="none"/>
                </g>
                <g id="dirArrow">
                        <path fill="none" stroke="white" stroke-width="1.5" d="M0,-3.0v7 M-2.5,-0.5L0,-3.0L2.5,-0.5"/>
                </g>
               <g id="resetDef">
                       <use xlink:href="#rim2" fill="#404040">
                               <set attributeName="fill" to="#808080" begin="reset.mouseover" end="reset.mouseout"/>
                       </use>
               </g>
        </defs>

<script type="text/javascript">
var viewWidth = 3560;
var viewHeight = 263;
var sectionId = 'dynsection-0';
</script>
<script xlink:href="svgpan.js"/>
<svg id="graph" class="graph">
<g id="viewport">
<title>bits/wordsize.h</title>
<polygon fill="white" stroke="transparent" points="-4,4 -4,-259 3556.12,-259 3556.12,4 -4,4"/>
<!-- Node1 -->
<g id="node1" class="node">
<title>Node1</title>
<g id="a_node1"><a xlink:title=" ">
<polygon fill="#bfbfbf" stroke="black" points="962,-235.5 962,-254.5 1052,-254.5 1052,-235.5 962,-235.5"/>
<text text-anchor="middle" x="1007" y="-242.5" font-family="Helvetica,sans-Serif" font-size="10.00">bits/wordsize.h</text>
</a>
</g>
</g>
<!-- Node2 -->
<g id="node2" class="node">
<title>Node2</title>
<g id="a_node2"><a xlink:href="environments_8h.html" target="_top" xlink:title=" ">
<polygon fill="white" stroke="black" points="600,-179.5 600,-198.5 714,-198.5 714,-179.5 600,-179.5"/>
<text text-anchor="middle" x="657" y="-186.5" font-family="Helvetica,sans-Serif" font-size="10.00">bits/environments.h</text>
</a>
</g>
</g>
<!-- Node1&#45;&gt;Node2 -->
<g id="edge1" class="edge">
<title>Node1&#45;&gt;Node2</title>
<path fill="none" stroke="midnightblue" d="M951.83,-235.49C886.34,-225.38 777.76,-208.63 712.24,-198.52"/>
<polygon fill="midnightblue" stroke="midnightblue" points="951.54,-238.99 961.96,-237.05 952.61,-232.07 951.54,-238.99"/>
</g>
<!-- Node4 -->
<g id="node4" class="node">
<title>Node4</title>
<g id="a_node4"><a xlink:href="elfclass_8h.html" target="_top" xlink:title=" ">
<polygon fill="white" stroke="black" points="0,-179.5 0,-198.5 84,-198.5 84,-179.5 0,-179.5"/>
<text text-anchor="middle" x="42" y="-186.5" font-family="Helvetica,sans-Serif" font-size="10.00">bits/elfclass.h</text>
</a>
</g>
</g>
<!-- Node1&#45;&gt;Node4 -->
<g id="edge3" class="edge">
<title>Node1&#45;&gt;Node4</title>
<path fill="none" stroke="midnightblue" d="M951.41,-243.69C808.5,-242.36 416.84,-235.4 93,-199 90.14,-198.68 87.2,-198.3 84.24,-197.88"/>
<polygon fill="midnightblue" stroke="midnightblue" points="951.63,-247.19 961.66,-243.78 951.7,-240.19 951.63,-247.19"/>
</g>
<!-- Node6 -->
<g id="node6" class="node">
<title>Node6</title>
<g id="a_node6"><a xlink:href="posix1__lim_8h.html" target="_top" xlink:title=" ">
<polygon fill="white" stroke="black" points="742,-179.5 742,-198.5 842,-198.5 842,-179.5 742,-179.5"/>
<text text-anchor="middle" x="792" y="-186.5" font-family="Helvetica,sans-Serif" font-size="10.00">bits/posix1_lim.h</text>
</a>
</g>
</g>
<!-- Node1&#45;&gt;Node6 -->
<g id="edge5" class="edge">
<title>Node1&#45;&gt;Node6</title>
<path fill="none" stroke="midnightblue" d="M963.04,-232.96C922.43,-222.76 862.96,-207.82 825.91,-198.52"/>
<polygon fill="midnightblue" stroke="midnightblue" points="962.38,-236.4 972.93,-235.44 964.09,-229.61 962.38,-236.4"/>
</g>
<!-- Node8 -->
<g id="node8" class="node">
<title>Node8</title>
<g id="a_node8"><a xlink:href="pthreadtypes-arch_8h.html" target="_top" xlink:title=" ">
<polygon fill="white" stroke="black" points="102,-179.5 102,-198.5 238,-198.5 238,-179.5 102,-179.5"/>
<text text-anchor="middle" x="170" y="-186.5" font-family="Helvetica,sans-Serif" font-size="10.00">bits/pthreadtypes&#45;arch.h</text>
</a>
</g>
</g>
<!-- Node1&#45;&gt;Node8 -->
<g id="edge7" class="edge">
<title>Node1&#45;&gt;Node8</title>
<path fill="none" stroke="midnightblue" d="M951.76,-241.65C826.93,-236.14 513.53,-221.13 252,-199 247.58,-198.63 243.02,-198.21 238.43,-197.77"/>
<polygon fill="midnightblue" stroke="midnightblue" points="951.7,-245.15 961.84,-242.09 952,-238.16 951.7,-245.15"/>
</g>
<!-- Node15 -->
<g id="node10" class="node">
<title>Node15</title>
<g id="a_node10"><a xlink:href="bits_2semaphore_8h.html" target="_top" xlink:title=" ">
<polygon fill="white" stroke="black" points="460.5,-179.5 460.5,-198.5 561.5,-198.5 561.5,-179.5 460.5,-179.5"/>
<text text-anchor="middle" x="511" y="-186.5" font-family="Helvetica,sans-Serif" font-size="10.00">bits/semaphore.h</text>
</a>
</g>
</g>
<!-- Node1&#45;&gt;Node15 -->
<g id="edge9" class="edge">
<title>Node1&#45;&gt;Node15</title>
<path fill="none" stroke="midnightblue" d="M951.45,-238.07C871.67,-229.53 720.05,-213.24 591,-199 581.55,-197.96 571.48,-196.83 561.78,-195.75"/>
<polygon fill="midnightblue" stroke="midnightblue" points="951.43,-241.59 961.75,-239.17 952.18,-234.63 951.43,-241.59"/>
</g>
<!-- Node17 -->
<g id="node12" class="node">
<title>Node17</title>
<g id="a_node12"><a xlink:href="bits_2setjmp_8h.html" target="_top" xlink:title=" ">
<polygon fill="white" stroke="black" points="322,-179.5 322,-198.5 402,-198.5 402,-179.5 322,-179.5"/>
<text text-anchor="middle" x="362" y="-186.5" font-family="Helvetica,sans-Serif" font-size="10.00">bits/setjmp.h</text>
</a>
</g>
</g>
<!-- Node1&#45;&gt;Node17 -->
<g id="edge11" class="edge">
<title>Node1&#45;&gt;Node17</title>
<path fill="none" stroke="midnightblue" d="M951.49,-239.85C851.54,-232.29 634.72,-215.54 452,-199 435.74,-197.53 417.83,-195.77 402.31,-194.19"/>
<polygon fill="midnightblue" stroke="midnightblue" points="951.42,-243.35 961.65,-240.61 951.94,-236.37 951.42,-243.35"/>
</g>
<!-- Node12 -->
<g id="node14" class="node">
<title>Node12</title>
<g id="a_node14"><a xlink:href="pthread_8h.html" target="_top" xlink:title=" ">
<polygon fill="white" stroke="red" points="272.5,-56.5 272.5,-75.5 335.5,-75.5 335.5,-56.5 272.5,-56.5"/>
<text text-anchor="middle" x="304" y="-63.5" font-family="Helvetica,sans-Serif" font-size="10.00">pthread.h</text>
</a>
</g>
</g>
<!-- Node1&#45;&gt;Node12 -->
<g id="edge71" class="edge">
<title>Node1&#45;&gt;Node12</title>
<path fill="none" stroke="midnightblue" d="M951.51,-244.46C794.98,-245.19 358.29,-243.21 313,-199 278.81,-165.63 294.24,-99.35 301.22,-75.66"/>
<polygon fill="midnightblue" stroke="midnightblue" points="951.87,-247.95 961.85,-244.4 951.83,-240.95 951.87,-247.95"/>
</g>
<!-- Node19 -->
<g id="node15" class="node">
<title>Node19</title>
<g id="a_node15"><a xlink:href="bits_2shm_8h.html" target="_top" xlink:title=" ">
<polygon fill="white" stroke="black" points="594,-118 594,-137 662,-137 662,-118 594,-118"/>
<text text-anchor="middle" x="628" y="-125" font-family="Helvetica,sans-Serif" font-size="10.00">bits/shm.h</text>
</a>
</g>
</g>
<!-- Node1&#45;&gt;Node19 -->
<g id="edge14" class="edge">
<title>Node1&#45;&gt;Node19</title>
<path fill="none" stroke="midnightblue" d="M980.5,-231.07C949.93,-216.6 897.84,-193.32 851,-179 773.4,-155.28 750.45,-163.74 672,-143 665.47,-141.27 658.49,-139.12 652.05,-137"/>
<polygon fill="midnightblue" stroke="midnightblue" points="979.1,-234.28 989.64,-235.44 982.12,-227.97 979.1,-234.28"/>
</g>
<!-- Node21 -->
<g id="node17" class="node">
<title>Node21</title>
<g id="a_node17"><a xlink:href="sigevent__t_8h.html" target="_top" xlink:title=" ">
<polygon fill="white" stroke="black" points="854,-118 854,-137 982,-137 982,-118 854,-118"/>
<text text-anchor="middle" x="918" y="-125" font-family="Helvetica,sans-Serif" font-size="10.00">bits/types/sigevent_t.h</text>
</a>
</g>
</g>
<!-- Node1&#45;&gt;Node21 -->
<g id="edge16" class="edge">
<title>Node1&#45;&gt;Node21</title>
<path fill="none" stroke="midnightblue" d="M994.03,-227.17C974.84,-202.26 939.53,-156.44 924.77,-137.28"/>
<polygon fill="midnightblue" stroke="midnightblue" points="991.43,-229.53 1000.31,-235.32 996.98,-225.26 991.43,-229.53"/>
</g>
<!-- Node24 -->
<g id="node21" class="node">
<title>Node24</title>
<g id="a_node21"><a xlink:href="siginfo__t_8h.html" target="_top" xlink:title=" ">
<polygon fill="white" stroke="black" points="1000.5,-118 1000.5,-137 1119.5,-137 1119.5,-118 1000.5,-118"/>
<text text-anchor="middle" x="1060" y="-125" font-family="Helvetica,sans-Serif" font-size="10.00">bits/types/siginfo_t.h</text>
</a>
</g>
</g>
<!-- Node1&#45;&gt;Node24 -->
<g id="edge20" class="edge">
<title>Node1&#45;&gt;Node24</title>
<path fill="none" stroke="midnightblue" d="M1015.18,-226.18C1026.71,-201.06 1047.29,-156.19 1055.97,-137.28"/>
<polygon fill="midnightblue" stroke="midnightblue" points="1011.97,-224.77 1010.98,-235.32 1018.34,-227.69 1011.97,-224.77"/>
</g>
<!-- Node25 -->
<g id="node22" class="node">
<title>Node25</title>
<g id="a_node22"><a xlink:href="bits_2types_8h.html" target="_top" xlink:title=" ">
<polygon fill="white" stroke="red" points="1980,-179.5 1980,-198.5 2054,-198.5 2054,-179.5 1980,-179.5"/>
<text text-anchor="middle" x="2017" y="-186.5" font-family="Helvetica,sans-Serif" font-size="10.00">bits/types.h</text>
</a>
</g>
</g>
<!-- Node1&#45;&gt;Node25 -->
<g id="edge22" class="edge">
<title>Node1&#45;&gt;Node25</title>
<path fill="none" stroke="midnightblue" d="M1062.21,-241.05C1244.95,-231.28 1827.17,-200.15 1979.98,-191.98"/>
<polygon fill="midnightblue" stroke="midnightblue" points="1061.83,-237.56 1052.03,-241.59 1062.2,-244.55 1061.83,-237.56"/>
</g>
<!-- Node48 -->
<g id="node30" class="node">
<title>Node48</title>
<g id="a_node30"><a xlink:href="stdint_8h.html" target="_top" xlink:title=" ">
<polygon fill="white" stroke="red" points="2983.5,-56.5 2983.5,-75.5 3036.5,-75.5 3036.5,-56.5 2983.5,-56.5"/>
<text text-anchor="middle" x="3010" y="-63.5" font-family="Helvetica,sans-Serif" font-size="10.00">stdint.h</text>
</a>
</g>
</g>
<!-- Node1&#45;&gt;Node48 -->
<g id="edge70" class="edge">
<title>Node1&#45;&gt;Node48</title>
<path fill="none" stroke="midnightblue" d="M1062.33,-243.05C1270.14,-239.29 1997.35,-224.44 2098,-199 2117.66,-194.03 2119.31,-183.81 2139,-179 2214.9,-160.45 3490.46,-198.95 3545,-143 3554.62,-133.13 3554.33,-122.14 3545,-112 3510.3,-74.26 3140.13,-68.15 3036.71,-67.18"/>
<polygon fill="midnightblue" stroke="midnightblue" points="1062.19,-239.55 1052.25,-243.23 1062.31,-246.55 1062.19,-239.55"/>
</g>
<!-- Node135 -->
<g id="node45" class="node">
<title>Node135</title>
<g id="a_node45"><a xlink:href="bits_2utmpx_8h.html" target="_top" xlink:title=" ">
<polygon fill="white" stroke="red" points="3458,-118 3458,-137 3536,-137 3536,-118 3458,-118"/>
<text text-anchor="middle" x="3497" y="-125" font-family="Helvetica,sans-Serif" font-size="10.00">bits/utmpx.h</text>
</a>
</g>
</g>
<!-- Node1&#45;&gt;Node135 -->
<g id="edge65" class="edge">
<title>Node1&#45;&gt;Node135</title>
<path fill="none" stroke="midnightblue" d="M1062.4,-244.48C1251.52,-245.7 1870.53,-245.89 2063,-199 2083.48,-194.01 2085.48,-183.83 2106,-179 2396.62,-110.62 3154.27,-190.59 3449,-143 3457.08,-141.7 3465.7,-139.39 3473.37,-137"/>
<polygon fill="midnightblue" stroke="midnightblue" points="1062.16,-240.98 1052.14,-244.42 1062.12,-247.98 1062.16,-240.98"/>
</g>
<!-- Node81 -->
<g id="node46" class="node">
<title>Node81</title>
<g id="a_node46"><a xlink:href="bits_2utmp_8h.html" target="_top" xlink:title=" ">
<polygon fill="white" stroke="red" points="2148,-179.5 2148,-198.5 2220,-198.5 2220,-179.5 2148,-179.5"/>
<text text-anchor="middle" x="2184" y="-186.5" font-family="Helvetica,sans-Serif" font-size="10.00">bits/utmp.h</text>
</a>
</g>
</g>
<!-- Node1&#45;&gt;Node81 -->
<g id="edge66" class="edge">
<title>Node1&#45;&gt;Node81</title>
<path fill="none" stroke="midnightblue" d="M1062.6,-244.49C1226.92,-245.36 1724.49,-243.81 2134,-199 2138.47,-198.51 2143.15,-197.86 2147.76,-197.13"/>
<polygon fill="midnightblue" stroke="midnightblue" points="1062.28,-240.99 1052.26,-244.43 1062.24,-247.99 1062.28,-240.99"/>
</g>
<!-- Node169 -->
<g id="node47" class="node">
<title>Node169</title>
<g id="a_node47"><a xlink:href="xopen__lim_8h.html" target="_top" xlink:title=" ">
<polygon fill="white" stroke="black" points="2238.5,-179.5 2238.5,-198.5 2335.5,-198.5 2335.5,-179.5 2238.5,-179.5"/>
<text text-anchor="middle" x="2287" y="-186.5" font-family="Helvetica,sans-Serif" font-size="10.00">bits/xopen_lim.h</text>
</a>
</g>
</g>
<!-- Node1&#45;&gt;Node169 -->
<g id="edge67" class="edge">
<title>Node1&#45;&gt;Node169</title>
<path fill="none" stroke="midnightblue" d="M1062.18,-244.27C1234.85,-244.6 1780.11,-241.94 2229,-199 2232.04,-198.71 2235.17,-198.36 2238.32,-197.98"/>
<polygon fill="midnightblue" stroke="midnightblue" points="1062.07,-240.77 1052.07,-244.24 1062.06,-247.77 1062.07,-240.77"/>
</g>
<!-- Node170 -->
<g id="node48" class="node">
<title>Node170</title>
<g id="a_node48"><a xlink:href="limits_8h.html" target="_top" xlink:title=" ">
<polygon fill="white" stroke="red" points="2353.5,-179.5 2353.5,-198.5 2406.5,-198.5 2406.5,-179.5 2353.5,-179.5"/>
<text text-anchor="middle" x="2380" y="-186.5" font-family="Helvetica,sans-Serif" font-size="10.00">limits.h</text>
</a>
</g>
</g>
<!-- Node1&#45;&gt;Node170 -->
<g id="edge68" class="edge">
<title>Node1&#45;&gt;Node170</title>
<path fill="none" stroke="midnightblue" d="M1062.38,-243.75C1281.91,-242.49 2091.34,-235.43 2345,-199 2347.73,-198.61 2350.56,-198.08 2353.37,-197.49"/>
<polygon fill="midnightblue" stroke="midnightblue" points="1062.05,-240.25 1052.07,-243.8 1062.09,-247.25 1062.05,-240.25"/>
</g>
<!-- Node33 -->
<g id="node49" class="node">
<title>Node33</title>
<g id="a_node49"><a xlink:href="route_8h.html" target="_top" xlink:title=" ">
<polygon fill="white" stroke="black" points="2425,-179.5 2425,-198.5 2495,-198.5 2495,-179.5 2425,-179.5"/>
<text text-anchor="middle" x="2460" y="-186.5" font-family="Helvetica,sans-Serif" font-size="10.00">net/route.h</text>
</a>
</g>
</g>
<!-- Node1&#45;&gt;Node33 -->
<g id="edge69" class="edge">
<title>Node1&#45;&gt;Node33</title>
<path fill="none" stroke="midnightblue" d="M1062.63,-243.49C1289.69,-241.19 2146.96,-230.58 2416,-199 2418.79,-198.67 2421.66,-198.26 2424.54,-197.79"/>
<polygon fill="midnightblue" stroke="midnightblue" points="1062.26,-239.99 1052.3,-243.59 1062.33,-246.99 1062.26,-239.99"/>
</g>
<!-- Node172 -->
<g id="node50" class="node">
<title>Node172</title>
<g id="a_node50"><a xlink:href="cdefs_8h.html" target="_top" xlink:title=" ">
<polygon fill="white" stroke="red" points="2513.5,-179.5 2513.5,-198.5 2584.5,-198.5 2584.5,-179.5 2513.5,-179.5"/>
<text text-anchor="middle" x="2549" y="-186.5" font-family="Helvetica,sans-Serif" font-size="10.00">sys/cdefs.h</text>
</a>
</g>
</g>
<!-- Node1&#45;&gt;Node172 -->
<g id="edge72" class="edge">
<title>Node1&#45;&gt;Node172</title>
<path fill="none" stroke="midnightblue" d="M1062.22,-243.58C1297.39,-241.59 2216.52,-231.84 2504,-199 2507.01,-198.66 2510.11,-198.22 2513.22,-197.72"/>
<polygon fill="midnightblue" stroke="midnightblue" points="1062.16,-240.08 1052.19,-243.66 1062.22,-247.08 1062.16,-240.08"/>
</g>
<!-- Node3 -->
<g id="node3" class="node">
<title>Node3</title>
<g id="a_node3"><a xlink:href="unistd_8h.html" target="_top" xlink:title=" ">
<polygon fill="white" stroke="black" points="448,-118 448,-137 504,-137 504,-118 448,-118"/>
<text text-anchor="middle" x="476" y="-125" font-family="Helvetica,sans-Serif" font-size="10.00">unistd.h</text>
</a>
</g>
</g>
<!-- Node2&#45;&gt;Node3 -->
<g id="edge2" class="edge">
<title>Node2&#45;&gt;Node3</title>
<path fill="none" stroke="midnightblue" d="M617.78,-176.56C588.69,-167.88 548.14,-155.36 513,-143 507.79,-141.17 502.23,-139.07 497.04,-137.04"/>
<polygon fill="midnightblue" stroke="midnightblue" points="616.98,-179.97 627.57,-179.47 618.98,-173.26 616.98,-179.97"/>
</g>
<!-- Node5 -->
<g id="node5" class="node">
<title>Node5</title>
<g id="a_node5"><a xlink:href="link_8h.html" target="_top" xlink:title=" ">
<polygon fill="white" stroke="black" points="20,-118 20,-137 64,-137 64,-118 20,-118"/>
<text text-anchor="middle" x="42" y="-125" font-family="Helvetica,sans-Serif" font-size="10.00">link.h</text>
</a>
</g>
</g>
<!-- Node4&#45;&gt;Node5 -->
<g id="edge4" class="edge">
<title>Node4&#45;&gt;Node5</title>
<path fill="none" stroke="midnightblue" d="M42,-169.32C42,-158.5 42,-145.4 42,-137.01"/>
<polygon fill="midnightblue" stroke="midnightblue" points="38.5,-169.48 42,-179.48 45.5,-169.48 38.5,-169.48"/>
</g>
<!-- Node7 -->
<g id="node7" class="node">
<title>Node7</title>
<g id="a_node7"><a xlink:href="dirent_8h.html" target="_top" xlink:title=" ">
<polygon fill="white" stroke="black" points="522,-118 522,-137 576,-137 576,-118 522,-118"/>
<text text-anchor="middle" x="549" y="-125" font-family="Helvetica,sans-Serif" font-size="10.00">dirent.h</text>
</a>
</g>
</g>
<!-- Node6&#45;&gt;Node7 -->
<g id="edge6" class="edge">
<title>Node6&#45;&gt;Node7</title>
<path fill="none" stroke="midnightblue" d="M731.62,-177.66C689.96,-169.85 633.55,-157.94 585,-143 579.59,-141.34 573.85,-139.2 568.59,-137.09"/>
<polygon fill="midnightblue" stroke="midnightblue" points="731.15,-181.13 741.62,-179.51 732.42,-174.25 731.15,-181.13"/>
</g>
<!-- Node9 -->
<g id="node9" class="node">
<title>Node9</title>
<g id="a_node9"><a xlink:href="thread-shared-types_8h.html" target="_top" xlink:title=" ">
<polygon fill="white" stroke="red" points="117,-112.5 117,-142.5 223,-142.5 223,-112.5 117,-112.5"/>
<text text-anchor="start" x="125" y="-130.5" font-family="Helvetica,sans-Serif" font-size="10.00">bits/thread&#45;shared</text>
<text text-anchor="middle" x="170" y="-119.5" font-family="Helvetica,sans-Serif" font-size="10.00">&#45;types.h</text>
</a>
</g>
</g>
<!-- Node8&#45;&gt;Node9 -->
<g id="edge8" class="edge">
<title>Node8&#45;&gt;Node9</title>
<path fill="none" stroke="midnightblue" d="M170,-169.23C170,-160.59 170,-150.5 170,-142.52"/>
<polygon fill="midnightblue" stroke="midnightblue" points="166.5,-169.48 170,-179.48 173.5,-169.48 166.5,-169.48"/>
</g>
<!-- Node16 -->
<g id="node11" class="node">
<title>Node16</title>
<g id="a_node11"><a xlink:href="semaphore_8h.html" target="_top" xlink:title=" ">
<polygon fill="white" stroke="black" points="699,-56.5 699,-75.5 779,-75.5 779,-56.5 699,-56.5"/>
<text text-anchor="middle" x="739" y="-63.5" font-family="Helvetica,sans-Serif" font-size="10.00">semaphore.h</text>
</a>
</g>
</g>
<!-- Node15&#45;&gt;Node16 -->
<g id="edge10" class="edge">
<title>Node15&#45;&gt;Node16</title>
<path fill="none" stroke="midnightblue" d="M476.34,-175.24C462.1,-168.08 447.09,-157.59 439,-143 432.32,-130.95 430.01,-122.44 439,-112 443.23,-107.09 618.16,-83.15 698.91,-72.33"/>
<polygon fill="midnightblue" stroke="midnightblue" points="474.95,-178.45 485.5,-179.47 477.89,-172.1 474.95,-178.45"/>
</g>
<!-- Node18 -->
<g id="node13" class="node">
<title>Node18</title>
<g id="a_node13"><a xlink:href="setjmp_8h.html" target="_top" xlink:title=" ">
<polygon fill="white" stroke="black" points="332.5,-118 332.5,-137 391.5,-137 391.5,-118 332.5,-118"/>
<text text-anchor="middle" x="362" y="-125" font-family="Helvetica,sans-Serif" font-size="10.00">setjmp.h</text>
</a>
</g>
</g>
<!-- Node17&#45;&gt;Node18 -->
<g id="edge12" class="edge">
<title>Node17&#45;&gt;Node18</title>
<path fill="none" stroke="midnightblue" d="M362,-169.32C362,-158.5 362,-145.4 362,-137.01"/>
<polygon fill="midnightblue" stroke="midnightblue" points="358.5,-169.48 362,-179.48 365.5,-169.48 358.5,-169.48"/>
</g>
<!-- Node17&#45;&gt;Node12 -->
<g id="edge13" class="edge">
<title>Node17&#45;&gt;Node12</title>
<path fill="none" stroke="midnightblue" d="M345.44,-172C337.93,-163.93 329.52,-153.62 324,-143 312.3,-120.48 307.04,-90.57 305.04,-75.89"/>
<polygon fill="midnightblue" stroke="midnightblue" points="343.02,-174.53 352.5,-179.24 348.03,-169.64 343.02,-174.53"/>
</g>
<!-- Node20 -->
<g id="node16" class="node">
<title>Node20</title>
<g id="a_node16"><a xlink:href="sys_2shm_8h.html" target="_top" xlink:title=" ">
<polygon fill="white" stroke="black" points="595,-56.5 595,-75.5 661,-75.5 661,-56.5 595,-56.5"/>
<text text-anchor="middle" x="628" y="-63.5" font-family="Helvetica,sans-Serif" font-size="10.00">sys/shm.h</text>
</a>
</g>
</g>
<!-- Node19&#45;&gt;Node20 -->
<g id="edge15" class="edge">
<title>Node19&#45;&gt;Node20</title>
<path fill="none" stroke="midnightblue" d="M628,-107.82C628,-97 628,-83.9 628,-75.51"/>
<polygon fill="midnightblue" stroke="midnightblue" points="624.5,-107.98 628,-117.98 631.5,-107.98 624.5,-107.98"/>
</g>
<!-- Node22 -->
<g id="node18" class="node">
<title>Node22</title>
<g id="a_node18"><a xlink:href="aio_8h.html" target="_top" xlink:title=" ">
<polygon fill="white" stroke="black" points="812.5,-56.5 812.5,-75.5 853.5,-75.5 853.5,-56.5 812.5,-56.5"/>
<text text-anchor="middle" x="833" y="-63.5" font-family="Helvetica,sans-Serif" font-size="10.00">aio.h</text>
</a>
</g>
</g>
<!-- Node21&#45;&gt;Node22 -->
<g id="edge17" class="edge">
<title>Node21&#45;&gt;Node22</title>
<path fill="none" stroke="midnightblue" d="M897.45,-112.11C881.1,-100.67 858.78,-85.05 845.16,-75.51"/>
<polygon fill="midnightblue" stroke="midnightblue" points="895.62,-115.11 905.82,-117.98 899.64,-109.37 895.62,-115.11"/>
</g>
<!-- Node23 -->
<g id="node19" class="node">
<title>Node23</title>
<g id="a_node19"><a xlink:href="mqueue_8h.html" target="_top" xlink:title=" ">
<polygon fill="white" stroke="black" points="885.5,-56.5 885.5,-75.5 950.5,-75.5 950.5,-56.5 885.5,-56.5"/>
<text text-anchor="middle" x="918" y="-63.5" font-family="Helvetica,sans-Serif" font-size="10.00">mqueue.h</text>
</a>
</g>
</g>
<!-- Node21&#45;&gt;Node23 -->
<g id="edge18" class="edge">
<title>Node21&#45;&gt;Node23</title>
<path fill="none" stroke="midnightblue" d="M918,-107.82C918,-97 918,-83.9 918,-75.51"/>
<polygon fill="midnightblue" stroke="midnightblue" points="914.5,-107.98 918,-117.98 921.5,-107.98 914.5,-107.98"/>
</g>
<!-- Node11 -->
<g id="node20" class="node">
<title>Node11</title>
<g id="a_node20"><a xlink:href="signal_8h.html" target="_top" xlink:title=" ">
<polygon fill="white" stroke="black" points="1403.5,-56.5 1403.5,-75.5 1458.5,-75.5 1458.5,-56.5 1403.5,-56.5"/>
<text text-anchor="middle" x="1431" y="-63.5" font-family="Helvetica,sans-Serif" font-size="10.00">signal.h</text>
</a>
</g>
</g>
<!-- Node21&#45;&gt;Node11 -->
<g id="edge19" class="edge">
<title>Node21&#45;&gt;Node11</title>
<path fill="none" stroke="midnightblue" d="M968.14,-116.03C976.1,-114.56 984.26,-113.15 992,-112 1146.78,-88.95 1334.03,-74.04 1403.41,-68.95"/>
<polygon fill="midnightblue" stroke="midnightblue" points="967.38,-112.62 958.21,-117.93 968.69,-119.49 967.38,-112.62"/>
</g>
<!-- Node24&#45;&gt;Node11 -->
<g id="edge21" class="edge">
<title>Node24&#45;&gt;Node11</title>
<path fill="none" stroke="midnightblue" d="M1108.52,-115.93C1115.39,-114.54 1122.36,-113.19 1129,-112 1229.7,-93.93 1350.21,-77.53 1403.43,-70.55"/>
<polygon fill="midnightblue" stroke="midnightblue" points="1107.69,-112.52 1098.6,-117.97 1109.1,-119.38 1107.69,-112.52"/>
</g>
<!-- Node25&#45;&gt;Node3 -->
<g id="edge64" class="edge">
<title>Node25&#45;&gt;Node3</title>
<path fill="none" stroke="midnightblue" d="M1969.84,-187.55C1730.78,-185.14 658.4,-172.73 513,-143 506.65,-141.7 499.97,-139.4 494.06,-137.01"/>
<polygon fill="midnightblue" stroke="midnightblue" points="1969.91,-191.05 1979.95,-187.65 1969.98,-184.05 1969.91,-191.05"/>
</g>
<!-- Node25&#45;&gt;Node7 -->
<g id="edge61" class="edge">
<title>Node25&#45;&gt;Node7</title>
<path fill="none" stroke="midnightblue" d="M1969.51,-187.5C1736.81,-184.89 722.77,-171.96 585,-143 578.8,-141.7 572.3,-139.4 566.56,-137.01"/>
<polygon fill="midnightblue" stroke="midnightblue" points="1969.64,-191 1979.67,-187.61 1969.71,-184 1969.64,-191"/>
</g>
<!-- Node25&#45;&gt;Node19 -->
<g id="edge33" class="edge">
<title>Node25&#45;&gt;Node19</title>
<path fill="none" stroke="midnightblue" d="M1969.53,-188.22C1761.45,-188.9 928.91,-188.66 672,-143 664.71,-141.71 656.98,-139.47 650.07,-137.13"/>
<polygon fill="midnightblue" stroke="midnightblue" points="1969.82,-191.72 1979.81,-188.18 1969.8,-184.72 1969.82,-191.72"/>
</g>
<!-- Node25&#45;&gt;Node21 -->
<g id="edge45" class="edge">
<title>Node25&#45;&gt;Node21</title>
<path fill="none" stroke="midnightblue" d="M1969.18,-188.43C1822.55,-189.23 1366.44,-187.65 992,-143 980.17,-141.59 967.4,-139.35 955.85,-137.05"/>
<polygon fill="midnightblue" stroke="midnightblue" points="1969.63,-191.93 1979.6,-188.37 1969.58,-184.93 1969.63,-191.93"/>
</g>
<!-- Node25&#45;&gt;Node11 -->
<g id="edge62" class="edge">
<title>Node25&#45;&gt;Node11</title>
<path fill="none" stroke="midnightblue" d="M2064.14,-179.67C2065.44,-179.45 2066.73,-179.22 2068,-179 2164.1,-162.24 2344.12,-182.78 2277,-112 2248.19,-81.62 1601.05,-69.68 1458.58,-67.41"/>
<polygon fill="midnightblue" stroke="midnightblue" points="2063.29,-176.27 2054.04,-181.44 2064.5,-183.16 2063.29,-176.27"/>
</g>
<!-- Node25&#45;&gt;Node24 -->
<g id="edge46" class="edge">
<title>Node25&#45;&gt;Node24</title>
<path fill="none" stroke="midnightblue" d="M1969.32,-188.2C1835.96,-188.2 1447.96,-184.34 1129,-143 1117.95,-141.57 1106.04,-139.32 1095.28,-137.02"/>
<polygon fill="midnightblue" stroke="midnightblue" points="1969.59,-191.7 1979.59,-188.19 1969.59,-184.7 1969.59,-191.7"/>
</g>
<!-- Node26 -->
<g id="node23" class="node">
<title>Node26</title>
<g id="a_node23"><a xlink:href="bits_2byteswap_8h.html" target="_top" xlink:title=" ">
<polygon fill="white" stroke="red" points="2324,-118 2324,-137 2418,-137 2418,-118 2324,-118"/>
<text text-anchor="middle" x="2371" y="-125" font-family="Helvetica,sans-Serif" font-size="10.00">bits/byteswap.h</text>
</a>
</g>
</g>
<!-- Node25&#45;&gt;Node26 -->
<g id="edge23" class="edge">
<title>Node25&#45;&gt;Node26</title>
<path fill="none" stroke="midnightblue" d="M2064.13,-179.63C2065.44,-179.42 2066.73,-179.21 2068,-179 2175.33,-161.55 2203.23,-163.59 2310,-143 2318.87,-141.29 2328.4,-139.16 2337.23,-137.07"/>
<polygon fill="midnightblue" stroke="midnightblue" points="2063.3,-176.23 2054.03,-181.34 2064.47,-183.13 2063.3,-176.23"/>
</g>
<!-- Node38 -->
<g id="node24" class="node">
<title>Node38</title>
<g id="a_node24"><a xlink:href="bits_2ipc_8h.html" target="_top" xlink:title=" ">
<polygon fill="white" stroke="red" points="2436.5,-118 2436.5,-137 2497.5,-137 2497.5,-118 2436.5,-118"/>
<text text-anchor="middle" x="2467" y="-125" font-family="Helvetica,sans-Serif" font-size="10.00">bits/ipc.h</text>
</a>
</g>
</g>
<!-- Node25&#45;&gt;Node38 -->
<g id="edge24" class="edge">
<title>Node25&#45;&gt;Node38</title>
<path fill="none" stroke="midnightblue" d="M2064.2,-179.54C2065.48,-179.35 2066.75,-179.17 2068,-179 2226.85,-157.05 2270.65,-178.6 2427,-143 2433.48,-141.52 2440.35,-139.29 2446.53,-137.02"/>
<polygon fill="midnightblue" stroke="midnightblue" points="2063.61,-176.09 2054.27,-181.09 2064.69,-183.01 2063.61,-176.09"/>
</g>
<!-- Node42 -->
<g id="node25" class="node">
<title>Node42</title>
<g id="a_node25"><a xlink:href="bits_2mqueue_8h.html" target="_top" xlink:title=" ">
<polygon fill="white" stroke="black" points="1138,-118 1138,-137 1224,-137 1224,-118 1138,-118"/>
<text text-anchor="middle" x="1181" y="-125" font-family="Helvetica,sans-Serif" font-size="10.00">bits/mqueue.h</text>
</a>
</g>
</g>
<!-- Node25&#45;&gt;Node42 -->
<g id="edge25" class="edge">
<title>Node25&#45;&gt;Node42</title>
<path fill="none" stroke="midnightblue" d="M1969.43,-188.72C1846.73,-189.82 1509.83,-188.14 1234,-143 1225.43,-141.6 1216.26,-139.36 1207.99,-137.06"/>
<polygon fill="midnightblue" stroke="midnightblue" points="1969.64,-192.22 1979.61,-188.61 1969.57,-185.22 1969.64,-192.22"/>
</g>
<!-- Node43 -->
<g id="node26" class="node">
<title>Node43</title>
<g id="a_node26"><a xlink:href="msq_8h.html" target="_top" xlink:title=" ">
<polygon fill="white" stroke="red" points="2554,-118 2554,-137 2622,-137 2622,-118 2554,-118"/>
<text text-anchor="middle" x="2588" y="-125" font-family="Helvetica,sans-Serif" font-size="10.00">bits/msq.h</text>
</a>
</g>
</g>
<!-- Node25&#45;&gt;Node43 -->
<g id="edge27" class="edge">
<title>Node25&#45;&gt;Node43</title>
<path fill="none" stroke="midnightblue" d="M2064.19,-179.5C2065.48,-179.33 2066.75,-179.16 2068,-179 2276.74,-152.69 2333.19,-181.65 2540,-143 2547.7,-141.56 2555.92,-139.34 2563.34,-137.07"/>
<polygon fill="midnightblue" stroke="midnightblue" points="2063.63,-176.05 2054.26,-180.99 2064.67,-182.97 2063.63,-176.05"/>
</g>
<!-- Node44 -->
<g id="node27" class="node">
<title>Node44</title>
<g id="a_node27"><a xlink:href="sigcontext_8h.html" target="_top" xlink:title=" ">
<polygon fill="white" stroke="black" points="2170,-118 2170,-137 2268,-137 2268,-118 2170,-118"/>
<text text-anchor="middle" x="2219" y="-125" font-family="Helvetica,sans-Serif" font-size="10.00">bits/sigcontext.h</text>
</a>
</g>
</g>
<!-- Node25&#45;&gt;Node44 -->
<g id="edge28" class="edge">
<title>Node25&#45;&gt;Node44</title>
<path fill="none" stroke="midnightblue" d="M2055.69,-176.6C2094.95,-165.04 2154.81,-147.41 2190.11,-137.01"/>
<polygon fill="midnightblue" stroke="midnightblue" points="2054.55,-173.29 2045.94,-179.48 2056.52,-180.01 2054.55,-173.29"/>
</g>
<!-- Node45 -->
<g id="node28" class="node">
<title>Node45</title>
<g id="a_node28"><a xlink:href="bits_2resource_8h.html" target="_top" xlink:title=" ">
<polygon fill="white" stroke="red" points="2619.5,-0.5 2619.5,-19.5 2708.5,-19.5 2708.5,-0.5 2619.5,-0.5"/>
<text text-anchor="middle" x="2664" y="-7.5" font-family="Helvetica,sans-Serif" font-size="10.00">bits/resource.h</text>
</a>
</g>
</g>
<!-- Node25&#45;&gt;Node45 -->
<g id="edge30" class="edge">
<title>Node25&#45;&gt;Node45</title>
<path fill="none" stroke="midnightblue" d="M2064.22,-178.44C2173.71,-165.48 2417.5,-179.75 2507,-143 2509.22,-142.09 2619.47,-48.74 2653.86,-19.59"/>
<polygon fill="midnightblue" stroke="midnightblue" points="2063.51,-175.01 2054.05,-179.78 2064.43,-181.95 2063.51,-175.01"/>
</g>
<!-- Node47 -->
<g id="node29" class="node">
<title>Node47</title>
<g id="a_node29"><a xlink:href="stdint-intn_8h.html" target="_top" xlink:title=" ">
<polygon fill="white" stroke="red" points="2844.5,-118 2844.5,-137 2941.5,-137 2941.5,-118 2844.5,-118"/>
<text text-anchor="middle" x="2893" y="-125" font-family="Helvetica,sans-Serif" font-size="10.00">bits/stdint&#45;intn.h</text>
</a>
</g>
</g>
<!-- Node25&#45;&gt;Node47 -->
<g id="edge31" class="edge">
<title>Node25&#45;&gt;Node47</title>
<path fill="none" stroke="midnightblue" d="M2064.19,-179.45C2065.47,-179.29 2066.74,-179.14 2068,-179 2404.96,-141.46 2494.12,-189.21 2830,-143 2840.12,-141.61 2851,-139.37 2860.83,-137.07"/>
<polygon fill="midnightblue" stroke="midnightblue" points="2063.65,-175.99 2054.24,-180.86 2064.64,-182.92 2063.65,-175.99"/>
</g>
<!-- Node25&#45;&gt;Node48 -->
<g id="edge63" class="edge">
<title>Node25&#45;&gt;Node48</title>
<path fill="none" stroke="midnightblue" d="M2064.19,-179.44C2065.47,-179.28 2066.74,-179.14 2068,-179 2165.62,-168.44 2863.71,-187.97 2951,-143 2979.81,-128.16 2998.84,-92.17 3006.36,-75.6"/>
<polygon fill="midnightblue" stroke="midnightblue" points="2063.66,-175.98 2054.24,-180.83 2064.63,-182.91 2063.66,-175.98"/>
</g>
<!-- Node109 -->
<g id="node31" class="node">
<title>Node109</title>
<g id="a_node31"><a xlink:href="stdint-uintn_8h.html" target="_top" xlink:title=" ">
<polygon fill="white" stroke="red" points="2998.5,-118 2998.5,-137 3101.5,-137 3101.5,-118 2998.5,-118"/>
<text text-anchor="middle" x="3050" y="-125" font-family="Helvetica,sans-Serif" font-size="10.00">bits/stdint&#45;uintn.h</text>
</a>
</g>
</g>
<!-- Node25&#45;&gt;Node109 -->
<g id="edge34" class="edge">
<title>Node25&#45;&gt;Node109</title>
<path fill="none" stroke="midnightblue" d="M2064.19,-179.44C2065.47,-179.28 2066.74,-179.13 2068,-179 2473.1,-135.5 2579.9,-194.92 2984,-143 2994.71,-141.62 3006.24,-139.37 3016.63,-137.03"/>
<polygon fill="midnightblue" stroke="midnightblue" points="2063.66,-175.98 2054.24,-180.83 2064.63,-182.91 2063.66,-175.98"/>
</g>
<!-- Node110 -->
<g id="node32" class="node">
<title>Node110</title>
<g id="a_node32"><a xlink:href="bits_2statfs_8h.html" target="_top" xlink:title=" ">
<polygon fill="white" stroke="red" points="3120,-118 3120,-137 3194,-137 3194,-118 3120,-118"/>
<text text-anchor="middle" x="3157" y="-125" font-family="Helvetica,sans-Serif" font-size="10.00">bits/statfs.h</text>
</a>
</g>
</g>
<!-- Node25&#45;&gt;Node110 -->
<g id="edge36" class="edge">
<title>Node25&#45;&gt;Node110</title>
<path fill="none" stroke="midnightblue" d="M2064.19,-179.43C2065.47,-179.28 2066.74,-179.13 2068,-179 2529.3,-130.58 2653.85,-221.44 3111,-143 3118.59,-141.7 3126.67,-139.46 3133.9,-137.12"/>
<polygon fill="midnightblue" stroke="midnightblue" points="2063.66,-175.97 2054.24,-180.81 2064.62,-182.9 2063.66,-175.97"/>
</g>
<!-- Node113 -->
<g id="node33" class="node">
<title>Node113</title>
<g id="a_node33"><a xlink:href="bits_2statvfs_8h.html" target="_top" xlink:title=" ">
<polygon fill="white" stroke="red" points="3212,-118 3212,-137 3292,-137 3292,-118 3212,-118"/>
<text text-anchor="middle" x="3252" y="-125" font-family="Helvetica,sans-Serif" font-size="10.00">bits/statvfs.h</text>
</a>
</g>
</g>
<!-- Node25&#45;&gt;Node113 -->
<g id="edge37" class="edge">
<title>Node25&#45;&gt;Node113</title>
<path fill="none" stroke="midnightblue" d="M2064.19,-179.43C2065.47,-179.27 2066.74,-179.13 2068,-179 2570.01,-127.01 2704.72,-223.26 3203,-143 3211.15,-141.69 3219.84,-139.42 3227.61,-137.05"/>
<polygon fill="midnightblue" stroke="midnightblue" points="2063.67,-175.97 2054.24,-180.8 2064.62,-182.9 2063.67,-175.97"/>
</g>
<!-- Node115 -->
<g id="node34" class="node">
<title>Node115</title>
<g id="a_node34"><a xlink:href="____fpos64__t_8h.html" target="_top" xlink:title=" ">
<polygon fill="white" stroke="red" points="3310.5,-118 3310.5,-137 3439.5,-137 3439.5,-118 3310.5,-118"/>
<text text-anchor="middle" x="3375" y="-125" font-family="Helvetica,sans-Serif" font-size="10.00">bits/types/__fpos64_t.h</text>
</a>
</g>
</g>
<!-- Node25&#45;&gt;Node115 -->
<g id="edge38" class="edge">
<title>Node25&#45;&gt;Node115</title>
<path fill="none" stroke="midnightblue" d="M2064.19,-179.42C2065.47,-179.27 2066.74,-179.13 2068,-179 2613.39,-123.22 2756.16,-203.92 3301,-143 3313.1,-141.65 3326.17,-139.36 3337.92,-137"/>
<polygon fill="midnightblue" stroke="midnightblue" points="2063.67,-175.96 2054.24,-180.78 2064.62,-182.9 2063.67,-175.96"/>
</g>
<!-- Node120 -->
<g id="node35" class="node">
<title>Node120</title>
<g id="a_node35"><a xlink:href="____fpos__t_8h.html" target="_top" xlink:title=" ">
<polygon fill="white" stroke="red" points="1242.5,-118 1242.5,-137 1359.5,-137 1359.5,-118 1242.5,-118"/>
<text text-anchor="middle" x="1301" y="-125" font-family="Helvetica,sans-Serif" font-size="10.00">bits/types/__fpos_t.h</text>
</a>
</g>
</g>
<!-- Node25&#45;&gt;Node120 -->
<g id="edge39" class="edge">
<title>Node25&#45;&gt;Node120</title>
<path fill="none" stroke="midnightblue" d="M1969.74,-186.99C1862.46,-184.22 1592.44,-174.42 1369,-143 1358.36,-141.5 1346.9,-139.3 1336.48,-137.05"/>
<polygon fill="midnightblue" stroke="midnightblue" points="1969.83,-190.5 1979.91,-187.25 1970,-183.5 1969.83,-190.5"/>
</g>
<!-- Node121 -->
<g id="node36" class="node">
<title>Node121</title>
<g id="a_node36"><a xlink:href="clock__t_8h.html" target="_top" xlink:title=" ">
<polygon fill="white" stroke="red" points="1377.5,-118 1377.5,-137 1488.5,-137 1488.5,-118 1377.5,-118"/>
<text text-anchor="middle" x="1433" y="-125" font-family="Helvetica,sans-Serif" font-size="10.00">bits/types/clock_t.h</text>
</a>
</g>
</g>
<!-- Node25&#45;&gt;Node121 -->
<g id="edge40" class="edge">
<title>Node25&#45;&gt;Node121</title>
<path fill="none" stroke="midnightblue" d="M1969.95,-186.02C1878.54,-181.71 1670.78,-169.64 1498,-143 1487.94,-141.45 1477.12,-139.25 1467.25,-137.03"/>
<polygon fill="midnightblue" stroke="midnightblue" points="1969.84,-189.52 1979.99,-186.48 1970.16,-182.52 1969.84,-189.52"/>
</g>
<!-- Node124 -->
<g id="node37" class="node">
<title>Node124</title>
<g id="a_node37"><a xlink:href="clockid__t_8h.html" target="_top" xlink:title=" ">
<polygon fill="white" stroke="red" points="1507,-118 1507,-137 1627,-137 1627,-118 1507,-118"/>
<text text-anchor="middle" x="1567" y="-125" font-family="Helvetica,sans-Serif" font-size="10.00">bits/types/clockid_t.h</text>
</a>
</g>
</g>
<!-- Node25&#45;&gt;Node124 -->
<g id="edge41" class="edge">
<title>Node25&#45;&gt;Node124</title>
<path fill="none" stroke="midnightblue" d="M1969.79,-183.73C1897.76,-176.92 1756.22,-162.37 1637,-143 1626.59,-141.31 1615.37,-139.14 1605.04,-137"/>
<polygon fill="midnightblue" stroke="midnightblue" points="1969.62,-187.23 1979.9,-184.68 1970.27,-180.26 1969.62,-187.23"/>
</g>
<!-- Node125 -->
<g id="node38" class="node">
<title>Node125</title>
<g id="a_node38"><a xlink:href="bits_2time_8h.html" target="_top" xlink:title=" ">
<polygon fill="white" stroke="red" points="1645.5,-118 1645.5,-137 1714.5,-137 1714.5,-118 1645.5,-118"/>
<text text-anchor="middle" x="1680" y="-125" font-family="Helvetica,sans-Serif" font-size="10.00">bits/time.h</text>
</a>
</g>
</g>
<!-- Node25&#45;&gt;Node125 -->
<g id="edge42" class="edge">
<title>Node25&#45;&gt;Node125</title>
<path fill="none" stroke="midnightblue" d="M1969.59,-183.17C1911.26,-176.67 1809.45,-163.49 1724,-143 1717.27,-141.39 1710.1,-139.22 1703.54,-137.06"/>
<polygon fill="midnightblue" stroke="midnightblue" points="1969.29,-186.66 1979.61,-184.27 1970.06,-179.7 1969.29,-186.66"/>
</g>
<!-- Node126 -->
<g id="node39" class="node">
<title>Node126</title>
<g id="a_node39"><a xlink:href="sig__atomic__t_8h.html" target="_top" xlink:title=" ">
<polygon fill="white" stroke="black" points="1732.5,-118 1732.5,-137 1871.5,-137 1871.5,-118 1732.5,-118"/>
<text text-anchor="middle" x="1802" y="-125" font-family="Helvetica,sans-Serif" font-size="10.00">bits/types/sig_atomic_t.h</text>
</a>
</g>
</g>
<!-- Node25&#45;&gt;Node126 -->
<g id="edge43" class="edge">
<title>Node25&#45;&gt;Node126</title>
<path fill="none" stroke="midnightblue" d="M1976.35,-176.75C1934.58,-165.19 1870.48,-147.45 1832.75,-137.01"/>
<polygon fill="midnightblue" stroke="midnightblue" points="1975.62,-180.18 1986.2,-179.48 1977.49,-173.43 1975.62,-180.18"/>
</g>
<!-- Node127 -->
<g id="node40" class="node">
<title>Node127</title>
<g id="a_node40"><a xlink:href="cookie__io__functions__t_8h.html" target="_top" xlink:title=" ">
<polygon fill="white" stroke="black" points="1890,-112.5 1890,-142.5 2004,-142.5 2004,-112.5 1890,-112.5"/>
<text text-anchor="start" x="1898" y="-130.5" font-family="Helvetica,sans-Serif" font-size="10.00">bits/types/cookie_io</text>
<text text-anchor="middle" x="1947" y="-119.5" font-family="Helvetica,sans-Serif" font-size="10.00">_functions_t.h</text>
</a>
</g>
</g>
<!-- Node25&#45;&gt;Node127 -->
<g id="edge47" class="edge">
<title>Node25&#45;&gt;Node127</title>
<path fill="none" stroke="midnightblue" d="M1999.26,-172.92C1988.27,-163.58 1974.25,-151.66 1963.5,-142.52"/>
<polygon fill="midnightblue" stroke="midnightblue" points="1997.08,-175.67 2006.97,-179.48 2001.62,-170.33 1997.08,-175.67"/>
</g>
<!-- Node128 -->
<g id="node41" class="node">
<title>Node128</title>
<g id="a_node41"><a xlink:href="struct__FILE_8h.html" target="_top" xlink:title=" ">
<polygon fill="white" stroke="red" points="2022,-118 2022,-137 2152,-137 2152,-118 2022,-118"/>
<text text-anchor="middle" x="2087" y="-125" font-family="Helvetica,sans-Serif" font-size="10.00">bits/types/struct_FILE.h</text>
</a>
</g>
</g>
<!-- Node25&#45;&gt;Node128 -->
<g id="edge48" class="edge">
<title>Node25&#45;&gt;Node128</title>
<path fill="none" stroke="midnightblue" d="M2034.68,-172.97C2048.07,-161.59 2065.98,-146.37 2076.99,-137.01"/>
<polygon fill="midnightblue" stroke="midnightblue" points="2032.38,-170.33 2027.03,-179.48 2036.92,-175.67 2032.38,-170.33"/>
</g>
<!-- Node129 -->
<g id="node42" class="node">
<title>Node129</title>
<g id="a_node42"><a xlink:href="struct__rusage_8h.html" target="_top" xlink:title=" ">
<polygon fill="white" stroke="black" points="2692.5,-56.5 2692.5,-75.5 2835.5,-75.5 2835.5,-56.5 2692.5,-56.5"/>
<text text-anchor="middle" x="2764" y="-63.5" font-family="Helvetica,sans-Serif" font-size="10.00">bits/types/struct_rusage.h</text>
</a>
</g>
</g>
<!-- Node25&#45;&gt;Node129 -->
<g id="edge49" class="edge">
<title>Node25&#45;&gt;Node129</title>
<path fill="none" stroke="midnightblue" d="M2064.19,-179.46C2065.47,-179.29 2066.74,-179.14 2068,-179 2108.3,-174.47 2769.04,-172.37 2797,-143 2815.84,-123.2 2788.54,-90.93 2773.21,-75.6"/>
<polygon fill="midnightblue" stroke="midnightblue" points="2063.65,-176 2054.25,-180.87 2064.64,-182.93 2063.65,-176"/>
</g>
<!-- Node130 -->
<g id="node43" class="node">
<title>Node130</title>
<g id="a_node43"><a xlink:href="struct__timeval_8h.html" target="_top" xlink:title=" ">
<polygon fill="white" stroke="red" points="2640.5,-118 2640.5,-137 2787.5,-137 2787.5,-118 2640.5,-118"/>
<text text-anchor="middle" x="2714" y="-125" font-family="Helvetica,sans-Serif" font-size="10.00">bits/types/struct_timeval.h</text>
</a>
</g>
</g>
<!-- Node25&#45;&gt;Node130 -->
<g id="edge51" class="edge">
<title>Node25&#45;&gt;Node130</title>
<path fill="none" stroke="midnightblue" d="M2064.19,-179.48C2065.47,-179.31 2066.74,-179.15 2068,-179 2316.95,-149.17 2382.02,-172.62 2631,-143 2643.78,-141.48 2657.58,-139.29 2670.19,-137.07"/>
<polygon fill="midnightblue" stroke="midnightblue" points="2063.64,-176.02 2054.25,-180.93 2064.65,-182.95 2063.64,-176.02"/>
</g>
<!-- Node138 -->
<g id="node44" class="node">
<title>Node138</title>
<g id="a_node44"><a xlink:href="struct__timespec_8h.html" target="_top" xlink:title=" ">
<polygon fill="white" stroke="red" points="680.5,-118 680.5,-137 835.5,-137 835.5,-118 680.5,-118"/>
<text text-anchor="middle" x="758" y="-125" font-family="Helvetica,sans-Serif" font-size="10.00">bits/types/struct_timespec.h</text>
</a>
</g>
</g>
<!-- Node25&#45;&gt;Node138 -->
<g id="edge54" class="edge">
<title>Node25&#45;&gt;Node138</title>
<path fill="none" stroke="midnightblue" d="M1969.54,-188.33C1810.24,-188.98 1280.15,-187.44 845,-143 831.14,-141.58 816.14,-139.34 802.56,-137.04"/>
<polygon fill="midnightblue" stroke="midnightblue" points="1969.95,-191.83 1979.93,-188.28 1969.92,-184.83 1969.95,-191.83"/>
</g>
<!-- Node25&#45;&gt;Node135 -->
<g id="edge60" class="edge">
<title>Node25&#45;&gt;Node135</title>
<path fill="none" stroke="midnightblue" d="M2064.18,-179.42C2065.47,-179.27 2066.74,-179.13 2068,-179 2373.45,-148.24 3145.91,-191.82 3449,-143 3457.08,-141.7 3465.7,-139.4 3473.37,-137.01"/>
<polygon fill="midnightblue" stroke="midnightblue" points="2063.67,-175.96 2054.23,-180.77 2064.62,-182.89 2063.67,-175.96"/>
</g>
<!-- Node42&#45;&gt;Node23 -->
<g id="edge26" class="edge">
<title>Node42&#45;&gt;Node23</title>
<path fill="none" stroke="midnightblue" d="M1141.76,-115.28C1137.46,-114.14 1133.15,-113.02 1129,-112 1066.26,-96.58 992.27,-81.51 950.67,-73.32"/>
<polygon fill="midnightblue" stroke="midnightblue" points="1141.09,-118.73 1151.66,-117.98 1142.93,-111.97 1141.09,-118.73"/>
</g>
<!-- Node44&#45;&gt;Node11 -->
<g id="edge29" class="edge">
<title>Node44&#45;&gt;Node11</title>
<path fill="none" stroke="midnightblue" d="M2179.35,-115.57C2173.24,-114.18 2166.98,-112.92 2161,-112 1889.63,-70.08 1555.83,-66.87 1458.71,-66.89"/>
<polygon fill="midnightblue" stroke="midnightblue" points="2178.87,-119.05 2189.41,-117.99 2180.51,-112.24 2178.87,-119.05"/>
</g>
<!-- Node47&#45;&gt;Node48 -->
<g id="edge32" class="edge">
<title>Node47&#45;&gt;Node48</title>
<path fill="none" stroke="midnightblue" d="M2918.83,-113.37C2941.5,-101.83 2973.82,-85.4 2993.27,-75.51"/>
<polygon fill="midnightblue" stroke="midnightblue" points="2917.09,-110.32 2909.76,-117.98 2920.26,-116.56 2917.09,-110.32"/>
</g>
<!-- Node109&#45;&gt;Node48 -->
<g id="edge35" class="edge">
<title>Node109&#45;&gt;Node48</title>
<path fill="none" stroke="midnightblue" d="M3038.57,-109.51C3031.1,-98.39 3021.66,-84.34 3015.72,-75.51"/>
<polygon fill="midnightblue" stroke="midnightblue" points="3035.79,-111.63 3044.27,-117.98 3041.59,-107.72 3035.79,-111.63"/>
</g>
<!-- Node126&#45;&gt;Node11 -->
<g id="edge44" class="edge">
<title>Node126&#45;&gt;Node11</title>
<path fill="none" stroke="midnightblue" d="M1747.59,-116.16C1739.69,-114.72 1731.64,-113.3 1724,-112 1626.58,-95.47 1510.48,-78.42 1458.52,-70.93"/>
<polygon fill="midnightblue" stroke="midnightblue" points="1747.03,-119.61 1757.5,-117.98 1748.29,-112.73 1747.03,-119.61"/>
</g>
<!-- Node129&#45;&gt;Node45 -->
<g id="edge50" class="edge">
<title>Node129&#45;&gt;Node45</title>
<path fill="none" stroke="midnightblue" d="M2738.91,-51.45C2720.45,-41.48 2695.9,-28.23 2680.03,-19.65"/>
<polygon fill="midnightblue" stroke="midnightblue" points="2737.47,-54.65 2747.93,-56.32 2740.8,-48.49 2737.47,-54.65"/>
</g>
<!-- Node130&#45;&gt;Node45 -->
<g id="edge52" class="edge">
<title>Node130&#45;&gt;Node45</title>
<path fill="none" stroke="midnightblue" d="M2702.46,-109.4C2696.38,-99.87 2689.15,-87.61 2684,-76 2675.39,-56.57 2669,-32.33 2665.96,-19.65"/>
<polygon fill="midnightblue" stroke="midnightblue" points="2699.62,-111.46 2708.03,-117.9 2705.47,-107.62 2699.62,-111.46"/>
</g>
<!-- Node130&#45;&gt;Node129 -->
<g id="edge53" class="edge">
<title>Node130&#45;&gt;Node129</title>
<path fill="none" stroke="midnightblue" d="M2727.72,-110.17C2737.15,-98.95 2749.28,-84.52 2756.85,-75.51"/>
<polygon fill="midnightblue" stroke="midnightblue" points="2724.92,-108.07 2721.16,-117.98 2730.28,-112.57 2724.92,-108.07"/>
</g>
<!-- Node138&#45;&gt;Node16 -->
<g id="edge57" class="edge">
<title>Node138&#45;&gt;Node16</title>
<path fill="none" stroke="midnightblue" d="M752.14,-108.16C748.67,-97.27 744.42,-83.99 741.72,-75.51"/>
<polygon fill="midnightblue" stroke="midnightblue" points="748.9,-109.51 755.28,-117.98 755.57,-107.38 748.9,-109.51"/>
</g>
<!-- Node138&#45;&gt;Node12 -->
<g id="edge59" class="edge">
<title>Node138&#45;&gt;Node12</title>
<path fill="none" stroke="midnightblue" d="M698.85,-116.29C689.54,-114.78 680.01,-113.3 671,-112 547.43,-94.14 399.78,-77.44 335.97,-70.45"/>
<polygon fill="midnightblue" stroke="midnightblue" points="698.39,-119.76 708.83,-117.92 699.52,-112.85 698.39,-119.76"/>
</g>
<!-- Node138&#45;&gt;Node22 -->
<g id="edge55" class="edge">
<title>Node138&#45;&gt;Node22</title>
<path fill="none" stroke="midnightblue" d="M776.94,-111.47C791.29,-100.09 810.48,-84.87 822.27,-75.51"/>
<polygon fill="midnightblue" stroke="midnightblue" points="774.4,-109.02 768.75,-117.98 778.76,-114.5 774.4,-109.02"/>
</g>
<!-- Node138&#45;&gt;Node23 -->
<g id="edge56" class="edge">
<title>Node138&#45;&gt;Node23</title>
<path fill="none" stroke="midnightblue" d="M790.45,-114.43C821.55,-102.87 867.69,-85.71 895.12,-75.51"/>
<polygon fill="midnightblue" stroke="midnightblue" points="789.08,-111.21 780.92,-117.98 791.52,-117.77 789.08,-111.21"/>
</g>
<!-- Node138&#45;&gt;Node11 -->
<g id="edge58" class="edge">
<title>Node138&#45;&gt;Node11</title>
<path fill="none" stroke="midnightblue" d="M814.41,-116.35C824.57,-114.74 835.08,-113.2 845,-112 1059.23,-85.97 1319.46,-72.24 1403.46,-68.25"/>
<polygon fill="midnightblue" stroke="midnightblue" points="813.7,-112.92 804.4,-117.99 814.83,-119.83 813.7,-112.92"/>
</g>
</g>
</svg>
        <g id="navigator" transform="translate(0 0)" fill="#404254">
                <rect fill="#f2f5e9" fill-opacity="0.5" stroke="#606060" stroke-width=".5" x="0" y="0" width="60" height="60"/>
                <use id="zoomplus" xlink:href="#zoomPlus" x="17" y="9" onmousedown="handleZoom(evt,'in')"/>
                <use id="zoomminus" xlink:href="#zoomMin" x="42" y="9" onmousedown="handleZoom(evt,'out')"/>
                <use id="reset" xlink:href="#resetDef" x="30" y="36" onmousedown="handleReset()"/>
                <g id="arrowUp" xlink:href="#dirArrow" transform="translate(30 24)" onmousedown="handlePan(0,-1)">
                  <use xlink:href="#rim" fill="#404040">
                        <set attributeName="fill" to="#808080" begin="arrowUp.mouseover" end="arrowUp.mouseout"/>
                  </use>
                  <path fill="none" stroke="white" stroke-width="1.5" d="M0,-3.0v7 M-2.5,-0.5L0,-3.0L2.5,-0.5"/>
                </g>
                <g id="arrowRight" xlink:href="#dirArrow" transform="rotate(90) translate(36 -43)" onmousedown="handlePan(1,0)">
                  <use xlink:href="#rim" fill="#404040">
                        <set attributeName="fill" to="#808080" begin="arrowRight.mouseover" end="arrowRight.mouseout"/>
                  </use>
                  <path fill="none" stroke="white" stroke-width="1.5" d="M0,-3.0v7 M-2.5,-0.5L0,-3.0L2.5,-0.5"/>
                </g>
                <g id="arrowDown" xlink:href="#dirArrow" transform="rotate(180) translate(-30 -48)" onmousedown="handlePan(0,1)">
                  <use xlink:href="#rim" fill="#404040">
                        <set attributeName="fill" to="#808080" begin="arrowDown.mouseover" end="arrowDown.mouseout"/>
                  </use>
                  <path fill="none" stroke="white" stroke-width="1.5" d="M0,-3.0v7 M-2.5,-0.5L0,-3.0L2.5,-0.5"/>
                </g>
                <g id="arrowLeft" xlink:href="#dirArrow" transform="rotate(270) translate(-36 17)" onmousedown="handlePan(-1,0)">
                  <use xlink:href="#rim" fill="#404040">
                        <set attributeName="fill" to="#808080" begin="arrowLeft.mouseover" end="arrowLeft.mouseout"/>
                  </use>
                  <path fill="none" stroke="white" stroke-width="1.5" d="M0,-3.0v7 M-2.5,-0.5L0,-3.0L2.5,-0.5"/>
                </g>
        </g>
        <svg viewBox="0 0 15 15" width="100%" height="30px" preserveAspectRatio="xMaxYMin meet">
         <g id="arrow_out" transform="scale(0.3 0.3)">
          <a xlink:href="wordsize_8h__dep__incl_org.svg" target="_base">
           <rect id="button" ry="5" rx="5" y="6" x="6" height="38" width="38"
                fill="#f2f5e9" fill-opacity="0.5" stroke="#606060" stroke-width="1.0"/>
           <path id="arrow"
             d="M 11.500037,31.436501 C 11.940474,20.09759 22.043105,11.32322 32.158766,21.979434 L 37.068811,17.246167 C 37.068811,17.246167 37.088388,32 37.088388,32 L 22.160133,31.978069 C 22.160133,31.978069 26.997745,27.140456 26.997745,27.140456 C 18.528582,18.264221 13.291696,25.230495 11.500037,31.436501 z"
             style="fill:#404040;"/>
          </a>
         </g>
        </svg>
</svg>
